6.35E-1	4.29E+3	1.38E-1	7.57E+2
6.16E-1	3.92E+3	1.48E-1	8.32E+2
6.15E-1	4.16E+3	1.43E-1	8.77E+2
6.25E-1	4.09E+3	1.45E-1	8.14E+2
6.23E-1	4.01E+3	1.36E-1	7.32E+2
6.50E-1	4.20E+3	1.35E-1	6.88E+2
6.71E-1	4.44E+3	1.56E-1	8.65E+2
6.41E-1	4.04E+3	1.44E-1	8.72E+2
6.21E-1	4.10E+3	1.49E-1	8.36E+2
6.25E-1	4.09E+3	1.49E-1	8.52E+2
6.40E-1	4.20E+3	1.50E-1	8.32E+2
6.51E-1	4.16E+3	1.56E-1	9.10E+2
6.09E-1	4.09E+3	1.50E-1	7.88E+2
6.27E-1	4.09E+3	1.43E-1	8.30E+2
6.03E-1	4.04E+3	1.39E-1	8.06E+2
6.29E-1	4.10E+3	1.49E-1	8.46E+2
6.34E-1	4.05E+3	1.39E-1	7.89E+2
6.43E-1	4.06E+3	1.49E-1	7.45E+2
6.26E-1	4.15E+3	1.53E-1	8.39E+2
6.55E-1	4.22E+3	1.47E-1	8.22E+2
6.12E-1	3.96E+3	1.51E-1	7.86E+2
6.48E-1	4.16E+3	1.61E-1	8.84E+2
6.92E-1	4.24E+3	1.45E-1	7.76E+2
6.38E-1	4.22E+3	1.61E-1	8.98E+2
6.53E-1	4.22E+3	1.51E-1	8.66E+2
6.32E-1	4.23E+3	1.48E-1	8.50E+2
6.40E-1	4.16E+3	1.40E-1	7.74E+2
6.39E-1	3.99E+3	1.48E-1	8.38E+2
6.17E-1	3.96E+3	1.60E-1	9.29E+2
6.40E-1	4.06E+3	1.38E-1	7.63E+2
6.39E-1	4.20E+3	1.40E-1	7.79E+2
6.35E-1	4.21E+3	1.38E-1	7.72E+2
6.29E-1	4.05E+3	1.50E-1	7.99E+2
6.37E-1	4.23E+3	1.54E-1	8.00E+2
6.38E-1	4.23E+3	1.46E-1	8.33E+2
6.25E-1	4.19E+3	1.40E-1	7.78E+2
6.36E-1	4.08E+3	1.46E-1	7.79E+2
6.33E-1	4.06E+3	1.43E-1	8.55E+2
6.56E-1	4.11E+3	1.40E-1	7.81E+2
6.23E-1	4.21E+3	1.51E-1	8.09E+2
6.36E-1	4.14E+3	1.49E-1	8.59E+2
6.36E-1	4.36E+3	1.51E-1	8.57E+2
6.51E-1	4.17E+3	1.37E-1	7.62E+2
6.15E-1	4.10E+3	1.46E-1	8.22E+2
6.54E-1	4.08E+3	1.37E-1	7.97E+2
6.33E-1	4.22E+3	1.48E-1	8.27E+2
6.33E-1	4.23E+3	1.53E-1	8.01E+2
6.31E-1	4.17E+3	1.49E-1	7.66E+2
6.44E-1	4.24E+3	1.41E-1	6.95E+2
6.36E-1	4.13E+3	1.54E-1	8.77E+2
6.40E-1	4.40E+3	1.40E-1	7.89E+2
6.66E-1	4.14E+3	1.44E-1	7.67E+2
6.09E-1	4.10E+3	1.34E-1	8.15E+2
6.13E-1	4.19E+3	1.36E-1	8.08E+2
6.05E-1	4.06E+3	1.37E-1	8.12E+2
6.10E-1	4.12E+3	1.38E-1	7.58E+2
6.51E-1	4.12E+3	1.51E-1	8.67E+2
6.49E-1	4.12E+3	1.42E-1	7.85E+2
6.65E-1	4.23E+3	1.40E-1	8.25E+2
6.61E-1	4.15E+3	1.47E-1	9.03E+2
6.33E-1	4.09E+3	1.45E-1	8.20E+2
6.60E-1	4.28E+3	1.40E-1	7.70E+2
6.28E-1	4.19E+3	1.39E-1	7.72E+2
6.21E-1	4.16E+3	1.50E-1	8.08E+2
6.45E-1	4.27E+3	1.42E-1	7.69E+2
6.61E-1	4.27E+3	1.42E-1	8.41E+2
6.25E-1	4.24E+3	1.39E-1	7.26E+2
6.23E-1	4.36E+3	1.55E-1	9.13E+2
6.55E-1	4.20E+3	1.39E-1	8.13E+2
6.43E-1	4.13E+3	1.34E-1	8.01E+2
6.30E-1	4.06E+3	1.40E-1	8.57E+2
6.38E-1	4.17E+3	1.33E-1	7.12E+2
6.27E-1	4.26E+3	1.40E-1	7.54E+2
6.18E-1	4.01E+3	1.38E-1	7.49E+2
6.35E-1	4.28E+3	1.52E-1	7.72E+2
6.57E-1	4.20E+3	1.50E-1	8.03E+2
6.58E-1	4.12E+3	1.41E-1	7.62E+2
6.24E-1	4.07E+3	1.30E-1	6.97E+2
6.40E-1	4.13E+3	1.44E-1	7.63E+2
6.17E-1	4.10E+3	1.51E-1	8.41E+2
6.09E-1	4.08E+3	1.33E-1	7.11E+2
6.28E-1	4.20E+3	1.43E-1	7.70E+2
6.38E-1	4.05E+3	1.34E-1	7.70E+2
6.47E-1	4.19E+3	1.38E-1	7.80E+2
6.83E-1	4.30E+3	1.53E-1	8.55E+2
6.50E-1	4.14E+3	1.36E-1	7.29E+2
6.50E-1	4.10E+3	1.44E-1	7.62E+2
6.32E-1	4.21E+3	1.34E-1	7.89E+2
6.75E-1	4.19E+3	1.41E-1	8.20E+2
6.77E-1	4.23E+3	1.53E-1	8.19E+2
6.24E-1	4.02E+3	1.58E-1	8.44E+2
6.57E-1	4.34E+3	1.47E-1	8.59E+2
6.29E-1	4.08E+3	1.38E-1	7.59E+2
6.22E-1	4.21E+3	1.51E-1	8.18E+2
6.03E-1	4.07E+3	1.52E-1	8.50E+2
6.10E-1	4.08E+3	1.46E-1	9.14E+2
6.54E-1	4.35E+3	1.50E-1	7.80E+2
6.30E-1	4.17E+3	1.57E-1	8.41E+2
6.14E-1	4.17E+3	1.37E-1	7.59E+2
6.23E-1	4.15E+3	1.40E-1	7.45E+2
6.59E-1	4.31E+3	1.46E-1	8.06E+2
6.84E-1	4.29E+3	1.55E-1	7.42E+2
6.49E-1	4.27E+3	1.43E-1	7.53E+2
6.42E-1	4.14E+3	1.57E-1	9.24E+2
5.95E-1	4.07E+3	1.52E-1	9.04E+2
6.29E-1	4.23E+3	1.52E-1	8.52E+2
6.13E-1	4.22E+3	1.46E-1	8.46E+2
6.63E-1	4.20E+3	1.41E-1	7.86E+2
6.16E-1	4.06E+3	1.49E-1	8.24E+2
6.14E-1	4.12E+3	1.35E-1	8.13E+2
6.44E-1	4.14E+3	1.50E-1	7.54E+2
6.37E-1	4.09E+3	1.43E-1	8.00E+2
6.54E-1	4.24E+3	1.38E-1	7.83E+2
6.11E-1	4.12E+3	1.41E-1	7.70E+2
6.57E-1	4.12E+3	1.33E-1	7.31E+2
6.26E-1	3.98E+3	1.51E-1	7.84E+2
6.53E-1	4.15E+3	1.32E-1	7.45E+2
6.30E-1	4.20E+3	1.54E-1	9.15E+2
6.22E-1	4.14E+3	1.39E-1	8.01E+2
6.25E-1	4.13E+3	1.35E-1	7.02E+2
6.16E-1	4.14E+3	1.44E-1	7.80E+2
6.28E-1	4.23E+3	1.49E-1	8.51E+2
6.25E-1	4.10E+3	1.67E-1	9.54E+2
6.18E-1	4.10E+3	1.31E-1	6.82E+2
6.14E-1	4.05E+3	1.41E-1	7.89E+2
6.06E-1	4.14E+3	1.42E-1	8.02E+2
5.94E-1	4.17E+3	1.55E-1	8.32E+2
6.26E-1	4.16E+3	1.47E-1	8.58E+2
6.18E-1	4.16E+3	1.56E-1	8.29E+2
6.64E-1	4.28E+3	1.49E-1	8.27E+2
6.52E-1	4.17E+3	1.42E-1	7.79E+2
6.41E-1	4.28E+3	1.51E-1	7.78E+2
6.64E-1	4.08E+3	1.39E-1	7.46E+2
6.38E-1	4.10E+3	1.51E-1	8.23E+2
6.14E-1	4.17E+3	1.53E-1	7.59E+2
6.11E-1	4.17E+3	1.49E-1	9.03E+2
6.11E-1	4.17E+3	1.41E-1	7.99E+2
6.38E-1	4.00E+3	1.50E-1	9.14E+2
6.53E-1	4.15E+3	1.42E-1	8.27E+2
6.37E-1	4.19E+3	1.34E-1	7.18E+2
6.22E-1	4.09E+3	1.38E-1	7.65E+2
6.51E-1	4.06E+3	1.44E-1	8.10E+2
6.13E-1	3.98E+3	1.41E-1	7.59E+2
6.16E-1	4.18E+3	1.44E-1	8.21E+2
6.09E-1	4.09E+3	1.52E-1	8.18E+2
6.32E-1	4.18E+3	1.54E-1	8.01E+2
6.35E-1	4.14E+3	1.44E-1	7.49E+2
6.51E-1	4.25E+3	1.39E-1	7.51E+2
6.12E-1	4.02E+3	1.51E-1	7.68E+2
6.18E-1	4.14E+3	1.51E-1	8.34E+2
6.43E-1	4.21E+3	1.49E-1	8.71E+2
6.43E-1	4.07E+3	1.40E-1	7.60E+2
6.09E-1	4.08E+3	1.60E-1	8.56E+2
6.55E-1	4.22E+3	1.48E-1	8.43E+2
6.57E-1	4.22E+3	1.49E-1	8.72E+2
6.26E-1	4.13E+3	1.41E-1	7.78E+2
5.99E-1	4.14E+3	1.47E-1	8.26E+2
6.38E-1	4.29E+3	1.56E-1	8.95E+2
6.22E-1	4.03E+3	1.46E-1	7.46E+2
6.25E-1	4.13E+3	1.41E-1	7.63E+2
6.05E-1	4.01E+3	1.42E-1	8.08E+2
6.14E-1	4.09E+3	1.44E-1	8.26E+2
6.22E-1	4.05E+3	1.44E-1	7.82E+2
8.79E-3	1.86E+1	4.27E-1	2.22E+3
6.42E-1	4.02E+3	1.72E-1	9.47E+2
6.07E-1	4.17E+3	1.45E-1	7.97E+2
6.37E-1	4.19E+3	1.54E-1	8.69E+2
6.37E-1	4.12E+3	1.52E-1	7.96E+2
6.68E-1	4.16E+3	1.42E-1	8.41E+2
6.15E-1	4.19E+3	1.44E-1	8.57E+2
6.37E-1	4.38E+3	1.33E-1	7.00E+2
6.25E-1	4.25E+3	1.39E-1	7.79E+2
6.44E-1	4.04E+3	1.48E-1	7.64E+2
6.26E-1	4.26E+3	1.57E-1	8.51E+2
6.34E-1	4.23E+3	1.43E-1	8.37E+2
6.23E-1	4.22E+3	1.58E-1	8.36E+2
6.24E-1	4.11E+3	1.41E-1	8.24E+2
6.79E-1	4.34E+3	1.38E-1	8.06E+2
6.58E-1	4.24E+3	1.51E-1	8.36E+2
6.33E-1	4.08E+3	1.53E-1	8.28E+2
6.25E-1	4.04E+3	1.28E-1	7.61E+2
6.48E-1	4.22E+3	1.35E-1	7.83E+2
6.38E-1	4.26E+3	1.47E-1	8.28E+2
6.60E-1	4.17E+3	1.48E-1	8.59E+2
6.07E-1	3.98E+3	1.49E-1	8.07E+2
6.11E-1	4.11E+3	1.36E-1	7.69E+2
6.53E-1	4.30E+3	1.52E-1	8.37E+2
6.40E-1	4.17E+3	1.49E-1	8.82E+2
6.44E-1	4.18E+3	1.57E-1	8.77E+2
6.17E-1	4.14E+3	1.65E-1	9.09E+2
6.61E-1	4.25E+3	1.47E-1	8.32E+2
5.96E-1	4.09E+3	1.32E-1	7.92E+2
6.59E-1	4.29E+3	1.57E-1	8.46E+2
6.25E-1	4.25E+3	1.48E-1	7.73E+2
6.64E-1	4.07E+3	1.38E-1	7.76E+2
6.45E-1	4.13E+3	1.38E-1	7.64E+2
6.14E-1	4.06E+3	1.46E-1	7.86E+2
6.25E-1	4.23E+3	1.40E-1	7.71E+2
6.12E-1	4.11E+3	1.57E-1	9.21E+2
6.16E-1	4.17E+3	1.46E-1	7.96E+2
6.29E-1	4.14E+3	1.44E-1	8.33E+2
6.68E-1	4.30E+3	1.34E-1	7.09E+2
6.47E-1	4.14E+3	1.56E-1	8.50E+2
6.18E-1	4.09E+3	1.55E-1	8.26E+2
6.15E-1	4.12E+3	1.39E-1	7.48E+2
6.24E-1	4.00E+3	1.37E-1	6.56E+2
6.53E-1	4.22E+3	1.40E-1	8.08E+2
6.52E-1	4.26E+3	1.43E-1	7.53E+2
6.59E-1	4.23E+3	1.52E-1	8.88E+2
6.34E-1	4.19E+3	1.44E-1	7.65E+2
6.53E-1	4.23E+3	1.38E-1	7.54E+2
6.40E-1	4.18E+3	1.46E-1	7.75E+2
6.43E-1	4.08E+3	1.37E-1	7.15E+2
6.19E-1	4.31E+3	1.46E-1	7.91E+2
6.09E-1	4.06E+3	1.45E-1	8.73E+2
6.46E-1	4.22E+3	1.46E-1	8.23E+2
6.28E-1	4.04E+3	1.37E-1	7.80E+2
6.42E-1	4.23E+3	1.46E-1	9.07E+2
6.05E-1	4.13E+3	1.34E-1	7.43E+2
6.48E-1	4.30E+3	1.48E-1	8.37E+2
6.10E-3	-3.47E+0	4.23E-1	2.05E+3
6.11E-1	3.96E+3	1.43E-1	7.61E+2
6.30E-1	4.16E+3	1.42E-1	7.67E+2
6.26E-1	4.16E+3	1.65E-1	8.79E+2
6.14E-1	4.14E+3	1.45E-1	8.18E+2
6.37E-1	4.10E+3	1.47E-1	8.58E+2
6.43E-1	4.17E+3	1.43E-1	8.12E+2
6.27E-1	4.14E+3	1.35E-1	8.24E+2
6.72E-1	4.41E+3	1.44E-1	8.20E+2
6.22E-1	4.03E+3	1.55E-1	8.65E+2
8.30E-3	1.64E+1	4.26E-1	2.01E+3
6.22E-1	4.28E+3	1.62E-1	8.92E+2
6.20E-1	4.16E+3	1.48E-1	7.65E+2
6.51E-1	4.15E+3	1.46E-1	7.59E+2
6.35E-1	4.08E+3	1.60E-1	7.96E+2
6.29E-1	4.10E+3	1.42E-1	8.08E+2
6.64E-1	4.28E+3	1.49E-1	8.00E+2
6.38E-1	4.05E+3	1.30E-1	6.61E+2
6.82E-1	4.23E+3	1.42E-1	8.60E+2
6.39E-1	4.18E+3	1.51E-1	8.25E+2
6.64E-1	4.21E+3	1.42E-1	7.54E+2
6.19E-1	4.13E+3	1.39E-1	6.90E+2
6.25E-1	4.02E+3	1.41E-1	8.23E+2
6.36E-1	4.22E+3	1.43E-1	7.96E+2
6.20E-1	4.15E+3	1.51E-1	8.34E+2
6.12E-1	4.09E+3	1.53E-1	8.44E+2
6.48E-1	4.20E+3	1.42E-1	8.09E+2
6.56E-1	4.19E+3	1.36E-1	7.55E+2
6.12E-1	4.19E+3	1.39E-1	8.32E+2
6.40E-1	4.14E+3	1.44E-1	7.31E+2
6.26E-1	4.21E+3	1.45E-1	7.90E+2
6.49E-1	4.18E+3	1.35E-1	7.85E+2
5.82E-1	3.98E+3	1.42E-1	8.28E+2
6.22E-1	4.10E+3	1.57E-1	8.07E+2
6.15E-1	4.23E+3	1.40E-1	7.51E+2
6.41E-1	4.29E+3	1.39E-1	7.70E+2
6.43E-1	4.34E+3	1.53E-1	8.40E+2
6.39E-1	4.22E+3	1.50E-1	8.30E+2
6.58E-1	4.12E+3	1.37E-1	7.93E+2
6.48E-1	4.20E+3	1.49E-1	8.11E+2
6.43E-1	4.02E+3	1.39E-1	7.73E+2
6.14E-1	4.05E+3	1.44E-1	7.99E+2
6.97E-1	4.23E+3	1.46E-1	8.68E+2
6.69E-1	4.26E+3	1.43E-1	7.64E+2
6.22E-1	4.13E+3	1.45E-1	7.85E+2
6.49E-1	3.98E+3	1.61E-1	8.30E+2
6.39E-1	4.06E+3	1.39E-1	7.91E+2
6.52E-1	4.22E+3	1.40E-1	7.40E+2
6.40E-1	4.25E+3	1.35E-1	7.69E+2
6.20E-1	4.10E+3	1.47E-1	7.68E+2
6.04E-1	4.29E+3	1.31E-1	7.01E+2
6.72E-1	4.16E+3	1.37E-1	7.83E+2
5.96E-1	4.11E+3	1.53E-1	9.15E+2
6.53E-1	4.08E+3	1.46E-1	8.05E+2
6.43E-1	4.36E+3	1.50E-1	8.66E+2
6.57E-1	4.05E+3	1.47E-1	8.17E+2
6.29E-1	4.20E+3	1.51E-1	7.68E+2
6.29E-1	4.10E+3	1.35E-1	7.52E+2
6.22E-1	4.18E+3	1.59E-1	9.21E+2
6.16E-1	4.25E+3	1.31E-1	7.22E+2
6.09E-1	4.15E+3	1.38E-1	8.02E+2
6.19E-1	4.16E+3	1.45E-1	7.29E+2
6.34E-1	4.11E+3	1.42E-1	7.89E+2
6.21E-1	4.21E+3	1.50E-1	8.76E+2
6.09E-1	4.08E+3	1.39E-1	8.37E+2
6.56E-1	4.29E+3	1.40E-1	7.96E+2
6.13E-1	4.09E+3	1.34E-1	7.02E+2
6.41E-1	4.05E+3	1.46E-1	7.76E+2
6.30E-1	4.27E+3	1.41E-1	7.72E+2
6.30E-1	3.97E+3	1.44E-1	7.65E+2
6.36E-1	4.22E+3	1.42E-1	7.54E+2
6.27E-1	4.09E+3	1.31E-1	6.76E+2
6.23E-1	4.09E+3	1.54E-1	7.86E+2
6.23E-1	4.30E+3	1.37E-1	8.31E+2
6.35E-1	4.17E+3	1.33E-1	7.57E+2
6.25E-1	4.13E+3	1.53E-1	7.98E+2
6.14E-1	4.22E+3	1.47E-1	8.40E+2
6.31E-1	4.31E+3	1.51E-1	8.85E+2
6.29E-1	4.03E+3	1.34E-1	7.83E+2
6.16E-1	3.99E+3	1.45E-1	8.07E+2
6.45E-1	4.20E+3	1.54E-1	8.39E+2
6.45E-1	4.33E+3	1.53E-1	9.44E+2
6.28E-1	4.00E+3	1.46E-1	7.79E+2
6.17E-1	4.01E+3	1.39E-1	7.64E+2
6.62E-1	4.25E+3	1.35E-1	8.57E+2
6.62E-1	4.17E+3	1.53E-1	8.27E+2
6.23E-1	4.21E+3	1.40E-1	8.06E+2
6.09E-1	4.06E+3	1.47E-1	8.40E+2
6.52E-1	4.12E+3	1.41E-1	8.40E+2
6.62E-1	4.25E+3	1.34E-1	6.88E+2
6.30E-1	4.15E+3	1.55E-1	8.39E+2
6.22E-1	4.04E+3	1.48E-1	8.64E+2
6.06E-1	4.05E+3	1.53E-1	7.42E+2
6.00E-1	4.04E+3	1.49E-1	8.11E+2
6.68E-1	4.34E+3	1.30E-1	7.29E+2
6.13E-1	4.02E+3	1.42E-1	7.75E+2
6.47E-1	4.26E+3	1.44E-1	8.05E+2
6.29E-1	4.04E+3	1.60E-1	8.91E+2
6.06E-1	4.07E+3	1.45E-1	8.06E+2
6.37E-1	4.22E+3	1.38E-1	7.37E+2
6.08E-1	4.11E+3	1.37E-1	8.06E+2
6.25E-1	4.14E+3	1.42E-1	7.75E+2
5.90E-1	3.84E+3	1.48E-1	8.27E+2
6.71E-1	4.33E+3	1.71E-1	8.21E+2
6.20E-1	4.02E+3	1.50E-1	8.81E+2
6.33E-1	4.15E+3	1.40E-1	8.24E+2
6.43E-1	4.03E+3	1.44E-1	8.45E+2
6.23E-1	4.19E+3	1.39E-1	7.73E+2
6.63E-1	4.09E+3	1.45E-1	7.70E+2
6.17E-1	3.87E+3	1.43E-1	7.73E+2
6.46E-1	4.34E+3	1.53E-1	8.32E+2
6.27E-1	4.07E+3	1.49E-1	8.99E+2
6.46E-1	4.27E+3	1.45E-1	7.78E+2
6.46E-1	4.18E+3	1.31E-1	7.10E+2
6.17E-1	3.98E+3	1.47E-1	8.36E+2
6.19E-1	4.23E+3	1.44E-1	8.27E+2
6.62E-1	4.16E+3	1.46E-1	7.65E+2
6.38E-1	4.21E+3	1.55E-1	8.11E+2
6.01E-1	4.10E+3	1.49E-1	8.77E+2
6.22E-1	4.19E+3	1.45E-1	8.28E+2
6.18E-1	4.09E+3	1.41E-1	8.60E+2
6.25E-1	4.04E+3	1.43E-1	7.65E+2
6.34E-1	4.11E+3	1.48E-1	8.32E+2
6.58E-1	4.31E+3	1.55E-1	7.52E+2
6.46E-1	4.18E+3	1.50E-1	8.04E+2
6.60E-1	4.14E+3	1.42E-1	7.73E+2
6.49E-1	4.19E+3	1.52E-1	8.28E+2
6.80E-1	4.41E+3	1.52E-1	8.49E+2
6.21E-1	4.04E+3	1.52E-1	8.09E+2
6.44E-1	4.19E+3	1.35E-1	7.33E+2
6.28E-1	4.05E+3	1.42E-1	6.93E+2
6.56E-1	4.11E+3	1.41E-1	8.59E+2
6.25E-1	4.25E+3	1.51E-1	8.25E+2
6.28E-1	4.22E+3	1.52E-1	8.63E+2
6.38E-1	4.08E+3	1.35E-1	7.29E+2
6.48E-1	4.17E+3	1.42E-1	7.79E+2
6.61E-1	4.11E+3	1.32E-1	7.10E+2
6.52E-1	4.16E+3	1.45E-1	8.79E+2
6.53E-1	4.13E+3	1.39E-1	8.16E+2
6.75E-1	4.20E+3	1.52E-1	7.80E+2
5.92E-1	3.98E+3	1.38E-1	7.52E+2
6.29E-1	3.97E+3	1.32E-1	6.55E+2
6.42E-1	4.13E+3	1.44E-1	8.07E+2
6.46E-1	4.13E+3	1.38E-1	7.96E+2
6.12E-1	4.08E+3	1.45E-1	7.85E+2
6.22E-1	4.25E+3	1.35E-1	7.75E+2
6.37E-1	4.30E+3	1.66E-1	9.51E+2
6.23E-1	4.23E+3	1.46E-1	7.83E+2
6.39E-1	4.19E+3	1.36E-1	7.24E+2
6.18E-1	4.14E+3	1.46E-1	7.82E+2
6.44E-1	4.06E+3	1.55E-1	8.50E+2
6.48E-1	4.28E+3	1.39E-1	6.79E+2
6.16E-1	4.04E+3	1.40E-1	7.66E+2
6.08E-1	3.95E+3	1.50E-1	8.25E+2
6.58E-1	4.17E+3	1.57E-1	8.00E+2
6.20E-1	4.06E+3	1.47E-1	7.49E+2
6.43E-1	4.15E+3	1.50E-1	8.04E+2
6.18E-1	4.23E+3	1.47E-1	8.42E+2
5.98E-1	4.06E+3	1.42E-1	8.49E+2
6.21E-1	4.22E+3	1.48E-1	8.09E+2
6.71E-1	4.25E+3	1.51E-1	8.61E+2
6.35E-1	4.15E+3	1.38E-1	7.65E+2
6.52E-1	4.14E+3	1.34E-1	7.02E+2
6.44E-1	4.25E+3	1.53E-1	8.64E+2
6.56E-1	4.24E+3	1.55E-1	8.83E+2
6.32E-1	4.09E+3	1.35E-1	7.75E+2
6.38E-1	4.12E+3	1.46E-1	7.97E+2
6.20E-1	4.10E+3	1.42E-1	7.35E+2
6.70E-1	4.15E+3	1.51E-1	8.20E+2
6.40E-1	3.91E+3	1.37E-1	7.92E+2
6.27E-1	4.20E+3	1.50E-1	7.96E+2
6.13E-1	4.22E+3	1.33E-1	7.37E+2
6.40E-1	4.29E+3	1.56E-1	8.25E+2
6.02E-1	3.94E+3	1.39E-1	8.27E+2
6.22E-1	4.21E+3	1.49E-1	7.97E+2
6.27E-1	4.24E+3	1.58E-1	8.93E+2
6.39E-1	4.09E+3	1.46E-1	8.14E+2
6.05E-1	4.03E+3	1.35E-1	7.70E+2
6.31E-1	4.09E+3	1.40E-1	8.13E+2
6.46E-1	4.04E+3	1.43E-1	8.10E+2
6.12E-1	4.23E+3	1.48E-1	8.41E+2
6.43E-1	3.99E+3	1.51E-1	7.99E+2
6.24E-1	4.12E+3	1.52E-1	8.25E+2
6.60E-1	4.19E+3	1.41E-1	7.07E+2
6.34E-1	4.01E+3	1.49E-1	7.60E+2
6.42E-1	4.14E+3	1.43E-1	7.83E+2
6.04E-1	4.14E+3	1.43E-1	7.84E+2
6.36E-1	4.32E+3	1.41E-1	7.94E+2
6.63E-1	4.06E+3	1.59E-1	9.18E+2
6.46E-1	4.12E+3	1.40E-1	8.04E+2
6.31E-1	4.21E+3	1.55E-1	8.69E+2
6.66E-1	4.03E+3	1.40E-1	7.32E+2
6.22E-1	4.14E+3	1.44E-1	7.75E+2
6.11E-1	4.08E+3	1.41E-1	7.95E+2
6.46E-1	4.26E+3	1.41E-1	7.24E+2
6.39E-1	4.13E+3	1.35E-1	7.42E+2
6.35E-1	4.14E+3	1.35E-1	7.00E+2
6.51E-1	4.15E+3	1.37E-1	7.57E+2
6.65E-1	4.22E+3	1.57E-1	8.30E+2
6.07E-1	4.06E+3	1.50E-1	7.68E+2
6.64E-1	4.22E+3	1.52E-1	7.99E+2
6.24E-1	4.23E+3	1.54E-1	8.12E+2
6.21E-1	4.09E+3	1.44E-1	8.07E+2
6.11E-1	4.24E+3	1.39E-1	7.35E+2
6.30E-1	3.98E+3	1.41E-1	7.84E+2
6.27E-1	4.04E+3	1.34E-1	7.53E+2
6.26E-1	4.20E+3	1.43E-1	7.27E+2
6.43E-1	4.28E+3	1.48E-1	7.75E+2
6.65E-1	4.33E+3	1.51E-1	9.18E+2
6.39E-1	4.28E+3	1.32E-1	7.11E+2
6.39E-1	4.11E+3	1.54E-1	8.86E+2
6.05E-1	4.13E+3	1.33E-1	7.22E+2
6.53E-1	4.06E+3	1.49E-1	7.87E+2
6.29E-1	4.16E+3	1.44E-1	8.58E+2
6.31E-1	4.09E+3	1.36E-1	7.20E+2
6.24E-1	4.26E+3	1.46E-1	7.71E+2
6.45E-1	4.18E+3	1.42E-1	8.31E+2
6.59E-1	4.01E+3	1.46E-1	8.10E+2
5.94E-1	4.05E+3	1.38E-1	7.91E+2
6.17E-1	4.07E+3	1.46E-1	8.55E+2
6.79E-1	4.20E+3	1.36E-1	7.17E+2
6.23E-1	4.17E+3	1.45E-1	7.82E+2
6.41E-1	4.09E+3	1.49E-1	8.03E+2
6.43E-1	4.32E+3	1.45E-1	8.30E+2
6.24E-1	4.19E+3	1.51E-1	8.45E+2
6.32E-1	4.24E+3	1.39E-1	7.66E+2
6.44E-1	4.04E+3	1.44E-1	8.17E+2
6.15E-1	4.11E+3	1.42E-1	8.48E+2
6.66E-1	4.11E+3	1.57E-1	9.13E+2
6.10E-1	4.12E+3	1.46E-1	8.53E+2
6.17E-1	4.03E+3	1.50E-1	9.21E+2
5.96E-1	4.12E+3	1.40E-1	7.11E+2
6.59E-1	4.09E+3	1.40E-1	8.20E+2
6.22E-1	4.17E+3	1.48E-1	7.79E+2
6.60E-1	4.07E+3	1.35E-1	7.81E+2
6.46E-1	4.29E+3	1.54E-1	8.09E+2
6.54E-1	4.08E+3	1.46E-1	7.66E+2
6.04E-1	4.07E+3	1.40E-1	7.30E+2
6.40E-1	4.29E+3	1.44E-1	7.80E+2
6.44E-1	4.13E+3	1.53E-1	8.20E+2
6.24E-1	4.20E+3	1.41E-1	8.26E+2
6.38E-1	4.16E+3	1.43E-1	7.94E+2
6.46E-1	4.15E+3	1.71E-1	9.23E+2
6.24E-1	4.20E+3	1.30E-1	7.73E+2
6.54E-1	4.13E+3	1.43E-1	8.01E+2
6.38E-1	4.28E+3	1.42E-1	7.74E+2
6.31E-1	4.03E+3	1.53E-1	8.39E+2
6.33E-1	4.13E+3	1.51E-1	8.40E+2
6.29E-1	4.13E+3	1.54E-1	8.57E+2
6.33E-1	4.14E+3	1.30E-1	7.05E+2
6.43E-1	4.20E+3	1.47E-1	8.62E+2
6.49E-1	4.17E+3	1.48E-1	7.54E+2
6.14E-1	4.13E+3	1.43E-1	7.60E+2
6.47E-1	4.32E+3	1.30E-1	7.39E+2
6.46E-1	4.09E+3	1.53E-1	8.62E+2
6.34E-1	4.00E+3	1.49E-1	8.70E+2
6.44E-1	4.24E+3	1.43E-1	8.51E+2
6.22E-1	4.25E+3	1.44E-1	8.25E+2
6.12E-1	4.10E+3	1.41E-1	8.29E+2
6.65E-1	4.00E+3	1.52E-1	8.73E+2
6.48E-1	4.19E+3	1.45E-1	8.02E+2
6.06E-1	4.09E+3	1.49E-1	7.66E+2
6.25E-1	4.11E+3	1.54E-1	8.47E+2
6.11E-1	4.04E+3	1.46E-1	8.37E+2
6.19E-1	4.12E+3	1.34E-1	7.02E+2
6.09E-1	4.12E+3	1.41E-1	7.24E+2
6.17E-1	4.17E+3	1.40E-1	7.90E+2
6.24E-1	4.08E+3	1.45E-1	8.36E+2
6.47E-1	4.09E+3	1.32E-1	6.90E+2
5.74E-1	3.88E+3	1.45E-1	8.14E+2
6.04E-1	4.18E+3	1.53E-1	8.00E+2
6.34E-1	4.10E+3	1.37E-1	7.59E+2
6.16E-1	4.09E+3	1.45E-1	8.39E+2
6.35E-1	4.11E+3	1.35E-1	7.59E+2
6.37E-1	4.12E+3	1.53E-1	7.83E+2
6.22E-1	4.14E+3	1.46E-1	7.94E+2
6.24E-1	4.28E+3	1.41E-1	7.92E+2
6.32E-1	4.28E+3	1.44E-1	8.09E+2
6.42E-1	4.10E+3	1.52E-1	8.22E+2
6.29E-1	3.96E+3	1.50E-1	7.33E+2
6.26E-1	4.05E+3	1.38E-1	7.41E+2
6.34E-1	4.11E+3	1.37E-1	7.29E+2
6.02E-1	4.13E+3	1.34E-1	7.33E+2
6.69E-1	4.29E+3	1.38E-1	7.14E+2
6.31E-1	4.17E+3	1.41E-1	7.83E+2
6.20E-1	4.01E+3	1.46E-1	8.50E+2
6.49E-1	4.19E+3	1.40E-1	7.27E+2
6.36E-1	4.11E+3	1.41E-1	7.33E+2
6.24E-1	4.12E+3	1.35E-1	7.29E+2
6.49E-1	4.25E+3	1.58E-1	8.71E+2
6.31E-1	4.27E+3	1.54E-1	8.22E+2
6.19E-1	4.04E+3	1.57E-1	8.01E+2
6.09E-1	4.18E+3	1.47E-1	8.27E+2
6.53E-1	4.32E+3	1.43E-1	7.29E+2
6.49E-1	4.30E+3	1.49E-1	8.73E+2
6.24E-1	4.15E+3	1.36E-1	7.94E+2
6.23E-1	4.27E+3	1.56E-1	8.40E+2
6.49E-1	4.24E+3	1.31E-1	7.36E+2
6.06E-1	4.09E+3	1.42E-1	7.20E+2
6.50E-1	4.14E+3	1.52E-1	8.53E+2
6.36E-1	4.18E+3	1.48E-1	7.84E+2
6.53E-1	4.13E+3	1.64E-1	8.10E+2
6.61E-1	4.36E+3	1.62E-1	8.11E+2
6.25E-1	4.08E+3	1.38E-1	7.60E+2
6.46E-1	4.12E+3	1.39E-1	7.10E+2
6.19E-1	4.29E+3	1.37E-1	7.75E+2
6.15E-1	4.15E+3	1.55E-1	8.65E+2
6.08E-1	4.13E+3	1.41E-1	7.51E+2
6.41E-1	4.06E+3	1.42E-1	7.83E+2
6.36E-1	4.26E+3	1.37E-1	7.54E+2
6.04E-1	4.12E+3	1.41E-1	7.65E+2
6.00E-1	4.18E+3	1.42E-1	7.83E+2
6.55E-1	4.12E+3	1.49E-1	8.11E+2
6.17E-1	4.19E+3	1.35E-1	7.80E+2
6.34E-1	4.34E+3	1.39E-1	7.84E+2
6.09E-1	3.87E+3	1.53E-1	8.88E+2
6.26E-1	4.11E+3	1.42E-1	7.69E+2
6.43E-1	4.27E+3	1.44E-1	8.45E+2
6.17E-1	4.22E+3	1.46E-1	7.39E+2
6.27E-1	4.15E+3	1.45E-1	8.30E+2
6.43E-1	4.08E+3	1.38E-1	8.09E+2
6.18E-1	4.12E+3	1.52E-1	7.70E+2
6.21E-1	4.14E+3	1.48E-1	7.66E+2
6.12E-1	4.13E+3	1.44E-1	8.52E+2
6.80E-1	4.27E+3	1.53E-1	8.31E+2
6.63E-1	4.08E+3	1.49E-1	8.44E+2
6.27E-1	4.00E+3	1.50E-1	9.04E+2
6.17E-1	4.06E+3	1.58E-1	8.49E+2
6.41E-1	4.15E+3	1.38E-1	7.64E+2
5.97E-1	3.95E+3	1.47E-1	8.48E+2
6.18E-1	4.03E+3	1.54E-1	8.90E+2
6.40E-1	4.24E+3	1.41E-1	7.93E+2
6.43E-1	4.28E+3	1.53E-1	7.88E+2
6.78E-1	4.37E+3	1.38E-1	7.35E+2
6.17E-1	4.19E+3	1.36E-1	8.00E+2
6.49E-1	4.11E+3	1.48E-1	8.01E+2
6.25E-1	4.23E+3	1.40E-1	8.14E+2
6.72E-1	4.31E+3	1.35E-1	6.82E+2
6.39E-1	4.12E+3	1.37E-1	7.72E+2
6.43E-1	4.16E+3	1.50E-1	7.95E+2
6.28E-1	3.98E+3	1.53E-1	8.60E+2
6.20E-1	4.05E+3	1.42E-1	8.04E+2
6.40E-1	4.12E+3	1.50E-1	8.23E+2
6.27E-1	4.08E+3	1.42E-1	7.22E+2
6.66E-1	4.17E+3	1.31E-1	7.52E+2
6.51E-1	4.17E+3	1.32E-1	7.84E+2
6.31E-1	4.35E+3	1.55E-1	8.94E+2
6.49E-1	4.00E+3	1.48E-1	7.70E+2
6.07E-1	4.10E+3	1.34E-1	7.78E+2
6.50E-1	4.18E+3	1.31E-1	7.07E+2
6.20E-1	4.18E+3	1.39E-1	7.49E+2
6.34E-1	4.32E+3	1.46E-1	8.73E+2
6.44E-1	4.15E+3	1.37E-1	7.69E+2
6.57E-1	3.97E+3	1.56E-1	8.89E+2
6.38E-1	4.07E+3	1.39E-1	7.52E+2
6.76E-1	4.32E+3	1.38E-1	7.38E+2
6.20E-1	4.00E+3	1.41E-1	7.44E+2
6.17E-1	4.10E+3	1.41E-1	7.73E+2
6.60E-1	4.02E+3	1.47E-1	8.34E+2
6.47E-1	4.13E+3	1.36E-1	7.58E+2
6.29E-1	4.10E+3	1.43E-1	7.54E+2
6.39E-1	4.16E+3	1.42E-1	7.68E+2
6.14E-1	4.13E+3	1.46E-1	7.94E+2
6.19E-1	4.22E+3	1.36E-1	7.66E+2
6.03E-1	4.09E+3	1.38E-1	7.63E+2
6.55E-1	4.16E+3	1.45E-1	8.23E+2
6.51E-1	4.13E+3	1.40E-1	7.39E+2
6.42E-1	4.03E+3	1.46E-1	8.46E+2
6.73E-1	4.03E+3	1.45E-1	7.90E+2
6.65E-1	4.15E+3	1.38E-1	7.27E+2
6.09E-1	4.02E+3	1.45E-1	8.21E+2
6.10E-1	3.91E+3	1.50E-1	8.24E+2
6.24E-1	4.18E+3	1.57E-1	8.14E+2
6.13E-1	4.09E+3	1.44E-1	7.91E+2
6.07E-1	4.11E+3	1.53E-1	8.46E+2
5.96E-1	4.07E+3	1.41E-1	7.94E+2
6.19E-1	4.28E+3	1.34E-1	7.50E+2
6.56E-1	4.12E+3	1.56E-1	8.79E+2
6.41E-1	4.27E+3	1.49E-1	8.16E+2
6.28E-1	4.11E+3	1.36E-1	7.27E+2
6.50E-1	4.09E+3	1.49E-1	8.30E+2
6.55E-1	4.22E+3	1.41E-1	7.79E+2
6.65E-1	4.15E+3	1.44E-1	8.35E+2
6.14E-1	4.20E+3	1.40E-1	7.98E+2
6.24E-1	4.20E+3	1.42E-1	7.30E+2
6.36E-1	4.17E+3	1.49E-1	8.38E+2
6.58E-1	4.16E+3	1.43E-1	8.05E+2
6.53E-1	4.26E+3	1.36E-1	7.08E+2
6.25E-1	4.14E+3	1.32E-1	7.38E+2
6.43E-1	4.42E+3	1.51E-1	9.01E+2
6.18E-1	4.21E+3	1.48E-1	7.67E+2
6.25E-1	3.97E+3	1.42E-1	8.22E+2
6.25E-1	4.05E+3	1.42E-1	8.08E+2
6.03E-1	4.15E+3	1.41E-1	8.49E+2
6.74E-1	4.19E+3	1.32E-1	7.13E+2
6.68E-1	4.14E+3	1.40E-1	7.62E+2
6.51E-1	4.32E+3	1.24E-1	6.99E+2
6.60E-1	4.08E+3	1.39E-1	8.12E+2
6.67E-1	4.17E+3	1.60E-1	9.52E+2
5.92E-1	4.05E+3	1.41E-1	7.74E+2
6.44E-1	4.20E+3	1.37E-1	8.13E+2
6.38E-1	4.30E+3	1.48E-1	8.65E+2
6.15E-1	4.13E+3	1.39E-1	8.17E+2
6.16E-1	4.13E+3	1.42E-1	8.70E+2
6.37E-1	4.14E+3	1.48E-1	7.73E+2
6.21E-1	4.05E+3	1.43E-1	7.74E+2
6.31E-1	4.16E+3	1.51E-1	8.86E+2
6.61E-1	4.26E+3	1.43E-1	7.92E+2
6.39E-1	4.08E+3	1.45E-1	8.40E+2
6.26E-1	4.26E+3	1.32E-1	7.35E+2
6.25E-1	4.12E+3	1.40E-1	7.92E+2
6.06E-1	4.13E+3	1.35E-1	7.23E+2
6.58E-1	4.25E+3	1.49E-1	8.13E+2
6.59E-1	4.08E+3	1.49E-1	8.03E+2
6.63E-1	4.20E+3	1.50E-1	8.76E+2
6.57E-1	4.39E+3	1.55E-1	9.03E+2
6.11E-1	4.21E+3	1.47E-1	7.46E+2
6.52E-1	4.19E+3	1.53E-1	8.68E+2
6.49E-1	4.20E+3	1.36E-1	8.04E+2
6.40E-1	4.30E+3	1.45E-1	7.93E+2
6.02E-1	4.20E+3	1.38E-1	7.94E+2
6.26E-1	4.22E+3	1.50E-1	8.07E+2
6.53E-1	4.25E+3	1.31E-1	7.35E+2
6.47E-1	4.23E+3	1.34E-1	7.86E+2
6.33E-1	4.15E+3	1.40E-1	7.65E+2
6.37E-1	4.23E+3	1.53E-1	8.46E+2
6.20E-1	3.99E+3	1.40E-1	7.33E+2
6.25E-1	4.25E+3	1.55E-1	9.15E+2
6.25E-1	4.26E+3	1.35E-1	7.10E+2
6.26E-1	4.05E+3	1.36E-1	7.98E+2
6.35E-3	1.04E+1	4.43E-1	2.15E+3
6.12E-1	4.07E+3	1.44E-1	7.71E+2
6.53E-1	4.22E+3	1.46E-1	7.78E+2
6.30E-1	4.07E+3	1.47E-1	8.78E+2
6.64E-1	4.22E+3	1.47E-1	8.08E+2
6.27E-1	3.96E+3	1.34E-1	7.68E+2
6.49E-1	4.29E+3	1.38E-1	7.54E+2
6.38E-1	4.13E+3	1.45E-1	8.04E+2
6.20E-1	4.01E+3	1.44E-1	7.86E+2
6.63E-1	4.24E+3	1.42E-1	7.50E+2
6.30E-1	4.20E+3	1.52E-1	9.05E+2
6.24E-1	4.01E+3	1.47E-1	8.34E+2
6.12E-1	4.14E+3	1.49E-1	8.19E+2
6.19E-1	4.21E+3	1.46E-1	7.16E+2
6.21E-1	4.25E+3	1.47E-1	7.88E+2
6.23E-1	4.12E+3	1.46E-1	8.67E+2
6.57E-1	4.35E+3	1.38E-1	8.15E+2
6.41E-1	4.18E+3	1.33E-1	6.87E+2
6.41E-1	4.14E+3	1.63E-1	8.25E+2
6.45E-1	4.07E+3	1.35E-1	7.15E+2
6.63E-1	4.01E+3	1.33E-1	7.43E+2
6.56E-1	4.13E+3	1.45E-1	8.25E+2
6.66E-1	4.18E+3	1.43E-1	7.67E+2
6.27E-1	4.30E+3	1.40E-1	7.05E+2
6.15E-1	4.29E+3	1.49E-1	8.07E+2
6.14E-1	4.09E+3	1.41E-1	7.12E+2
6.06E-1	3.98E+3	1.43E-1	8.13E+2
6.16E-1	4.13E+3	1.48E-1	7.68E+2
6.79E-1	4.13E+3	1.34E-1	7.48E+2
6.57E-1	4.21E+3	1.53E-1	9.32E+2
5.86E-1	4.02E+3	1.42E-1	8.21E+2
6.36E-1	4.26E+3	1.47E-1	8.39E+2
6.29E-1	4.09E+3	1.39E-1	7.92E+2
6.32E-1	4.23E+3	1.46E-1	8.69E+2
6.28E-1	4.16E+3	1.46E-1	7.79E+2
6.39E-1	4.08E+3	1.47E-1	7.84E+2
6.43E-1	4.17E+3	1.45E-1	7.30E+2
6.18E-1	4.19E+3	1.51E-1	7.77E+2
6.39E-1	4.28E+3	1.45E-1	7.52E+2
6.42E-1	4.33E+3	1.43E-1	8.48E+2
6.35E-1	4.18E+3	1.51E-1	8.54E+2
6.33E-1	4.11E+3	1.42E-1	7.99E+2
6.60E-1	4.18E+3	1.60E-1	8.94E+2
6.47E-1	4.10E+3	1.40E-1	7.47E+2
6.31E-1	4.04E+3	1.47E-1	8.30E+2
6.30E-1	4.26E+3	1.46E-1	7.27E+2
6.30E-1	4.08E+3	1.50E-1	8.10E+2
6.61E-1	4.34E+3	1.48E-1	7.77E+2
6.52E-1	4.13E+3	1.32E-1	6.93E+2
6.41E-1	4.18E+3	1.42E-1	8.11E+2
6.30E-1	4.05E+3	1.46E-1	7.65E+2
6.37E-1	4.18E+3	1.42E-1	7.99E+2
6.24E-1	4.17E+3	1.47E-1	8.88E+2
6.23E-1	4.09E+3	1.37E-1	7.40E+2
6.31E-1	4.13E+3	1.34E-1	7.65E+2
6.27E-1	4.27E+3	1.35E-1	7.56E+2
6.15E-1	4.16E+3	1.41E-1	7.80E+2
6.34E-1	4.17E+3	1.53E-1	8.05E+2
6.79E-1	4.31E+3	1.37E-1	7.56E+2
6.40E-1	4.24E+3	1.33E-1	6.90E+2
6.55E-1	4.10E+3	1.45E-1	8.19E+2
6.47E-1	4.21E+3	1.56E-1	8.13E+2
6.47E-1	4.14E+3	1.51E-1	8.35E+2
6.06E-1	3.91E+3	1.48E-1	7.48E+2
6.25E-1	4.18E+3	1.49E-1	9.07E+2
6.23E-1	4.26E+3	1.36E-1	7.50E+2
6.11E-1	4.06E+3	1.42E-1	7.49E+2
6.32E-1	4.13E+3	1.34E-1	7.32E+2
6.28E-1	4.14E+3	1.44E-1	8.53E+2
6.33E-1	4.10E+3	1.46E-1	8.26E+2
6.24E-1	4.16E+3	1.49E-1	8.13E+2
6.60E-1	4.17E+3	1.35E-1	7.63E+2
6.58E-1	4.12E+3	1.34E-1	7.50E+2
6.15E-1	4.10E+3	1.46E-1	7.51E+2
6.64E-1	4.23E+3	1.46E-1	8.48E+2
6.28E-1	4.13E+3	1.44E-1	7.63E+2
6.47E-1	4.10E+3	1.44E-1	7.15E+2
6.18E-1	4.19E+3	1.49E-1	8.76E+2
6.24E-1	4.18E+3	1.40E-1	7.60E+2
6.35E-1	4.13E+3	1.47E-1	8.16E+2
6.21E-1	4.04E+3	1.54E-1	8.65E+2
6.27E-1	4.20E+3	1.50E-1	7.68E+2
6.31E-1	4.10E+3	1.45E-1	8.17E+2
6.13E-1	3.96E+3	1.42E-1	8.00E+2
6.37E-1	4.22E+3	1.46E-1	7.89E+2
6.78E-1	4.21E+3	1.36E-1	7.33E+2
6.33E-1	4.16E+3	1.45E-1	8.30E+2
6.34E-1	4.16E+3	1.40E-1	8.13E+2
6.50E-1	4.21E+3	1.44E-1	7.55E+2
6.18E-1	4.07E+3	1.53E-1	8.35E+2
6.35E-1	4.19E+3	1.51E-1	8.01E+2
6.20E-1	4.06E+3	1.54E-1	8.44E+2
6.31E-1	4.06E+3	1.47E-1	8.51E+2
6.37E-1	4.24E+3	1.32E-1	7.68E+2
6.25E-1	4.36E+3	1.48E-1	8.41E+2
6.11E-1	4.13E+3	1.49E-1	7.64E+2
5.99E-1	4.01E+3	1.39E-1	7.68E+2
6.34E-1	4.31E+3	1.44E-1	7.63E+2
6.42E-1	4.20E+3	1.40E-1	8.27E+2
6.57E-1	4.22E+3	1.43E-1	7.57E+2
6.67E-1	4.23E+3	1.42E-1	7.61E+2
6.39E-1	4.03E+3	1.41E-1	7.97E+2
6.39E-1	4.23E+3	1.36E-1	7.01E+2
6.44E-1	4.15E+3	1.54E-1	8.15E+2
6.84E-1	4.25E+3	1.46E-1	7.58E+2
6.24E-1	4.04E+3	1.55E-1	7.46E+2
6.52E-1	4.14E+3	1.41E-1	7.39E+2
6.12E-1	4.12E+3	1.42E-1	7.85E+2
6.82E-1	4.26E+3	1.46E-1	8.81E+2
6.45E-1	4.20E+3	1.39E-1	7.92E+2
6.58E-1	4.38E+3	1.49E-1	8.64E+2
5.37E-3	-2.93E-1	4.31E-1	2.12E+3
6.25E-1	4.24E+3	1.56E-1	8.24E+2
6.18E-1	4.34E+3	1.52E-1	8.70E+2
6.62E-1	4.18E+3	1.42E-1	7.71E+2
6.51E-1	4.14E+3	1.47E-1	8.51E+2
6.67E-1	4.18E+3	1.34E-1	7.83E+2
6.16E-1	4.18E+3	1.42E-1	7.79E+2
6.09E-1	4.04E+3	1.56E-1	8.20E+2
6.47E-1	4.25E+3	1.48E-1	8.39E+2
6.53E-1	4.10E+3	1.51E-1	8.12E+2
6.31E-1	4.29E+3	1.54E-1	8.35E+2
6.18E-1	4.25E+3	1.44E-1	8.04E+2
6.29E-1	4.20E+3	1.49E-1	8.27E+2
6.63E-1	4.18E+3	1.48E-1	7.65E+2
6.18E-1	4.25E+3	1.42E-1	8.11E+2
6.43E-1	4.14E+3	1.32E-1	7.46E+2
6.38E-1	4.01E+3	1.37E-1	7.58E+2
6.30E-1	4.01E+3	1.35E-1	7.07E+2
6.28E-1	4.27E+3	1.38E-1	7.67E+2
6.68E-1	4.18E+3	1.27E-1	6.77E+2
6.31E-1	4.17E+3	1.46E-1	7.10E+2
6.18E-1	3.93E+3	1.47E-1	7.83E+2
6.21E-1	4.11E+3	1.52E-1	7.77E+2
6.51E-1	4.24E+3	1.42E-1	7.83E+2
6.16E-1	3.99E+3	1.60E-1	8.58E+2
6.42E-1	4.19E+3	1.33E-1	7.26E+2
5.99E-1	4.03E+3	1.42E-1	7.86E+2
6.25E-1	4.05E+3	1.40E-1	7.62E+2
6.02E-1	4.14E+3	1.44E-1	8.44E+2
6.38E-1	4.19E+3	1.52E-1	8.25E+2
6.38E-1	4.24E+3	1.55E-1	8.62E+2
6.34E-1	4.20E+3	1.43E-1	8.15E+2
6.01E-1	4.02E+3	1.48E-1	8.44E+2
6.42E-1	4.22E+3	1.47E-1	8.07E+2
6.21E-1	4.28E+3	1.43E-1	8.15E+2
6.43E-1	4.20E+3	1.48E-1	8.19E+2
6.23E-1	4.20E+3	1.49E-1	8.43E+2
6.27E-1	4.17E+3	1.50E-1	7.97E+2
6.52E-1	4.29E+3	1.48E-1	8.08E+2
6.29E-1	4.23E+3	1.55E-1	8.07E+2
6.22E-1	4.24E+3	1.38E-1	8.15E+2
6.86E-1	4.18E+3	1.34E-1	7.67E+2
6.42E-1	4.14E+3	1.46E-1	7.76E+2
6.45E-1	4.09E+3	1.44E-1	7.90E+2
6.50E-1	4.06E+3	1.50E-1	8.20E+2
6.21E-1	4.19E+3	1.31E-1	6.86E+2
6.10E-1	4.07E+3	1.46E-1	7.65E+2
6.39E-1	4.17E+3	1.58E-1	8.11E+2
6.26E-1	4.08E+3	1.40E-1	8.38E+2
6.30E-1	4.28E+3	1.54E-1	8.12E+2
6.13E-1	3.98E+3	1.48E-1	8.50E+2
6.13E-1	4.14E+3	1.39E-1	7.95E+2
6.58E-1	4.22E+3	1.40E-1	7.91E+2
6.45E-1	4.19E+3	1.45E-1	8.30E+2
6.03E-1	4.03E+3	1.29E-1	7.28E+2
6.21E-1	4.10E+3	1.42E-1	8.15E+2
6.26E-1	4.27E+3	1.45E-1	8.20E+2
6.48E-1	4.05E+3	1.50E-1	8.30E+2
6.42E-1	4.19E+3	1.50E-1	8.12E+2
6.35E-1	4.00E+3	1.49E-1	7.77E+2
6.48E-1	4.20E+3	1.41E-1	7.47E+2
6.15E-1	4.15E+3	1.50E-1	8.14E+2
6.37E-1	4.21E+3	1.34E-1	7.45E+2
6.30E-1	4.11E+3	1.40E-1	8.27E+2
6.26E-1	4.25E+3	1.54E-1	8.80E+2
6.32E-1	4.24E+3	1.54E-1	8.75E+2
6.41E-1	4.41E+3	1.39E-1	7.27E+2
6.34E-1	4.27E+3	1.41E-1	8.13E+2
6.46E-1	4.26E+3	1.48E-1	8.51E+2
6.23E-1	4.20E+3	1.52E-1	8.54E+2
6.64E-1	4.21E+3	1.46E-1	8.60E+2
6.12E-1	4.11E+3	1.53E-1	8.83E+2
6.50E-1	4.17E+3	1.37E-1	6.55E+2
6.62E-1	4.15E+3	1.50E-1	7.68E+2
6.53E-1	4.15E+3	1.45E-1	8.15E+2
6.40E-1	4.29E+3	1.45E-1	7.29E+2
6.33E-1	4.03E+3	1.30E-1	6.86E+2
6.50E-1	4.09E+3	1.39E-1	7.79E+2
6.16E-1	4.23E+3	1.45E-1	8.54E+2
6.42E-1	4.38E+3	1.46E-1	8.06E+2
6.28E-1	4.17E+3	1.46E-1	7.99E+2
6.13E-1	4.12E+3	1.45E-1	8.58E+2
6.21E-1	4.22E+3	1.52E-1	8.62E+2
6.41E-1	4.22E+3	1.46E-1	7.07E+2
6.43E-1	4.09E+3	1.37E-1	8.11E+2
6.50E-1	4.30E+3	1.46E-1	8.19E+2
6.79E-1	4.34E+3	1.39E-1	7.91E+2
6.28E-1	4.33E+3	1.42E-1	8.24E+2
6.28E-1	4.15E+3	1.53E-1	8.34E+2
6.26E-1	4.16E+3	1.52E-1	8.08E+2
6.41E-1	4.09E+3	1.55E-1	8.44E+2
6.41E-1	4.11E+3	1.42E-1	8.28E+2
6.62E-1	4.14E+3	1.46E-1	7.52E+2
5.90E-1	4.01E+3	1.30E-1	7.24E+2
6.48E-1	4.14E+3	1.44E-1	8.58E+2
6.32E-1	3.97E+3	1.36E-1	7.99E+2
6.56E-1	4.04E+3	1.41E-1	7.69E+2
5.97E-1	4.06E+3	1.54E-1	8.44E+2
6.24E-1	4.20E+3	1.38E-1	7.44E+2
6.40E-1	4.16E+3	1.54E-1	8.42E+2
6.13E-1	4.11E+3	1.49E-1	7.79E+2
6.55E-1	4.41E+3	1.46E-1	7.95E+2
6.51E-1	4.24E+3	1.48E-1	8.20E+2
6.47E-1	4.45E+3	1.47E-1	7.98E+2
6.64E-1	4.32E+3	1.52E-1	8.55E+2
6.08E-1	4.19E+3	1.59E-1	9.06E+2
6.04E-1	4.14E+3	1.43E-1	8.16E+2
6.37E-1	4.16E+3	1.46E-1	7.98E+2
6.70E-1	4.30E+3	1.40E-1	7.88E+2
6.63E-1	4.16E+3	1.43E-1	8.86E+2
6.18E-1	4.18E+3	1.57E-1	8.40E+2
6.85E-1	4.31E+3	1.66E-1	8.58E+2
6.41E-1	4.12E+3	1.44E-1	7.63E+2
6.66E-1	4.22E+3	1.36E-1	7.76E+2
6.54E-1	4.25E+3	1.48E-1	8.07E+2
6.23E-1	4.15E+3	1.47E-1	8.24E+2
6.21E-1	4.22E+3	1.53E-1	8.83E+2
6.42E-1	4.34E+3	1.44E-1	8.73E+2
6.17E-1	4.14E+3	1.57E-1	8.95E+2
6.20E-1	4.19E+3	1.53E-1	8.02E+2
6.28E-1	4.28E+3	1.53E-1	7.43E+2
6.16E-1	4.11E+3	1.53E-1	8.09E+2
6.39E-1	4.24E+3	1.40E-1	8.02E+2
6.47E-1	3.93E+3	1.40E-1	7.39E+2
6.35E-1	4.24E+3	1.58E-1	8.40E+2
6.55E-1	4.22E+3	1.50E-1	8.14E+2
6.48E-1	4.15E+3	1.44E-1	8.06E+2
6.14E-1	4.22E+3	1.45E-1	8.03E+2
6.35E-1	4.14E+3	1.51E-1	8.45E+2
6.28E-1	3.97E+3	1.51E-1	7.95E+2
6.28E-1	4.13E+3	1.41E-1	7.21E+2
6.29E-1	4.18E+3	1.45E-1	7.57E+2
6.37E-1	4.24E+3	1.43E-1	8.29E+2
6.06E-1	4.03E+3	1.44E-1	8.56E+2
6.27E-1	4.16E+3	1.48E-1	8.73E+2
6.39E-1	4.07E+3	1.35E-1	8.16E+2
6.68E-1	4.28E+3	1.41E-1	8.07E+2
6.52E-1	4.17E+3	1.46E-1	8.45E+2
6.46E-1	4.28E+3	1.44E-1	8.13E+2
6.25E-1	4.14E+3	1.45E-1	7.72E+2
6.46E-1	4.15E+3	1.44E-1	8.24E+2
6.38E-1	4.17E+3	1.40E-1	7.68E+2
6.52E-1	4.26E+3	1.57E-1	8.18E+2
6.02E-1	4.03E+3	1.37E-1	7.65E+2
7.81E-3	1.53E+1	4.12E-1	2.15E+3
6.13E-1	4.20E+3	1.55E-1	8.70E+2
6.07E-1	4.13E+3	1.38E-1	7.89E+2
6.40E-1	4.24E+3	1.47E-1	8.31E+2
6.45E-1	4.31E+3	1.42E-1	8.01E+2
6.63E-1	4.27E+3	1.53E-1	8.46E+2
6.40E-1	4.13E+3	1.45E-1	8.00E+2
6.49E-1	4.13E+3	1.39E-1	7.96E+2
6.54E-1	4.19E+3	1.41E-1	7.56E+2
6.43E-1	4.05E+3	1.41E-1	6.86E+2
6.49E-1	4.21E+3	1.51E-1	7.89E+2
6.26E-1	4.24E+3	1.34E-1	7.42E+2
6.51E-1	4.14E+3	1.41E-1	7.93E+2
6.41E-1	4.29E+3	1.34E-1	7.29E+2
6.11E-1	4.06E+3	1.42E-1	8.25E+2
6.56E-1	4.30E+3	1.56E-1	8.47E+2
6.33E-1	4.30E+3	1.63E-1	8.45E+2
6.53E-1	4.16E+3	1.41E-1	7.64E+2
6.29E-1	4.11E+3	1.39E-1	7.86E+2
6.51E-1	4.12E+3	1.44E-1	8.62E+2
6.47E-1	4.28E+3	1.51E-1	8.07E+2
6.72E-1	4.19E+3	1.58E-1	8.85E+2
6.69E-1	4.29E+3	1.42E-1	8.33E+2
6.36E-1	4.10E+3	1.40E-1	7.40E+2
6.64E-1	4.10E+3	1.39E-1	7.79E+2
6.22E-1	4.05E+3	1.51E-1	7.88E+2
6.28E-1	4.15E+3	1.39E-1	7.56E+2
6.47E-1	4.23E+3	1.59E-1	8.32E+2
6.07E-1	4.04E+3	1.35E-1	7.66E+2
6.49E-1	4.17E+3	1.46E-1	7.88E+2
6.33E-1	4.27E+3	1.44E-1	7.28E+2
6.39E-1	4.23E+3	1.46E-1	7.87E+2
6.22E-1	4.22E+3	1.31E-1	7.48E+2
6.77E-1	4.28E+3	1.63E-1	8.96E+2
6.42E-1	4.23E+3	1.42E-1	8.05E+2
6.20E-1	4.12E+3	1.45E-1	7.56E+2
6.58E-1	4.15E+3	1.46E-1	7.79E+2
6.62E-1	4.26E+3	1.50E-1	7.49E+2
6.51E-1	4.38E+3	1.49E-1	8.50E+2
6.56E-1	4.20E+3	1.42E-1	8.21E+2
6.29E-1	4.13E+3	1.44E-1	7.85E+2
6.45E-1	4.12E+3	1.47E-1	7.78E+2
6.15E-1	4.11E+3	1.39E-1	7.48E+2
6.54E-1	4.32E+3	1.53E-1	8.47E+2
6.07E-1	3.87E+3	1.41E-1	8.44E+2
6.40E-1	4.18E+3	1.38E-1	7.60E+2
6.35E-1	4.12E+3	1.46E-1	7.73E+2
6.49E-1	4.26E+3	1.49E-1	8.67E+2
6.37E-1	4.17E+3	1.45E-1	8.11E+2
6.42E-1	4.06E+3	1.50E-1	8.19E+2
6.71E-1	4.36E+3	1.42E-1	7.62E+2
6.54E-1	4.13E+3	1.55E-1	8.59E+2
6.53E-1	4.19E+3	1.44E-1	8.26E+2
6.19E-1	4.10E+3	1.44E-1	7.12E+2
6.15E-1	4.07E+3	1.51E-1	8.60E+2
6.53E-1	4.27E+3	1.52E-1	8.79E+2
6.36E-1	4.25E+3	1.46E-1	7.80E+2
6.15E-1	4.08E+3	1.50E-1	8.24E+2
6.19E-1	4.17E+3	1.44E-1	8.36E+2
6.65E-1	4.27E+3	1.51E-1	8.19E+2
6.21E-1	4.05E+3	1.46E-1	8.39E+2
6.33E-1	4.01E+3	1.57E-1	8.21E+2
6.33E-1	4.26E+3	1.57E-1	8.65E+2
6.43E-1	4.21E+3	1.49E-1	8.13E+2
6.25E-1	4.28E+3	1.68E-1	8.99E+2
6.55E-1	4.28E+3	1.45E-1	8.55E+2
6.21E-1	4.18E+3	1.44E-1	7.87E+2
6.46E-1	4.20E+3	1.42E-1	7.17E+2
6.29E-1	4.21E+3	1.47E-1	7.78E+2
6.33E-1	4.08E+3	1.58E-1	8.10E+2
6.35E-1	4.27E+3	1.51E-1	8.80E+2
6.17E-1	4.09E+3	1.35E-1	7.82E+2
6.51E-1	4.07E+3	1.38E-1	8.33E+2
6.49E-1	4.20E+3	1.48E-1	8.43E+2
6.73E-1	4.32E+3	1.46E-1	7.10E+2
5.96E-1	4.09E+3	1.38E-1	7.67E+2
6.16E-1	4.04E+3	1.47E-1	8.90E+2
6.12E-1	4.18E+3	1.50E-1	8.51E+2
6.30E-1	4.29E+3	1.31E-1	6.79E+2
6.15E-1	4.06E+3	1.49E-1	7.85E+2
6.17E-1	4.13E+3	1.54E-1	8.26E+2
6.50E-1	4.16E+3	1.47E-1	7.79E+2
6.27E-1	4.10E+3	1.58E-1	8.03E+2
6.11E-1	4.23E+3	1.36E-1	7.81E+2
6.25E-1	4.22E+3	1.39E-1	7.73E+2
6.61E-1	4.13E+3	1.46E-1	8.35E+2
5.99E-1	4.18E+3	1.48E-1	8.80E+2
6.45E-1	4.23E+3	1.43E-1	8.57E+2
6.41E-1	4.02E+3	1.56E-1	8.67E+2
6.14E-1	4.04E+3	1.47E-1	8.61E+2
6.31E-1	4.13E+3	1.49E-1	7.88E+2
6.46E-1	4.17E+3	1.39E-1	7.47E+2
6.16E-1	4.06E+3	1.44E-1	8.58E+2
6.15E-1	4.06E+3	1.42E-1	8.08E+2
6.17E-1	4.08E+3	1.46E-1	7.96E+2
