1.49E-1	1.12E+3	2.64E-2	1.57E+2
1.42E-1	1.06E+3	3.15E-2	2.15E+2
1.53E-1	1.12E+3	2.83E-2	2.18E+2
1.49E-1	1.09E+3	2.88E-2	1.71E+2
1.47E-1	1.11E+3	2.86E-2	1.72E+2
1.46E-1	1.14E+3	3.12E-2	1.82E+2
1.44E-1	1.10E+3	2.86E-2	2.02E+2
1.54E-1	1.08E+3	3.12E-2	2.26E+2
1.50E-1	1.11E+3	2.81E-2	1.71E+2
1.46E-1	1.08E+3	3.10E-2	2.28E+2
1.49E-1	1.03E+3	2.93E-2	2.03E+2
1.51E-1	1.08E+3	3.15E-2	2.39E+2
1.55E-1	1.13E+3	3.08E-2	1.95E+2
1.46E-1	1.07E+3	3.30E-2	1.98E+2
1.60E-1	1.20E+3	3.00E-2	1.91E+2
1.51E-1	1.14E+3	3.00E-2	1.60E+2
1.57E-1	1.15E+3	2.59E-2	1.77E+2
1.56E-1	1.17E+3	3.00E-2	1.79E+2
1.54E-1	1.15E+3	3.03E-2	2.06E+2
6.35E-3	4.88E+0	1.06E-1	6.13E+2
1.60E-1	1.17E+3	3.39E-2	2.64E+2
1.55E-1	1.13E+3	3.03E-2	2.26E+2
1.47E-1	1.08E+3	2.76E-2	2.03E+2
1.52E-1	1.08E+3	2.93E-2	2.43E+2
1.59E-1	1.15E+3	3.05E-2	2.19E+2
1.41E-1	1.11E+3	2.83E-2	2.33E+2
1.54E-1	1.18E+3	3.30E-2	2.04E+2
1.61E-1	1.16E+3	3.20E-2	2.00E+2
1.56E-1	1.17E+3	2.71E-2	1.97E+2
1.46E-1	1.11E+3	3.27E-2	2.36E+2
1.44E-1	1.09E+3	2.95E-2	2.18E+2
1.59E-1	1.18E+3	2.76E-2	2.06E+2
1.50E-1	1.12E+3	2.56E-2	2.02E+2
1.51E-1	1.13E+3	3.39E-2	2.68E+2
1.62E-1	1.18E+3	2.95E-2	2.38E+2
1.54E-1	1.13E+3	2.93E-2	2.30E+2
1.49E-1	1.17E+3	2.91E-2	2.04E+2
1.45E-1	1.11E+3	2.83E-2	1.64E+2
1.65E-1	1.19E+3	2.88E-2	1.79E+2
1.54E-1	1.12E+3	3.27E-2	2.22E+2
1.50E-1	1.13E+3	3.08E-2	1.89E+2
1.53E-1	1.21E+3	2.73E-2	2.17E+2
1.44E-1	1.10E+3	2.86E-2	2.04E+2
1.58E-1	1.16E+3	2.88E-2	2.34E+2
1.51E-1	1.13E+3	3.05E-2	1.83E+2
1.54E-1	1.12E+3	2.76E-2	1.92E+2
1.46E-1	1.08E+3	3.20E-2	2.09E+2
1.53E-1	1.11E+3	2.93E-2	2.12E+2
1.47E-1	1.11E+3	2.78E-2	2.43E+2
1.60E-1	1.18E+3	2.88E-2	2.00E+2
1.44E-1	1.17E+3	3.32E-2	2.20E+2
1.48E-1	1.14E+3	2.93E-2	1.70E+2
1.44E-1	1.14E+3	3.10E-2	2.30E+2
1.45E-1	1.11E+3	2.76E-2	1.56E+2
1.57E-1	1.13E+3	3.15E-2	1.88E+2
1.52E-1	1.15E+3	3.30E-2	2.49E+2
1.44E-1	1.09E+3	3.08E-2	2.19E+2
1.46E-1	1.06E+3	2.91E-2	2.21E+2
1.57E-1	1.14E+3	2.78E-2	1.77E+2
1.59E-1	1.16E+3	2.98E-2	2.06E+2
1.55E-1	1.06E+3	2.76E-2	1.79E+2
1.55E-1	1.10E+3	2.88E-2	1.70E+2
1.49E-1	1.15E+3	3.15E-2	2.19E+2
1.55E-1	1.15E+3	2.83E-2	1.99E+2
1.50E-1	1.17E+3	3.56E-2	2.28E+2
1.44E-1	1.10E+3	3.22E-2	2.11E+2
1.34E-1	1.01E+3	2.88E-2	1.88E+2
1.56E-1	1.13E+3	2.81E-2	2.29E+2
1.59E-1	1.15E+3	3.15E-2	2.05E+2
1.51E-1	1.14E+3	2.93E-2	2.14E+2
1.52E-1	1.13E+3	2.83E-2	2.28E+2
1.46E-1	1.10E+3	3.00E-2	2.10E+2
1.54E-1	1.16E+3	2.56E-2	1.82E+2
1.49E-1	1.09E+3	2.95E-2	1.84E+2
1.52E-1	1.11E+3	2.98E-2	1.86E+2
1.50E-1	1.17E+3	3.03E-2	1.99E+2
1.61E-1	1.20E+3	2.69E-2	2.24E+2
1.52E-1	1.13E+3	3.10E-2	2.12E+2
1.54E-1	1.17E+3	2.93E-2	1.97E+2
1.50E-1	1.08E+3	3.08E-2	2.45E+2
1.55E-1	1.22E+3	3.00E-2	2.32E+2
1.48E-1	1.13E+3	2.95E-2	2.11E+2
1.52E-1	1.15E+3	3.34E-2	2.34E+2
1.47E-1	1.08E+3	2.91E-2	1.96E+2
1.50E-1	1.19E+3	3.54E-2	2.54E+2
1.46E-1	1.12E+3	3.27E-2	2.39E+2
1.55E-1	1.12E+3	3.03E-2	2.08E+2
1.57E-1	1.12E+3	3.00E-2	1.68E+2
1.51E-1	1.19E+3	3.47E-2	2.23E+2
1.43E-1	1.12E+3	2.78E-2	2.49E+2
1.44E-1	1.14E+3	2.98E-2	2.19E+2
1.50E-1	1.15E+3	2.93E-2	1.76E+2
1.63E-1	1.20E+3	2.73E-2	1.60E+2
1.57E-1	1.15E+3	2.66E-2	1.97E+2
1.45E-1	1.12E+3	3.08E-2	2.39E+2
1.50E-1	1.09E+3	2.98E-2	1.80E+2
1.53E-1	1.16E+3	3.17E-2	2.02E+2
1.45E-1	1.10E+3	3.12E-2	2.02E+2
1.62E-1	1.18E+3	2.81E-2	2.29E+2
1.48E-1	1.17E+3	3.59E-2	2.85E+2
1.58E-1	1.12E+3	3.30E-2	2.30E+2
1.51E-1	1.12E+3	3.08E-2	2.00E+2
1.47E-1	1.16E+3	2.88E-2	2.34E+2
1.56E-1	1.16E+3	2.88E-2	2.31E+2
1.45E-1	1.10E+3	2.93E-2	2.04E+2
1.62E-1	1.17E+3	3.05E-2	2.21E+2
1.47E-1	1.15E+3	2.78E-2	2.43E+2
1.55E-1	1.13E+3	3.03E-2	2.71E+2
1.55E-1	1.19E+3	3.17E-2	2.11E+2
1.56E-1	1.16E+3	3.12E-2	2.13E+2
1.61E-1	1.19E+3	2.86E-2	1.94E+2
1.60E-1	1.14E+3	2.95E-2	1.96E+2
1.41E-1	1.05E+3	2.83E-2	1.98E+2
1.62E-1	1.14E+3	3.15E-2	1.74E+2
1.58E-1	1.11E+3	2.95E-2	1.84E+2
1.52E-1	1.12E+3	2.93E-2	1.94E+2
1.55E-1	1.15E+3	2.88E-2	1.64E+2
1.46E-1	1.14E+3	3.08E-2	2.04E+2
1.51E-1	1.09E+3	3.12E-2	2.32E+2
1.60E-1	1.14E+3	3.15E-2	2.17E+2
1.45E-1	1.08E+3	3.12E-2	1.96E+2
1.40E-1	1.09E+3	3.08E-2	2.32E+2
1.52E-1	1.08E+3	2.98E-2	2.16E+2
1.50E-1	1.11E+3	2.73E-2	1.82E+2
1.56E-1	1.15E+3	2.81E-2	1.90E+2
1.45E-1	1.12E+3	3.32E-2	2.01E+2
1.51E-1	1.13E+3	3.05E-2	2.34E+2
1.51E-1	1.22E+3	2.98E-2	2.50E+2
1.51E-1	1.13E+3	2.98E-2	2.23E+2
1.59E-1	1.11E+3	3.10E-2	2.56E+2
1.41E-1	1.09E+3	3.27E-2	2.26E+2
1.47E-1	1.08E+3	3.03E-2	2.27E+2
1.51E-1	1.12E+3	2.76E-2	2.23E+2
1.47E-1	1.10E+3	2.83E-2	1.78E+2
1.64E-1	1.21E+3	3.27E-2	2.00E+2
1.58E-1	1.10E+3	2.95E-2	1.65E+2
1.50E-1	1.14E+3	2.69E-2	1.77E+2
1.45E-1	1.05E+3	2.95E-2	1.78E+2
1.51E-1	1.15E+3	2.78E-2	1.84E+2
1.56E-1	1.09E+3	3.42E-2	1.95E+2
1.46E-1	1.12E+3	3.10E-2	2.24E+2
1.56E-1	1.19E+3	2.95E-2	2.33E+2
1.57E-1	1.13E+3	2.95E-2	2.10E+2
1.39E-1	1.11E+3	2.86E-2	2.23E+2
1.46E-1	1.07E+3	3.00E-2	1.94E+2
1.54E-1	1.19E+3	2.76E-2	1.99E+2
1.56E-1	1.14E+3	2.88E-2	2.15E+2
1.56E-1	1.12E+3	3.20E-2	2.17E+2
1.50E-1	1.11E+3	3.05E-2	1.61E+2
1.42E-1	1.10E+3	3.10E-2	2.28E+2
1.52E-1	1.20E+3	3.39E-2	2.36E+2
1.50E-1	1.11E+3	2.93E-2	2.00E+2
1.53E-1	1.12E+3	2.78E-2	2.00E+2
1.43E-1	1.14E+3	3.22E-2	2.46E+2
1.39E-1	1.08E+3	4.39E-2	1.81E+2
1.46E-1	1.05E+3	3.15E-2	2.40E+2
1.49E-1	1.09E+3	3.20E-2	2.36E+2
1.51E-1	1.09E+3	3.54E-2	2.09E+2
1.51E-1	1.14E+3	2.69E-2	1.72E+2
1.55E-1	1.06E+3	3.56E-2	2.41E+2
1.48E-1	1.18E+3	2.69E-2	1.96E+2
1.42E-1	1.07E+3	3.27E-2	2.31E+2
1.54E-1	1.14E+3	2.78E-2	1.62E+2
1.51E-1	1.11E+3	3.12E-2	2.30E+2
1.53E-1	1.21E+3	3.00E-2	2.35E+2
1.49E-1	1.13E+3	3.30E-2	2.15E+2
1.53E-1	1.17E+3	3.05E-2	1.96E+2
1.46E-1	1.13E+3	2.76E-2	2.15E+2
1.47E-1	1.15E+3	2.83E-2	2.44E+2
1.44E-1	1.08E+3	2.83E-2	2.08E+2
1.56E-1	1.14E+3	3.17E-2	2.28E+2
1.48E-1	1.11E+3	3.34E-2	1.90E+2
1.53E-1	1.15E+3	2.86E-2	1.84E+2
1.54E-1	1.19E+3	2.81E-2	1.77E+2
1.57E-1	1.14E+3	3.20E-2	1.73E+2
1.68E-1	1.25E+3	3.08E-2	2.23E+2
1.51E-1	1.22E+3	3.27E-2	2.28E+2
1.44E-1	1.13E+3	3.00E-2	2.51E+2
1.53E-1	1.11E+3	2.61E-2	2.01E+2
1.55E-1	1.09E+3	3.03E-2	2.01E+2
1.49E-1	1.12E+3	2.86E-2	1.93E+2
1.53E-1	1.06E+3	3.00E-2	2.08E+2
1.40E-1	1.07E+3	3.00E-2	2.20E+2
1.57E-1	1.14E+3	3.08E-2	2.18E+2
1.54E-1	1.10E+3	3.22E-2	1.86E+2
1.54E-1	1.12E+3	2.81E-2	1.96E+2
1.53E-1	1.13E+3	3.22E-2	1.94E+2
1.53E-1	1.14E+3	2.95E-2	2.43E+2
1.62E-1	1.17E+3	3.25E-2	2.45E+2
1.42E-1	1.11E+3	3.30E-2	2.25E+2
1.45E-1	1.12E+3	2.98E-2	2.15E+2
1.58E-1	1.13E+3	3.22E-2	2.03E+2
1.52E-1	1.11E+3	2.66E-2	2.41E+2
1.56E-1	1.16E+3	2.93E-2	2.14E+2
1.46E-1	1.08E+3	3.10E-2	2.09E+2
1.45E-1	1.14E+3	3.03E-2	2.07E+2
1.51E-1	1.15E+3	2.93E-2	1.54E+2
1.41E-1	1.07E+3	3.12E-2	2.35E+2
1.48E-1	1.10E+3	2.98E-2	2.05E+2
1.44E-1	1.08E+3	3.22E-2	1.64E+2
1.60E-1	1.19E+3	3.10E-2	2.05E+2
1.61E-1	1.18E+3	3.37E-2	2.55E+2
1.45E-1	1.11E+3	2.93E-2	2.58E+2
1.45E-1	1.14E+3	2.93E-2	2.18E+2
1.56E-1	1.18E+3	2.91E-2	2.49E+2
1.58E-1	1.15E+3	3.05E-2	1.95E+2
1.48E-1	1.09E+3	2.69E-2	1.59E+2
1.53E-1	1.14E+3	2.83E-2	2.14E+2
1.47E-1	1.10E+3	3.00E-2	1.93E+2
1.53E-1	1.16E+3	2.83E-2	2.08E+2
1.42E-1	1.06E+3	2.98E-2	1.87E+2
1.61E-1	1.19E+3	2.91E-2	2.12E+2
1.51E-1	1.16E+3	2.73E-2	1.91E+2
1.60E-1	1.17E+3	2.93E-2	1.94E+2
1.58E-1	1.17E+3	3.30E-2	2.11E+2
1.50E-1	1.16E+3	2.76E-2	2.30E+2
1.48E-1	1.07E+3	3.00E-2	1.95E+2
1.50E-1	1.14E+3	2.93E-2	2.14E+2
1.48E-1	1.09E+3	2.86E-2	1.71E+2
1.59E-1	1.20E+3	3.05E-2	2.19E+2
1.41E-1	1.08E+3	2.86E-2	1.98E+2
1.51E-1	1.11E+3	3.25E-2	1.97E+2
1.53E-1	1.12E+3	2.78E-2	1.47E+2
1.49E-1	1.13E+3	3.17E-2	2.16E+2
1.50E-1	1.17E+3	3.03E-2	1.97E+2
1.55E-1	1.11E+3	3.08E-2	1.79E+2
1.57E-1	1.16E+3	3.12E-2	2.59E+2
1.46E-1	1.13E+3	2.66E-2	2.20E+2
1.55E-1	1.17E+3	2.66E-2	2.32E+2
1.44E-1	1.11E+3	3.27E-2	2.20E+2
1.52E-1	1.18E+3	3.17E-2	2.22E+2
1.49E-1	1.17E+3	3.22E-2	2.78E+2
1.53E-1	1.08E+3	2.91E-2	1.96E+2
1.48E-1	1.11E+3	3.34E-2	2.19E+2
1.53E-1	1.09E+3	3.08E-2	2.09E+2
1.49E-1	1.15E+3	3.05E-2	1.87E+2
1.48E-1	1.07E+3	2.98E-2	1.67E+2
1.51E-1	1.13E+3	2.73E-2	1.94E+2
1.46E-1	1.15E+3	3.03E-2	2.04E+2
1.54E-1	1.15E+3	3.64E-2	1.97E+2
1.53E-1	1.12E+3	2.93E-2	2.00E+2
1.39E-1	1.09E+3	2.83E-2	1.86E+2
1.56E-1	1.15E+3	3.12E-2	1.92E+2
1.47E-1	1.07E+3	2.61E-2	2.00E+2
1.54E-1	1.14E+3	3.12E-2	2.09E+2
1.54E-1	1.16E+3	2.98E-2	2.29E+2
1.53E-1	1.13E+3	3.34E-2	2.04E+2
1.38E-1	1.10E+3	2.66E-2	1.63E+2
1.46E-1	1.14E+3	3.12E-2	2.05E+2
1.40E-1	1.04E+3	2.81E-2	1.94E+2
1.51E-1	1.09E+3	2.91E-2	1.90E+2
1.46E-1	1.14E+3	3.20E-2	2.74E+2
1.50E-1	1.16E+3	3.05E-2	2.29E+2
1.46E-1	1.13E+3	3.03E-2	2.23E+2
1.52E-1	1.08E+3	3.17E-2	2.37E+2
1.51E-1	1.15E+3	3.27E-2	1.86E+2
1.49E-1	1.10E+3	3.30E-2	2.19E+2
1.48E-1	1.09E+3	2.93E-2	1.75E+2
1.52E-1	1.12E+3	3.30E-2	1.89E+2
1.62E-1	1.14E+3	3.22E-2	1.91E+2
1.51E-1	1.15E+3	3.08E-2	2.22E+2
1.47E-1	1.11E+3	3.27E-2	2.07E+2
1.54E-1	1.16E+3	2.56E-2	1.91E+2
1.53E-1	1.12E+3	2.93E-2	2.32E+2
1.43E-1	1.13E+3	2.93E-2	1.98E+2
1.49E-1	1.15E+3	3.08E-2	1.89E+2
1.55E-1	1.10E+3	3.44E-2	2.05E+2
1.53E-1	1.10E+3	3.08E-2	1.93E+2
1.46E-1	1.07E+3	2.93E-2	2.26E+2
1.52E-1	1.07E+3	3.44E-2	2.04E+2
1.66E-1	1.19E+3	2.93E-2	1.93E+2
1.47E-1	1.14E+3	3.15E-2	2.30E+2
7.08E-3	1.17E+0	9.33E-2	5.91E+2
1.53E-1	1.11E+3	3.10E-2	1.86E+2
1.45E-1	1.14E+3	3.03E-2	2.16E+2
1.43E-1	1.17E+3	2.83E-2	2.37E+2
1.56E-1	1.15E+3	3.22E-2	2.26E+2
1.60E-1	1.11E+3	3.08E-2	2.44E+2
1.51E-1	1.12E+3	3.54E-2	2.28E+2
1.49E-1	1.10E+3	3.12E-2	1.83E+2
1.46E-1	1.14E+3	2.78E-2	1.92E+2
1.51E-1	1.12E+3	2.98E-2	1.70E+2
1.49E-1	1.10E+3	2.66E-2	1.48E+2
1.47E-1	1.14E+3	3.34E-2	1.80E+2
1.49E-1	1.11E+3	2.93E-2	1.89E+2
1.51E-1	1.17E+3	3.12E-2	2.10E+2
1.50E-1	1.13E+3	2.91E-2	1.89E+2
1.55E-1	1.19E+3	2.95E-2	2.12E+2
1.47E-1	1.06E+3	2.98E-2	2.11E+2
1.48E-1	1.10E+3	2.88E-2	1.83E+2
1.51E-1	1.15E+3	2.83E-2	2.26E+2
1.51E-1	1.12E+3	3.05E-2	2.26E+2
1.41E-1	1.08E+3	2.81E-2	2.02E+2
1.51E-1	1.10E+3	3.37E-2	1.95E+2
1.45E-1	1.08E+3	2.93E-2	1.57E+2
1.46E-1	1.13E+3	2.73E-2	1.64E+2
1.51E-1	1.13E+3	3.30E-2	2.22E+2
1.48E-1	1.12E+3	2.98E-2	2.13E+2
1.54E-1	1.17E+3	2.76E-2	2.06E+2
1.47E-1	1.11E+3	2.91E-2	1.94E+2
1.48E-1	1.13E+3	2.91E-2	1.82E+2
1.57E-1	1.23E+3	3.49E-2	2.80E+2
1.41E-1	1.07E+3	2.93E-2	2.05E+2
1.50E-1	1.11E+3	3.34E-2	2.13E+2
1.55E-1	1.09E+3	2.95E-2	1.58E+2
1.56E-1	1.15E+3	3.17E-2	2.53E+2
1.53E-1	1.16E+3	3.27E-2	2.70E+2
1.53E-1	1.09E+3	2.81E-2	1.79E+2
1.47E-1	1.14E+3	2.91E-2	2.02E+2
1.53E-1	1.10E+3	3.12E-2	1.77E+2
1.44E-1	1.08E+3	3.25E-2	2.47E+2
1.52E-1	1.11E+3	2.95E-2	2.31E+2
1.55E-1	1.18E+3	2.73E-2	2.32E+2
1.44E-1	1.09E+3	3.34E-2	2.56E+2
1.44E-1	1.11E+3	2.98E-2	2.48E+2
1.48E-1	1.13E+3	2.95E-2	2.12E+2
1.57E-1	1.16E+3	3.27E-2	2.00E+2
1.56E-1	1.13E+3	3.00E-2	1.75E+2
1.53E-1	1.11E+3	3.08E-2	1.90E+2
1.37E-1	1.06E+3	3.34E-2	1.97E+2
1.49E-1	1.13E+3	3.03E-2	1.99E+2
1.42E-1	1.11E+3	2.93E-2	1.99E+2
1.61E-1	1.19E+3	2.83E-2	1.88E+2
1.47E-1	1.12E+3	3.10E-2	1.95E+2
1.45E-1	1.08E+3	2.95E-2	1.97E+2
1.42E-1	1.04E+3	2.93E-2	1.75E+2
1.53E-1	1.15E+3	2.73E-2	2.15E+2
1.55E-1	1.15E+3	2.83E-2	1.79E+2
1.49E-1	1.09E+3	2.91E-2	1.73E+2
1.46E-1	1.10E+3	3.10E-2	2.35E+2
1.55E-1	1.08E+3	2.93E-2	1.74E+2
1.50E-1	1.12E+3	2.86E-2	2.01E+2
1.52E-1	1.14E+3	3.00E-2	1.98E+2
1.45E-1	1.08E+3	3.30E-2	2.04E+2
1.56E-1	1.22E+3	3.39E-2	2.72E+2
1.58E-1	1.17E+3	2.88E-2	1.82E+2
1.51E-1	1.09E+3	3.17E-2	2.43E+2
1.46E-1	1.10E+3	3.22E-2	2.26E+2
1.45E-1	1.16E+3	3.20E-2	2.61E+2
1.45E-1	1.13E+3	2.86E-2	2.10E+2
1.56E-1	1.11E+3	3.03E-2	1.76E+2
1.49E-1	1.11E+3	2.91E-2	1.75E+2
1.49E-1	1.14E+3	2.59E-2	1.53E+2
1.56E-1	1.15E+3	3.00E-2	1.47E+2
1.45E-1	1.07E+3	3.00E-2	2.15E+2
1.62E-1	1.19E+3	3.17E-2	2.10E+2
1.49E-1	1.17E+3	2.64E-2	1.67E+2
1.55E-1	1.15E+3	3.10E-2	2.43E+2
1.48E-1	1.10E+3	3.25E-2	2.33E+2
1.50E-1	1.11E+3	2.98E-2	2.09E+2
1.51E-1	1.09E+3	2.88E-2	2.06E+2
1.54E-1	1.10E+3	3.30E-2	2.43E+2
1.45E-1	1.15E+3	3.08E-2	1.94E+2
1.52E-1	1.11E+3	3.22E-2	2.25E+2
1.48E-1	1.14E+3	3.08E-2	2.33E+2
1.48E-1	1.07E+3	2.83E-2	1.46E+2
1.51E-1	1.13E+3	3.34E-2	2.20E+2
1.50E-1	1.16E+3	3.25E-2	2.19E+2
1.43E-1	1.11E+3	2.91E-2	2.24E+2
1.53E-1	1.15E+3	2.78E-2	1.75E+2
1.43E-1	1.10E+3	2.47E-2	1.83E+2
1.47E-1	1.10E+3	3.08E-2	2.10E+2
1.41E-1	1.13E+3	5.10E-2	2.47E+2
1.51E-1	1.10E+3	3.34E-2	2.30E+2
1.42E-1	1.11E+3	3.12E-2	2.54E+2
1.54E-1	1.11E+3	3.05E-2	1.94E+2
1.47E-1	1.11E+3	3.15E-2	2.07E+2
1.52E-1	1.11E+3	3.20E-2	1.69E+2
1.46E-1	1.12E+3	3.10E-2	1.77E+2
1.49E-1	1.09E+3	2.86E-2	1.80E+2
1.49E-1	1.17E+3	3.37E-2	2.27E+2
1.50E-1	1.07E+3	2.76E-2	2.40E+2
1.45E-1	1.11E+3	3.22E-2	2.28E+2
1.56E-1	1.19E+3	3.10E-2	1.96E+2
1.48E-1	1.13E+3	2.93E-2	2.47E+2
1.45E-1	1.11E+3	2.88E-2	2.37E+2
1.62E-1	1.18E+3	3.39E-2	2.10E+2
1.51E-1	1.11E+3	3.30E-2	2.44E+2
1.57E-1	1.12E+3	2.95E-2	1.98E+2
1.52E-1	1.13E+3	2.78E-2	1.98E+2
1.50E-1	1.19E+3	2.91E-2	1.99E+2
1.36E-1	1.07E+3	3.42E-2	2.16E+2
1.47E-1	1.12E+3	3.42E-2	2.00E+2
1.53E-1	1.16E+3	3.22E-2	2.29E+2
1.47E-1	1.20E+3	2.86E-2	1.86E+2
1.49E-1	1.12E+3	3.20E-2	1.77E+2
1.51E-1	1.19E+3	2.81E-2	2.55E+2
1.47E-1	1.14E+3	3.20E-2	2.00E+2
1.50E-1	1.14E+3	2.76E-2	1.81E+2
1.42E-1	1.08E+3	3.10E-2	2.03E+2
1.48E-1	1.11E+3	2.93E-2	2.04E+2
1.53E-1	1.11E+3	2.95E-2	2.15E+2
1.57E-1	1.09E+3	3.44E-2	2.37E+2
1.56E-1	1.14E+3	2.78E-2	1.92E+2
1.46E-1	1.13E+3	3.22E-2	2.30E+2
1.51E-1	1.13E+3	3.17E-2	1.87E+2
1.51E-1	1.16E+3	3.03E-2	2.31E+2
1.47E-1	1.10E+3	3.05E-2	2.09E+2
1.52E-1	1.14E+3	2.91E-2	2.31E+2
1.52E-1	1.19E+3	2.88E-2	1.67E+2
1.56E-1	1.14E+3	3.42E-2	2.31E+2
1.49E-1	1.13E+3	2.91E-2	1.75E+2
1.39E-1	9.91E+2	2.93E-2	1.96E+2
1.46E-1	1.12E+3	2.88E-2	1.88E+2
1.49E-1	1.14E+3	3.05E-2	1.92E+2
1.48E-1	1.14E+3	2.81E-2	2.18E+2
1.56E-1	1.19E+3	2.78E-2	1.75E+2
1.53E-1	1.14E+3	3.00E-2	1.81E+2
1.54E-1	1.17E+3	3.42E-2	1.91E+2
1.61E-1	1.15E+3	3.08E-2	2.42E+2
1.49E-1	1.11E+3	2.95E-2	1.95E+2
1.47E-1	1.09E+3	3.39E-2	2.36E+2
1.40E-1	1.11E+3	3.20E-2	2.07E+2
1.45E-1	1.08E+3	2.71E-2	1.99E+2
1.54E-1	1.10E+3	3.34E-2	2.44E+2
1.50E-1	1.09E+3	3.49E-2	2.54E+2
1.56E-1	1.14E+3	3.03E-2	2.03E+2
1.45E-1	1.12E+3	2.86E-2	2.27E+2
1.55E-1	1.12E+3	3.59E-2	2.09E+2
1.47E-1	1.14E+3	3.15E-2	2.10E+2
1.60E-1	1.17E+3	2.73E-2	1.62E+2
1.48E-1	1.13E+3	2.98E-2	2.11E+2
1.49E-1	1.14E+3	2.73E-2	1.62E+2
1.53E-1	1.15E+3	3.98E-2	2.00E+2
1.55E-1	1.13E+3	3.00E-2	2.30E+2
1.49E-1	1.16E+3	2.78E-2	2.24E+2
1.45E-1	1.15E+3	3.05E-2	2.15E+2
1.51E-1	1.07E+3	2.66E-2	1.51E+2
1.48E-1	1.09E+3	2.64E-2	1.63E+2
1.49E-1	1.08E+3	3.00E-2	1.99E+2
1.48E-1	1.09E+3	3.12E-2	1.77E+2
1.44E-1	1.09E+3	3.30E-2	1.90E+2
1.52E-1	1.14E+3	3.44E-2	2.31E+2
1.43E-1	1.14E+3	2.98E-2	2.72E+2
1.48E-1	1.14E+3	3.20E-2	2.43E+2
1.49E-1	1.18E+3	3.20E-2	2.29E+2
1.58E-1	1.16E+3	2.88E-2	2.36E+2
1.52E-1	1.08E+3	3.20E-2	2.05E+2
1.47E-1	1.15E+3	3.00E-2	2.24E+2
1.55E-1	1.11E+3	2.93E-2	1.92E+2
1.50E-1	1.11E+3	2.78E-2	1.85E+2
1.48E-1	1.13E+3	3.37E-2	2.12E+2
1.45E-1	1.12E+3	3.22E-2	2.65E+2
1.42E-1	1.09E+3	3.03E-2	2.19E+2
1.52E-1	1.14E+3	3.08E-2	2.40E+2
1.49E-1	1.12E+3	3.49E-2	2.41E+2
1.46E-1	1.11E+3	3.08E-2	2.50E+2
1.44E-1	1.07E+3	2.78E-2	2.18E+2
1.43E-1	1.13E+3	2.93E-2	2.42E+2
1.52E-1	1.11E+3	3.17E-2	2.04E+2
1.51E-1	1.13E+3	2.95E-2	1.94E+2
1.50E-1	1.09E+3	2.83E-2	1.67E+2
1.57E-1	1.14E+3	3.08E-2	2.19E+2
1.47E-1	1.13E+3	3.03E-2	1.81E+2
1.54E-1	1.11E+3	3.10E-2	1.30E+2
1.52E-1	1.15E+3	2.78E-2	1.90E+2
1.44E-1	1.12E+3	2.69E-2	1.78E+2
1.69E-1	1.16E+3	3.03E-2	2.46E+2
1.56E-1	1.12E+3	2.78E-2	2.25E+2
1.47E-1	1.15E+3	3.27E-2	2.93E+2
1.41E-1	1.09E+3	2.83E-2	1.82E+2
1.46E-1	1.15E+3	3.34E-2	2.21E+2
1.46E-1	1.06E+3	2.81E-2	2.17E+2
1.61E-1	1.19E+3	3.10E-2	1.87E+2
1.56E-1	1.16E+3	2.98E-2	1.77E+2
1.49E-1	1.17E+3	2.86E-2	2.09E+2
1.54E-1	1.10E+3	3.30E-2	2.32E+2
1.57E-1	1.15E+3	2.91E-2	1.62E+2
1.46E-1	1.09E+3	3.39E-2	2.08E+2
1.50E-1	1.11E+3	3.10E-2	2.02E+2
1.56E-1	1.14E+3	2.51E-2	2.00E+2
1.41E-1	1.10E+3	3.08E-2	2.55E+2
1.47E-1	1.09E+3	3.05E-2	1.77E+2
1.55E-1	1.17E+3	2.91E-2	2.10E+2
1.53E-1	1.10E+3	3.15E-2	1.90E+2
1.53E-1	1.17E+3	2.83E-2	2.19E+2
1.56E-1	1.11E+3	2.95E-2	2.04E+2
1.46E-1	1.08E+3	3.05E-2	2.08E+2
1.62E-1	1.19E+3	2.91E-2	1.84E+2
1.52E-1	1.10E+3	2.91E-2	1.89E+2
1.53E-1	1.08E+3	3.22E-2	1.95E+2
1.51E-1	1.13E+3	3.17E-2	1.92E+2
1.50E-1	1.17E+3	3.08E-2	2.15E+2
1.45E-1	1.19E+3	3.42E-2	2.31E+2
1.43E-1	1.07E+3	3.17E-2	2.55E+2
1.53E-1	1.11E+3	3.30E-2	2.48E+2
1.52E-1	1.14E+3	2.73E-2	1.58E+2
1.47E-1	1.10E+3	2.93E-2	2.00E+2
6.10E-3	5.32E+0	1.31E-1	7.06E+2
1.57E-1	1.12E+3	2.86E-2	1.80E+2
1.48E-1	1.09E+3	2.98E-2	1.90E+2
1.52E-1	1.11E+3	2.81E-2	1.28E+2
1.45E-1	1.06E+3	3.22E-2	1.70E+2
1.48E-1	1.12E+3	3.00E-2	2.23E+2
1.46E-1	1.07E+3	2.93E-2	1.83E+2
1.56E-1	1.15E+3	3.10E-2	2.27E+2
1.51E-1	1.14E+3	2.64E-2	1.84E+2
1.56E-1	1.07E+3	3.12E-2	2.13E+2
1.54E-1	1.10E+3	3.12E-2	2.41E+2
1.50E-1	1.14E+3	2.64E-2	2.05E+2
1.52E-1	1.08E+3	2.95E-2	1.85E+2
1.46E-1	1.06E+3	3.08E-2	1.56E+2
1.48E-1	1.13E+3	3.12E-2	2.42E+2
1.49E-1	1.11E+3	3.10E-2	1.87E+2
1.60E-1	1.14E+3	3.05E-2	1.77E+2
1.47E-1	1.11E+3	3.42E-2	1.97E+2
1.56E-1	1.16E+3	3.08E-2	1.94E+2
1.48E-1	1.10E+3	2.88E-2	1.83E+2
1.57E-1	1.13E+3	2.98E-2	2.19E+2
1.46E-1	1.10E+3	2.64E-2	1.83E+2
1.56E-1	1.11E+3	2.88E-2	1.86E+2
1.55E-1	1.09E+3	2.98E-2	1.67E+2
1.54E-1	1.14E+3	3.17E-2	1.64E+2
1.53E-1	1.11E+3	3.42E-2	1.63E+2
1.51E-1	1.13E+3	3.15E-2	1.95E+2
1.66E-1	1.18E+3	3.15E-2	2.04E+2
1.60E-1	1.19E+3	2.78E-2	1.75E+2
1.47E-1	1.13E+3	2.73E-2	1.54E+2
1.58E-1	1.17E+3	3.42E-2	2.85E+2
1.60E-1	1.20E+3	2.83E-2	2.48E+2
1.59E-1	1.21E+3	3.42E-2	2.16E+2
1.50E-1	1.10E+3	2.91E-2	2.11E+2
1.51E-1	1.05E+3	3.12E-2	2.09E+2
1.44E-1	1.07E+3	2.47E-2	1.73E+2
1.54E-1	1.11E+3	3.03E-2	1.85E+2
1.49E-1	1.09E+3	2.83E-2	1.88E+2
1.51E-1	1.14E+3	3.05E-2	2.13E+2
1.55E-1	1.14E+3	3.30E-2	2.01E+2
1.50E-1	1.20E+3	3.08E-2	1.86E+2
1.50E-1	1.11E+3	2.88E-2	2.01E+2
1.56E-1	1.14E+3	3.34E-2	2.11E+2
1.43E-1	1.10E+3	2.83E-2	2.03E+2
1.47E-1	1.10E+3	3.17E-2	1.99E+2
1.56E-1	1.12E+3	2.76E-2	1.87E+2
1.45E-1	1.08E+3	2.98E-2	2.06E+2
1.42E-1	1.08E+3	2.88E-2	2.19E+2
1.55E-1	1.10E+3	3.20E-2	2.49E+2
1.52E-1	1.09E+3	3.27E-2	2.52E+2
1.49E-1	1.13E+3	2.71E-2	1.78E+2
1.53E-1	1.18E+3	2.81E-2	1.84E+2
1.45E-1	1.12E+3	2.81E-2	1.71E+2
1.49E-1	1.16E+3	2.83E-2	2.35E+2
1.49E-1	1.12E+3	2.91E-2	2.01E+2
1.41E-1	1.08E+3	3.17E-2	1.63E+2
1.61E-1	1.20E+3	3.20E-2	1.94E+2
1.46E-1	1.11E+3	2.93E-2	2.54E+2
1.41E-1	1.06E+3	2.93E-2	2.07E+2
1.49E-1	1.11E+3	3.10E-2	1.79E+2
1.50E-1	1.06E+3	2.83E-2	1.72E+2
1.55E-1	1.12E+3	2.81E-2	1.68E+2
1.48E-1	1.14E+3	2.83E-2	1.68E+2
1.48E-1	1.13E+3	3.34E-2	1.90E+2
1.56E-1	1.17E+3	2.93E-2	1.92E+2
1.51E-1	1.19E+3	3.05E-2	2.35E+2
1.49E-1	1.14E+3	3.17E-2	2.51E+2
1.48E-1	1.14E+3	2.56E-2	1.85E+2
1.44E-1	1.08E+3	3.15E-2	2.26E+2
1.56E-1	1.11E+3	2.76E-2	2.15E+2
1.44E-1	1.14E+3	3.20E-2	2.42E+2
1.60E-1	1.18E+3	3.03E-2	2.37E+2
1.46E-1	1.07E+3	3.15E-2	2.41E+2
1.43E-1	1.10E+3	2.61E-2	1.96E+2
1.53E-1	1.13E+3	3.08E-2	1.68E+2
1.38E-1	1.11E+3	3.22E-2	2.10E+2
1.49E-1	1.16E+3	2.91E-2	2.31E+2
1.45E-1	1.10E+3	2.88E-2	1.98E+2
1.52E-1	1.19E+3	3.03E-2	2.15E+2
1.56E-1	1.17E+3	3.00E-2	1.66E+2
1.54E-1	1.19E+3	3.00E-2	2.07E+2
1.58E-1	1.15E+3	3.08E-2	1.75E+2
1.49E-1	1.09E+3	2.91E-2	2.04E+2
1.55E-1	1.14E+3	2.91E-2	1.78E+2
1.62E-1	1.18E+3	2.83E-2	2.07E+2
1.49E-1	1.14E+3	3.10E-2	1.67E+2
1.52E-1	1.15E+3	2.64E-2	2.27E+2
1.59E-1	1.13E+3	2.91E-2	1.96E+2
1.48E-1	1.14E+3	3.20E-2	1.92E+2
1.50E-1	1.15E+3	2.78E-2	1.81E+2
1.46E-1	1.11E+3	3.05E-2	2.16E+2
1.49E-1	1.12E+3	2.83E-2	2.39E+2
1.52E-1	1.18E+3	3.32E-2	2.51E+2
1.43E-1	1.13E+3	3.42E-2	2.41E+2
1.51E-1	1.14E+3	3.17E-2	2.22E+2
1.43E-1	1.13E+3	3.15E-2	2.29E+2
1.47E-1	1.05E+3	3.25E-2	2.29E+2
1.51E-1	1.13E+3	3.12E-2	2.18E+2
1.40E-1	1.11E+3	2.76E-2	1.85E+2
1.45E-1	1.12E+3	2.95E-2	2.25E+2
1.51E-1	1.13E+3	2.59E-2	1.54E+2
1.49E-1	1.15E+3	3.22E-2	1.78E+2
5.62E-3	1.37E+1	1.02E-1	6.27E+2
1.46E-1	1.18E+3	3.56E-2	2.09E+2
1.61E-1	1.19E+3	2.91E-2	2.41E+2
1.51E-1	1.15E+3	3.20E-2	2.57E+2
1.52E-1	1.10E+3	2.88E-2	1.80E+2
1.50E-1	1.12E+3	2.98E-2	1.66E+2
1.50E-1	1.11E+3	3.47E-2	2.58E+2
1.46E-1	1.07E+3	3.05E-2	1.88E+2
1.44E-1	1.11E+3	3.17E-2	2.31E+2
1.58E-1	1.14E+3	3.25E-2	1.96E+2
1.45E-1	1.12E+3	3.25E-2	1.68E+2
1.46E-1	1.15E+3	2.91E-2	1.72E+2
1.52E-1	1.14E+3	3.37E-2	2.49E+2
1.56E-1	1.15E+3	3.12E-2	2.56E+2
1.53E-1	1.20E+3	2.91E-2	1.93E+2
1.48E-1	1.19E+3	3.12E-2	2.07E+2
1.52E-1	1.17E+3	3.00E-2	2.70E+2
1.45E-1	1.06E+3	3.12E-2	1.96E+2
1.42E-1	1.08E+3	2.83E-2	2.33E+2
1.50E-1	1.10E+3	2.98E-2	2.16E+2
1.53E-1	1.12E+3	2.88E-2	1.64E+2
1.53E-1	1.14E+3	2.91E-2	1.81E+2
1.52E-1	1.11E+3	3.22E-2	2.04E+2
1.46E-1	1.07E+3	2.76E-2	1.72E+2
1.50E-1	1.13E+3	2.98E-2	2.04E+2
1.54E-1	1.15E+3	3.22E-2	2.40E+2
1.43E-1	1.16E+3	2.78E-2	2.53E+2
1.47E-1	1.13E+3	2.73E-2	2.04E+2
1.52E-1	1.10E+3	3.17E-2	2.42E+2
1.56E-1	1.12E+3	3.10E-2	2.60E+2
1.52E-1	1.09E+3	3.12E-2	2.39E+2
1.46E-1	1.17E+3	2.71E-2	2.36E+2
1.43E-1	1.07E+3	2.83E-2	1.84E+2
1.49E-1	1.11E+3	3.27E-2	2.13E+2
1.58E-1	1.19E+3	3.30E-2	2.13E+2
1.50E-1	1.12E+3	2.93E-2	1.90E+2
1.48E-1	1.12E+3	3.03E-2	2.15E+2
1.44E-1	1.13E+3	2.78E-2	2.11E+2
1.43E-1	1.14E+3	2.98E-2	1.83E+2
1.50E-1	1.14E+3	2.86E-2	2.04E+2
1.50E-1	1.16E+3	2.73E-2	2.48E+2
1.48E-1	1.09E+3	2.88E-2	1.92E+2
1.44E-1	1.08E+3	3.05E-2	1.92E+2
1.56E-1	1.15E+3	2.81E-2	1.83E+2
1.59E-1	1.17E+3	2.73E-2	1.96E+2
1.54E-1	1.15E+3	3.03E-2	2.09E+2
1.48E-1	1.08E+3	3.32E-2	1.91E+2
1.50E-1	1.15E+3	3.08E-2	2.25E+2
1.55E-1	1.23E+3	3.25E-2	1.83E+2
1.49E-1	1.12E+3	2.49E-2	1.98E+2
1.45E-1	1.07E+3	3.34E-2	2.37E+2
1.52E-1	1.14E+3	3.03E-2	2.13E+2
1.55E-1	1.16E+3	3.05E-2	1.68E+2
1.51E-1	1.11E+3	2.76E-2	1.99E+2
1.44E-1	1.10E+3	3.00E-2	2.51E+2
1.41E-1	1.07E+3	3.08E-2	2.13E+2
1.44E-1	1.10E+3	3.34E-2	2.19E+2
1.52E-1	1.12E+3	3.00E-2	2.02E+2
1.58E-1	1.16E+3	3.12E-2	1.98E+2
1.57E-1	1.20E+3	3.22E-2	2.06E+2
1.54E-1	1.14E+3	3.03E-2	1.91E+2
1.50E-1	1.19E+3	2.95E-2	2.14E+2
1.46E-1	1.10E+3	3.10E-2	2.23E+2
1.48E-1	1.10E+3	3.39E-2	2.43E+2
1.51E-1	1.17E+3	2.93E-2	2.31E+2
1.55E-1	1.12E+3	2.83E-2	2.11E+2
1.50E-1	1.06E+3	3.32E-2	2.02E+2
1.41E-1	1.08E+3	2.88E-2	1.87E+2
1.55E-1	1.11E+3	3.27E-2	2.03E+2
1.56E-1	1.14E+3	2.88E-2	1.91E+2
1.54E-1	1.14E+3	3.32E-2	2.24E+2
1.60E-1	1.19E+3	3.08E-2	1.91E+2
1.64E-1	1.18E+3	3.12E-2	2.26E+2
1.49E-1	1.12E+3	3.34E-2	1.99E+2
1.51E-1	1.18E+3	3.37E-2	2.35E+2
1.64E-1	1.21E+3	2.78E-2	2.03E+2
1.50E-1	1.13E+3	3.08E-2	2.13E+2
1.52E-1	1.15E+3	2.76E-2	2.11E+2
1.44E-1	1.06E+3	3.03E-2	2.11E+2
1.50E-1	1.15E+3	2.86E-2	1.96E+2
1.45E-1	1.10E+3	2.93E-2	2.08E+2
1.54E-1	1.10E+3	3.08E-2	2.12E+2
1.48E-1	1.07E+3	3.27E-2	2.06E+2
1.43E-1	1.10E+3	2.88E-2	1.83E+2
1.43E-1	1.07E+3	3.08E-2	1.79E+2
1.55E-1	1.15E+3	2.83E-2	1.64E+2
1.60E-1	1.17E+3	3.42E-2	2.19E+2
1.57E-1	1.19E+3	2.83E-2	2.15E+2
1.50E-1	1.14E+3	2.76E-2	2.14E+2
1.54E-1	1.16E+3	3.03E-2	1.88E+2
1.38E-1	1.07E+3	2.88E-2	2.10E+2
1.50E-1	1.12E+3	2.83E-2	2.01E+2
1.52E-1	1.14E+3	3.20E-2	2.16E+2
1.46E-1	1.08E+3	3.20E-2	2.10E+2
1.52E-1	1.10E+3	2.64E-2	1.67E+2
1.51E-1	1.15E+3	2.91E-2	1.81E+2
1.54E-1	1.14E+3	2.93E-2	1.86E+2
1.53E-1	1.20E+3	2.95E-2	2.22E+2
1.58E-1	1.13E+3	2.91E-2	1.91E+2
1.52E-1	1.10E+3	3.52E-2	2.11E+2
1.52E-1	1.13E+3	3.08E-2	1.93E+2
1.51E-1	1.18E+3	3.54E-2	2.61E+2
1.53E-1	1.08E+3	2.78E-2	1.89E+2
1.42E-1	1.03E+3	3.12E-2	1.89E+2
1.52E-1	1.15E+3	2.98E-2	1.83E+2
1.45E-1	1.04E+3	2.93E-2	1.70E+2
1.40E-1	1.11E+3	2.64E-2	1.81E+2
1.49E-1	1.06E+3	2.88E-2	1.81E+2
1.54E-1	1.12E+3	3.81E-2	2.00E+2
1.44E-1	1.13E+3	3.03E-2	2.10E+2
1.57E-1	1.19E+3	3.05E-2	2.26E+2
1.53E-1	1.15E+3	3.08E-2	2.59E+2
1.55E-1	1.18E+3	2.71E-2	2.20E+2
1.56E-1	1.11E+3	2.83E-2	2.24E+2
1.60E-1	1.18E+3	2.93E-2	2.28E+2
1.52E-1	1.17E+3	2.93E-2	2.26E+2
1.55E-1	1.12E+3	3.15E-2	2.19E+2
4.64E-3	-8.30E+0	1.01E-1	5.39E+2
1.51E-1	1.11E+3	3.08E-2	1.88E+2
1.50E-1	1.14E+3	3.22E-2	1.63E+2
1.57E-1	1.15E+3	3.49E-2	2.14E+2
1.60E-1	1.14E+3	3.15E-2	1.83E+2
1.61E-1	1.14E+3	2.98E-2	1.68E+2
1.56E-1	1.12E+3	3.00E-2	2.06E+2
1.52E-1	1.17E+3	2.59E-2	1.62E+2
1.55E-1	1.12E+3	3.03E-2	1.97E+2
1.46E-1	1.12E+3	2.81E-2	1.96E+2
1.50E-1	1.13E+3	2.76E-2	2.16E+2
1.51E-1	1.09E+3	3.05E-2	1.98E+2
1.54E-1	1.15E+3	2.95E-2	1.92E+2
1.45E-1	1.10E+3	3.08E-2	2.22E+2
1.52E-1	1.12E+3	2.98E-2	1.81E+2
1.56E-1	1.13E+3	2.91E-2	2.14E+2
1.46E-1	1.14E+3	2.98E-2	2.28E+2
1.56E-1	1.15E+3	2.54E-2	1.77E+2
1.47E-1	1.13E+3	2.61E-2	2.19E+2
1.52E-1	1.16E+3	2.54E-2	1.99E+2
1.45E-1	1.10E+3	3.15E-2	1.73E+2
1.46E-1	1.13E+3	3.39E-2	2.49E+2
1.52E-1	1.07E+3	2.86E-2	1.99E+2
1.64E-1	1.18E+3	3.00E-2	2.29E+2
1.43E-1	1.07E+3	3.49E-2	2.12E+2
1.54E-1	1.16E+3	3.42E-2	2.27E+2
1.47E-1	1.16E+3	3.08E-2	1.75E+2
1.51E-1	1.13E+3	2.98E-2	1.97E+2
1.52E-1	1.08E+3	3.25E-2	1.81E+2
1.44E-1	1.18E+3	2.95E-2	1.94E+2
1.46E-1	1.13E+3	2.78E-2	2.22E+2
1.56E-1	1.11E+3	3.15E-2	1.93E+2
1.52E-1	1.13E+3	3.08E-2	2.51E+2
1.40E-1	1.09E+3	3.22E-2	2.22E+2
1.59E-1	1.14E+3	2.73E-2	1.71E+2
1.49E-1	1.09E+3	3.05E-2	2.32E+2
1.49E-1	1.04E+3	2.83E-2	1.53E+2
1.58E-1	1.15E+3	3.08E-2	1.92E+2
1.48E-1	1.15E+3	2.73E-2	1.64E+2
1.44E-1	1.12E+3	2.88E-2	1.89E+2
1.38E-1	1.08E+3	2.83E-2	1.69E+2
1.59E-1	1.17E+3	2.91E-2	1.86E+2
1.55E-1	1.17E+3	2.69E-2	1.99E+2
1.44E-1	1.08E+3	3.15E-2	2.28E+2
1.40E-1	1.12E+3	3.83E-2	2.59E+2
1.50E-1	1.16E+3	3.00E-2	2.43E+2
1.63E-1	1.15E+3	2.88E-2	1.82E+2
1.66E-1	1.17E+3	3.05E-2	1.52E+2
1.54E-1	1.20E+3	3.25E-2	2.08E+2
1.56E-1	1.17E+3	3.10E-2	1.95E+2
1.58E-1	1.12E+3	2.88E-2	1.59E+2
1.56E-1	1.14E+3	2.93E-2	1.79E+2
1.52E-1	1.14E+3	3.37E-2	2.15E+2
1.58E-1	1.18E+3	2.93E-2	1.82E+2
1.46E-1	1.15E+3	2.88E-2	2.41E+2
1.55E-1	1.13E+3	2.91E-2	2.08E+2
1.48E-1	1.07E+3	2.95E-2	2.04E+2
1.43E-1	1.10E+3	2.78E-2	2.04E+2
1.42E-1	1.15E+3	3.10E-2	2.33E+2
1.52E-1	1.19E+3	3.20E-2	2.41E+2
1.56E-1	1.12E+3	3.22E-2	2.40E+2
1.51E-1	1.08E+3	2.83E-2	2.00E+2
1.50E-1	1.16E+3	3.03E-2	1.82E+2
1.38E-1	1.08E+3	2.76E-2	1.81E+2
1.59E-1	1.20E+3	3.12E-2	2.28E+2
1.55E-1	1.13E+3	3.10E-2	2.05E+2
1.57E-1	1.16E+3	2.88E-2	1.82E+2
1.47E-1	1.11E+3	2.93E-2	1.97E+2
1.56E-1	1.13E+3	2.61E-2	2.38E+2
1.49E-1	1.13E+3	3.00E-2	2.15E+2
1.51E-1	1.08E+3	3.37E-2	1.88E+2
1.56E-1	1.15E+3	2.81E-2	1.96E+2
1.55E-1	1.13E+3	2.59E-2	1.49E+2
4.64E-3	2.59E+0	9.86E-2	5.87E+2
1.54E-1	1.13E+3	3.10E-2	2.11E+2
1.51E-1	1.13E+3	3.17E-2	1.66E+2
1.55E-1	1.16E+3	3.15E-2	2.26E+2
1.51E-1	1.13E+3	3.27E-2	2.13E+2
1.58E-1	1.16E+3	2.71E-2	2.27E+2
1.55E-1	1.15E+3	3.52E-2	2.66E+2
1.60E-1	1.14E+3	3.22E-2	1.77E+2
1.54E-1	1.16E+3	2.91E-2	1.55E+2
1.41E-1	1.09E+3	2.71E-2	2.44E+2
1.44E-1	1.13E+3	3.08E-2	2.18E+2
1.47E-1	1.07E+3	2.81E-2	2.01E+2
1.48E-1	1.06E+3	2.95E-2	1.54E+2
1.40E-1	1.12E+3	2.95E-2	2.01E+2
1.42E-1	1.07E+3	3.61E-2	2.19E+2
1.40E-1	1.11E+3	2.81E-2	1.92E+2
1.45E-1	1.15E+3	2.78E-2	1.95E+2
1.51E-1	1.09E+3	3.00E-2	2.10E+2
1.54E-1	1.15E+3	3.25E-2	2.23E+2
1.46E-1	1.14E+3	3.12E-2	2.25E+2
1.48E-1	1.08E+3	3.17E-2	2.10E+2
1.47E-1	1.11E+3	2.76E-2	1.87E+2
1.56E-1	1.10E+3	2.81E-2	2.41E+2
1.65E-1	1.18E+3	2.73E-2	1.77E+2
1.47E-1	1.12E+3	2.91E-2	2.37E+2
1.43E-1	1.05E+3	2.93E-2	1.90E+2
1.56E-1	1.14E+3	2.66E-2	1.68E+2
1.50E-1	1.16E+3	3.30E-2	2.21E+2
1.52E-1	1.12E+3	3.10E-2	2.19E+2
1.57E-1	1.16E+3	3.32E-2	2.22E+2
1.45E-1	1.15E+3	2.98E-2	2.39E+2
1.46E-1	1.15E+3	2.88E-2	2.64E+2
1.55E-1	1.13E+3	2.81E-2	2.18E+2
1.52E-1	1.07E+3	3.25E-2	2.12E+2
1.55E-1	1.09E+3	3.00E-2	2.13E+2
1.54E-1	1.12E+3	3.00E-2	1.44E+2
1.52E-1	1.16E+3	3.17E-2	2.31E+2
1.56E-1	1.19E+3	3.30E-2	1.99E+2
1.53E-1	1.15E+3	3.00E-2	2.10E+2
1.46E-1	1.10E+3	3.12E-2	2.35E+2
1.55E-1	1.12E+3	2.44E-2	1.67E+2
1.50E-1	1.15E+3	3.08E-2	2.23E+2
1.46E-1	1.11E+3	3.34E-2	2.23E+2
1.49E-1	1.07E+3	3.00E-2	1.75E+2
1.62E-1	1.13E+3	2.91E-2	1.81E+2
1.47E-1	1.11E+3	2.95E-2	1.77E+2
1.56E-1	1.11E+3	2.76E-2	2.06E+2
1.61E-1	1.17E+3	3.12E-2	1.80E+2
1.45E-1	1.12E+3	3.05E-2	2.23E+2
1.49E-1	1.10E+3	2.44E-2	2.04E+2
1.56E-1	1.11E+3	3.30E-2	1.69E+2
1.53E-1	1.18E+3	3.00E-2	2.18E+2
1.45E-1	1.10E+3	2.91E-2	2.30E+2
1.50E-1	1.15E+3	2.98E-2	2.06E+2
1.49E-1	1.11E+3	3.05E-2	2.08E+2
1.49E-1	1.16E+3	2.95E-2	2.02E+2
1.49E-1	1.13E+3	2.86E-2	2.49E+2
1.53E-1	1.18E+3	3.27E-2	2.47E+2
1.63E-1	1.17E+3	2.61E-2	1.89E+2
1.51E-1	1.14E+3	3.00E-2	1.57E+2
1.57E-1	1.12E+3	2.98E-2	2.02E+2
1.51E-1	1.11E+3	3.12E-2	2.29E+2
1.52E-1	1.10E+3	2.95E-2	1.88E+2
1.54E-1	1.15E+3	3.00E-2	2.05E+2
1.43E-1	1.12E+3	2.91E-2	1.81E+2
1.49E-1	1.18E+3	3.12E-2	2.15E+2
1.51E-1	1.12E+3	2.98E-2	2.20E+2
1.50E-1	1.17E+3	3.42E-2	2.36E+2
1.51E-1	1.13E+3	3.00E-2	1.59E+2
1.45E-1	1.09E+3	2.78E-2	2.10E+2
1.60E-1	1.16E+3	3.08E-2	2.07E+2
1.47E-1	1.13E+3	3.20E-2	2.23E+2
1.40E-1	1.05E+3	2.86E-2	1.87E+2
1.50E-1	1.10E+3	2.86E-2	1.48E+2
1.47E-1	1.07E+3	3.17E-2	1.87E+2
1.38E-1	1.08E+3	2.83E-2	1.56E+2
1.60E-1	1.14E+3	2.83E-2	1.47E+2
1.46E-1	1.11E+3	2.98E-2	1.76E+2
1.43E-1	1.09E+3	2.78E-2	1.86E+2
1.50E-1	1.13E+3	3.25E-2	2.26E+2
1.46E-1	1.06E+3	2.69E-2	2.07E+2
1.53E-1	1.11E+3	2.91E-2	2.14E+2
1.52E-1	1.14E+3	2.88E-2	2.40E+2
1.51E-1	1.12E+3	2.98E-2	1.85E+2
1.44E-1	1.09E+3	3.03E-2	2.02E+2
1.53E-1	1.12E+3	3.30E-2	2.28E+2
1.45E-1	1.07E+3	2.83E-2	1.95E+2
1.56E-1	1.16E+3	2.78E-2	1.60E+2
1.45E-1	1.12E+3	3.08E-2	2.02E+2
1.43E-1	1.07E+3	3.32E-2	2.13E+2
1.49E-1	1.15E+3	3.15E-2	2.04E+2
1.42E-1	1.08E+3	3.10E-2	2.34E+2
1.47E-1	1.12E+3	3.17E-2	2.20E+2
1.61E-1	1.22E+3	2.93E-2	2.39E+2
1.44E-1	1.10E+3	2.76E-2	1.96E+2
1.56E-1	1.12E+3	3.49E-2	1.97E+2
1.56E-1	1.16E+3	2.71E-2	1.56E+2
1.52E-1	1.09E+3	3.12E-2	1.88E+2
1.50E-1	1.15E+3	3.15E-2	1.87E+2
1.58E-1	1.14E+3	2.73E-2	1.66E+2
1.47E-1	1.08E+3	3.30E-2	2.05E+2
1.56E-1	1.10E+3	3.32E-2	1.75E+2
1.47E-1	1.18E+3	2.91E-2	2.24E+2
1.50E-1	1.15E+3	3.20E-2	2.22E+2
1.52E-1	1.06E+3	3.49E-2	2.67E+2
1.55E-1	1.14E+3	3.03E-2	2.11E+2
1.55E-1	1.11E+3	3.10E-2	2.55E+2
1.46E-1	1.09E+3	3.25E-2	2.32E+2
1.42E-1	1.10E+3	3.12E-2	2.34E+2
1.45E-1	1.08E+3	2.83E-2	1.66E+2
1.52E-1	1.17E+3	3.05E-2	2.23E+2
1.60E-1	1.12E+3	2.88E-2	2.08E+2
1.47E-1	1.17E+3	3.25E-2	2.31E+2
1.54E-1	1.19E+3	3.98E-2	2.19E+2
1.50E-1	1.18E+3	3.27E-2	2.05E+2
1.57E-1	1.13E+3	2.69E-2	2.18E+2
1.50E-1	1.16E+3	3.15E-2	1.98E+2
1.48E-1	1.16E+3	3.32E-2	2.38E+2
1.49E-1	1.14E+3	3.15E-2	2.30E+2
1.48E-1	1.08E+3	3.10E-2	1.98E+2
1.46E-1	1.08E+3	3.27E-2	1.91E+2
1.48E-1	1.14E+3	3.20E-2	2.20E+2
1.53E-1	1.12E+3	3.00E-2	1.57E+2
1.48E-1	1.15E+3	3.30E-2	2.54E+2
1.49E-1	1.09E+3	2.95E-2	1.91E+2
1.52E-1	1.16E+3	3.27E-2	1.93E+2
1.51E-1	1.15E+3	3.10E-2	2.19E+2
1.53E-1	1.11E+3	3.22E-2	2.38E+2
1.49E-1	1.13E+3	3.32E-2	2.26E+2
1.50E-1	1.14E+3	2.86E-2	2.10E+2
1.46E-1	1.16E+3	2.98E-2	2.42E+2
1.45E-1	1.15E+3	2.76E-2	2.20E+2
1.47E-1	1.12E+3	3.12E-2	2.29E+2
1.50E-1	1.16E+3	2.81E-2	2.11E+2
1.46E-1	1.15E+3	2.81E-2	2.16E+2
1.51E-1	1.17E+3	2.81E-2	2.29E+2
1.56E-1	1.15E+3	3.17E-2	2.23E+2
1.59E-1	1.19E+3	2.47E-2	1.69E+2
1.41E-1	1.01E+3	3.22E-2	1.76E+2
1.56E-1	1.19E+3	3.15E-2	2.33E+2
1.39E-1	1.09E+3	3.30E-2	1.89E+2
1.48E-1	1.10E+3	3.05E-2	2.00E+2
1.48E-1	1.11E+3	2.76E-2	2.08E+2
1.43E-1	1.10E+3	2.78E-2	2.00E+2
1.52E-1	1.12E+3	3.15E-2	2.00E+2
1.58E-1	1.11E+3	3.05E-2	2.01E+2
1.41E-1	1.05E+3	3.20E-2	2.31E+2
1.56E-1	1.11E+3	3.03E-2	2.29E+2
1.44E-1	1.13E+3	3.12E-2	2.21E+2
1.51E-1	1.14E+3	3.52E-2	2.39E+2
1.62E-1	1.16E+3	3.08E-2	2.19E+2
1.49E-1	1.14E+3	3.10E-2	2.17E+2
1.46E-1	1.12E+3	3.25E-2	2.59E+2
1.58E-1	1.17E+3	2.95E-2	2.26E+2
1.42E-1	1.11E+3	3.05E-2	2.67E+2
1.54E-1	1.09E+3	3.00E-2	1.71E+2
1.54E-1	1.11E+3	3.20E-2	1.78E+2
1.53E-1	1.11E+3	3.15E-2	2.32E+2
1.43E-1	1.12E+3	3.10E-2	1.77E+2
1.52E-1	1.12E+3	2.95E-2	2.12E+2
1.44E-1	1.09E+3	2.83E-2	1.56E+2
1.50E-1	1.17E+3	3.00E-2	2.24E+2
1.59E-1	1.19E+3	3.20E-2	2.03E+2
1.45E-1	1.11E+3	2.81E-2	1.79E+2
1.53E-1	1.14E+3	3.10E-2	2.47E+2
1.45E-1	1.09E+3	2.93E-2	2.13E+2
1.47E-1	1.07E+3	2.66E-2	1.67E+2
1.57E-1	1.12E+3	3.17E-2	2.04E+2
1.48E-1	1.12E+3	2.71E-2	1.98E+2
1.58E-1	1.10E+3	2.78E-2	2.47E+2
1.55E-1	1.16E+3	3.08E-2	2.13E+2
1.54E-1	1.15E+3	3.03E-2	1.79E+2
1.53E-1	1.16E+3	2.86E-2	2.11E+2
1.44E-1	1.09E+3	2.81E-2	1.97E+2
1.48E-1	1.10E+3	3.32E-2	2.34E+2
1.56E-1	1.16E+3	3.05E-2	2.03E+2
1.53E-1	1.15E+3	2.81E-2	1.93E+2
1.60E-1	1.12E+3	3.22E-2	1.77E+2
1.46E-1	1.09E+3	3.00E-2	1.94E+2
1.52E-1	1.14E+3	2.86E-2	2.35E+2
1.50E-1	1.10E+3	2.95E-2	1.84E+2
1.60E-1	1.15E+3	2.91E-2	1.77E+2
1.52E-1	1.12E+3	2.91E-2	1.79E+2
1.52E-1	1.05E+3	3.05E-2	1.64E+2
1.49E-1	1.10E+3	3.20E-2	1.88E+2
1.58E-1	1.13E+3	2.91E-2	1.84E+2
1.52E-1	1.07E+3	3.08E-2	1.50E+2
1.50E-1	1.16E+3	3.27E-2	2.61E+2
1.53E-1	1.17E+3	3.00E-2	2.37E+2
1.59E-1	1.12E+3	3.05E-2	2.41E+2
1.49E-1	1.14E+3	2.86E-2	2.07E+2
1.45E-1	1.08E+3	2.93E-2	2.26E+2
1.44E-1	1.14E+3	3.05E-2	2.25E+2
1.50E-1	1.04E+3	2.69E-2	2.02E+2
1.60E-1	1.11E+3	2.98E-2	1.78E+2
1.51E-1	1.13E+3	3.08E-2	1.86E+2
1.48E-1	1.15E+3	3.34E-2	2.12E+2
1.44E-1	1.16E+3	3.42E-2	2.20E+2
1.43E-1	1.11E+3	2.86E-2	1.87E+2
1.46E-1	1.06E+3	3.17E-2	2.15E+2
1.56E-1	1.19E+3	2.91E-2	2.35E+2
1.58E-1	1.17E+3	2.91E-2	2.13E+2
1.56E-1	1.15E+3	2.81E-2	2.32E+2
1.46E-1	1.12E+3	3.15E-2	2.20E+2
1.47E-1	1.09E+3	3.03E-2	1.92E+2
1.54E-1	1.11E+3	3.25E-2	2.24E+2
1.49E-1	1.12E+3	2.98E-2	2.40E+2
1.56E-1	1.14E+3	3.03E-2	2.19E+2
1.57E-1	1.20E+3	2.98E-2	2.12E+2
1.50E-1	1.10E+3	3.37E-2	1.93E+2
1.50E-1	1.12E+3	3.03E-2	1.76E+2
1.47E-1	1.15E+3	3.15E-2	2.31E+2
1.57E-1	1.15E+3	3.00E-2	1.69E+2
1.48E-1	1.13E+3	3.54E-2	2.34E+2
1.46E-1	1.15E+3	3.32E-2	2.46E+2
1.61E-1	1.18E+3	3.15E-2	2.20E+2
1.46E-1	1.16E+3	3.00E-2	2.39E+2
1.56E-1	1.12E+3	3.27E-2	1.53E+2
1.59E-1	1.11E+3	2.86E-2	1.72E+2
1.49E-1	1.10E+3	2.86E-2	1.84E+2
