6.67E-1	5.25E+3	1.66E-1	1.12E+3
6.28E-1	4.92E+3	1.70E-1	1.06E+3
6.25E-1	4.96E+3	1.61E-1	1.08E+3
6.47E-1	4.96E+3	1.62E-1	1.01E+3
6.19E-1	4.90E+3	1.67E-1	1.04E+3
6.51E-1	5.01E+3	1.54E-1	1.04E+3
6.22E-1	4.84E+3	1.62E-1	1.02E+3
6.17E-1	4.91E+3	1.55E-1	1.03E+3
6.31E-1	4.91E+3	1.65E-1	1.03E+3
6.23E-1	5.10E+3	1.52E-1	1.01E+3
6.33E-1	5.06E+3	1.53E-1	1.05E+3
6.49E-1	5.16E+3	1.52E-1	9.73E+2
6.53E-1	4.87E+3	1.51E-1	9.98E+2
6.61E-1	4.98E+3	1.56E-1	1.06E+3
6.22E-1	5.01E+3	1.56E-1	9.38E+2
6.27E-1	5.10E+3	1.67E-1	1.06E+3
6.53E-1	5.05E+3	1.57E-1	9.95E+2
6.22E-1	5.06E+3	1.54E-1	1.03E+3
6.25E-1	5.01E+3	1.58E-1	1.03E+3
6.11E-1	4.89E+3	1.71E-1	1.01E+3
6.24E-1	4.96E+3	1.66E-1	1.08E+3
6.27E-1	5.02E+3	1.41E-1	1.01E+3
6.31E-1	4.87E+3	1.65E-1	1.02E+3
6.29E-1	5.04E+3	1.57E-1	1.01E+3
9.52E-2	4.12E+1	3.96E-1	2.44E+3
6.31E-1	4.93E+3	1.54E-1	9.94E+2
6.16E-1	4.95E+3	1.46E-1	1.03E+3
6.46E-1	4.98E+3	1.47E-1	9.86E+2
6.00E-1	4.82E+3	1.67E-1	1.11E+3
6.34E-1	4.78E+3	1.59E-1	1.03E+3
6.22E-1	4.90E+3	1.46E-1	9.65E+2
6.40E-1	5.01E+3	1.62E-1	1.06E+3
6.35E-1	4.87E+3	1.65E-1	1.06E+3
6.18E-1	4.99E+3	1.45E-1	9.73E+2
6.40E-1	5.04E+3	1.42E-1	9.24E+2
6.07E-1	4.85E+3	1.53E-1	1.07E+3
6.18E-1	4.93E+3	1.50E-1	1.06E+3
6.30E-1	4.96E+3	1.67E-1	1.09E+3
6.44E-1	4.98E+3	1.66E-1	1.03E+3
6.15E-1	4.95E+3	1.64E-1	1.00E+3
6.39E-1	4.96E+3	1.64E-1	1.03E+3
6.42E-1	4.89E+3	1.50E-1	9.92E+2
6.48E-1	5.05E+3	1.61E-1	1.02E+3
6.47E-1	4.97E+3	1.55E-1	9.53E+2
6.24E-1	5.01E+3	1.53E-1	1.00E+3
6.32E-1	4.95E+3	1.59E-1	9.36E+2
6.52E-1	5.17E+3	1.61E-1	1.08E+3
6.33E-1	5.12E+3	1.49E-1	1.05E+3
6.51E-1	4.88E+3	1.69E-1	1.05E+3
6.50E-1	4.91E+3	1.69E-1	1.00E+3
6.24E-1	4.84E+3	1.63E-1	1.11E+3
6.37E-1	4.96E+3	1.65E-1	1.01E+3
6.49E-1	5.13E+3	1.54E-1	9.52E+2
6.53E-1	4.95E+3	1.75E-1	1.15E+3
6.19E-1	4.75E+3	1.83E-1	1.14E+3
6.16E-1	5.03E+3	1.52E-1	9.72E+2
6.35E-1	4.91E+3	1.44E-1	9.63E+2
6.40E-1	5.10E+3	1.45E-1	9.63E+2
6.50E-1	4.85E+3	1.65E-1	1.12E+3
6.33E-1	5.11E+3	1.61E-1	1.09E+3
6.24E-1	5.01E+3	1.67E-1	1.09E+3
6.50E-1	5.04E+3	1.63E-1	1.14E+3
6.15E-1	4.92E+3	1.50E-1	9.96E+2
6.25E-1	4.84E+3	1.57E-1	9.76E+2
6.35E-1	4.87E+3	1.61E-1	1.00E+3
6.29E-1	4.82E+3	1.72E-1	1.03E+3
6.39E-1	4.89E+3	1.60E-1	1.02E+3
6.28E-1	4.94E+3	1.58E-1	1.02E+3
6.65E-1	5.01E+3	1.47E-1	9.39E+2
6.26E-1	4.86E+3	1.63E-1	1.08E+3
6.49E-1	5.02E+3	1.63E-1	1.09E+3
6.38E-1	4.97E+3	1.50E-1	1.01E+3
6.28E-1	5.03E+3	1.50E-1	1.05E+3
6.14E-1	4.84E+3	1.52E-1	1.02E+3
6.32E-1	4.90E+3	1.47E-1	9.54E+2
6.15E-1	4.82E+3	1.63E-1	1.03E+3
6.65E-1	5.13E+3	1.76E-1	1.15E+3
6.46E-1	4.91E+3	1.55E-1	9.69E+2
6.45E-1	4.95E+3	1.56E-1	9.72E+2
6.20E-1	4.84E+3	1.78E-1	1.07E+3
6.35E-1	4.81E+3	1.55E-1	1.01E+3
6.24E-1	4.90E+3	1.49E-1	9.92E+2
6.13E-1	4.91E+3	1.66E-1	1.00E+3
6.07E-1	4.85E+3	1.51E-1	1.01E+3
6.44E-1	4.90E+3	1.58E-1	1.02E+3
6.29E-1	4.90E+3	1.62E-1	1.04E+3
6.26E-1	5.02E+3	1.62E-1	1.12E+3
6.40E-1	5.05E+3	1.73E-1	1.17E+3
6.22E-1	4.96E+3	1.64E-1	1.00E+3
6.18E-1	4.86E+3	1.65E-1	1.09E+3
6.37E-1	4.88E+3	1.58E-1	9.92E+2
6.34E-1	4.81E+3	1.75E-1	9.84E+2
6.26E-1	4.89E+3	1.43E-1	8.95E+2
6.14E-1	4.86E+3	1.64E-1	1.03E+3
6.40E-1	4.99E+3	1.51E-1	9.84E+2
6.18E-1	4.81E+3	1.45E-1	9.62E+2
6.04E-1	4.88E+3	1.73E-1	1.07E+3
6.28E-1	4.99E+3	1.64E-1	1.07E+3
6.34E-1	5.13E+3	1.67E-1	1.13E+3
6.10E-1	4.75E+3	1.49E-1	1.03E+3
6.24E-1	4.90E+3	1.40E-1	9.69E+2
6.44E-1	4.98E+3	1.76E-1	1.14E+3
6.22E-1	4.86E+3	1.57E-1	1.00E+3
6.47E-1	4.89E+3	1.55E-1	9.71E+2
6.18E-1	4.92E+3	1.71E-1	1.03E+3
6.28E-1	4.95E+3	1.51E-1	1.04E+3
6.54E-1	4.80E+3	1.77E-1	1.11E+3
6.58E-1	4.89E+3	1.52E-1	9.99E+2
6.39E-1	5.09E+3	1.60E-1	1.07E+3
6.52E-1	4.93E+3	1.46E-1	9.58E+2
6.16E-1	4.93E+3	1.56E-1	9.88E+2
6.24E-1	4.94E+3	1.59E-1	1.10E+3
6.17E-1	4.91E+3	1.70E-1	1.06E+3
6.23E-1	4.98E+3	1.65E-1	1.04E+3
6.19E-1	4.84E+3	1.53E-1	1.03E+3
6.31E-1	5.09E+3	1.50E-1	9.51E+2
6.22E-1	4.89E+3	1.68E-1	1.05E+3
6.60E-1	4.87E+3	1.72E-1	1.07E+3
6.14E-1	4.91E+3	1.56E-1	1.01E+3
6.35E-1	4.95E+3	1.62E-1	1.09E+3
6.31E-1	4.91E+3	1.46E-1	9.85E+2
6.43E-1	5.00E+3	1.64E-1	1.01E+3
6.37E-1	4.93E+3	1.75E-1	1.17E+3
6.30E-1	4.99E+3	1.68E-1	1.05E+3
6.34E-1	4.88E+3	1.36E-1	9.31E+2
6.45E-1	4.82E+3	1.60E-1	9.51E+2
6.15E-1	5.01E+3	1.40E-1	9.15E+2
6.31E-1	4.89E+3	1.64E-1	1.04E+3
6.51E-1	4.96E+3	1.80E-1	1.09E+3
6.19E-1	4.84E+3	1.62E-1	1.03E+3
6.45E-1	5.06E+3	1.59E-1	1.05E+3
6.32E-1	4.92E+3	1.46E-1	9.37E+2
6.65E-1	5.03E+3	1.65E-1	1.10E+3
6.33E-1	4.77E+3	1.68E-1	1.08E+3
6.18E-1	4.72E+3	1.57E-1	9.94E+2
6.25E-1	5.05E+3	1.62E-1	1.11E+3
6.44E-1	4.89E+3	1.81E-1	1.15E+3
6.38E-1	4.82E+3	1.63E-1	1.09E+3
6.30E-1	4.85E+3	1.52E-1	1.02E+3
6.38E-1	5.02E+3	1.48E-1	9.18E+2
6.20E-1	5.02E+3	1.50E-1	1.06E+3
6.50E-1	4.91E+3	1.47E-1	9.19E+2
6.39E-1	4.91E+3	1.73E-1	1.11E+3
6.63E-1	5.00E+3	1.56E-1	1.01E+3
6.50E-1	4.99E+3	1.49E-1	9.61E+2
6.25E-1	5.09E+3	1.53E-1	9.43E+2
6.38E-1	5.00E+3	1.56E-1	1.02E+3
6.26E-1	5.02E+3	1.44E-1	1.02E+3
6.07E-1	4.92E+3	1.61E-1	1.11E+3
6.33E-1	4.94E+3	1.68E-1	1.05E+3
6.24E-1	5.02E+3	1.71E-1	1.09E+3
6.28E-1	5.09E+3	1.51E-1	9.75E+2
6.27E-1	4.95E+3	1.51E-1	9.97E+2
6.30E-1	4.85E+3	1.54E-1	1.01E+3
6.57E-1	5.02E+3	1.46E-1	9.98E+2
6.31E-1	4.94E+3	1.59E-1	1.04E+3
6.44E-1	4.83E+3	1.48E-1	9.84E+2
6.27E-1	4.93E+3	1.62E-1	1.01E+3
6.10E-1	4.92E+3	1.58E-1	1.03E+3
6.16E-1	4.91E+3	1.72E-1	1.00E+3
6.22E-1	4.90E+3	1.58E-1	9.71E+2
6.12E-1	4.91E+3	1.62E-1	1.03E+3
6.56E-1	5.00E+3	1.58E-1	1.07E+3
6.28E-1	5.07E+3	1.70E-1	1.12E+3
6.46E-1	5.18E+3	1.62E-1	1.06E+3
6.11E-1	4.92E+3	1.74E-1	1.09E+3
6.39E-1	4.98E+3	1.81E-1	1.14E+3
6.07E-1	4.95E+3	1.63E-1	1.09E+3
6.12E-1	4.92E+3	1.52E-1	9.59E+2
6.51E-1	5.00E+3	1.71E-1	1.10E+3
6.71E-1	5.01E+3	1.50E-1	9.58E+2
6.25E-1	5.00E+3	1.69E-1	1.11E+3
6.34E-1	4.96E+3	1.64E-1	1.07E+3
6.20E-1	4.93E+3	1.54E-1	1.06E+3
6.26E-1	4.92E+3	1.43E-1	9.65E+2
6.24E-1	5.00E+3	1.63E-1	1.07E+3
6.39E-1	4.92E+3	1.50E-1	9.66E+2
6.22E-1	4.97E+3	1.50E-1	1.03E+3
6.49E-1	4.84E+3	1.74E-1	1.13E+3
6.14E-1	4.93E+3	1.65E-1	1.11E+3
6.51E-1	4.98E+3	1.66E-1	1.07E+3
6.51E-1	5.00E+3	1.62E-1	1.01E+3
6.08E-1	4.80E+3	1.77E-1	1.09E+3
6.50E-1	4.92E+3	1.65E-1	1.05E+3
6.23E-1	4.91E+3	1.44E-1	9.82E+2
6.42E-1	5.00E+3	1.65E-1	9.77E+2
6.48E-1	5.00E+3	1.47E-1	9.09E+2
6.29E-1	5.06E+3	1.59E-1	1.04E+3
6.29E-1	5.03E+3	1.77E-1	1.18E+3
6.34E-1	4.99E+3	1.67E-1	1.09E+3
6.50E-1	5.00E+3	1.47E-1	9.75E+2
6.53E-1	5.00E+3	1.67E-1	1.06E+3
6.39E-1	4.91E+3	1.62E-1	9.92E+2
6.20E-1	4.96E+3	1.58E-1	9.86E+2
6.59E-1	5.01E+3	1.60E-1	1.02E+3
6.51E-1	5.01E+3	1.67E-1	1.05E+3
6.58E-1	4.96E+3	1.69E-1	1.01E+3
6.47E-1	4.83E+3	1.68E-1	1.09E+3
6.29E-1	5.09E+3	1.59E-1	1.04E+3
6.34E-1	4.96E+3	1.61E-1	1.08E+3
6.43E-1	4.89E+3	1.45E-1	9.94E+2
9.45E-2	6.71E+1	3.92E-1	2.41E+3
6.14E-1	4.97E+3	1.75E-1	1.09E+3
6.36E-1	5.03E+3	1.39E-1	9.45E+2
6.40E-1	4.96E+3	1.55E-1	1.01E+3
6.37E-1	4.91E+3	1.55E-1	1.05E+3
6.38E-1	5.10E+3	1.51E-1	9.70E+2
6.45E-1	4.99E+3	1.60E-1	1.05E+3
6.22E-1	5.05E+3	1.56E-1	9.92E+2
6.57E-1	5.04E+3	1.49E-1	9.88E+2
6.32E-1	4.94E+3	1.58E-1	1.03E+3
6.35E-1	4.89E+3	1.66E-1	1.13E+3
6.22E-1	4.89E+3	1.57E-1	9.77E+2
6.30E-1	5.02E+3	1.61E-1	1.01E+3
6.30E-1	4.84E+3	1.54E-1	9.85E+2
6.23E-1	5.00E+3	1.54E-1	1.09E+3
6.19E-1	4.87E+3	1.74E-1	1.15E+3
6.39E-1	4.82E+3	1.49E-1	9.90E+2
6.52E-1	4.83E+3	1.48E-1	1.01E+3
6.35E-1	4.98E+3	1.57E-1	1.07E+3
6.00E-1	4.82E+3	1.47E-1	9.82E+2
6.56E-1	4.99E+3	1.63E-1	1.07E+3
6.45E-1	4.89E+3	1.61E-1	1.05E+3
6.23E-1	4.87E+3	1.68E-1	1.01E+3
6.58E-1	4.95E+3	1.60E-1	1.05E+3
6.26E-1	4.99E+3	1.61E-1	1.07E+3
6.05E-1	4.86E+3	1.70E-1	1.17E+3
6.61E-1	5.15E+3	1.50E-1	1.02E+3
6.13E-1	4.85E+3	1.52E-1	9.76E+2
6.19E-1	4.95E+3	1.52E-1	1.01E+3
6.47E-1	5.04E+3	1.59E-1	1.04E+3
6.19E-1	4.81E+3	1.67E-1	1.04E+3
6.38E-1	4.87E+3	1.65E-1	1.05E+3
6.44E-1	4.91E+3	1.67E-1	1.05E+3
6.58E-1	5.08E+3	1.52E-1	9.25E+2
6.31E-1	5.05E+3	1.60E-1	9.59E+2
6.37E-1	5.21E+3	1.56E-1	1.03E+3
6.57E-1	5.01E+3	1.58E-1	1.02E+3
6.32E-1	4.95E+3	1.73E-1	1.14E+3
6.47E-1	4.90E+3	1.56E-1	1.01E+3
6.36E-1	5.09E+3	1.50E-1	9.96E+2
6.58E-1	4.95E+3	1.47E-1	1.01E+3
6.42E-1	5.02E+3	1.63E-1	1.08E+3
6.42E-1	4.85E+3	1.57E-1	1.06E+3
6.46E-1	4.98E+3	1.56E-1	1.01E+3
6.39E-1	4.84E+3	1.64E-1	1.10E+3
6.55E-1	4.94E+3	1.59E-1	1.03E+3
6.48E-1	5.05E+3	1.54E-1	9.78E+2
6.54E-1	4.92E+3	1.66E-1	1.07E+3
6.47E-1	5.18E+3	1.76E-1	1.13E+3
6.33E-1	4.96E+3	1.58E-1	1.00E+3
6.58E-1	5.09E+3	1.62E-1	1.08E+3
6.18E-1	4.97E+3	1.56E-1	1.11E+3
6.72E-1	5.06E+3	1.54E-1	1.06E+3
6.55E-1	4.97E+3	1.52E-1	1.02E+3
6.35E-1	5.10E+3	1.50E-1	1.01E+3
6.50E-1	5.17E+3	1.55E-1	1.02E+3
6.36E-1	4.91E+3	1.73E-1	1.14E+3
6.53E-1	5.02E+3	1.78E-1	1.12E+3
6.54E-1	4.96E+3	1.61E-1	1.01E+3
6.26E-1	4.76E+3	1.44E-1	9.68E+2
6.26E-1	5.04E+3	1.52E-1	1.02E+3
6.10E-1	4.93E+3	1.75E-1	1.13E+3
6.08E-1	4.90E+3	1.58E-1	1.00E+3
6.19E-1	4.96E+3	1.46E-1	9.73E+2
6.27E-1	4.96E+3	1.48E-1	9.58E+2
6.28E-1	4.92E+3	1.58E-1	1.05E+3
6.13E-1	4.85E+3	1.60E-1	1.06E+3
6.24E-1	4.95E+3	1.55E-1	1.10E+3
6.24E-1	4.87E+3	1.71E-1	1.10E+3
6.22E-1	4.97E+3	1.54E-1	9.83E+2
6.45E-1	5.08E+3	1.63E-1	1.05E+3
6.46E-1	5.02E+3	1.55E-1	1.03E+3
6.50E-1	4.89E+3	1.53E-1	9.02E+2
6.40E-1	4.88E+3	1.48E-1	9.41E+2
6.43E-1	4.96E+3	1.45E-1	8.87E+2
6.21E-1	4.99E+3	1.64E-1	1.06E+3
5.99E-1	4.78E+3	1.79E-1	1.14E+3
6.01E-1	4.81E+3	1.43E-1	9.49E+2
6.18E-1	4.96E+3	1.45E-1	1.02E+3
6.19E-1	4.98E+3	1.37E-1	9.56E+2
6.27E-1	5.11E+3	1.46E-1	9.74E+2
6.25E-1	4.95E+3	1.43E-1	9.79E+2
6.34E-1	4.89E+3	1.59E-1	1.04E+3
6.62E-1	5.14E+3	1.55E-1	9.70E+2
6.50E-1	4.97E+3	1.54E-1	9.63E+2
6.42E-1	4.81E+3	1.57E-1	9.40E+2
6.25E-1	5.07E+3	1.59E-1	1.05E+3
6.04E-1	4.79E+3	1.56E-1	1.06E+3
6.40E-1	4.90E+3	1.68E-1	1.09E+3
6.37E-1	4.81E+3	1.67E-1	1.04E+3
6.13E-1	4.86E+3	1.66E-1	1.02E+3
6.28E-1	4.97E+3	1.70E-1	1.05E+3
6.46E-1	5.12E+3	1.49E-1	1.02E+3
6.23E-1	4.95E+3	1.61E-1	1.01E+3
6.61E-1	5.10E+3	1.46E-1	9.46E+2
6.45E-1	5.15E+3	1.59E-1	1.00E+3
6.38E-1	4.92E+3	1.56E-1	9.63E+2
6.46E-1	4.87E+3	1.63E-1	1.04E+3
6.37E-1	4.95E+3	1.58E-1	9.74E+2
6.41E-1	4.86E+3	1.60E-1	9.94E+2
6.56E-1	4.99E+3	1.67E-1	1.10E+3
6.32E-1	4.78E+3	1.60E-1	9.62E+2
6.29E-1	5.09E+3	1.72E-1	1.08E+3
6.36E-1	4.99E+3	1.69E-1	1.10E+3
6.22E-1	5.05E+3	1.63E-1	1.05E+3
6.20E-1	4.94E+3	1.63E-1	1.06E+3
6.46E-1	5.30E+3	1.49E-1	1.00E+3
6.49E-1	4.90E+3	1.72E-1	1.14E+3
6.30E-1	4.90E+3	1.67E-1	1.02E+3
6.08E-1	4.76E+3	1.53E-1	9.82E+2
6.35E-1	4.88E+3	1.67E-1	9.94E+2
6.17E-1	4.90E+3	1.65E-1	1.07E+3
6.32E-1	5.06E+3	1.59E-1	1.09E+3
6.09E-1	4.79E+3	1.45E-1	9.45E+2
6.41E-1	4.91E+3	1.59E-1	9.80E+2
6.36E-1	5.00E+3	1.48E-1	9.36E+2
6.27E-1	4.93E+3	1.60E-1	1.09E+3
6.18E-1	4.89E+3	1.49E-1	1.02E+3
6.22E-1	4.82E+3	1.75E-1	1.12E+3
6.21E-1	5.01E+3	1.51E-1	1.04E+3
6.40E-1	4.99E+3	1.63E-1	1.05E+3
6.25E-1	4.93E+3	1.66E-1	1.02E+3
6.28E-1	4.79E+3	1.44E-1	9.71E+2
6.39E-1	4.94E+3	1.76E-1	1.04E+3
6.29E-1	5.01E+3	1.81E-1	1.08E+3
6.41E-1	4.87E+3	1.75E-1	1.10E+3
6.36E-1	4.81E+3	1.51E-1	1.02E+3
6.33E-1	4.80E+3	1.76E-1	1.17E+3
6.25E-1	4.98E+3	1.67E-1	1.13E+3
6.24E-1	4.93E+3	1.57E-1	9.86E+2
6.26E-1	5.01E+3	1.76E-1	1.10E+3
6.03E-1	4.88E+3	1.49E-1	9.55E+2
6.27E-1	4.98E+3	1.73E-1	1.13E+3
6.41E-1	4.86E+3	1.51E-1	9.97E+2
6.13E-1	4.93E+3	1.44E-1	9.34E+2
6.14E-1	4.87E+3	1.73E-1	1.07E+3
6.33E-1	4.92E+3	1.35E-1	8.82E+2
6.52E-1	4.89E+3	1.63E-1	9.87E+2
6.57E-1	5.01E+3	1.47E-1	9.79E+2
6.26E-1	4.96E+3	1.73E-1	1.06E+3
6.40E-1	4.85E+3	1.51E-1	1.01E+3
6.62E-1	5.05E+3	1.54E-1	1.05E+3
6.23E-1	4.82E+3	1.58E-1	1.00E+3
6.30E-1	5.07E+3	1.52E-1	1.02E+3
6.37E-1	4.90E+3	1.69E-1	1.05E+3
6.67E-1	5.01E+3	1.49E-1	1.01E+3
6.45E-1	5.07E+3	1.43E-1	9.37E+2
6.31E-1	4.78E+3	1.56E-1	9.74E+2
6.30E-1	4.89E+3	1.84E-1	1.14E+3
6.25E-1	4.95E+3	1.56E-1	1.02E+3
6.25E-1	5.11E+3	1.46E-1	9.03E+2
6.30E-1	4.92E+3	1.66E-1	1.00E+3
6.34E-1	5.03E+3	1.47E-1	9.79E+2
6.09E-1	4.85E+3	1.75E-1	1.17E+3
6.25E-1	4.96E+3	1.77E-1	1.09E+3
6.14E-1	4.82E+3	1.51E-1	9.65E+2
6.14E-1	4.88E+3	1.46E-1	9.55E+2
6.52E-1	5.10E+3	1.58E-1	1.06E+3
6.59E-1	4.88E+3	1.44E-1	9.91E+2
6.31E-1	5.04E+3	1.71E-1	1.14E+3
6.39E-1	4.90E+3	1.56E-1	1.03E+3
6.28E-1	5.04E+3	1.53E-1	1.00E+3
5.96E-1	4.69E+3	1.58E-1	1.02E+3
6.40E-1	5.04E+3	1.49E-1	1.00E+3
6.66E-1	5.14E+3	1.65E-1	1.01E+3
6.24E-1	4.84E+3	1.55E-1	1.01E+3
6.31E-1	4.83E+3	1.60E-1	1.01E+3
6.36E-1	5.14E+3	1.79E-1	1.14E+3
6.23E-1	4.97E+3	1.41E-1	1.01E+3
6.12E-1	4.77E+3	1.61E-1	1.09E+3
6.21E-1	4.86E+3	1.55E-1	1.02E+3
6.26E-1	4.90E+3	1.77E-1	1.14E+3
6.34E-1	4.80E+3	1.47E-1	9.79E+2
6.62E-1	5.11E+3	1.49E-1	9.39E+2
6.35E-1	5.01E+3	1.64E-1	1.06E+3
6.25E-1	5.02E+3	1.69E-1	1.05E+3
6.50E-1	5.06E+3	1.51E-1	9.90E+2
6.12E-1	4.98E+3	1.68E-1	1.11E+3
6.19E-1	4.96E+3	1.48E-1	9.76E+2
6.22E-1	5.02E+3	1.65E-1	1.08E+3
6.22E-1	5.01E+3	1.67E-1	1.04E+3
6.28E-1	4.88E+3	1.50E-1	1.00E+3
6.25E-1	4.97E+3	1.55E-1	1.05E+3
6.10E-1	4.90E+3	1.68E-1	1.10E+3
6.55E-1	5.00E+3	1.64E-1	1.08E+3
6.46E-1	5.05E+3	1.62E-1	1.00E+3
6.45E-1	5.10E+3	1.67E-1	9.95E+2
6.35E-1	4.98E+3	1.49E-1	9.70E+2
6.32E-1	4.96E+3	1.50E-1	1.04E+3
6.10E-1	4.84E+3	1.85E-1	1.16E+3
6.24E-1	5.03E+3	1.61E-1	1.04E+3
6.33E-1	5.04E+3	1.76E-1	1.09E+3
6.25E-1	4.95E+3	1.54E-1	1.02E+3
6.45E-1	4.95E+3	1.65E-1	1.08E+3
6.27E-1	4.95E+3	1.81E-1	1.20E+3
6.37E-1	4.89E+3	1.59E-1	1.08E+3
6.57E-1	5.01E+3	1.48E-1	1.01E+3
6.29E-1	5.03E+3	1.90E-1	1.16E+3
6.50E-1	4.92E+3	1.52E-1	9.43E+2
6.24E-1	4.97E+3	1.44E-1	9.56E+2
6.23E-1	5.02E+3	1.42E-1	9.40E+2
6.30E-1	4.91E+3	1.56E-1	9.96E+2
6.34E-1	4.85E+3	1.56E-1	9.50E+2
6.60E-1	5.04E+3	1.58E-1	1.01E+3
6.32E-1	4.83E+3	1.56E-1	9.55E+2
6.35E-1	5.06E+3	1.51E-1	9.98E+2
6.28E-1	4.88E+3	1.39E-1	9.94E+2
6.18E-1	4.90E+3	1.48E-1	1.02E+3
6.40E-1	5.06E+3	1.45E-1	9.76E+2
6.29E-1	5.07E+3	1.56E-1	1.00E+3
6.20E-1	4.79E+3	1.62E-1	1.04E+3
6.36E-1	4.92E+3	1.69E-1	1.09E+3
6.35E-1	4.86E+3	1.55E-1	1.06E+3
6.17E-1	4.87E+3	1.63E-1	1.06E+3
6.40E-1	4.94E+3	1.49E-1	9.61E+2
6.12E-1	4.87E+3	1.57E-1	9.81E+2
6.46E-1	4.97E+3	1.51E-1	8.97E+2
7.81E-3	9.67E+0	3.93E-1	2.48E+3
6.06E-1	4.77E+3	1.49E-1	9.50E+2
6.26E-1	5.02E+3	1.56E-1	1.04E+3
6.49E-1	4.99E+3	1.65E-1	1.10E+3
6.49E-1	4.88E+3	1.59E-1	1.07E+3
6.18E-1	4.90E+3	1.64E-1	1.09E+3
6.38E-1	5.03E+3	1.63E-1	1.05E+3
6.35E-1	4.75E+3	1.51E-1	1.08E+3
6.19E-1	5.01E+3	1.58E-1	9.88E+2
6.56E-1	4.94E+3	1.63E-1	1.01E+3
6.25E-1	4.84E+3	1.66E-1	1.05E+3
6.26E-1	5.13E+3	1.79E-1	1.12E+3
6.10E-1	4.96E+3	1.62E-1	9.85E+2
6.56E-1	5.00E+3	1.60E-1	9.79E+2
6.12E-1	4.94E+3	1.58E-1	1.06E+3
6.50E-1	4.98E+3	1.37E-1	9.15E+2
6.12E-1	4.86E+3	1.61E-1	1.14E+3
6.29E-1	4.97E+3	1.54E-1	1.02E+3
6.49E-1	5.05E+3	1.63E-1	1.10E+3
6.17E-1	4.78E+3	1.46E-1	9.42E+2
6.56E-1	5.03E+3	1.66E-1	1.03E+3
6.66E-1	5.04E+3	1.49E-1	9.53E+2
6.72E-1	5.20E+3	1.63E-1	1.02E+3
6.35E-1	4.94E+3	1.53E-1	1.03E+3
6.44E-1	4.90E+3	1.49E-1	1.01E+3
6.41E-1	4.94E+3	1.55E-1	9.88E+2
6.44E-1	5.03E+3	1.56E-1	1.01E+3
6.24E-1	5.03E+3	1.53E-1	1.03E+3
6.10E-1	4.90E+3	1.46E-1	1.01E+3
6.42E-1	5.21E+3	1.59E-1	1.04E+3
6.17E-1	4.93E+3	1.81E-1	1.15E+3
6.38E-1	4.99E+3	1.62E-1	1.07E+3
6.25E-1	4.76E+3	1.63E-1	1.10E+3
6.06E-1	4.86E+3	1.57E-1	1.08E+3
6.36E-1	4.94E+3	1.67E-1	1.01E+3
6.18E-1	4.83E+3	1.60E-1	9.93E+2
6.66E-1	5.00E+3	1.79E-1	1.11E+3
6.35E-1	4.99E+3	1.64E-1	1.05E+3
6.09E-1	4.93E+3	1.64E-1	1.09E+3
6.21E-1	5.02E+3	1.69E-1	1.09E+3
6.24E-1	4.84E+3	1.53E-1	9.85E+2
6.57E-1	5.01E+3	1.63E-1	1.07E+3
6.46E-1	4.90E+3	1.61E-1	1.02E+3
6.50E-1	4.95E+3	1.47E-1	9.94E+2
6.21E-1	4.98E+3	1.63E-1	1.06E+3
6.67E-1	5.03E+3	1.45E-1	9.59E+2
6.48E-1	4.97E+3	1.61E-1	1.05E+3
6.62E-1	5.00E+3	1.68E-1	1.08E+3
6.15E-1	4.99E+3	1.65E-1	1.04E+3
5.92E-1	4.71E+3	1.50E-1	1.02E+3
6.03E-1	4.76E+3	1.69E-1	1.08E+3
6.58E-1	5.01E+3	1.60E-1	1.07E+3
6.60E-1	5.08E+3	1.77E-1	1.13E+3
6.16E-1	4.75E+3	1.67E-1	1.09E+3
6.16E-1	4.86E+3	1.58E-1	1.07E+3
6.23E-1	4.93E+3	1.47E-1	9.53E+2
6.24E-1	4.90E+3	1.53E-1	1.02E+3
6.24E-1	4.94E+3	1.50E-1	9.70E+2
6.45E-1	5.00E+3	1.49E-1	1.01E+3
6.49E-1	5.14E+3	1.65E-1	9.68E+2
6.17E-1	4.77E+3	1.63E-1	1.05E+3
6.47E-1	4.88E+3	1.49E-1	9.48E+2
6.29E-1	4.82E+3	1.43E-1	9.21E+2
6.33E-1	5.04E+3	1.63E-1	9.56E+2
6.37E-1	4.95E+3	1.67E-1	1.07E+3
6.25E-1	5.02E+3	1.47E-1	9.89E+2
6.63E-1	5.12E+3	1.58E-1	1.01E+3
6.14E-1	4.86E+3	1.59E-1	1.03E+3
6.23E-1	4.98E+3	1.62E-1	9.92E+2
6.30E-1	5.02E+3	1.60E-1	1.08E+3
6.46E-1	4.77E+3	1.42E-1	1.01E+3
6.50E-1	5.16E+3	1.51E-1	9.93E+2
6.49E-1	5.04E+3	1.43E-1	9.37E+2
6.42E-1	5.13E+3	1.62E-1	1.01E+3
6.27E-1	4.94E+3	1.48E-1	9.13E+2
6.25E-1	4.96E+3	1.48E-1	9.93E+2
6.49E-1	4.99E+3	1.63E-1	1.00E+3
6.63E-1	4.96E+3	1.59E-1	1.06E+3
6.51E-1	4.95E+3	1.59E-1	1.00E+3
6.19E-1	4.92E+3	1.51E-1	1.03E+3
6.37E-1	5.05E+3	1.46E-1	1.03E+3
6.35E-1	5.11E+3	1.53E-1	1.01E+3
6.22E-1	4.93E+3	1.70E-1	1.12E+3
6.18E-1	4.93E+3	1.61E-1	1.09E+3
6.06E-1	4.87E+3	1.53E-1	9.93E+2
6.43E-1	4.99E+3	1.35E-1	9.00E+2
6.13E-1	4.88E+3	1.46E-1	9.68E+2
6.25E-1	4.90E+3	1.64E-1	1.03E+3
6.18E-1	4.86E+3	1.57E-1	9.82E+2
6.13E-1	4.85E+3	1.71E-1	1.13E+3
6.54E-1	4.95E+3	1.56E-1	1.00E+3
6.23E-1	5.03E+3	1.72E-1	1.04E+3
6.36E-1	4.93E+3	1.58E-1	1.02E+3
6.11E-1	4.91E+3	1.64E-1	1.01E+3
6.20E-1	4.88E+3	1.56E-1	1.02E+3
6.33E-1	4.93E+3	1.76E-1	1.12E+3
6.17E-1	4.87E+3	1.70E-1	1.06E+3
6.23E-1	4.96E+3	1.61E-1	1.03E+3
6.37E-1	5.04E+3	1.49E-1	9.86E+2
6.52E-1	4.80E+3	1.49E-1	9.28E+2
6.52E-1	5.00E+3	1.55E-1	1.02E+3
6.34E-1	4.98E+3	1.75E-1	1.19E+3
6.55E-1	5.01E+3	1.54E-1	9.91E+2
6.17E-1	4.90E+3	1.59E-1	1.07E+3
6.47E-1	5.00E+3	1.56E-1	1.01E+3
6.22E-1	4.83E+3	1.48E-1	9.52E+2
6.53E-1	5.05E+3	1.66E-1	1.10E+3
6.07E-1	4.71E+3	1.61E-1	1.05E+3
6.40E-1	4.94E+3	1.45E-1	9.70E+2
6.24E-1	5.02E+3	1.77E-1	1.07E+3
6.25E-1	5.00E+3	1.56E-1	1.04E+3
6.31E-1	5.10E+3	1.63E-1	1.09E+3
6.52E-1	5.08E+3	1.61E-1	1.05E+3
6.50E-1	4.89E+3	1.44E-1	9.72E+2
6.34E-1	4.84E+3	1.41E-1	9.26E+2
6.32E-1	4.79E+3	1.56E-1	1.01E+3
6.17E-1	4.93E+3	1.46E-1	9.39E+2
6.38E-1	5.04E+3	1.65E-1	1.03E+3
6.61E-1	5.13E+3	1.68E-1	1.03E+3
6.18E-1	4.98E+3	1.62E-1	9.66E+2
6.23E-1	4.96E+3	1.56E-1	1.01E+3
6.28E-1	4.93E+3	1.52E-1	9.51E+2
6.37E-1	4.83E+3	1.60E-1	1.08E+3
6.44E-1	4.90E+3	1.64E-1	1.10E+3
6.40E-1	4.77E+3	1.33E-1	8.69E+2
6.35E-1	4.84E+3	1.48E-1	9.39E+2
6.43E-1	4.83E+3	1.73E-1	1.08E+3
6.57E-1	4.91E+3	1.70E-1	9.99E+2
6.37E-1	4.94E+3	1.64E-1	1.06E+3
6.51E-1	5.05E+3	1.61E-1	1.00E+3
6.20E-1	5.00E+3	1.61E-1	1.05E+3
6.22E-1	5.03E+3	1.69E-1	1.06E+3
6.39E-1	5.04E+3	1.57E-1	1.05E+3
6.52E-1	5.13E+3	1.62E-1	1.03E+3
6.15E-1	4.85E+3	1.52E-1	1.03E+3
6.47E-1	5.05E+3	1.61E-1	1.03E+3
6.50E-1	5.05E+3	1.46E-1	9.55E+2
6.28E-1	5.05E+3	1.61E-1	1.04E+3
6.07E-1	4.86E+3	1.51E-1	1.04E+3
6.26E-1	5.03E+3	1.62E-1	1.02E+3
6.41E-1	5.05E+3	1.74E-1	1.12E+3
6.13E-1	4.83E+3	1.83E-1	1.15E+3
6.30E-1	5.23E+3	1.62E-1	1.05E+3
6.33E-1	4.89E+3	1.43E-1	9.32E+2
6.20E-1	4.95E+3	1.59E-1	9.83E+2
6.19E-1	4.92E+3	1.57E-1	9.76E+2
6.45E-1	5.11E+3	1.77E-1	1.09E+3
6.27E-1	4.94E+3	1.57E-1	1.05E+3
6.66E-1	4.98E+3	1.68E-1	1.05E+3
6.53E-1	4.98E+3	1.50E-1	9.84E+2
6.29E-1	4.96E+3	1.62E-1	1.11E+3
6.46E-1	4.97E+3	1.69E-1	1.08E+3
6.72E-1	5.08E+3	1.53E-1	1.02E+3
6.63E-1	4.97E+3	1.70E-1	1.02E+3
6.31E-1	4.96E+3	1.51E-1	9.48E+2
6.59E-1	5.06E+3	1.52E-1	9.49E+2
6.37E-1	4.88E+3	1.64E-1	1.06E+3
6.42E-1	5.07E+3	1.61E-1	1.01E+3
6.23E-1	5.03E+3	1.73E-1	1.06E+3
6.51E-1	5.09E+3	1.59E-1	1.06E+3
6.40E-1	5.17E+3	1.73E-1	1.20E+3
6.20E-1	4.89E+3	1.53E-1	1.03E+3
6.55E-1	4.88E+3	1.47E-1	1.04E+3
6.33E-1	4.89E+3	1.54E-1	9.97E+2
6.11E-1	4.88E+3	1.56E-1	1.04E+3
6.65E-1	5.12E+3	1.68E-1	1.11E+3
6.55E-1	5.01E+3	1.60E-1	1.02E+3
6.57E-1	4.99E+3	1.49E-1	9.41E+2
6.33E-1	5.02E+3	1.54E-1	9.58E+2
6.32E-1	5.05E+3	1.62E-1	1.06E+3
6.45E-1	4.90E+3	1.46E-1	9.98E+2
6.26E-1	5.02E+3	1.73E-1	1.08E+3
6.60E-1	5.08E+3	1.75E-1	1.11E+3
6.27E-1	5.00E+3	1.57E-1	9.38E+2
6.38E-1	5.15E+3	1.85E-1	1.06E+3
6.41E-1	4.94E+3	1.49E-1	1.01E+3
6.61E-1	5.07E+3	1.78E-1	1.04E+3
6.33E-1	4.99E+3	1.70E-1	1.14E+3
6.46E-1	4.94E+3	1.66E-1	1.04E+3
6.39E-1	4.89E+3	1.56E-1	9.84E+2
6.31E-1	4.96E+3	1.66E-1	1.09E+3
6.46E-1	4.97E+3	1.50E-1	1.03E+3
6.28E-1	4.78E+3	1.65E-1	1.09E+3
6.44E-1	4.85E+3	1.50E-1	1.01E+3
6.28E-1	5.07E+3	1.53E-1	1.00E+3
6.32E-1	4.96E+3	1.77E-1	1.11E+3
6.70E-1	4.96E+3	1.55E-1	1.03E+3
6.26E-1	4.90E+3	1.57E-1	1.11E+3
6.32E-1	5.09E+3	1.62E-1	1.01E+3
6.33E-1	5.04E+3	1.56E-1	1.02E+3
6.23E-1	5.02E+3	1.47E-1	9.42E+2
6.53E-1	4.94E+3	1.62E-1	1.06E+3
6.32E-1	4.97E+3	1.60E-1	1.00E+3
6.41E-1	4.82E+3	1.86E-1	1.11E+3
6.34E-1	4.93E+3	1.54E-1	1.00E+3
6.21E-1	5.00E+3	1.71E-1	1.07E+3
6.42E-1	5.06E+3	1.75E-1	1.10E+3
6.58E-1	5.04E+3	1.62E-1	1.08E+3
6.26E-1	4.99E+3	1.59E-1	1.04E+3
6.39E-1	4.70E+3	1.58E-1	1.03E+3
6.17E-1	4.88E+3	1.49E-1	1.00E+3
6.39E-1	4.85E+3	1.43E-1	9.36E+2
6.33E-1	5.01E+3	1.54E-1	9.82E+2
2.05E-2	1.40E+1	3.97E-1	2.50E+3
6.53E-1	4.99E+3	1.60E-1	9.92E+2
6.53E-1	4.87E+3	1.61E-1	9.97E+2
6.14E-1	4.86E+3	1.60E-1	9.96E+2
6.13E-1	4.90E+3	1.61E-1	1.03E+3
6.41E-1	5.03E+3	1.50E-1	9.76E+2
6.44E-1	5.10E+3	1.60E-1	1.04E+3
6.43E-1	4.98E+3	1.54E-1	9.82E+2
6.41E-1	5.19E+3	1.53E-1	9.94E+2
6.13E-1	4.93E+3	1.53E-1	9.73E+2
6.49E-1	5.02E+3	1.65E-1	1.05E+3
6.29E-1	4.68E+3	1.69E-1	1.08E+3
6.42E-1	4.91E+3	1.57E-1	1.03E+3
6.42E-1	4.87E+3	1.68E-1	1.08E+3
6.42E-1	5.04E+3	1.69E-1	1.14E+3
6.22E-1	5.01E+3	1.58E-1	1.05E+3
6.30E-1	5.04E+3	1.78E-1	1.06E+3
6.08E-1	4.85E+3	1.59E-1	1.03E+3
6.41E-1	4.89E+3	1.46E-1	9.46E+2
6.04E-1	4.89E+3	1.59E-1	1.09E+3
6.24E-1	5.01E+3	1.54E-1	1.03E+3
6.28E-1	5.01E+3	1.76E-1	1.17E+3
6.29E-1	5.01E+3	1.52E-1	9.65E+2
6.24E-1	5.05E+3	1.60E-1	1.07E+3
6.17E-1	5.02E+3	1.57E-1	1.09E+3
6.51E-1	4.97E+3	1.66E-1	1.07E+3
6.28E-1	5.04E+3	1.62E-1	1.10E+3
6.01E-1	4.80E+3	1.56E-1	1.03E+3
6.35E-1	4.94E+3	1.57E-1	9.54E+2
6.56E-1	4.90E+3	1.64E-1	1.01E+3
6.41E-1	5.11E+3	1.65E-1	1.06E+3
6.45E-1	5.02E+3	1.61E-1	1.07E+3
6.16E-1	4.82E+3	1.63E-1	1.10E+3
6.30E-1	4.95E+3	1.68E-1	1.06E+3
6.34E-1	4.85E+3	1.59E-1	1.07E+3
6.22E-1	4.99E+3	1.55E-1	1.03E+3
6.29E-1	5.13E+3	1.47E-1	9.47E+2
6.62E-1	4.97E+3	1.49E-1	9.61E+2
6.23E-1	4.85E+3	1.68E-1	1.08E+3
6.59E-1	5.07E+3	1.52E-1	1.03E+3
6.32E-1	4.86E+3	1.47E-1	9.75E+2
6.29E-1	5.02E+3	1.62E-1	1.03E+3
6.26E-1	4.99E+3	1.54E-1	1.00E+3
6.36E-1	5.03E+3	1.52E-1	9.34E+2
6.30E-1	5.07E+3	1.79E-1	1.15E+3
6.14E-1	4.96E+3	1.70E-1	1.14E+3
6.53E-1	5.16E+3	1.67E-1	1.10E+3
6.37E-1	4.97E+3	1.80E-1	1.10E+3
6.19E-1	4.91E+3	1.72E-1	1.11E+3
6.61E-1	5.09E+3	1.41E-1	9.60E+2
6.30E-1	4.79E+3	1.64E-1	1.03E+3
6.28E-1	4.87E+3	1.62E-1	1.04E+3
6.62E-1	5.00E+3	1.52E-1	9.86E+2
6.27E-1	4.91E+3	1.66E-1	1.03E+3
6.21E-1	4.90E+3	1.70E-1	1.01E+3
6.49E-1	5.08E+3	1.71E-1	1.09E+3
6.57E-1	5.01E+3	1.54E-1	1.01E+3
6.28E-1	4.91E+3	1.59E-1	1.03E+3
6.22E-1	4.86E+3	1.46E-1	1.00E+3
6.47E-1	4.98E+3	1.56E-1	1.01E+3
6.18E-1	4.95E+3	1.59E-1	1.03E+3
6.23E-1	5.00E+3	1.81E-1	1.12E+3
6.16E-1	5.01E+3	1.63E-1	1.07E+3
6.38E-1	5.02E+3	1.44E-1	9.33E+2
6.44E-1	4.89E+3	1.64E-1	1.08E+3
6.38E-1	5.04E+3	1.64E-1	1.11E+3
6.39E-1	4.94E+3	1.62E-1	1.02E+3
6.43E-1	4.83E+3	1.71E-1	1.05E+3
6.60E-1	4.91E+3	1.61E-1	1.06E+3
6.37E-1	4.99E+3	1.72E-1	1.09E+3
6.37E-1	5.12E+3	1.50E-1	9.97E+2
6.26E-1	4.91E+3	1.47E-1	9.80E+2
6.25E-1	4.99E+3	1.52E-1	9.27E+2
6.42E-1	4.92E+3	1.58E-1	9.94E+2
6.28E-1	4.84E+3	1.61E-1	1.07E+3
6.54E-1	4.88E+3	1.52E-1	1.03E+3
6.34E-1	5.14E+3	1.54E-1	9.94E+2
6.07E-1	4.89E+3	1.55E-1	1.03E+3
6.42E-1	5.02E+3	1.58E-1	1.04E+3
6.72E-1	5.01E+3	1.58E-1	1.02E+3
6.49E-1	5.04E+3	1.61E-1	1.08E+3
6.27E-1	4.84E+3	1.65E-1	1.08E+3
6.31E-1	5.11E+3	1.68E-1	1.08E+3
6.14E-1	4.94E+3	1.65E-1	1.07E+3
6.55E-1	5.04E+3	1.50E-1	9.83E+2
6.54E-1	5.15E+3	1.68E-1	1.09E+3
6.30E-1	4.99E+3	1.68E-1	9.85E+2
6.51E-1	5.05E+3	1.56E-1	1.09E+3
6.35E-1	4.84E+3	1.44E-1	9.83E+2
6.44E-1	4.92E+3	1.46E-1	1.01E+3
6.32E-1	4.95E+3	1.62E-1	1.06E+3
6.63E-1	5.13E+3	1.55E-1	9.55E+2
6.43E-1	4.93E+3	1.54E-1	1.02E+3
6.37E-1	4.88E+3	1.53E-1	9.93E+2
6.48E-1	4.85E+3	1.56E-1	9.73E+2
6.32E-1	4.84E+3	1.65E-1	1.00E+3
6.24E-1	5.03E+3	1.63E-1	1.00E+3
6.29E-1	4.96E+3	1.60E-1	1.09E+3
6.46E-1	5.08E+3	1.75E-1	1.15E+3
6.57E-1	5.10E+3	1.56E-1	1.03E+3
6.09E-1	4.70E+3	1.46E-1	9.74E+2
6.22E-1	4.95E+3	1.57E-1	1.11E+3
6.27E-1	5.09E+3	1.46E-1	9.95E+2
6.17E-1	4.99E+3	1.68E-1	1.11E+3
6.25E-1	5.06E+3	1.56E-1	1.03E+3
6.64E-1	4.97E+3	1.64E-1	1.04E+3
6.58E-1	4.96E+3	1.58E-1	1.02E+3
6.49E-1	4.91E+3	1.62E-1	1.01E+3
6.48E-1	5.07E+3	1.50E-1	1.00E+3
6.27E-1	4.94E+3	1.67E-1	1.04E+3
6.34E-1	5.08E+3	1.38E-1	9.75E+2
6.40E-1	5.03E+3	1.66E-1	1.08E+3
6.39E-1	4.90E+3	1.42E-1	9.76E+2
6.25E-1	4.84E+3	1.64E-1	1.05E+3
6.47E-1	4.90E+3	1.56E-1	9.75E+2
6.31E-1	4.95E+3	1.62E-1	1.06E+3
6.33E-1	5.04E+3	1.70E-1	1.08E+3
6.03E-1	4.76E+3	1.44E-1	9.97E+2
6.39E-1	4.96E+3	1.69E-1	1.05E+3
6.30E-1	4.78E+3	1.46E-1	9.60E+2
6.53E-1	4.85E+3	1.78E-1	1.14E+3
6.25E-1	4.94E+3	1.62E-1	9.77E+2
6.49E-1	4.94E+3	1.75E-1	1.09E+3
6.44E-1	5.15E+3	1.61E-1	1.06E+3
6.28E-1	4.93E+3	1.50E-1	9.77E+2
6.17E-1	4.83E+3	1.57E-1	9.84E+2
6.49E-1	4.91E+3	1.57E-1	1.02E+3
6.49E-1	4.89E+3	1.56E-1	1.01E+3
6.26E-1	5.08E+3	1.34E-1	9.47E+2
6.37E-1	5.16E+3	1.64E-1	1.05E+3
6.50E-1	5.00E+3	1.43E-1	9.24E+2
6.08E-1	4.82E+3	1.54E-1	9.87E+2
6.43E-1	4.98E+3	1.49E-1	9.95E+2
6.26E-1	4.90E+3	1.53E-1	9.47E+2
6.12E-1	4.90E+3	1.66E-1	1.07E+3
6.07E-1	4.88E+3	1.49E-1	1.00E+3
6.85E-1	4.99E+3	1.60E-1	9.71E+2
6.26E-1	4.98E+3	1.57E-1	1.03E+3
6.43E-1	5.00E+3	1.57E-1	1.06E+3
6.21E-1	5.01E+3	1.57E-1	1.08E+3
6.58E-1	4.97E+3	1.54E-1	1.04E+3
6.04E-1	4.84E+3	1.44E-1	9.32E+2
6.24E-1	4.86E+3	1.54E-1	9.66E+2
6.35E-1	4.93E+3	1.45E-1	9.70E+2
6.06E-1	4.84E+3	1.65E-1	1.07E+3
6.45E-1	4.86E+3	1.48E-1	9.10E+2
6.40E-1	4.91E+3	1.59E-1	1.03E+3
6.56E-1	5.11E+3	1.72E-1	1.12E+3
6.50E-1	5.04E+3	1.61E-1	9.33E+2
6.28E-1	5.13E+3	1.47E-1	9.77E+2
6.56E-1	4.95E+3	1.57E-1	1.05E+3
6.17E-1	4.96E+3	1.53E-1	1.06E+3
6.27E-1	4.96E+3	1.68E-1	1.05E+3
6.15E-1	4.94E+3	1.48E-1	1.03E+3
6.57E-1	5.01E+3	1.35E-1	9.73E+2
6.47E-1	5.05E+3	1.76E-1	1.13E+3
6.16E-1	4.88E+3	1.68E-1	1.04E+3
6.42E-1	4.91E+3	1.62E-1	1.00E+3
6.41E-1	5.06E+3	1.60E-1	1.07E+3
6.41E-1	5.08E+3	1.67E-1	1.10E+3
6.32E-1	4.84E+3	1.76E-1	1.17E+3
6.44E-1	5.21E+3	1.45E-1	9.68E+2
6.40E-1	5.05E+3	1.58E-1	1.09E+3
6.43E-1	5.10E+3	1.48E-1	9.88E+2
6.22E-1	5.01E+3	1.50E-1	1.01E+3
6.32E-1	4.92E+3	1.63E-1	1.02E+3
6.33E-1	5.12E+3	1.61E-1	1.08E+3
6.12E-1	4.98E+3	1.65E-1	9.98E+2
6.45E-1	4.89E+3	1.49E-1	9.91E+2
6.39E-1	5.00E+3	1.68E-1	1.05E+3
6.10E-1	4.88E+3	1.59E-1	1.05E+3
6.13E-1	4.75E+3	1.40E-1	9.11E+2
6.24E-1	4.93E+3	1.54E-1	1.00E+3
6.38E-1	4.99E+3	1.55E-1	1.06E+3
6.19E-1	4.98E+3	1.65E-1	1.02E+3
6.31E-1	4.93E+3	1.52E-1	1.00E+3
6.18E-1	5.03E+3	1.65E-1	1.11E+3
6.32E-1	5.08E+3	1.75E-1	1.18E+3
6.35E-1	4.93E+3	1.64E-1	1.05E+3
6.39E-1	5.09E+3	1.72E-1	1.15E+3
6.23E-1	4.97E+3	1.52E-1	1.03E+3
6.55E-1	5.03E+3	1.43E-1	9.84E+2
6.11E-1	4.99E+3	1.60E-1	9.34E+2
6.28E-1	4.82E+3	1.61E-1	9.93E+2
6.45E-1	4.96E+3	1.52E-1	9.79E+2
7.08E-3	-2.98E+0	4.10E-1	2.61E+3
6.40E-1	5.00E+3	1.50E-1	9.34E+2
6.41E-1	5.03E+3	1.45E-1	9.50E+2
6.43E-1	5.03E+3	1.52E-1	9.37E+2
6.42E-1	5.07E+3	1.74E-1	1.10E+3
6.36E-1	5.06E+3	1.51E-1	1.01E+3
6.82E-1	5.12E+3	1.50E-1	9.65E+2
6.45E-1	4.92E+3	1.60E-1	9.56E+2
6.23E-1	4.96E+3	1.75E-1	1.09E+3
6.29E-1	4.99E+3	1.59E-1	1.05E+3
6.66E-1	5.06E+3	1.55E-1	1.05E+3
6.53E-1	5.20E+3	1.62E-1	1.10E+3
6.15E-1	4.79E+3	1.51E-1	9.53E+2
6.40E-1	5.01E+3	1.70E-1	1.09E+3
6.35E-1	4.87E+3	1.79E-1	1.04E+3
6.25E-1	5.02E+3	1.60E-1	1.07E+3
6.31E-1	4.85E+3	1.49E-1	1.04E+3
6.10E-1	4.95E+3	1.62E-1	1.06E+3
6.35E-1	4.90E+3	1.59E-1	9.92E+2
6.50E-1	4.95E+3	1.60E-1	1.04E+3
6.33E-1	4.85E+3	1.60E-1	9.99E+2
6.39E-1	4.86E+3	1.54E-1	9.55E+2
6.47E-1	4.88E+3	1.56E-1	1.02E+3
6.31E-1	4.86E+3	1.52E-1	9.85E+2
6.27E-1	5.06E+3	1.56E-1	9.51E+2
6.38E-1	4.86E+3	1.52E-1	9.93E+2
6.27E-1	4.97E+3	1.53E-1	1.03E+3
6.22E-1	4.96E+3	1.78E-1	1.22E+3
6.24E-1	4.94E+3	1.71E-1	1.06E+3
6.00E-1	4.79E+3	1.60E-1	1.04E+3
6.26E-1	5.14E+3	1.67E-1	1.13E+3
6.13E-1	4.76E+3	1.71E-1	1.07E+3
6.05E-1	4.88E+3	1.46E-1	9.96E+2
6.33E-1	4.79E+3	1.51E-1	9.65E+2
6.23E-1	4.99E+3	1.46E-1	9.23E+2
6.03E-1	4.93E+3	1.51E-1	1.00E+3
6.66E-1	5.02E+3	1.68E-1	1.07E+3
6.42E-1	4.89E+3	1.49E-1	9.31E+2
6.38E-1	4.83E+3	1.56E-1	1.00E+3
6.30E-1	4.75E+3	1.61E-1	1.04E+3
6.64E-1	5.15E+3	1.40E-1	8.87E+2
6.39E-1	4.96E+3	1.60E-1	1.02E+3
6.24E-1	4.88E+3	1.51E-1	9.67E+2
6.02E-1	4.80E+3	1.60E-1	1.10E+3
6.39E-1	4.86E+3	1.57E-1	1.04E+3
6.51E-1	4.96E+3	1.55E-1	1.01E+3
6.48E-1	4.88E+3	1.56E-1	9.58E+2
6.23E-1	4.98E+3	1.59E-1	1.04E+3
6.38E-1	5.08E+3	1.56E-1	1.02E+3
6.43E-1	5.05E+3	1.46E-1	9.87E+2
6.25E-1	4.68E+3	1.56E-1	9.89E+2
6.37E-1	4.97E+3	1.66E-1	1.10E+3
6.36E-1	5.01E+3	1.50E-1	9.22E+2
6.25E-1	4.99E+3	1.43E-1	9.50E+2
6.13E-1	4.90E+3	1.57E-1	1.05E+3
6.41E-1	5.01E+3	1.56E-1	1.04E+3
6.32E-1	5.01E+3	1.50E-1	1.04E+3
6.40E-1	5.13E+3	1.55E-1	1.07E+3
6.59E-1	5.01E+3	1.66E-1	1.02E+3
6.44E-1	5.01E+3	1.67E-1	1.13E+3
6.21E-1	5.01E+3	1.51E-1	9.79E+2
6.34E-1	5.00E+3	1.72E-1	1.04E+3
6.51E-1	4.97E+3	1.40E-1	9.28E+2
6.63E-1	4.97E+3	1.69E-1	9.73E+2
6.06E-1	4.86E+3	1.51E-1	9.56E+2
6.29E-1	5.09E+3	1.52E-1	9.35E+2
6.27E-1	4.99E+3	1.49E-1	9.58E+2
6.17E-1	4.95E+3	1.67E-1	1.02E+3
6.40E-1	4.97E+3	1.69E-1	1.14E+3
6.42E-1	5.04E+3	1.50E-1	1.00E+3
6.43E-1	5.09E+3	1.73E-1	1.06E+3
6.37E-1	4.98E+3	1.49E-1	9.66E+2
6.37E-1	4.94E+3	1.62E-1	1.05E+3
6.07E-1	4.81E+3	1.60E-1	1.02E+3
6.40E-1	4.99E+3	1.50E-1	1.01E+3
6.12E-1	4.85E+3	1.58E-1	1.03E+3
6.14E-1	4.92E+3	1.68E-1	1.11E+3
6.20E-1	4.94E+3	1.66E-1	1.08E+3
6.58E-1	5.00E+3	1.61E-1	1.09E+3
6.28E-1	4.92E+3	1.50E-1	1.01E+3
6.35E-1	5.05E+3	1.49E-1	1.05E+3
6.11E-1	5.04E+3	1.53E-1	9.72E+2
6.20E-1	4.84E+3	1.77E-1	1.15E+3
6.42E-1	4.85E+3	1.55E-1	1.00E+3
6.18E-1	4.94E+3	1.55E-1	1.02E+3
6.18E-1	4.87E+3	1.62E-1	9.90E+2
6.21E-1	5.09E+3	1.67E-1	1.01E+3
6.49E-1	5.02E+3	1.62E-1	1.05E+3
6.04E-1	4.93E+3	1.42E-1	9.46E+2
6.29E-1	5.17E+3	1.65E-1	9.92E+2
6.31E-1	4.96E+3	1.49E-1	1.03E+3
6.30E-1	4.89E+3	1.83E-1	1.13E+3
6.30E-1	4.78E+3	1.58E-1	1.03E+3
6.23E-1	5.04E+3	1.57E-1	1.08E+3
6.08E-1	4.89E+3	1.55E-1	1.04E+3
6.46E-1	4.97E+3	1.61E-1	1.08E+3
6.58E-1	5.00E+3	1.60E-1	1.03E+3
6.49E-1	5.03E+3	1.43E-1	1.00E+3
6.23E-1	4.88E+3	1.60E-1	1.03E+3
6.43E-1	4.85E+3	1.48E-1	9.54E+2
6.03E-1	4.86E+3	1.50E-1	1.03E+3
6.43E-1	4.92E+3	1.43E-1	9.71E+2
6.56E-1	5.01E+3	1.46E-1	8.87E+2
6.39E-1	5.04E+3	1.54E-1	1.00E+3
6.29E-1	5.00E+3	1.59E-1	1.07E+3
6.40E-1	4.94E+3	1.56E-1	1.04E+3
6.31E-1	5.02E+3	1.57E-1	1.01E+3
6.30E-1	4.83E+3	1.67E-1	1.06E+3
6.60E-1	5.06E+3	1.52E-1	1.01E+3
6.17E-1	4.89E+3	1.53E-1	1.08E+3
6.32E-1	4.91E+3	1.60E-1	9.55E+2
6.41E-1	4.86E+3	1.79E-1	1.05E+3
6.21E-1	4.85E+3	1.83E-1	1.15E+3
6.18E-1	4.99E+3	1.70E-1	1.06E+3
6.51E-1	4.98E+3	1.64E-1	9.93E+2
6.24E-1	5.04E+3	1.63E-1	1.02E+3
6.42E-1	4.96E+3	1.55E-1	9.97E+2
6.40E-1	4.96E+3	1.44E-1	8.96E+2
6.24E-1	4.99E+3	1.79E-1	1.10E+3
5.37E-3	-8.79E+0	4.00E-1	2.52E+3
6.12E-1	4.99E+3	1.46E-1	1.05E+3
6.32E-1	5.07E+3	1.56E-1	1.08E+3
6.35E-1	4.88E+3	1.41E-1	9.26E+2
6.58E-1	4.89E+3	1.56E-1	9.54E+2
6.27E-1	4.90E+3	1.52E-1	9.71E+2
6.71E-1	5.06E+3	1.52E-1	1.03E+3
6.44E-1	5.02E+3	1.53E-1	9.81E+2
6.44E-1	4.94E+3	1.63E-1	1.05E+3
6.57E-1	4.91E+3	1.49E-1	9.75E+2
6.27E-1	4.86E+3	1.62E-1	1.00E+3
6.48E-1	4.90E+3	1.57E-1	1.09E+3
6.26E-1	5.10E+3	1.61E-1	1.08E+3
6.49E-1	4.83E+3	1.57E-1	1.01E+3
6.28E-1	4.97E+3	1.51E-1	1.01E+3
6.44E-1	4.86E+3	1.71E-1	1.06E+3
6.18E-1	4.94E+3	1.64E-1	1.05E+3
6.48E-1	4.92E+3	1.51E-1	9.81E+2
6.39E-1	4.97E+3	1.68E-1	1.06E+3
6.13E-1	4.88E+3	1.55E-1	1.01E+3
6.32E-1	4.84E+3	1.62E-1	1.04E+3
6.42E-1	4.93E+3	1.72E-1	1.03E+3
6.24E-1	4.96E+3	1.82E-1	1.13E+3
6.23E-1	4.92E+3	1.87E-1	1.13E+3
6.39E-1	5.06E+3	1.52E-1	1.02E+3
6.27E-1	5.05E+3	1.55E-1	9.79E+2
6.30E-1	5.10E+3	1.58E-1	1.06E+3
6.26E-1	4.96E+3	1.62E-1	1.07E+3
6.59E-1	5.12E+3	1.71E-1	1.15E+3
6.47E-1	4.95E+3	1.76E-1	1.15E+3
6.55E-1	5.06E+3	1.66E-1	1.09E+3
6.46E-1	4.95E+3	1.57E-1	1.01E+3
6.38E-1	5.01E+3	1.75E-1	1.08E+3
6.55E-1	5.09E+3	1.74E-1	1.13E+3
6.09E-1	4.77E+3	1.61E-1	1.06E+3
6.23E-1	5.01E+3	1.58E-1	1.04E+3
6.23E-1	5.07E+3	1.57E-1	9.58E+2
6.23E-1	4.98E+3	1.76E-1	1.09E+3
6.24E-1	4.92E+3	1.73E-1	1.05E+3
7.81E-3	1.63E+1	3.96E-1	2.56E+3
6.46E-1	4.95E+3	1.64E-1	1.07E+3
6.16E-1	4.92E+3	1.56E-1	1.07E+3
6.59E-1	4.99E+3	1.65E-1	1.07E+3
6.55E-1	5.01E+3	1.52E-1	1.01E+3
6.56E-1	4.92E+3	1.66E-1	1.04E+3
6.40E-1	4.94E+3	1.52E-1	1.04E+3
6.28E-1	4.94E+3	1.43E-1	9.65E+2
6.08E-1	4.89E+3	1.53E-1	9.83E+2
6.21E-1	4.84E+3	1.45E-1	9.55E+2
6.61E-1	4.97E+3	1.77E-1	1.05E+3
6.53E-1	4.98E+3	1.50E-1	9.95E+2
6.21E-1	4.85E+3	1.56E-1	1.01E+3
6.40E-1	5.02E+3	1.47E-1	9.64E+2
6.51E-1	5.02E+3	1.61E-1	1.10E+3
6.41E-1	5.03E+3	1.69E-1	1.10E+3
6.32E-1	4.84E+3	1.65E-1	1.04E+3
6.57E-1	5.09E+3	1.41E-1	9.51E+2
6.00E-1	4.76E+3	1.40E-1	9.17E+2
6.32E-1	5.03E+3	1.54E-1	1.01E+3
6.36E-1	4.98E+3	1.55E-1	9.71E+2
6.56E-1	5.04E+3	1.63E-1	1.07E+3
6.65E-1	4.98E+3	1.87E-1	1.12E+3
6.49E-1	4.97E+3	1.64E-1	1.06E+3
6.53E-1	5.10E+3	1.60E-1	1.03E+3
6.05E-1	5.00E+3	1.53E-1	1.00E+3
6.40E-1	4.99E+3	1.68E-1	1.04E+3
6.21E-1	4.85E+3	1.46E-1	9.26E+2
6.19E-1	4.80E+3	1.70E-1	1.10E+3
6.46E-1	4.94E+3	1.57E-1	1.01E+3
6.04E-1	4.74E+3	1.73E-1	1.15E+3
6.16E-1	5.00E+3	1.56E-1	1.01E+3
6.41E-1	5.00E+3	1.48E-1	9.94E+2
6.45E-1	4.96E+3	1.36E-1	8.95E+2
6.48E-1	4.97E+3	1.44E-1	9.59E+2
6.36E-1	4.87E+3	1.56E-1	1.02E+3
6.60E-1	5.07E+3	1.55E-1	1.06E+3
