2.95E-1	1.22E+3	6.13E-2	1.77E+2
2.95E-1	1.29E+3	5.47E-2	1.68E+2
2.95E-1	1.27E+3	5.71E-2	1.74E+2
2.96E-1	1.21E+3	5.79E-2	1.86E+2
3.15E-1	1.29E+3	6.15E-2	2.36E+2
3.20E-1	1.29E+3	7.08E-2	2.77E+2
3.09E-1	1.25E+3	6.13E-2	2.38E+2
3.28E-1	1.32E+3	5.76E-2	2.36E+2
3.17E-1	1.27E+3	6.37E-2	2.63E+2
3.21E-1	1.28E+3	7.54E-2	3.29E+2
3.24E-1	1.25E+3	6.45E-2	2.53E+2
2.99E-1	1.19E+3	6.32E-2	2.21E+2
2.97E-1	1.24E+3	5.98E-2	2.09E+2
3.36E-1	1.38E+3	6.42E-2	2.25E+2
2.95E-1	1.23E+3	6.42E-2	2.33E+2
3.07E-1	1.35E+3	5.86E-2	1.98E+2
2.94E-1	1.16E+3	5.83E-2	2.24E+2
3.03E-1	1.33E+3	6.13E-2	2.33E+2
3.08E-1	1.24E+3	6.05E-2	2.27E+2
3.11E-1	1.28E+3	5.96E-2	1.98E+2
3.21E-1	1.28E+3	6.49E-2	2.42E+2
3.10E-1	1.23E+3	5.93E-2	2.73E+2
2.98E-1	1.30E+3	6.57E-2	2.45E+2
3.03E-1	1.28E+3	5.83E-2	2.03E+2
7.30E-2	4.57E+1	2.52E-1	6.23E+2
3.18E-1	1.32E+3	5.98E-2	2.10E+2
3.07E-1	1.21E+3	5.71E-2	2.53E+2
3.21E-1	1.35E+3	6.71E-2	3.15E+2
2.99E-1	1.27E+3	5.88E-2	2.49E+2
3.12E-1	1.21E+3	6.23E-2	2.25E+2
3.19E-1	1.26E+3	6.76E-2	2.43E+2
3.21E-1	1.33E+3	6.81E-2	2.80E+2
3.08E-1	1.34E+3	6.86E-2	2.42E+2
3.15E-1	1.20E+3	5.91E-2	2.11E+2
2.92E-1	1.23E+3	6.32E-2	2.79E+2
3.18E-1	1.20E+3	6.93E-2	3.30E+2
3.19E-1	1.22E+3	6.42E-2	2.75E+2
2.93E-1	1.25E+3	6.62E-2	2.32E+2
3.00E-1	1.28E+3	5.93E-2	2.27E+2
2.99E-1	1.23E+3	5.76E-2	2.08E+2
3.18E-1	1.32E+3	6.64E-2	2.70E+2
3.08E-1	1.31E+3	5.64E-2	2.21E+2
3.10E-1	1.29E+3	6.84E-2	2.34E+2
2.97E-1	1.34E+3	5.98E-2	2.17E+2
3.21E-1	1.30E+3	6.57E-2	2.81E+2
2.91E-1	1.17E+3	5.66E-2	1.58E+2
3.11E-1	1.16E+3	5.91E-2	1.86E+2
2.99E-1	1.23E+3	6.20E-2	2.47E+2
3.05E-1	1.13E+3	7.08E-2	2.75E+2
2.93E-1	1.20E+3	6.10E-2	2.12E+2
3.10E-1	1.21E+3	5.96E-2	1.53E+2
3.02E-1	1.27E+3	5.91E-2	2.34E+2
2.96E-1	1.27E+3	5.69E-2	2.16E+2
3.04E-1	1.30E+3	6.15E-2	2.16E+2
3.22E-1	1.39E+3	5.93E-2	2.24E+2
3.01E-1	1.26E+3	6.18E-2	2.43E+2
3.20E-1	1.30E+3	5.91E-2	2.32E+2
3.13E-1	1.18E+3	5.81E-2	2.24E+2
3.07E-1	1.18E+3	6.54E-2	3.22E+2
3.32E-1	1.28E+3	6.18E-2	2.38E+2
3.01E-1	1.30E+3	6.20E-2	2.37E+2
3.19E-1	1.29E+3	6.59E-2	3.07E+2
3.28E-1	1.29E+3	6.57E-2	2.32E+2
2.93E-1	1.18E+3	6.76E-2	2.53E+2
3.04E-1	1.25E+3	6.25E-2	1.70E+2
2.92E-1	1.25E+3	5.98E-2	2.01E+2
2.99E-1	1.21E+3	5.96E-2	2.17E+2
3.04E-1	1.26E+3	6.10E-2	2.05E+2
3.34E-1	1.30E+3	6.45E-2	3.05E+2
3.16E-1	1.26E+3	6.32E-2	1.99E+2
3.02E-1	1.33E+3	6.18E-2	2.73E+2
3.41E-1	1.32E+3	6.32E-2	2.90E+2
3.25E-1	1.33E+3	6.62E-2	2.68E+2
3.04E-1	1.28E+3	6.01E-2	2.85E+2
3.17E-1	1.28E+3	6.52E-2	2.06E+2
2.97E-1	1.28E+3	6.05E-2	1.94E+2
3.09E-1	1.33E+3	6.20E-2	2.53E+2
2.98E-1	1.23E+3	5.49E-2	1.72E+2
3.08E-1	1.19E+3	5.66E-2	1.57E+2
3.18E-1	1.23E+3	6.47E-2	1.98E+2
3.18E-1	1.27E+3	6.13E-2	1.85E+2
3.03E-1	1.24E+3	6.59E-2	2.81E+2
3.00E-1	1.30E+3	5.86E-2	2.11E+2
2.98E-1	1.16E+3	5.98E-2	1.94E+2
3.06E-1	1.25E+3	6.40E-2	2.57E+2
3.23E-1	1.24E+3	6.20E-2	2.27E+2
3.30E-1	1.34E+3	6.67E-2	2.43E+2
3.10E-1	1.31E+3	6.71E-2	2.51E+2
3.22E-1	1.29E+3	6.96E-2	2.76E+2
3.04E-1	1.25E+3	6.15E-2	2.52E+2
2.98E-1	1.20E+3	6.30E-2	2.49E+2
3.09E-1	1.23E+3	6.30E-2	1.80E+2
3.17E-1	1.15E+3	6.25E-2	2.35E+2
2.97E-1	1.19E+3	5.74E-2	1.98E+2
3.26E-1	1.26E+3	5.96E-2	1.90E+2
3.08E-1	1.26E+3	6.59E-2	2.45E+2
3.10E-1	1.33E+3	6.10E-2	2.53E+2
3.03E-1	1.29E+3	6.37E-2	2.20E+2
3.13E-1	1.27E+3	6.01E-2	2.52E+2
3.31E-1	1.26E+3	6.57E-2	2.65E+2
3.02E-1	1.26E+3	6.08E-2	2.68E+2
3.05E-1	1.26E+3	6.05E-2	2.10E+2
2.92E-1	1.21E+3	6.13E-2	2.16E+2
3.06E-1	1.40E+3	6.03E-2	2.13E+2
2.99E-1	1.26E+3	5.96E-2	1.93E+2
3.12E-1	1.35E+3	7.54E-2	2.31E+2
2.96E-1	1.28E+3	6.45E-2	2.11E+2
2.93E-1	1.14E+3	6.45E-2	2.57E+2
3.24E-1	1.28E+3	5.62E-2	1.86E+2
3.12E-1	1.27E+3	6.49E-2	2.76E+2
2.99E-1	1.18E+3	6.47E-2	1.79E+2
3.07E-1	1.29E+3	6.23E-2	2.06E+2
3.00E-1	1.28E+3	6.23E-2	2.36E+2
2.95E-1	1.17E+3	6.42E-2	2.38E+2
3.17E-1	1.24E+3	5.79E-2	2.66E+2
2.91E-1	1.15E+3	6.52E-2	2.07E+2
3.02E-1	1.15E+3	6.37E-2	2.33E+2
2.95E-1	1.22E+3	5.74E-2	1.93E+2
3.14E-1	1.32E+3	5.71E-2	2.14E+2
3.28E-1	1.28E+3	5.98E-2	2.46E+2
3.06E-1	1.29E+3	6.37E-2	2.34E+2
2.96E-1	1.29E+3	6.01E-2	1.85E+2
3.08E-1	1.29E+3	6.42E-2	2.33E+2
3.13E-1	1.28E+3	5.83E-2	2.41E+2
3.05E-1	1.37E+3	6.57E-2	3.10E+2
2.99E-1	1.22E+3	6.18E-2	1.68E+2
2.84E-1	1.17E+3	6.10E-2	1.86E+2
2.90E-1	1.20E+3	6.64E-2	2.26E+2
3.04E-1	1.33E+3	6.23E-2	1.84E+2
3.23E-1	1.22E+3	6.20E-2	2.33E+2
3.44E-1	1.42E+3	6.57E-2	2.14E+2
2.97E-1	1.20E+3	6.18E-2	2.07E+2
2.97E-1	1.28E+3	6.30E-2	2.22E+2
3.08E-1	1.25E+3	6.20E-2	1.83E+2
3.09E-1	1.26E+3	5.98E-2	2.42E+2
3.06E-1	1.24E+3	6.20E-2	2.39E+2
3.25E-1	1.31E+3	6.23E-2	2.20E+2
3.00E-1	1.29E+3	6.15E-2	2.42E+2
3.15E-1	1.24E+3	6.49E-2	3.01E+2
2.97E-1	1.24E+3	6.59E-2	2.07E+2
3.24E-1	1.30E+3	6.08E-2	2.64E+2
3.10E-1	1.21E+3	6.57E-2	2.36E+2
3.19E-1	1.26E+3	5.83E-2	2.25E+2
3.04E-1	1.20E+3	6.23E-2	2.02E+2
2.88E-1	1.15E+3	5.91E-2	1.86E+2
3.06E-1	1.28E+3	5.93E-2	1.89E+2
3.05E-1	1.25E+3	6.52E-2	2.50E+2
3.07E-1	1.31E+3	6.45E-2	2.34E+2
3.15E-1	1.38E+3	5.98E-2	2.05E+2
3.14E-1	1.23E+3	6.40E-2	1.91E+2
3.10E-1	1.38E+3	5.79E-2	1.95E+2
3.07E-1	1.27E+3	6.18E-2	2.35E+2
2.99E-1	1.20E+3	6.62E-2	2.45E+2
3.14E-1	1.27E+3	7.10E-2	2.67E+2
3.00E-1	1.31E+3	6.59E-2	2.25E+2
3.14E-1	1.29E+3	6.54E-2	2.31E+2
3.01E-1	1.17E+3	6.86E-2	2.67E+2
3.08E-1	1.37E+3	6.08E-2	2.05E+2
2.92E-1	1.17E+3	5.79E-2	2.05E+2
2.92E-1	1.23E+3	5.69E-2	1.92E+2
3.07E-1	1.29E+3	6.76E-2	2.58E+2
2.98E-1	1.20E+3	6.05E-2	1.80E+2
3.17E-1	1.27E+3	6.18E-2	2.09E+2
3.02E-1	1.30E+3	6.18E-2	2.50E+2
2.97E-1	1.16E+3	6.18E-2	2.22E+2
2.93E-1	1.20E+3	6.84E-2	2.79E+2
3.07E-1	1.31E+3	5.96E-2	2.32E+2
2.91E-1	1.17E+3	6.76E-2	2.34E+2
2.94E-1	1.24E+3	6.10E-2	2.31E+2
2.89E-1	1.24E+3	6.40E-2	2.45E+2
3.16E-1	1.20E+3	6.13E-2	2.20E+2
3.20E-1	1.30E+3	6.35E-2	2.56E+2
3.06E-1	1.22E+3	6.42E-2	2.33E+2
3.21E-1	1.27E+3	7.20E-2	2.63E+2
2.93E-1	1.24E+3	5.96E-2	2.33E+2
3.00E-1	1.30E+3	5.83E-2	2.00E+2
2.95E-1	1.26E+3	6.35E-2	2.41E+2
3.23E-1	1.30E+3	6.81E-2	2.92E+2
2.97E-1	1.18E+3	6.35E-2	1.80E+2
3.06E-1	1.23E+3	5.86E-2	2.62E+2
2.92E-1	1.13E+3	6.15E-2	1.87E+2
2.93E-1	1.21E+3	6.15E-2	1.27E+2
3.16E-1	1.23E+3	6.64E-2	2.62E+2
2.96E-1	1.22E+3	5.76E-2	2.09E+2
3.22E-1	1.31E+3	6.23E-2	2.61E+2
3.19E-1	1.20E+3	6.69E-2	2.81E+2
2.97E-1	1.30E+3	5.88E-2	2.34E+2
2.97E-1	1.24E+3	6.20E-2	1.74E+2
3.17E-1	1.41E+3	6.57E-2	2.34E+2
2.96E-1	1.29E+3	5.86E-2	2.17E+2
3.12E-1	1.27E+3	6.54E-2	2.55E+2
3.19E-1	1.30E+3	6.15E-2	2.32E+2
3.09E-1	1.14E+3	6.35E-2	2.13E+2
2.94E-1	1.17E+3	6.49E-2	2.51E+2
3.02E-1	1.14E+3	5.93E-2	1.34E+2
2.99E-1	1.27E+3	5.66E-2	1.86E+2
2.89E-1	1.14E+3	5.59E-2	1.90E+2
3.01E-1	1.22E+3	6.30E-2	1.99E+2
2.91E-1	1.23E+3	6.03E-2	2.21E+2
3.11E-1	1.25E+3	6.62E-2	2.44E+2
3.24E-1	1.33E+3	6.69E-2	2.57E+2
3.91E-2	2.60E+1	2.64E-1	6.50E+2
2.88E-1	1.20E+3	6.10E-2	2.15E+2
3.12E-1	1.36E+3	6.18E-2	2.36E+2
2.97E-1	1.34E+3	6.40E-2	2.46E+2
3.07E-1	1.22E+3	6.64E-2	2.89E+2
2.96E-1	1.28E+3	6.13E-2	1.99E+2
3.05E-1	1.24E+3	6.01E-2	1.98E+2
3.08E-1	1.29E+3	6.49E-2	1.99E+2
3.20E-1	1.21E+3	6.03E-2	2.26E+2
3.03E-1	1.28E+3	6.57E-2	3.05E+2
3.10E-1	1.42E+3	6.52E-2	2.26E+2
3.36E-1	1.32E+3	6.05E-2	1.95E+2
3.15E-1	1.19E+3	6.15E-2	2.69E+2
3.19E-1	1.28E+3	6.10E-2	2.47E+2
3.33E-1	1.33E+3	6.27E-2	2.33E+2
2.98E-1	1.25E+3	6.10E-2	2.18E+2
3.06E-1	1.21E+3	6.40E-2	2.01E+2
3.03E-1	1.26E+3	6.25E-2	2.30E+2
2.99E-1	1.21E+3	6.64E-2	2.70E+2
3.03E-1	1.27E+3	6.62E-2	2.57E+2
2.94E-1	1.16E+3	6.52E-2	2.50E+2
2.93E-1	1.20E+3	6.49E-2	2.21E+2
3.11E-1	1.31E+3	6.52E-2	2.00E+2
3.07E-1	1.32E+3	6.27E-2	2.03E+2
3.13E-1	1.32E+3	6.49E-2	2.98E+2
3.24E-1	1.24E+3	6.88E-2	2.61E+2
3.15E-1	1.31E+3	6.32E-2	2.74E+2
3.17E-1	1.23E+3	6.23E-2	3.02E+2
3.09E-1	1.26E+3	6.01E-2	2.25E+2
3.22E-1	1.24E+3	6.23E-2	2.62E+2
3.08E-1	1.21E+3	5.91E-2	2.51E+2
2.95E-1	1.21E+3	6.18E-2	1.96E+2
3.25E-1	1.30E+3	6.10E-2	1.68E+2
3.10E-1	1.36E+3	5.64E-2	1.72E+2
2.89E-1	1.20E+3	6.45E-2	2.84E+2
2.91E-1	1.21E+3	6.13E-2	2.31E+2
3.14E-1	1.32E+3	6.52E-2	2.39E+2
3.04E-1	1.26E+3	5.81E-2	2.17E+2
3.34E-1	1.38E+3	6.15E-2	1.67E+2
3.07E-1	1.25E+3	5.98E-2	2.20E+2
3.01E-1	1.27E+3	6.25E-2	2.68E+2
3.17E-1	1.29E+3	6.03E-2	2.61E+2
3.18E-1	1.33E+3	6.13E-2	2.11E+2
3.21E-1	1.30E+3	6.62E-2	2.13E+2
3.01E-1	1.25E+3	6.57E-2	2.32E+2
3.13E-1	1.24E+3	6.59E-2	2.08E+2
2.97E-1	1.20E+3	6.20E-2	1.89E+2
2.99E-1	1.24E+3	6.49E-2	2.50E+2
2.92E-1	1.17E+3	5.91E-2	1.85E+2
3.14E-1	1.20E+3	6.25E-2	2.16E+2
3.00E-1	1.20E+3	6.57E-2	2.08E+2
3.18E-1	1.28E+3	6.67E-2	3.02E+2
3.17E-1	1.27E+3	6.42E-2	2.43E+2
3.19E-1	1.24E+3	6.32E-2	2.33E+2
3.07E-1	1.43E+3	6.37E-2	2.91E+2
3.21E-1	1.35E+3	6.25E-2	2.53E+2
3.12E-1	1.22E+3	5.83E-2	2.39E+2
2.97E-1	1.21E+3	6.25E-2	2.55E+2
3.02E-1	1.24E+3	5.66E-2	1.50E+2
2.98E-1	1.25E+3	5.83E-2	1.92E+2
2.96E-1	1.26E+3	6.40E-2	2.59E+2
2.94E-1	1.25E+3	6.10E-2	2.18E+2
3.07E-1	1.42E+3	6.27E-2	2.57E+2
2.98E-1	1.23E+3	6.59E-2	2.02E+2
3.11E-1	1.34E+3	5.88E-2	2.08E+2
3.07E-1	1.29E+3	6.10E-2	2.01E+2
2.92E-1	1.23E+3	6.13E-2	2.83E+2
3.30E-1	1.29E+3	6.67E-2	2.70E+2
3.07E-1	1.18E+3	6.35E-2	2.00E+2
3.18E-1	1.24E+3	6.32E-2	2.18E+2
3.10E-1	1.27E+3	5.93E-2	2.14E+2
2.89E-1	1.21E+3	5.96E-2	2.22E+2
2.92E-1	1.24E+3	6.25E-2	1.65E+2
3.03E-1	1.21E+3	5.88E-2	2.21E+2
3.14E-1	1.24E+3	6.18E-2	2.11E+2
3.21E-1	1.28E+3	5.74E-2	1.97E+2
3.06E-1	1.33E+3	6.30E-2	2.33E+2
3.00E-1	1.28E+3	6.27E-2	2.43E+2
3.21E-1	1.26E+3	5.98E-2	2.72E+2
3.23E-1	1.34E+3	6.49E-2	3.03E+2
3.10E-1	1.26E+3	6.18E-2	2.18E+2
3.04E-1	1.32E+3	6.35E-2	2.81E+2
3.13E-1	1.29E+3	6.23E-2	2.77E+2
3.16E-1	1.32E+3	6.20E-2	2.57E+2
3.04E-1	1.23E+3	5.98E-2	1.92E+2
3.22E-1	1.27E+3	6.20E-2	2.13E+2
3.29E-1	1.37E+3	6.05E-2	1.94E+2
3.05E-1	1.25E+3	6.42E-2	2.79E+2
3.14E-1	1.18E+3	5.93E-2	1.76E+2
2.95E-1	1.26E+3	6.13E-2	2.11E+2
3.18E-1	1.31E+3	5.79E-2	1.69E+2
2.97E-1	1.26E+3	6.47E-2	2.99E+2
3.11E-1	1.18E+3	6.49E-2	2.78E+2
2.98E-1	1.18E+3	6.45E-2	2.33E+2
3.15E-1	1.27E+3	6.84E-2	2.77E+2
3.04E-1	1.23E+3	6.47E-2	3.18E+2
3.05E-1	1.33E+3	5.76E-2	1.48E+2
2.99E-1	1.19E+3	6.01E-2	2.04E+2
2.95E-1	1.20E+3	5.54E-2	1.93E+2
2.97E-1	1.28E+3	5.47E-2	2.25E+2
3.23E-1	1.17E+3	6.03E-2	2.19E+2
2.99E-1	1.30E+3	5.86E-2	1.95E+2
3.01E-1	1.32E+3	6.40E-2	2.23E+2
3.23E-1	1.40E+3	6.08E-2	2.36E+2
2.95E-1	1.27E+3	6.96E-2	2.49E+2
2.91E-1	1.18E+3	6.37E-2	2.31E+2
2.97E-1	1.23E+3	6.20E-2	1.91E+2
2.90E-1	1.17E+3	6.03E-2	2.18E+2
3.10E-1	1.28E+3	5.96E-2	2.09E+2
2.89E-1	1.25E+3	6.49E-2	2.54E+2
2.96E-1	1.27E+3	5.64E-2	1.96E+2
3.09E-1	1.36E+3	6.40E-2	2.56E+2
2.94E-1	1.33E+3	6.45E-2	2.54E+2
3.04E-1	1.26E+3	6.27E-2	2.56E+2
2.96E-1	1.29E+3	6.13E-2	2.26E+2
3.10E-1	1.32E+3	6.35E-2	2.15E+2
3.09E-1	1.18E+3	6.35E-2	2.35E+2
3.12E-1	1.35E+3	5.91E-2	2.51E+2
3.11E-1	1.28E+3	6.05E-2	1.98E+2
3.08E-1	1.32E+3	6.57E-2	2.42E+2
3.18E-1	1.28E+3	6.93E-2	2.58E+2
3.19E-1	1.31E+3	6.20E-2	2.12E+2
3.01E-1	1.39E+3	6.42E-2	2.31E+2
2.94E-1	1.22E+3	6.20E-2	2.27E+2
3.18E-1	1.26E+3	5.86E-2	1.48E+2
2.84E-1	1.19E+3	6.15E-2	1.92E+2
2.99E-1	1.30E+3	5.98E-2	2.12E+2
3.20E-1	1.35E+3	6.18E-2	2.32E+2
3.08E-1	1.33E+3	6.20E-2	2.62E+2
3.21E-1	1.33E+3	6.35E-2	3.13E+2
3.17E-1	1.32E+3	6.93E-2	2.92E+2
3.05E-1	1.24E+3	6.93E-2	2.77E+2
2.99E-1	1.26E+3	5.81E-2	1.65E+2
2.90E-1	1.17E+3	6.18E-2	1.84E+2
3.00E-1	1.31E+3	6.59E-2	2.18E+2
2.90E-1	1.23E+3	6.35E-2	1.94E+2
3.01E-1	1.22E+3	6.25E-2	2.49E+2
2.94E-1	1.32E+3	5.91E-2	1.88E+2
3.13E-1	1.24E+3	5.93E-2	2.07E+2
2.98E-1	1.28E+3	6.10E-2	2.04E+2
3.17E-1	1.30E+3	6.86E-2	3.09E+2
3.30E-1	1.26E+3	5.98E-2	1.93E+2
3.10E-1	1.27E+3	6.64E-2	2.98E+2
3.13E-1	1.31E+3	6.05E-2	2.29E+2
3.07E-1	1.19E+3	6.42E-2	2.53E+2
3.02E-1	1.26E+3	6.25E-2	2.52E+2
3.15E-1	1.26E+3	6.23E-2	2.25E+2
2.90E-1	1.13E+3	5.40E-2	1.16E+2
2.95E-1	1.24E+3	6.74E-2	2.29E+2
2.95E-1	1.31E+3	6.10E-2	1.98E+2
3.04E-1	1.21E+3	5.98E-2	2.04E+2
3.10E-1	1.27E+3	5.98E-2	2.00E+2
3.06E-1	1.31E+3	6.47E-2	2.49E+2
3.06E-1	1.28E+3	5.93E-2	2.35E+2
2.96E-1	1.27E+3	6.74E-2	2.65E+2
3.03E-1	1.31E+3	6.49E-2	2.74E+2
3.00E-1	1.34E+3	6.03E-2	2.44E+2
3.02E-1	1.22E+3	6.27E-2	2.14E+2
3.12E-1	1.21E+3	6.20E-2	2.09E+2
3.02E-1	1.17E+3	6.71E-2	2.43E+2
2.88E-1	1.16E+3	7.01E-2	2.83E+2
3.18E-1	1.34E+3	6.54E-2	2.44E+2
3.04E-1	1.19E+3	6.08E-2	1.85E+2
3.12E-1	1.21E+3	6.54E-2	2.44E+2
3.07E-1	1.41E+3	6.25E-2	2.95E+2
3.00E-1	1.30E+3	5.81E-2	2.38E+2
3.15E-1	1.26E+3	7.03E-2	3.25E+2
3.18E-1	1.24E+3	6.47E-2	2.83E+2
2.98E-1	1.16E+3	6.18E-2	2.77E+2
3.12E-1	1.21E+3	6.05E-2	2.46E+2
3.23E-1	1.34E+3	6.71E-2	2.69E+2
3.09E-1	1.23E+3	6.25E-2	2.54E+2
3.05E-1	1.24E+3	6.35E-2	2.13E+2
2.97E-1	1.27E+3	6.47E-2	2.09E+2
3.18E-1	1.19E+3	6.59E-2	2.55E+2
3.11E-1	1.25E+3	6.01E-2	2.07E+2
3.08E-1	1.34E+3	6.30E-2	1.99E+2
3.01E-1	1.22E+3	6.18E-2	2.54E+2
2.93E-1	1.22E+3	6.25E-2	2.71E+2
2.93E-1	1.23E+3	5.76E-2	2.04E+2
3.06E-1	1.30E+3	5.88E-2	2.22E+2
3.23E-1	1.33E+3	6.52E-2	2.71E+2
2.98E-1	1.18E+3	5.96E-2	2.08E+2
3.09E-1	1.25E+3	6.27E-2	2.50E+2
3.06E-1	1.34E+3	6.40E-2	2.23E+2
3.03E-1	1.29E+3	6.25E-2	1.91E+2
2.93E-1	1.15E+3	6.08E-2	2.04E+2
3.07E-1	1.24E+3	6.64E-2	2.59E+2
2.99E-1	1.18E+3	6.27E-2	2.00E+2
3.00E-1	1.28E+3	6.23E-2	2.38E+2
2.95E-1	1.20E+3	5.88E-2	1.98E+2
3.18E-1	1.24E+3	6.18E-2	2.44E+2
3.35E-1	1.37E+3	6.54E-2	2.51E+2
3.03E-1	1.28E+3	6.32E-2	2.01E+2
3.07E-1	1.27E+3	5.66E-2	2.29E+2
3.17E-1	1.24E+3	6.30E-2	2.75E+2
3.08E-1	1.18E+3	6.10E-2	2.52E+2
3.06E-1	1.28E+3	6.08E-2	2.46E+2
3.12E-1	1.21E+3	6.67E-2	2.36E+2
3.02E-1	1.28E+3	6.93E-2	2.24E+2
2.93E-1	1.24E+3	5.66E-2	2.22E+2
3.06E-1	1.34E+3	5.47E-2	1.99E+2
2.92E-1	1.21E+3	5.81E-2	1.87E+2
2.97E-1	1.26E+3	6.52E-2	2.17E+2
2.93E-1	1.16E+3	6.13E-2	1.94E+2
3.12E-1	1.27E+3	6.20E-2	2.86E+2
3.06E-1	1.38E+3	6.40E-2	1.93E+2
3.20E-1	1.30E+3	6.20E-2	2.11E+2
3.09E-1	1.25E+3	6.27E-2	2.01E+2
3.00E-1	1.23E+3	6.71E-2	2.83E+2
3.30E-1	1.34E+3	6.32E-2	2.18E+2
2.88E-1	1.18E+3	6.54E-2	2.60E+2
3.02E-1	1.17E+3	6.25E-2	2.03E+2
2.96E-1	1.25E+3	6.20E-2	2.62E+2
3.04E-1	1.31E+3	6.59E-2	2.87E+2
3.00E-1	1.26E+3	5.88E-2	2.31E+2
3.07E-1	1.17E+3	6.49E-2	2.55E+2
7.57E-3	-1.26E+1	2.40E-1	6.55E+2
3.19E-1	1.26E+3	6.96E-2	3.25E+2
3.18E-1	1.30E+3	6.32E-2	2.83E+2
2.91E-1	1.13E+3	6.69E-2	2.14E+2
3.20E-1	1.24E+3	6.57E-2	2.27E+2
3.19E-1	1.31E+3	6.57E-2	2.97E+2
2.98E-1	1.32E+3	6.01E-2	1.86E+2
3.20E-1	1.26E+3	7.10E-2	2.69E+2
3.05E-1	1.29E+3	6.88E-2	2.32E+2
2.94E-1	1.22E+3	5.71E-2	2.04E+2
3.12E-1	1.32E+3	6.42E-2	2.68E+2
3.26E-1	1.37E+3	6.27E-2	2.19E+2
3.26E-1	1.33E+3	6.18E-2	2.61E+2
2.94E-1	1.26E+3	6.57E-2	2.82E+2
2.84E-1	1.24E+3	6.01E-2	2.32E+2
3.13E-1	1.22E+3	6.08E-2	2.52E+2
3.19E-1	1.28E+3	7.15E-2	3.03E+2
3.14E-1	1.22E+3	6.05E-2	2.24E+2
3.00E-1	1.16E+3	5.88E-2	1.91E+2
3.07E-1	1.19E+3	5.96E-2	1.98E+2
3.04E-1	1.33E+3	6.40E-2	2.41E+2
2.94E-1	1.22E+3	5.98E-2	2.16E+2
2.95E-1	1.20E+3	6.45E-2	2.36E+2
3.04E-1	1.19E+3	6.03E-2	1.90E+2
3.10E-1	1.15E+3	6.59E-2	2.45E+2
2.99E-1	1.22E+3	6.32E-2	2.63E+2
3.10E-1	1.32E+3	6.20E-2	2.28E+2
3.14E-1	1.27E+3	6.20E-2	2.34E+2
3.07E-1	1.24E+3	5.79E-2	1.73E+2
2.96E-1	1.27E+3	6.20E-2	2.46E+2
3.25E-1	1.36E+3	6.54E-2	2.68E+2
3.15E-1	1.30E+3	6.98E-2	2.94E+2
3.22E-1	1.27E+3	6.23E-2	2.81E+2
3.21E-1	1.29E+3	6.49E-2	2.92E+2
2.95E-1	1.22E+3	5.74E-2	2.10E+2
2.92E-1	1.24E+3	6.20E-2	1.90E+2
2.97E-1	1.24E+3	6.10E-2	1.94E+2
3.00E-1	1.24E+3	6.35E-2	2.15E+2
3.01E-1	1.23E+3	6.25E-2	2.12E+2
3.13E-1	1.38E+3	6.03E-2	2.64E+2
3.19E-1	1.25E+3	6.40E-2	3.01E+2
3.22E-1	1.26E+3	5.91E-2	1.61E+2
2.95E-1	1.25E+3	5.96E-2	2.03E+2
3.12E-1	1.15E+3	6.88E-2	2.92E+2
2.90E-1	1.16E+3	5.79E-2	2.19E+2
3.19E-1	1.22E+3	5.81E-2	2.32E+2
2.93E-1	1.25E+3	6.05E-2	1.97E+2
3.02E-1	1.33E+3	6.40E-2	2.64E+2
3.08E-1	1.32E+3	5.96E-2	2.18E+2
3.19E-1	1.25E+3	6.01E-2	2.17E+2
3.01E-1	1.23E+3	6.47E-2	2.49E+2
3.12E-1	1.35E+3	6.13E-2	2.21E+2
3.14E-1	1.24E+3	6.35E-2	2.35E+2
3.00E-1	1.27E+3	5.81E-2	2.06E+2
2.95E-1	1.18E+3	6.20E-2	2.08E+2
3.09E-1	1.14E+3	6.30E-2	2.47E+2
3.11E-1	1.38E+3	6.47E-2	2.78E+2
3.16E-1	1.33E+3	5.93E-2	2.22E+2
2.97E-1	1.27E+3	6.15E-2	2.74E+2
3.07E-1	1.34E+3	6.20E-2	2.28E+2
3.03E-1	1.22E+3	5.79E-2	2.34E+2
3.10E-1	1.18E+3	6.52E-2	2.10E+2
3.06E-1	1.14E+3	6.71E-2	2.52E+2
2.85E-1	1.18E+3	6.01E-2	1.89E+2
3.01E-1	1.25E+3	6.23E-2	2.30E+2
2.97E-1	1.25E+3	5.91E-2	2.10E+2
2.99E-1	1.27E+3	5.86E-2	1.80E+2
2.90E-1	1.22E+3	5.88E-2	2.24E+2
3.04E-1	1.29E+3	6.35E-2	2.53E+2
3.35E-1	1.30E+3	6.37E-2	2.96E+2
3.13E-1	1.22E+3	6.47E-2	2.49E+2
3.02E-1	1.16E+3	6.52E-2	1.95E+2
3.10E-1	1.29E+3	6.25E-2	2.18E+2
2.92E-1	1.13E+3	6.37E-2	2.31E+2
2.99E-1	1.26E+3	6.45E-2	2.14E+2
3.00E-1	1.20E+3	6.23E-2	2.37E+2
3.12E-1	1.39E+3	5.88E-2	2.12E+2
3.02E-1	1.31E+3	5.76E-2	2.06E+2
3.08E-1	1.29E+3	5.98E-2	2.13E+2
3.05E-1	1.28E+3	6.10E-2	1.81E+2
3.16E-1	1.28E+3	6.30E-2	1.93E+2
2.99E-1	1.37E+3	6.40E-2	2.79E+2
3.00E-1	1.21E+3	6.10E-2	2.04E+2
3.15E-1	1.25E+3	7.06E-2	2.78E+2
3.17E-1	1.34E+3	5.79E-2	2.44E+2
3.06E-1	1.20E+3	6.57E-2	2.88E+2
2.95E-1	1.19E+3	6.03E-2	2.59E+2
3.19E-1	1.28E+3	6.69E-2	2.67E+2
3.20E-1	1.28E+3	6.30E-2	2.21E+2
3.25E-1	1.40E+3	6.18E-2	2.21E+2
2.97E-1	1.23E+3	6.25E-2	2.85E+2
3.18E-1	1.29E+3	5.69E-2	1.86E+2
3.19E-1	1.31E+3	5.79E-2	1.61E+2
3.04E-1	1.31E+3	6.40E-2	3.03E+2
3.10E-1	1.32E+3	6.13E-2	2.12E+2
3.23E-1	1.28E+3	5.88E-2	2.57E+2
3.23E-1	1.24E+3	6.74E-2	2.52E+2
3.13E-1	1.27E+3	6.88E-2	2.93E+2
3.00E-1	1.12E+3	6.05E-2	2.07E+2
2.94E-1	1.18E+3	6.35E-2	2.10E+2
2.99E-1	1.18E+3	6.54E-2	2.85E+2
3.21E-1	1.30E+3	6.67E-2	2.94E+2
3.11E-1	1.27E+3	6.18E-2	2.33E+2
3.03E-1	1.25E+3	6.03E-2	2.11E+2
3.09E-1	1.40E+3	6.13E-2	2.49E+2
3.25E-1	1.30E+3	6.57E-2	2.72E+2
3.05E-1	1.23E+3	6.64E-2	2.35E+2
3.07E-1	1.22E+3	6.10E-2	2.20E+2
2.87E-1	1.13E+3	5.79E-2	1.43E+2
3.03E-1	1.27E+3	6.03E-2	2.14E+2
3.20E-1	1.28E+3	6.05E-2	1.91E+2
3.33E-1	1.30E+3	6.42E-2	2.65E+2
2.89E-1	1.19E+3	6.67E-2	2.18E+2
3.13E-1	1.23E+3	6.05E-2	1.88E+2
3.17E-1	1.31E+3	6.30E-2	2.04E+2
2.95E-1	1.28E+3	5.79E-2	1.94E+2
2.94E-1	1.23E+3	6.05E-2	2.20E+2
3.23E-1	1.37E+3	6.23E-2	2.54E+2
2.99E-1	1.30E+3	6.27E-2	2.52E+2
3.09E-1	1.28E+3	6.88E-2	3.01E+2
2.96E-1	1.23E+3	5.93E-2	2.30E+2
3.03E-1	1.27E+3	6.35E-2	2.23E+2
3.03E-1	1.20E+3	6.52E-2	2.71E+2
3.05E-1	1.20E+3	5.74E-2	2.42E+2
3.22E-1	1.24E+3	6.18E-2	1.69E+2
3.02E-1	1.20E+3	6.52E-2	2.38E+2
3.17E-1	1.28E+3	6.35E-2	1.96E+2
2.97E-1	1.23E+3	5.91E-2	2.37E+2
3.01E-1	1.16E+3	5.96E-2	2.17E+2
2.95E-1	1.28E+3	5.86E-2	1.93E+2
2.89E-1	1.19E+3	5.57E-2	1.69E+2
3.04E-1	1.29E+3	6.37E-2	2.36E+2
3.24E-1	1.31E+3	6.54E-2	2.71E+2
3.25E-1	1.22E+3	6.25E-2	2.29E+2
2.99E-1	1.21E+3	6.30E-2	2.27E+2
2.99E-1	1.30E+3	6.52E-2	2.40E+2
3.18E-1	1.27E+3	5.59E-2	2.57E+2
2.99E-1	1.21E+3	6.32E-2	2.69E+2
2.95E-1	1.26E+3	6.25E-2	2.51E+2
3.04E-1	1.34E+3	5.74E-2	2.29E+2
3.01E-1	1.35E+3	6.08E-2	2.39E+2
3.02E-1	1.28E+3	6.20E-2	2.36E+2
3.08E-1	1.31E+3	6.18E-2	2.52E+2
3.20E-1	1.22E+3	5.79E-2	2.01E+2
3.13E-1	1.18E+3	5.64E-2	2.07E+2
3.00E-1	1.32E+3	5.81E-2	2.15E+2
3.10E-1	1.45E+3	6.64E-2	2.84E+2
3.25E-1	1.33E+3	5.93E-2	2.11E+2
3.02E-1	1.25E+3	6.40E-2	2.05E+2
3.03E-1	1.16E+3	6.40E-2	2.38E+2
3.03E-1	1.29E+3	6.42E-2	2.28E+2
2.91E-1	1.21E+3	5.47E-2	1.60E+2
3.03E-1	1.30E+3	6.03E-2	1.71E+2
3.08E-1	1.34E+3	6.15E-2	2.25E+2
2.91E-1	1.13E+3	6.13E-2	2.35E+2
2.99E-1	1.27E+3	6.25E-2	2.33E+2
3.07E-1	1.24E+3	5.83E-2	2.38E+2
3.07E-1	1.31E+3	5.71E-2	1.96E+2
3.21E-1	1.33E+3	6.23E-2	2.48E+2
3.14E-1	1.30E+3	6.10E-2	3.00E+2
3.11E-1	1.19E+3	6.64E-2	2.46E+2
3.23E-1	1.26E+3	6.37E-2	2.33E+2
3.26E-1	1.39E+3	7.10E-2	2.96E+2
3.09E-1	1.27E+3	5.96E-2	2.13E+2
2.94E-1	1.19E+3	6.15E-2	2.01E+2
3.03E-1	1.27E+3	7.01E-2	3.02E+2
2.92E-1	1.18E+3	6.15E-2	2.00E+2
2.99E-1	1.32E+3	6.64E-2	2.86E+2
3.06E-1	1.24E+3	5.96E-2	2.21E+2
3.23E-1	1.32E+3	7.10E-2	3.19E+2
3.09E-1	1.22E+3	6.23E-2	2.60E+2
3.20E-1	1.24E+3	5.93E-2	2.40E+2
3.01E-1	1.34E+3	6.13E-2	2.40E+2
3.10E-1	1.25E+3	5.83E-2	1.93E+2
3.14E-1	1.28E+3	6.27E-2	2.21E+2
3.10E-1	1.29E+3	5.93E-2	2.59E+2
2.99E-1	1.21E+3	6.32E-2	2.21E+2
3.23E-1	1.35E+3	6.23E-2	1.96E+2
3.00E-1	1.31E+3	6.20E-2	2.40E+2
2.93E-1	1.22E+3	7.03E-2	2.79E+2
2.94E-1	1.18E+3	6.86E-2	2.65E+2
3.11E-1	1.24E+3	6.54E-2	2.40E+2
3.03E-1	1.35E+3	5.69E-2	1.81E+2
2.95E-1	1.24E+3	6.18E-2	1.78E+2
3.23E-1	1.36E+3	6.49E-2	2.80E+2
3.04E-1	1.30E+3	5.93E-2	2.48E+2
3.26E-1	1.31E+3	6.27E-2	2.54E+2
3.36E-1	1.32E+3	6.37E-2	2.90E+2
3.04E-1	1.19E+3	6.20E-2	2.16E+2
2.95E-1	1.26E+3	6.37E-2	2.17E+2
3.07E-1	1.26E+3	5.81E-2	2.25E+2
3.05E-1	1.18E+3	5.93E-2	2.16E+2
3.01E-1	1.25E+3	6.13E-2	2.44E+2
3.19E-1	1.31E+3	6.30E-2	1.89E+2
3.10E-1	1.24E+3	6.37E-2	2.26E+2
3.06E-1	1.17E+3	6.13E-2	2.34E+2
3.12E-1	1.27E+3	6.86E-2	2.66E+2
3.15E-1	1.34E+3	6.30E-2	3.02E+2
3.24E-1	1.34E+3	6.45E-2	2.42E+2
2.96E-1	1.21E+3	6.05E-2	1.80E+2
3.08E-1	1.17E+3	6.40E-2	3.03E+2
3.24E-1	1.37E+3	6.23E-2	2.56E+2
3.30E-1	1.22E+3	6.37E-2	2.21E+2
2.10E-2	1.04E+1	2.48E-1	6.24E+2
2.95E-1	1.15E+3	6.08E-2	2.12E+2
3.27E-1	1.29E+3	5.83E-2	1.68E+2
3.44E-1	1.31E+3	5.62E-2	1.66E+2
2.95E-1	1.25E+3	6.03E-2	1.75E+2
2.99E-1	1.25E+3	5.91E-2	1.67E+2
3.07E-1	1.17E+3	5.81E-2	2.36E+2
2.99E-1	1.26E+3	6.23E-2	2.08E+2
2.98E-1	1.25E+3	6.32E-2	2.75E+2
2.92E-1	1.26E+3	6.57E-2	2.74E+2
3.07E-1	1.29E+3	6.91E-2	3.44E+2
2.95E-1	1.20E+3	5.98E-2	1.96E+2
2.98E-1	1.21E+3	6.10E-2	1.95E+2
3.19E-1	1.35E+3	6.37E-2	2.90E+2
3.11E-1	1.26E+3	6.27E-2	2.22E+2
3.31E-1	1.32E+3	6.32E-2	2.21E+2
3.00E-1	1.25E+3	6.08E-2	1.72E+2
2.95E-1	1.25E+3	5.88E-2	2.41E+2
3.04E-1	1.23E+3	6.47E-2	1.86E+2
3.02E-1	1.34E+3	6.10E-2	2.47E+2
3.09E-1	1.29E+3	6.64E-2	2.91E+2
3.06E-1	1.29E+3	6.03E-2	2.40E+2
3.07E-1	1.40E+3	5.93E-2	2.83E+2
3.08E-1	1.36E+3	6.57E-2	2.52E+2
3.25E-1	1.25E+3	6.40E-2	2.54E+2
2.96E-1	1.20E+3	5.76E-2	1.96E+2
3.02E-1	1.23E+3	6.52E-2	2.21E+2
3.28E-1	1.41E+3	5.81E-2	1.86E+2
3.21E-1	1.34E+3	6.30E-2	2.42E+2
2.97E-1	1.22E+3	6.05E-2	1.72E+2
3.00E-1	1.28E+3	6.01E-2	1.91E+2
2.98E-1	1.23E+3	6.30E-2	2.23E+2
3.04E-1	1.31E+3	5.76E-2	1.77E+2
3.18E-1	1.28E+3	6.05E-2	1.66E+2
2.99E-1	1.33E+3	6.05E-2	2.15E+2
3.16E-1	1.32E+3	6.01E-2	2.53E+2
2.96E-1	1.26E+3	5.96E-2	1.86E+2
3.09E-1	1.29E+3	6.54E-2	2.69E+2
3.08E-1	1.28E+3	6.08E-2	2.29E+2
3.18E-1	1.27E+3	6.05E-2	2.22E+2
3.00E-1	1.27E+3	6.13E-2	2.32E+2
3.11E-1	1.38E+3	6.10E-2	2.09E+2
3.08E-1	1.30E+3	6.23E-2	2.54E+2
3.15E-1	1.34E+3	6.42E-2	2.24E+2
3.18E-1	1.27E+3	5.88E-2	2.07E+2
3.00E-1	1.33E+3	6.13E-2	2.59E+2
3.24E-1	1.38E+3	6.27E-2	2.15E+2
3.19E-1	1.37E+3	6.49E-2	2.36E+2
3.26E-1	1.33E+3	6.69E-2	3.08E+2
3.23E-1	1.35E+3	6.32E-2	2.40E+2
3.19E-1	1.27E+3	6.45E-2	2.07E+2
2.95E-1	1.14E+3	5.93E-2	2.01E+2
3.22E-1	1.15E+3	6.40E-2	2.19E+2
2.99E-1	1.28E+3	6.52E-2	1.81E+2
2.91E-1	1.23E+3	5.93E-2	2.22E+2
3.10E-1	1.38E+3	5.88E-2	1.94E+2
3.00E-1	1.34E+3	6.08E-2	2.29E+2
3.13E-1	1.19E+3	6.37E-2	2.07E+2
3.06E-1	1.29E+3	5.91E-2	1.81E+2
3.19E-1	1.25E+3	6.45E-2	2.62E+2
3.01E-1	1.29E+3	6.52E-2	2.87E+2
3.06E-1	1.30E+3	6.42E-2	2.52E+2
3.14E-1	1.22E+3	6.15E-2	2.27E+2
3.17E-1	1.27E+3	5.91E-2	2.07E+2
3.21E-1	1.38E+3	6.18E-2	2.10E+2
3.12E-1	1.29E+3	6.08E-2	2.30E+2
3.23E-1	1.31E+3	6.37E-2	1.91E+2
2.99E-1	1.21E+3	5.83E-2	1.79E+2
3.14E-1	1.32E+3	5.86E-2	1.98E+2
3.19E-1	1.24E+3	6.47E-2	2.43E+2
3.21E-1	1.36E+3	6.18E-2	2.32E+2
3.22E-1	1.40E+3	6.76E-2	2.55E+2
2.94E-1	1.21E+3	6.18E-2	1.83E+2
3.21E-1	1.20E+3	6.01E-2	2.54E+2
3.16E-1	1.25E+3	6.08E-2	3.04E+2
3.19E-1	1.31E+3	6.49E-2	2.77E+2
3.20E-1	1.27E+3	6.88E-2	2.92E+2
3.32E-1	1.39E+3	5.88E-2	2.43E+2
3.00E-1	1.30E+3	6.59E-2	2.38E+2
3.20E-1	1.34E+3	5.98E-2	2.09E+2
3.11E-1	1.39E+3	6.15E-2	1.94E+2
2.91E-1	1.21E+3	5.91E-2	2.50E+2
3.11E-1	1.33E+3	6.27E-2	2.55E+2
3.01E-1	1.28E+3	6.47E-2	2.81E+2
3.14E-1	1.31E+3	6.20E-2	2.26E+2
3.24E-1	1.31E+3	6.03E-2	2.05E+2
3.06E-1	1.22E+3	6.20E-2	2.58E+2
3.20E-1	1.27E+3	5.79E-2	2.50E+2
3.06E-1	1.24E+3	5.76E-2	2.24E+2
3.05E-1	1.28E+3	6.03E-2	2.43E+2
3.03E-1	1.35E+3	6.32E-2	2.52E+2
2.98E-1	1.27E+3	5.98E-2	2.19E+2
3.12E-1	1.28E+3	6.08E-2	2.43E+2
2.89E-1	1.19E+3	6.25E-2	2.28E+2
2.89E-1	1.15E+3	6.05E-2	2.05E+2
3.09E-1	1.40E+3	5.88E-2	2.13E+2
3.08E-1	1.26E+3	6.01E-2	1.92E+2
2.95E-1	1.31E+3	6.32E-2	2.34E+2
3.05E-1	1.20E+3	5.71E-2	1.85E+2
2.95E-1	1.23E+3	6.25E-2	2.56E+2
3.26E-1	1.38E+3	7.01E-2	2.51E+2
3.16E-1	1.25E+3	7.13E-2	2.16E+2
3.18E-1	1.35E+3	5.91E-2	2.46E+2
3.17E-1	1.36E+3	5.49E-2	1.74E+2
3.08E-1	1.35E+3	5.98E-2	2.15E+2
2.96E-1	1.22E+3	5.66E-2	2.07E+2
3.02E-1	1.27E+3	5.42E-2	1.58E+2
3.05E-1	1.24E+3	5.98E-2	2.45E+2
3.25E-1	1.30E+3	5.93E-2	2.17E+2
3.13E-1	1.29E+3	5.91E-2	1.77E+2
3.11E-1	1.24E+3	6.79E-2	2.82E+2
2.98E-1	1.26E+3	6.49E-2	2.06E+2
3.23E-1	1.30E+3	6.13E-2	2.58E+2
3.11E-1	1.32E+3	6.64E-2	3.04E+2
2.95E-1	1.20E+3	6.08E-2	1.82E+2
3.07E-1	1.23E+3	6.20E-2	1.99E+2
3.01E-1	1.25E+3	6.32E-2	2.45E+2
2.96E-1	1.23E+3	6.20E-2	1.95E+2
3.06E-1	1.27E+3	6.23E-2	2.09E+2
2.93E-1	1.17E+3	5.57E-2	1.55E+2
2.96E-1	1.17E+3	5.49E-2	1.49E+2
2.95E-1	1.20E+3	5.76E-2	1.77E+2
3.05E-1	1.38E+3	6.18E-2	2.68E+2
3.11E-1	1.20E+3	6.35E-2	2.59E+2
3.14E-1	1.16E+3	6.59E-2	2.45E+2
3.11E-1	1.32E+3	6.40E-2	2.09E+2
2.94E-1	1.24E+3	6.23E-2	2.36E+2
2.95E-1	1.19E+3	7.01E-2	2.55E+2
3.20E-1	1.32E+3	6.01E-2	2.66E+2
2.99E-1	1.23E+3	5.88E-2	2.31E+2
3.04E-1	1.29E+3	6.49E-2	2.22E+2
3.08E-1	1.37E+3	6.79E-2	2.73E+2
3.27E-1	1.24E+3	5.79E-2	2.19E+2
3.25E-1	1.40E+3	5.81E-2	1.75E+2
3.23E-1	1.31E+3	6.62E-2	2.76E+2
2.94E-1	1.25E+3	5.83E-2	1.87E+2
2.92E-1	1.20E+3	5.91E-2	2.08E+2
2.94E-1	1.24E+3	5.44E-2	1.84E+2
2.96E-1	1.30E+3	6.64E-2	2.93E+2
3.21E-1	1.31E+3	6.47E-2	2.77E+2
3.25E-1	1.35E+3	6.47E-2	2.88E+2
3.10E-1	1.32E+3	6.45E-2	2.06E+2
2.98E-1	1.29E+3	6.03E-2	2.08E+2
3.17E-1	1.35E+3	6.13E-2	2.13E+2
3.03E-1	1.28E+3	6.08E-2	2.08E+2
2.96E-1	1.22E+3	5.96E-2	2.04E+2
3.07E-1	1.34E+3	5.81E-2	2.39E+2
3.02E-1	1.25E+3	6.20E-2	1.96E+2
2.85E-1	1.19E+3	6.05E-2	2.17E+2
3.03E-1	1.23E+3	6.13E-2	2.11E+2
3.09E-1	1.33E+3	6.10E-2	2.60E+2
3.20E-1	1.29E+3	6.13E-2	2.55E+2
3.04E-1	1.28E+3	6.15E-2	2.20E+2
2.90E-1	1.19E+3	6.25E-2	1.88E+2
3.24E-1	1.31E+3	6.76E-2	2.70E+2
3.11E-1	1.17E+3	5.88E-2	2.42E+2
2.92E-1	1.20E+3	6.03E-2	1.93E+2
2.99E-1	1.24E+3	5.91E-2	1.88E+2
2.89E-1	1.25E+3	6.30E-2	2.05E+2
3.05E-1	1.28E+3	5.66E-2	1.86E+2
3.10E-1	1.19E+3	6.35E-2	2.46E+2
3.26E-1	1.30E+3	5.93E-2	2.11E+2
3.17E-1	1.32E+3	6.62E-2	2.38E+2
3.03E-1	1.28E+3	6.23E-2	2.14E+2
3.18E-1	1.28E+3	6.35E-2	2.23E+2
3.06E-1	1.25E+3	6.27E-2	2.55E+2
3.12E-1	1.35E+3	6.45E-2	2.81E+2
3.04E-1	1.16E+3	6.15E-2	1.78E+2
2.93E-1	1.22E+3	6.30E-2	2.09E+2
3.13E-1	1.34E+3	5.86E-2	1.93E+2
3.00E-1	1.26E+3	5.86E-2	2.31E+2
3.04E-1	1.31E+3	5.93E-2	1.87E+2
3.27E-1	1.26E+3	6.45E-2	2.15E+2
3.11E-1	1.25E+3	6.25E-2	2.51E+2
3.06E-1	1.23E+3	5.88E-2	2.51E+2
3.07E-1	1.23E+3	6.86E-2	3.12E+2
2.97E-1	1.22E+3	6.69E-2	1.74E+2
3.07E-1	1.24E+3	6.30E-2	2.01E+2
3.20E-1	1.33E+3	6.76E-2	2.96E+2
3.03E-1	1.26E+3	6.35E-2	2.51E+2
3.25E-1	1.25E+3	6.52E-2	2.83E+2
3.02E-1	1.20E+3	6.13E-2	2.41E+2
3.03E-1	1.27E+3	6.05E-2	2.31E+2
3.18E-1	1.22E+3	6.74E-2	2.21E+2
3.03E-1	1.19E+3	6.13E-2	2.13E+2
7.32E-3	-9.23E+0	2.64E-1	6.56E+2
3.15E-1	1.31E+3	6.18E-2	2.33E+2
2.95E-1	1.24E+3	6.40E-2	2.55E+2
3.20E-1	1.40E+3	6.15E-2	2.05E+2
3.12E-1	1.25E+3	6.20E-2	2.46E+2
2.98E-1	1.27E+3	6.52E-2	2.77E+2
2.99E-1	1.30E+3	7.06E-2	2.66E+2
2.96E-1	1.23E+3	5.69E-2	1.55E+2
2.90E-1	1.23E+3	6.13E-2	2.40E+2
3.11E-1	1.22E+3	6.45E-2	2.34E+2
3.05E-1	1.28E+3	5.93E-2	2.26E+2
3.02E-1	1.36E+3	6.27E-2	2.07E+2
3.38E-1	1.27E+3	5.96E-2	2.35E+2
3.26E-1	1.40E+3	6.40E-2	2.07E+2
3.12E-1	1.27E+3	6.37E-2	1.66E+2
2.90E-1	1.24E+3	7.28E-2	2.96E+2
3.22E-1	1.27E+3	6.05E-2	3.03E+2
3.02E-1	1.28E+3	6.01E-2	2.58E+2
3.12E-1	1.31E+3	5.88E-2	2.41E+2
3.21E-1	1.28E+3	6.20E-2	2.24E+2
2.92E-1	1.20E+3	6.45E-2	2.09E+2
3.10E-1	1.26E+3	6.05E-2	2.06E+2
3.02E-1	1.24E+3	6.10E-2	2.32E+2
3.18E-1	1.29E+3	6.74E-2	2.41E+2
3.14E-1	1.42E+3	6.18E-2	2.17E+2
2.95E-1	1.22E+3	5.81E-2	1.63E+2
3.17E-1	1.24E+3	5.96E-2	2.56E+2
3.25E-1	1.27E+3	6.20E-2	1.88E+2
3.10E-1	1.25E+3	6.25E-2	2.57E+2
3.12E-1	1.26E+3	6.15E-2	2.53E+2
2.93E-1	1.20E+3	6.18E-2	2.49E+2
3.14E-1	1.14E+3	6.96E-2	2.26E+2
2.99E-1	1.28E+3	6.25E-2	1.93E+2
3.26E-1	1.27E+3	6.27E-2	1.93E+2
2.93E-1	1.19E+3	5.93E-2	2.09E+2
3.12E-1	1.41E+3	6.25E-2	2.08E+2
3.02E-1	1.26E+3	6.40E-2	2.13E+2
2.91E-1	1.17E+3	6.25E-2	2.19E+2
3.01E-1	1.27E+3	6.15E-2	2.12E+2
3.00E-1	1.23E+3	6.03E-2	1.69E+2
2.93E-1	1.28E+3	6.42E-2	2.61E+2
3.16E-1	1.24E+3	6.40E-2	2.88E+2
3.16E-1	1.28E+3	5.76E-2	2.08E+2
2.90E-1	1.23E+3	6.20E-2	2.18E+2
3.08E-1	1.16E+3	6.23E-2	2.22E+2
2.98E-1	1.23E+3	6.79E-2	2.12E+2
2.84E-1	1.19E+3	6.25E-2	1.89E+2
3.21E-1	1.23E+3	6.52E-2	2.01E+2
2.97E-1	1.18E+3	6.40E-2	2.32E+2
3.29E-1	1.45E+3	6.32E-2	1.67E+2
2.91E-1	1.18E+3	6.27E-2	1.74E+2
3.00E-1	1.18E+3	5.83E-2	1.97E+2
3.07E-1	1.36E+3	6.13E-2	2.39E+2
3.13E-1	1.30E+3	6.20E-2	2.74E+2
3.00E-1	1.18E+3	6.71E-2	2.42E+2
2.95E-1	1.18E+3	6.98E-2	2.95E+2
3.13E-1	1.29E+3	6.45E-2	2.81E+2
3.14E-1	1.26E+3	6.30E-2	2.64E+2
3.23E-1	1.26E+3	6.42E-2	1.83E+2
2.96E-1	1.21E+3	6.35E-2	2.42E+2
3.03E-1	1.29E+3	5.88E-2	2.04E+2
3.15E-1	1.31E+3	6.42E-2	2.23E+2
2.89E-1	1.26E+3	6.25E-2	2.23E+2
2.92E-1	1.21E+3	5.83E-2	1.93E+2
2.94E-1	1.25E+3	6.30E-2	2.62E+2
3.19E-1	1.22E+3	6.10E-2	2.44E+2
3.10E-1	1.40E+3	5.59E-2	2.28E+2
3.13E-1	1.28E+3	5.98E-2	1.95E+2
3.06E-1	1.35E+3	6.03E-2	1.87E+2
3.13E-1	1.29E+3	6.27E-2	2.63E+2
3.10E-1	1.32E+3	6.47E-2	2.25E+2
3.11E-1	1.30E+3	6.30E-2	2.87E+2
3.11E-1	1.24E+3	6.64E-2	2.87E+2
2.97E-1	1.28E+3	6.84E-2	2.50E+2
3.08E-1	1.28E+3	6.35E-2	2.04E+2
3.12E-1	1.39E+3	6.52E-2	2.25E+2
2.96E-1	1.25E+3	5.96E-2	1.80E+2
2.94E-1	1.17E+3	6.05E-2	2.11E+2
3.31E-1	1.27E+3	5.98E-2	2.22E+2
3.25E-1	1.27E+3	6.30E-2	2.28E+2
3.01E-1	1.31E+3	6.27E-2	2.81E+2
2.94E-1	1.22E+3	6.67E-2	2.76E+2
2.99E-1	1.30E+3	6.57E-2	2.89E+2
3.10E-1	1.21E+3	6.67E-2	2.90E+2
2.95E-1	1.21E+3	6.30E-2	2.76E+2
2.94E-1	1.23E+3	6.18E-2	2.30E+2
2.99E-1	1.26E+3	6.23E-2	2.02E+2
2.95E-1	1.25E+3	6.42E-2	2.25E+2
3.02E-1	1.30E+3	6.08E-2	2.22E+2
2.89E-1	1.14E+3	5.74E-2	1.66E+2
2.91E-1	1.17E+3	6.13E-2	2.06E+2
2.96E-1	1.23E+3	6.18E-2	1.75E+2
3.06E-1	1.25E+3	6.05E-2	2.01E+2
3.20E-1	1.31E+3	6.25E-2	2.29E+2
2.96E-1	1.24E+3	6.67E-2	2.82E+2
3.16E-1	1.25E+3	6.13E-2	2.96E+2
3.13E-1	1.22E+3	6.35E-2	2.02E+2
3.02E-1	1.16E+3	5.88E-2	2.24E+2
2.93E-1	1.22E+3	6.76E-2	2.82E+2
3.19E-1	1.20E+3	6.74E-2	2.86E+2
3.18E-1	1.30E+3	6.45E-2	2.70E+2
3.23E-1	1.20E+3	6.01E-2	2.12E+2
3.05E-1	1.29E+3	5.69E-2	1.41E+2
3.02E-1	1.21E+3	6.18E-2	2.75E+2
3.20E-1	1.29E+3	6.30E-2	2.17E+2
3.17E-1	1.22E+3	6.54E-2	2.40E+2
3.21E-1	1.25E+3	6.76E-2	2.87E+2
3.33E-1	1.36E+3	5.96E-2	2.51E+2
3.05E-1	1.13E+3	6.49E-2	2.77E+2
3.16E-1	1.23E+3	7.03E-2	3.00E+2
3.00E-1	1.20E+3	6.05E-2	2.49E+2
3.05E-1	1.32E+3	5.79E-2	2.14E+2
3.10E-1	1.25E+3	6.47E-2	2.50E+2
2.96E-1	1.29E+3	5.40E-2	1.82E+2
2.89E-1	1.22E+3	5.88E-2	1.75E+2
3.07E-1	1.38E+3	5.76E-2	1.80E+2
2.99E-1	1.20E+3	6.25E-2	2.45E+2
2.95E-1	1.26E+3	6.13E-2	2.36E+2
3.17E-1	1.31E+3	6.08E-2	2.48E+2
6.10E-3	2.64E+0	2.53E-1	6.04E+2
3.11E-1	1.26E+3	5.49E-2	2.30E+2
3.02E-1	1.29E+3	6.27E-2	2.49E+2
3.07E-1	1.25E+3	6.32E-2	1.73E+2
2.95E-1	1.28E+3	5.64E-2	2.29E+2
2.94E-1	1.20E+3	6.64E-2	1.96E+2
3.10E-1	1.24E+3	6.71E-2	2.77E+2
2.96E-1	1.18E+3	6.20E-2	1.89E+2
3.10E-1	1.27E+3	6.62E-2	2.22E+2
2.94E-1	1.20E+3	6.05E-2	1.77E+2
3.09E-1	1.32E+3	6.25E-2	2.63E+2
3.12E-1	1.23E+3	6.76E-2	2.94E+2
2.99E-1	1.31E+3	6.20E-2	2.35E+2
3.01E-1	1.26E+3	6.18E-2	2.47E+2
3.12E-1	1.30E+3	6.05E-2	1.97E+2
3.20E-1	1.22E+3	6.32E-2	2.72E+2
2.97E-1	1.20E+3	6.30E-2	2.44E+2
3.01E-1	1.23E+3	5.96E-2	2.07E+2
3.01E-1	1.19E+3	5.93E-2	1.71E+2
3.14E-1	1.33E+3	6.27E-2	2.47E+2
2.95E-1	1.23E+3	6.23E-2	2.45E+2
2.97E-1	1.19E+3	5.98E-2	2.45E+2
2.94E-1	1.14E+3	6.69E-2	2.09E+2
3.29E-1	1.30E+3	6.01E-2	2.45E+2
3.09E-1	1.21E+3	6.03E-2	2.43E+2
2.95E-1	1.27E+3	5.64E-2	2.10E+2
3.19E-1	1.28E+3	6.18E-2	2.47E+2
3.07E-1	1.28E+3	6.37E-2	2.33E+2
3.15E-1	1.16E+3	7.01E-2	2.89E+2
3.42E-1	1.32E+3	6.13E-2	2.18E+2
2.93E-1	1.19E+3	6.67E-2	1.95E+2
3.18E-1	1.21E+3	6.54E-2	2.21E+2
3.06E-1	1.27E+3	6.10E-2	2.17E+2
3.10E-1	1.34E+3	5.64E-2	1.84E+2
2.95E-1	1.28E+3	6.18E-2	2.41E+2
3.02E-1	1.30E+3	6.03E-2	2.22E+2
3.04E-1	1.25E+3	5.93E-2	2.26E+2
3.21E-1	1.33E+3	5.98E-2	2.60E+2
3.36E-1	1.35E+3	5.93E-2	2.14E+2
4.64E-3	-4.25E+0	2.36E-1	6.25E+2
3.18E-1	1.29E+3	6.32E-2	2.73E+2
3.04E-1	1.27E+3	6.37E-2	3.02E+2
3.01E-1	1.26E+3	6.13E-2	2.33E+2
3.22E-1	1.30E+3	6.47E-2	2.36E+2
2.86E-1	1.19E+3	5.93E-2	2.30E+2
2.92E-1	1.25E+3	5.91E-2	1.91E+2
3.21E-1	1.25E+3	6.08E-2	1.93E+2
3.07E-1	1.32E+3	6.47E-2	1.99E+2
3.00E-1	1.22E+3	7.01E-2	2.98E+2
2.92E-1	1.23E+3	6.27E-2	2.28E+2
3.09E-1	1.31E+3	6.52E-2	2.19E+2
3.00E-1	1.25E+3	6.25E-2	2.26E+2
3.03E-1	1.20E+3	6.59E-2	3.32E+2
3.12E-1	1.20E+3	6.10E-2	2.23E+2
3.01E-1	1.18E+3	6.37E-2	2.88E+2
3.00E-1	1.31E+3	6.45E-2	2.33E+2
3.11E-1	1.19E+3	6.18E-2	2.58E+2
2.95E-1	1.25E+3	6.81E-2	2.90E+2
2.95E-1	1.16E+3	6.25E-2	2.09E+2
3.21E-1	1.40E+3	6.25E-2	2.11E+2
2.93E-1	1.27E+3	6.03E-2	2.40E+2
2.97E-1	1.25E+3	5.71E-2	1.68E+2
2.99E-1	1.26E+3	5.71E-2	1.67E+2
3.16E-1	1.25E+3	6.18E-2	2.41E+2
2.95E-1	1.23E+3	5.93E-2	2.39E+2
2.98E-1	1.28E+3	6.20E-2	2.37E+2
3.27E-1	1.22E+3	6.32E-2	2.05E+2
3.19E-1	1.15E+3	6.47E-2	2.55E+2
3.09E-1	1.37E+3	5.88E-2	2.14E+2
3.22E-1	1.30E+3	6.05E-2	1.81E+2
2.98E-1	1.25E+3	6.54E-2	2.33E+2
3.14E-1	1.25E+3	7.01E-2	2.52E+2
3.09E-1	1.22E+3	6.62E-2	2.19E+2
3.13E-1	1.29E+3	6.98E-2	2.97E+2
2.90E-1	1.25E+3	5.69E-2	1.73E+2
3.03E-1	1.26E+3	6.13E-2	1.71E+2
