1.13E-1	9.34E+2	2.17E-2	1.72E+2
1.18E-1	8.83E+2	2.34E-2	1.46E+2
1.13E-1	9.35E+2	2.17E-2	1.32E+2
1.18E-1	9.18E+2	2.59E-2	1.36E+2
1.18E-1	9.18E+2	2.47E-2	1.70E+2
1.18E-1	9.40E+2	2.29E-2	1.25E+2
1.15E-1	9.56E+2	2.61E-2	1.62E+2
1.24E-1	9.84E+2	2.49E-2	1.55E+2
1.19E-1	9.13E+2	2.56E-2	1.44E+2
1.23E-1	9.69E+2	2.61E-2	1.33E+2
1.14E-1	9.12E+2	2.56E-2	1.68E+2
1.12E-1	9.09E+2	2.37E-2	1.84E+2
1.25E-1	9.19E+2	2.51E-2	1.50E+2
1.16E-1	9.60E+2	2.73E-2	2.02E+2
1.13E-1	8.98E+2	2.44E-2	1.23E+2
1.20E-1	9.04E+2	2.05E-2	1.26E+2
1.18E-1	9.60E+2	2.61E-2	1.65E+2
1.16E-1	9.54E+2	2.47E-2	2.37E+2
1.19E-1	9.72E+2	2.42E-2	2.28E+2
1.12E-1	9.46E+2	2.78E-2	1.76E+2
1.20E-1	9.28E+2	2.44E-2	1.55E+2
1.19E-1	9.73E+2	2.44E-2	2.06E+2
1.18E-1	9.30E+2	2.25E-2	1.36E+2
1.15E-1	9.42E+2	2.47E-2	2.14E+2
1.14E-1	8.91E+2	2.39E-2	1.76E+2
1.12E-1	8.62E+2	2.44E-2	1.64E+2
1.21E-1	9.34E+2	2.47E-2	1.21E+2
1.15E-1	8.88E+2	2.42E-2	1.77E+2
1.19E-1	9.02E+2	2.81E-2	2.11E+2
1.18E-1	9.23E+2	2.37E-2	1.29E+2
1.14E-1	9.54E+2	2.39E-2	1.63E+2
1.11E-1	9.32E+2	2.42E-2	1.54E+2
1.17E-1	9.33E+2	2.51E-2	2.05E+2
1.20E-1	9.60E+2	2.44E-2	2.20E+2
1.23E-1	9.59E+2	2.61E-2	2.01E+2
1.26E-1	9.35E+2	2.17E-2	1.48E+2
1.11E-1	9.01E+2	2.22E-2	1.42E+2
1.14E-1	9.26E+2	2.25E-2	1.92E+2
1.18E-1	9.13E+2	2.27E-2	1.64E+2
1.20E-1	9.68E+2	2.03E-2	1.32E+2
1.26E-1	9.63E+2	2.49E-2	1.52E+2
1.12E-1	9.54E+2	2.29E-2	1.56E+2
1.18E-1	9.60E+2	2.34E-2	1.19E+2
1.12E-1	9.55E+2	2.44E-2	1.78E+2
1.22E-1	9.27E+2	2.44E-2	1.55E+2
1.12E-1	9.07E+2	2.49E-2	1.76E+2
1.20E-1	9.60E+2	2.47E-2	1.92E+2
1.31E-1	1.02E+3	2.15E-2	2.09E+2
1.12E-1	9.19E+2	2.27E-2	1.70E+2
1.11E-1	8.96E+2	2.32E-2	1.79E+2
1.16E-1	9.07E+2	2.44E-2	1.71E+2
1.16E-1	8.91E+2	2.20E-2	1.64E+2
1.15E-1	8.76E+2	2.49E-2	2.06E+2
1.25E-1	9.68E+2	2.39E-2	1.51E+2
1.23E-1	9.84E+2	2.61E-2	1.94E+2
1.16E-1	9.65E+2	2.39E-2	1.82E+2
1.06E-1	8.81E+2	2.47E-2	1.83E+2
1.21E-1	9.30E+2	2.34E-2	1.69E+2
1.14E-1	9.41E+2	2.61E-2	1.98E+2
1.16E-1	9.75E+2	2.51E-2	1.91E+2
1.23E-1	9.67E+2	2.42E-2	2.01E+2
1.14E-1	8.80E+2	2.39E-2	1.32E+2
1.17E-1	9.35E+2	2.12E-2	1.42E+2
1.06E-1	8.38E+2	2.56E-2	1.42E+2
1.15E-1	8.98E+2	2.39E-2	1.42E+2
1.19E-1	9.56E+2	2.44E-2	1.37E+2
1.19E-1	9.01E+2	2.39E-2	1.35E+2
1.14E-1	9.30E+2	2.44E-2	1.64E+2
1.16E-1	9.56E+2	2.34E-2	1.28E+2
1.16E-1	9.49E+2	2.34E-2	1.98E+2
1.20E-1	9.59E+2	2.47E-2	1.90E+2
1.15E-1	9.20E+2	2.34E-2	1.27E+2
1.26E-1	9.72E+2	2.49E-2	1.31E+2
1.18E-1	9.14E+2	2.25E-2	1.46E+2
1.15E-1	8.85E+2	2.73E-2	2.16E+2
1.18E-1	9.11E+2	2.61E-2	1.69E+2
1.23E-1	9.43E+2	2.17E-2	1.12E+2
1.22E-1	9.73E+2	2.44E-2	1.71E+2
1.13E-1	9.53E+2	2.49E-2	1.71E+2
1.16E-1	9.44E+2	2.47E-2	2.08E+2
1.13E-1	9.05E+2	2.61E-2	1.73E+2
1.16E-1	9.58E+2	2.59E-2	1.69E+2
1.15E-1	9.41E+2	2.76E-2	1.79E+2
1.16E-1	8.69E+2	2.56E-2	1.73E+2
1.15E-1	8.59E+2	2.73E-2	1.65E+2
1.18E-1	8.62E+2	2.44E-2	1.46E+2
1.15E-1	9.12E+2	2.56E-2	1.57E+2
1.23E-1	9.61E+2	2.83E-2	1.36E+2
1.25E-1	9.53E+2	2.54E-2	1.43E+2
1.17E-1	9.08E+2	2.69E-2	1.66E+2
1.15E-1	8.86E+2	2.49E-2	1.20E+2
1.13E-1	9.39E+2	2.25E-2	2.03E+2
1.18E-1	9.71E+2	2.08E-2	1.98E+2
1.15E-1	8.95E+2	2.64E-2	1.71E+2
1.11E-1	9.02E+2	2.49E-2	1.97E+2
1.15E-1	9.70E+2	2.39E-2	1.84E+2
1.12E-1	8.67E+2	2.37E-2	1.67E+2
1.12E-1	8.99E+2	2.66E-2	2.09E+2
1.28E-1	9.65E+2	2.44E-2	1.63E+2
1.16E-1	9.21E+2	2.59E-2	1.55E+2
1.16E-1	9.59E+2	2.47E-2	1.75E+2
1.17E-1	9.59E+2	2.49E-2	1.68E+2
1.19E-1	9.33E+2	2.51E-2	1.62E+2
1.07E-1	8.75E+2	2.44E-2	1.38E+2
1.10E-1	9.28E+2	2.42E-2	2.20E+2
1.10E-1	8.91E+2	2.56E-2	1.79E+2
1.17E-1	8.94E+2	2.32E-2	1.70E+2
1.08E-1	8.90E+2	2.25E-2	1.85E+2
1.19E-1	9.16E+2	2.69E-2	1.52E+2
1.22E-1	9.40E+2	2.42E-2	1.43E+2
1.14E-1	8.84E+2	2.44E-2	1.71E+2
1.22E-1	8.87E+2	2.32E-2	1.58E+2
1.11E-1	8.98E+2	2.29E-2	1.66E+2
1.27E-1	9.51E+2	2.39E-2	1.37E+2
1.14E-1	9.45E+2	2.56E-2	1.81E+2
1.14E-1	9.26E+2	2.29E-2	1.80E+2
1.18E-1	9.74E+2	2.34E-2	2.12E+2
1.16E-1	9.56E+2	2.27E-2	1.85E+2
1.14E-1	9.40E+2	2.78E-2	1.78E+2
1.16E-1	9.16E+2	2.34E-2	1.45E+2
1.14E-1	8.71E+2	2.47E-2	1.56E+2
1.17E-1	8.87E+2	2.54E-2	1.38E+2
1.21E-1	9.25E+2	2.32E-2	1.95E+2
1.13E-1	8.91E+2	2.54E-2	1.33E+2
1.19E-1	9.33E+2	2.51E-2	1.87E+2
1.17E-1	9.16E+2	2.42E-2	1.34E+2
1.17E-1	9.00E+2	2.22E-2	1.32E+2
1.16E-1	9.13E+2	2.44E-2	1.77E+2
1.16E-1	9.02E+2	2.44E-2	1.85E+2
1.11E-1	9.10E+2	2.49E-2	1.85E+2
1.18E-1	9.32E+2	2.22E-2	1.57E+2
1.20E-1	9.39E+2	2.10E-2	1.49E+2
1.19E-1	8.79E+2	2.37E-2	1.80E+2
1.17E-1	9.33E+2	2.20E-2	1.84E+2
1.14E-1	9.04E+2	2.39E-2	1.81E+2
1.21E-1	9.95E+2	2.71E-2	1.83E+2
1.18E-1	9.25E+2	2.42E-2	1.66E+2
1.18E-1	9.45E+2	2.39E-2	1.41E+2
1.18E-1	9.35E+2	2.20E-2	1.90E+2
1.08E-1	8.49E+2	2.49E-2	1.23E+2
1.14E-1	9.33E+2	2.54E-2	1.75E+2
1.15E-1	9.46E+2	2.47E-2	1.59E+2
1.12E-1	8.61E+2	2.42E-2	1.72E+2
1.16E-1	9.03E+2	2.49E-2	1.86E+2
1.20E-1	9.26E+2	2.54E-2	1.65E+2
1.13E-1	8.92E+2	2.54E-2	1.52E+2
1.17E-1	8.81E+2	2.73E-2	1.71E+2
1.15E-1	9.32E+2	2.61E-2	1.80E+2
1.11E-1	8.82E+2	2.51E-2	1.77E+2
1.14E-1	8.94E+2	2.22E-2	1.19E+2
6.10E-3	-4.44E+0	9.89E-2	5.24E+2
1.12E-1	9.11E+2	2.29E-2	1.91E+2
1.16E-1	9.41E+2	2.59E-2	1.77E+2
1.11E-1	8.94E+2	2.25E-2	1.76E+2
1.14E-1	9.20E+2	2.86E-2	2.15E+2
1.22E-1	9.61E+2	2.49E-2	2.01E+2
1.13E-1	8.71E+2	2.42E-2	1.77E+2
1.21E-1	9.06E+2	2.51E-2	1.49E+2
1.23E-1	9.43E+2	2.37E-2	1.41E+2
1.24E-1	9.45E+2	2.64E-2	1.21E+2
1.19E-1	9.49E+2	2.69E-2	1.29E+2
1.12E-1	9.13E+2	2.44E-2	1.37E+2
1.26E-1	1.04E+3	2.49E-2	1.77E+2
1.19E-1	8.95E+2	2.54E-2	1.35E+2
1.14E-1	9.24E+2	3.05E-2	1.65E+2
1.23E-1	9.83E+2	2.29E-2	1.63E+2
1.23E-1	9.56E+2	2.34E-2	1.88E+2
1.17E-1	8.79E+2	2.76E-2	1.80E+2
1.20E-1	9.38E+2	2.56E-2	1.67E+2
1.21E-1	8.80E+2	2.56E-2	1.69E+2
1.08E-1	8.35E+2	2.49E-2	1.25E+2
1.25E-1	9.29E+2	2.39E-2	1.43E+2
1.15E-1	9.20E+2	2.76E-2	1.51E+2
1.14E-1	8.98E+2	2.34E-2	1.33E+2
1.10E-1	8.93E+2	2.51E-2	1.75E+2
1.21E-1	9.49E+2	2.78E-2	2.05E+2
1.13E-1	9.40E+2	2.49E-2	2.29E+2
1.09E-1	9.17E+2	2.71E-2	1.74E+2
1.14E-1	9.49E+2	2.25E-2	2.08E+2
1.15E-1	9.13E+2	2.27E-2	1.86E+2
1.08E-1	8.58E+2	2.39E-2	1.42E+2
1.18E-1	9.61E+2	2.42E-2	1.54E+2
1.21E-1	9.46E+2	2.49E-2	1.15E+2
1.18E-1	9.79E+2	2.44E-2	1.62E+2
1.19E-1	9.45E+2	2.47E-2	1.52E+2
1.12E-1	9.00E+2	2.32E-2	1.61E+2
1.16E-1	8.99E+2	2.61E-2	1.52E+2
1.16E-1	9.21E+2	2.61E-2	1.74E+2
1.17E-1	9.50E+2	2.44E-2	1.43E+2
1.14E-1	9.10E+2	2.71E-2	2.13E+2
1.16E-1	9.08E+2	2.44E-2	1.50E+2
1.10E-1	9.67E+2	2.69E-2	2.20E+2
1.14E-1	9.01E+2	2.44E-2	1.81E+2
1.11E-1	9.23E+2	2.29E-2	1.93E+2
1.24E-1	9.75E+2	2.17E-2	1.60E+2
1.10E-1	9.11E+2	2.56E-2	1.54E+2
1.20E-1	9.55E+2	2.29E-2	1.36E+2
1.21E-1	9.75E+2	2.47E-2	1.58E+2
1.16E-1	9.40E+2	2.25E-2	1.75E+2
1.16E-1	9.51E+2	2.51E-2	1.82E+2
1.22E-1	9.67E+2	2.64E-2	1.75E+2
1.18E-1	9.75E+2	2.25E-2	2.19E+2
1.18E-1	9.36E+2	2.29E-2	1.77E+2
1.15E-1	9.05E+2	2.54E-2	1.25E+2
1.20E-1	8.89E+2	2.42E-2	1.59E+2
1.16E-1	9.07E+2	2.32E-2	1.46E+2
1.14E-1	9.18E+2	2.32E-2	1.58E+2
1.14E-1	9.03E+2	2.42E-2	1.62E+2
1.17E-1	8.90E+2	2.56E-2	1.75E+2
1.13E-1	9.34E+2	2.73E-2	1.63E+2
1.08E-1	9.23E+2	2.49E-2	1.68E+2
1.13E-1	9.05E+2	2.10E-2	1.55E+2
1.06E-1	8.19E+2	2.44E-2	1.46E+2
1.20E-1	8.63E+2	2.59E-2	1.26E+2
1.19E-1	9.38E+2	2.47E-2	1.92E+2
1.13E-1	8.74E+2	2.61E-2	1.63E+2
1.18E-1	9.09E+2	2.54E-2	1.71E+2
1.15E-1	9.28E+2	2.47E-2	1.73E+2
1.20E-1	9.41E+2	2.34E-2	1.62E+2
1.18E-1	9.65E+2	2.37E-2	1.49E+2
1.14E-1	9.37E+2	2.42E-2	1.75E+2
1.11E-1	9.34E+2	2.64E-2	1.83E+2
1.10E-1	8.90E+2	2.27E-2	1.50E+2
1.21E-1	9.94E+2	2.27E-2	1.96E+2
1.20E-1	9.64E+2	2.27E-2	1.77E+2
1.14E-1	9.18E+2	2.29E-2	1.66E+2
1.13E-1	8.87E+2	2.44E-2	1.38E+2
1.19E-1	8.35E+2	2.64E-2	1.74E+2
1.16E-1	9.51E+2	2.34E-2	1.62E+2
1.14E-1	9.08E+2	2.39E-2	1.46E+2
1.26E-1	9.51E+2	2.64E-2	1.68E+2
1.16E-1	9.44E+2	2.22E-2	1.68E+2
1.21E-1	9.58E+2	2.39E-2	1.45E+2
1.11E-1	8.88E+2	2.27E-2	1.83E+2
1.18E-1	8.87E+2	2.78E-2	2.07E+2
1.21E-1	9.17E+2	2.20E-2	1.44E+2
1.18E-1	9.12E+2	2.47E-2	1.87E+2
1.15E-1	9.09E+2	2.37E-2	1.98E+2
1.12E-1	9.29E+2	2.37E-2	2.06E+2
1.15E-1	9.18E+2	2.47E-2	1.36E+2
1.19E-1	8.94E+2	2.51E-2	1.67E+2
1.13E-1	8.81E+2	2.34E-2	1.39E+2
1.15E-1	9.37E+2	2.22E-2	1.40E+2
1.12E-1	9.47E+2	2.39E-2	1.79E+2
1.25E-1	8.71E+2	2.44E-2	1.16E+2
1.11E-1	9.01E+2	2.27E-2	1.45E+2
1.13E-1	9.18E+2	2.56E-2	1.54E+2
1.18E-1	9.76E+2	2.47E-2	1.95E+2
1.21E-1	9.59E+2	2.39E-2	2.12E+2
1.20E-1	9.05E+2	2.37E-2	1.51E+2
1.13E-1	8.68E+2	2.49E-2	1.81E+2
1.20E-1	9.01E+2	2.56E-2	1.97E+2
1.15E-1	9.32E+2	2.44E-2	1.98E+2
1.11E-1	9.02E+2	2.69E-2	1.53E+2
1.15E-1	8.85E+2	2.22E-2	1.42E+2
1.19E-1	9.33E+2	2.34E-2	1.30E+2
1.07E-1	8.61E+2	2.64E-2	1.90E+2
1.16E-1	9.07E+2	2.42E-2	1.55E+2
1.15E-1	9.44E+2	2.49E-2	2.03E+2
1.12E-1	9.12E+2	2.54E-2	1.70E+2
1.17E-1	9.83E+2	2.29E-2	1.92E+2
1.09E-1	8.70E+2	2.56E-2	1.95E+2
1.10E-1	9.47E+2	2.25E-2	2.05E+2
1.15E-1	8.84E+2	2.29E-2	1.80E+2
1.18E-1	9.37E+2	2.44E-2	1.80E+2
1.20E-1	9.46E+2	2.64E-2	1.67E+2
1.15E-1	8.64E+2	2.27E-2	1.97E+2
1.14E-1	8.85E+2	2.64E-2	1.39E+2
1.15E-1	9.02E+2	2.27E-2	1.46E+2
1.13E-1	9.45E+2	2.47E-2	1.79E+2
1.19E-1	9.53E+2	2.29E-2	1.65E+2
1.08E-1	9.07E+2	2.29E-2	1.86E+2
1.19E-1	9.22E+2	2.27E-2	2.03E+2
1.19E-1	9.65E+2	2.25E-2	1.93E+2
1.18E-1	9.36E+2	2.44E-2	1.91E+2
1.16E-1	8.52E+2	2.37E-2	1.77E+2
1.08E-1	8.45E+2	2.78E-2	1.85E+2
1.23E-1	9.67E+2	2.51E-2	1.86E+2
1.16E-1	9.41E+2	2.71E-2	1.70E+2
1.10E-1	9.18E+2	2.25E-2	1.67E+2
1.25E-1	9.41E+2	2.59E-2	1.61E+2
1.22E-1	9.67E+2	2.49E-2	1.80E+2
1.20E-1	9.75E+2	2.34E-2	1.66E+2
1.16E-1	9.70E+2	2.44E-2	1.89E+2
1.19E-1	9.51E+2	2.71E-2	2.02E+2
1.11E-1	9.17E+2	2.47E-2	1.99E+2
1.18E-1	9.05E+2	2.54E-2	1.65E+2
1.20E-1	9.09E+2	2.29E-2	1.72E+2
1.20E-1	9.07E+2	2.27E-2	1.56E+2
1.16E-1	8.83E+2	2.51E-2	1.73E+2
1.14E-1	9.32E+2	2.71E-2	2.04E+2
1.13E-1	9.03E+2	2.56E-2	1.45E+2
1.23E-1	9.39E+2	2.47E-2	1.57E+2
1.19E-1	9.58E+2	2.56E-2	2.31E+2
1.15E-1	9.37E+2	2.73E-2	1.59E+2
1.16E-1	9.60E+2	2.64E-2	1.90E+2
1.17E-1	9.54E+2	2.10E-2	1.86E+2
1.20E-1	9.80E+2	2.51E-2	1.94E+2
1.13E-1	9.69E+2	2.71E-2	2.02E+2
1.22E-1	9.38E+2	2.22E-2	1.67E+2
1.17E-1	9.20E+2	2.47E-2	1.40E+2
1.21E-1	9.20E+2	2.37E-2	1.55E+2
1.20E-1	9.13E+2	2.39E-2	1.46E+2
1.16E-1	9.27E+2	2.88E-2	1.78E+2
1.09E-1	8.82E+2	2.25E-2	1.22E+2
1.19E-1	9.50E+2	2.29E-2	1.52E+2
1.24E-1	9.22E+2	2.71E-2	1.41E+2
1.16E-1	9.15E+2	2.73E-2	2.02E+2
1.10E-1	8.33E+2	2.66E-2	1.90E+2
1.11E-1	8.90E+2	2.32E-2	1.52E+2
1.15E-1	9.10E+2	2.34E-2	1.83E+2
1.20E-1	1.00E+3	2.49E-2	2.18E+2
1.18E-1	8.76E+2	2.47E-2	1.70E+2
1.18E-1	9.23E+2	2.42E-2	1.54E+2
1.22E-1	9.45E+2	2.37E-2	1.52E+2
1.19E-1	9.28E+2	2.29E-2	1.64E+2
1.18E-1	9.59E+2	2.61E-2	2.03E+2
1.18E-1	9.33E+2	2.66E-2	1.82E+2
1.17E-1	9.54E+2	2.56E-2	1.80E+2
1.18E-1	9.19E+2	2.56E-2	1.44E+2
1.20E-1	9.57E+2	2.61E-2	1.59E+2
1.21E-1	9.79E+2	2.39E-2	2.00E+2
1.18E-1	8.83E+2	2.34E-2	1.46E+2
1.22E-1	8.85E+2	2.39E-2	1.72E+2
1.23E-1	9.50E+2	2.44E-2	1.68E+2
1.13E-1	9.29E+2	2.59E-2	1.94E+2
1.13E-1	9.27E+2	2.49E-2	2.10E+2
1.18E-1	9.22E+2	2.64E-2	1.88E+2
1.21E-1	9.38E+2	2.39E-2	1.73E+2
1.14E-1	9.56E+2	2.39E-2	2.21E+2
1.17E-1	9.35E+2	2.22E-2	1.79E+2
1.25E-1	9.64E+2	2.27E-2	1.44E+2
1.20E-1	1.01E+3	2.37E-2	2.09E+2
1.25E-1	9.41E+2	2.42E-2	1.59E+2
1.24E-1	9.57E+2	2.59E-2	1.66E+2
1.22E-1	9.32E+2	2.71E-2	1.59E+2
1.19E-1	8.88E+2	2.39E-2	1.73E+2
1.22E-1	9.38E+2	2.69E-2	1.73E+2
1.16E-1	8.78E+2	2.42E-2	1.16E+2
1.22E-1	9.39E+2	2.61E-2	1.94E+2
1.13E-1	8.84E+2	2.59E-2	1.88E+2
1.18E-1	9.26E+2	2.64E-2	1.66E+2
1.15E-1	9.07E+2	2.54E-2	1.69E+2
1.18E-1	9.37E+2	2.37E-2	1.73E+2
1.14E-1	9.48E+2	2.49E-2	2.10E+2
1.11E-1	9.02E+2	2.49E-2	1.85E+2
1.13E-1	9.36E+2	2.37E-2	2.03E+2
1.18E-1	9.44E+2	2.49E-2	1.46E+2
1.14E-1	9.51E+2	2.66E-2	2.23E+2
1.15E-1	9.00E+2	2.34E-2	1.46E+2
1.15E-1	8.86E+2	2.39E-2	1.19E+2
1.15E-1	8.85E+2	2.22E-2	1.33E+2
1.14E-1	9.14E+2	2.44E-2	1.75E+2
1.17E-1	9.59E+2	2.61E-2	1.33E+2
1.08E-1	8.88E+2	2.25E-2	1.48E+2
1.17E-1	9.32E+2	2.54E-2	1.44E+2
1.17E-1	9.45E+2	2.59E-2	1.83E+2
1.19E-1	9.31E+2	2.27E-2	1.53E+2
1.23E-1	9.16E+2	2.42E-2	1.40E+2
1.11E-1	8.92E+2	2.44E-2	1.57E+2
1.21E-1	8.95E+2	2.34E-2	1.32E+2
1.21E-1	8.96E+2	2.54E-2	1.40E+2
1.17E-1	9.34E+2	2.42E-2	2.11E+2
1.14E-1	9.02E+2	2.39E-2	1.63E+2
1.19E-1	9.17E+2	2.39E-2	1.63E+2
1.18E-1	9.62E+2	2.69E-2	1.89E+2
1.15E-1	9.26E+2	2.44E-2	1.95E+2
1.13E-1	8.99E+2	2.32E-2	1.78E+2
1.25E-1	9.87E+2	2.12E-2	1.90E+2
1.15E-1	9.05E+2	2.32E-2	1.61E+2
1.13E-1	9.49E+2	2.29E-2	1.81E+2
1.11E-1	8.77E+2	2.27E-2	1.37E+2
1.19E-1	8.98E+2	2.76E-2	1.86E+2
1.15E-1	9.04E+2	2.49E-2	1.67E+2
1.12E-1	8.97E+2	2.49E-2	1.63E+2
1.23E-1	9.51E+2	2.49E-2	1.53E+2
1.16E-1	9.28E+2	2.44E-2	1.75E+2
1.17E-1	9.09E+2	2.34E-2	1.44E+2
1.26E-1	9.58E+2	2.54E-2	1.92E+2
1.16E-1	9.66E+2	2.61E-2	1.89E+2
1.15E-1	9.01E+2	2.22E-2	1.51E+2
1.20E-1	9.27E+2	2.73E-2	1.90E+2
1.11E-1	8.97E+2	2.59E-2	1.92E+2
1.18E-1	8.98E+2	2.27E-2	1.23E+2
1.18E-1	9.15E+2	2.27E-2	1.83E+2
1.23E-1	1.00E+3	2.32E-2	1.91E+2
1.16E-1	8.90E+2	2.39E-2	1.48E+2
1.18E-1	9.35E+2	2.15E-2	1.29E+2
1.14E-1	9.58E+2	2.54E-2	2.41E+2
1.20E-1	8.98E+2	2.59E-2	1.57E+2
1.15E-1	9.15E+2	2.44E-2	2.08E+2
1.14E-1	9.26E+2	2.37E-2	1.71E+2
1.17E-1	9.12E+2	2.42E-2	2.03E+2
1.17E-1	9.63E+2	2.71E-2	1.64E+2
1.15E-1	9.41E+2	2.39E-2	1.97E+2
1.15E-1	9.06E+2	2.39E-2	1.63E+2
1.11E-1	8.73E+2	2.66E-2	1.44E+2
1.23E-1	9.85E+2	2.10E-2	1.61E+2
1.08E-1	8.39E+2	2.56E-2	1.64E+2
1.21E-1	9.26E+2	2.64E-2	1.74E+2
1.22E-1	9.54E+2	2.17E-2	1.46E+2
1.18E-1	9.25E+2	2.39E-2	1.42E+2
1.22E-1	9.72E+2	2.64E-2	1.96E+2
1.13E-1	9.40E+2	2.37E-2	1.86E+2
1.22E-1	9.29E+2	2.15E-2	1.49E+2
1.18E-1	9.32E+2	2.27E-2	1.90E+2
1.08E-1	8.71E+2	2.49E-2	1.46E+2
1.23E-1	9.27E+2	2.73E-2	2.01E+2
1.18E-1	9.31E+2	2.29E-2	2.01E+2
1.19E-1	9.48E+2	2.34E-2	1.54E+2
1.15E-1	9.35E+2	2.59E-2	1.51E+2
1.14E-1	9.53E+2	2.44E-2	1.88E+2
1.16E-1	9.55E+2	2.61E-2	1.70E+2
1.24E-1	9.41E+2	2.34E-2	1.40E+2
1.18E-1	9.86E+2	2.81E-2	2.01E+2
1.20E-1	9.34E+2	2.64E-2	1.80E+2
1.17E-1	9.23E+2	2.47E-2	1.88E+2
1.24E-1	8.83E+2	2.42E-2	1.57E+2
1.11E-1	8.93E+2	2.56E-2	1.95E+2
1.17E-1	8.66E+2	2.49E-2	1.44E+2
1.10E-1	8.95E+2	2.44E-2	1.44E+2
1.17E-1	9.31E+2	2.22E-2	1.40E+2
1.22E-1	9.30E+2	2.73E-2	1.57E+2
1.17E-1	9.15E+2	2.49E-2	1.75E+2
1.29E-1	1.02E+3	2.51E-2	1.62E+2
1.23E-1	9.60E+2	2.49E-2	1.87E+2
1.16E-1	9.04E+2	2.20E-2	1.75E+2
1.12E-1	9.16E+2	2.47E-2	1.87E+2
1.09E-1	9.23E+2	2.51E-2	2.03E+2
1.07E-1	9.14E+2	2.42E-2	1.58E+2
1.11E-1	9.49E+2	2.44E-2	2.19E+2
1.24E-1	9.31E+2	2.56E-2	1.91E+2
1.26E-1	9.76E+2	2.37E-2	1.49E+2
1.22E-1	9.83E+2	2.59E-2	1.73E+2
1.22E-1	9.46E+2	2.56E-2	1.62E+2
1.19E-1	9.14E+2	2.56E-2	1.15E+2
1.17E-1	9.43E+2	2.61E-2	1.81E+2
1.13E-1	9.05E+2	2.81E-2	1.64E+2
1.22E-1	9.74E+2	2.25E-2	1.48E+2
1.12E-1	9.44E+2	2.39E-2	1.79E+2
1.12E-1	8.88E+2	2.61E-2	1.54E+2
1.19E-1	9.40E+2	2.49E-2	2.00E+2
1.11E-1	8.85E+2	2.37E-2	1.59E+2
1.12E-1	8.97E+2	2.05E-2	1.43E+2
1.13E-1	8.79E+2	2.17E-2	1.42E+2
1.21E-1	8.95E+2	2.22E-2	1.67E+2
1.20E-1	9.42E+2	2.39E-2	1.76E+2
1.11E-1	9.07E+2	2.61E-2	1.64E+2
1.12E-1	9.21E+2	2.32E-2	1.53E+2
1.12E-1	8.79E+2	2.61E-2	1.58E+2
1.20E-1	9.76E+2	2.54E-2	2.08E+2
1.20E-1	9.37E+2	2.93E-2	1.82E+2
1.15E-1	9.64E+2	2.44E-2	2.01E+2
1.16E-1	9.30E+2	2.27E-2	1.76E+2
1.23E-1	9.53E+2	2.27E-2	1.51E+2
1.25E-1	9.38E+2	2.29E-2	1.55E+2
1.13E-1	8.83E+2	2.29E-2	1.34E+2
1.17E-1	9.03E+2	2.51E-2	1.61E+2
1.16E-1	8.89E+2	2.29E-2	1.39E+2
1.26E-1	9.33E+2	2.56E-2	1.12E+2
1.16E-1	9.27E+2	2.44E-2	1.61E+2
1.15E-1	9.39E+2	2.44E-2	1.89E+2
1.22E-1	9.02E+2	2.59E-2	1.65E+2
1.15E-1	9.26E+2	2.32E-2	1.68E+2
1.24E-1	9.38E+2	2.27E-2	1.65E+2
1.19E-1	9.93E+2	2.37E-2	2.09E+2
1.23E-1	9.46E+2	2.34E-2	1.55E+2
1.08E-1	8.96E+2	2.49E-2	2.18E+2
1.24E-1	9.35E+2	2.34E-2	1.58E+2
1.17E-1	9.30E+2	2.47E-2	2.01E+2
1.24E-1	9.51E+2	2.49E-2	1.68E+2
1.23E-1	9.79E+2	2.42E-2	1.79E+2
1.16E-1	9.40E+2	2.37E-2	1.71E+2
1.19E-1	9.79E+2	2.73E-2	1.68E+2
1.11E-1	8.79E+2	2.22E-2	1.59E+2
1.11E-1	9.27E+2	2.37E-2	1.89E+2
1.19E-1	9.35E+2	2.49E-2	1.95E+2
1.15E-1	8.72E+2	2.44E-2	1.43E+2
1.18E-1	9.15E+2	2.37E-2	1.92E+2
1.21E-1	9.43E+2	2.51E-2	1.84E+2
1.14E-1	9.21E+2	2.39E-2	1.92E+2
1.16E-1	9.25E+2	2.49E-2	1.92E+2
1.14E-1	9.32E+2	2.61E-2	1.49E+2
1.19E-1	9.25E+2	2.61E-2	2.15E+2
1.20E-1	9.45E+2	2.34E-2	1.77E+2
1.12E-1	9.11E+2	2.49E-2	1.37E+2
1.11E-1	9.44E+2	2.56E-2	1.91E+2
1.18E-1	9.10E+2	2.44E-2	1.65E+2
1.17E-1	9.55E+2	2.56E-2	1.91E+2
1.13E-1	9.25E+2	2.54E-2	1.67E+2
1.15E-1	9.25E+2	2.29E-2	1.99E+2
1.17E-1	9.55E+2	2.34E-2	1.54E+2
1.14E-1	8.83E+2	2.39E-2	1.62E+2
1.20E-1	9.32E+2	2.47E-2	1.47E+2
1.18E-1	8.91E+2	2.54E-2	1.37E+2
1.23E-1	9.54E+2	2.54E-2	1.70E+2
1.16E-1	8.96E+2	2.25E-2	1.75E+2
1.17E-1	9.41E+2	2.47E-2	1.87E+2
1.12E-1	9.16E+2	2.47E-2	1.83E+2
1.17E-1	9.20E+2	2.47E-2	1.52E+2
1.14E-1	9.52E+2	2.17E-2	2.13E+2
1.13E-1	9.43E+2	2.37E-2	2.00E+2
1.23E-1	9.30E+2	2.54E-2	1.92E+2
1.09E-1	8.86E+2	2.51E-2	2.24E+2
1.09E-1	9.25E+2	2.20E-2	1.98E+2
1.20E-1	8.96E+2	2.49E-2	1.42E+2
1.18E-1	9.60E+2	2.39E-2	1.44E+2
1.23E-1	9.33E+2	2.39E-2	1.44E+2
1.13E-1	9.06E+2	2.29E-2	1.49E+2
1.17E-1	8.96E+2	2.73E-2	2.13E+2
1.28E-1	9.57E+2	2.27E-2	1.29E+2
1.11E-1	9.15E+2	2.47E-2	1.57E+2
1.17E-1	9.33E+2	2.51E-2	1.71E+2
1.16E-1	9.13E+2	2.29E-2	1.64E+2
1.18E-1	9.06E+2	2.12E-2	1.32E+2
1.18E-1	9.10E+2	2.37E-2	1.64E+2
1.11E-1	8.96E+2	2.39E-2	1.78E+2
1.21E-1	8.98E+2	2.22E-2	1.62E+2
1.20E-1	8.99E+2	2.49E-2	1.72E+2
1.16E-1	9.35E+2	2.42E-2	1.62E+2
1.15E-1	8.87E+2	2.25E-2	1.23E+2
1.13E-1	9.20E+2	2.66E-2	1.79E+2
1.17E-1	9.79E+2	2.44E-2	2.15E+2
1.14E-1	9.40E+2	2.42E-2	2.14E+2
1.11E-1	9.22E+2	2.47E-2	1.65E+2
1.20E-1	9.09E+2	2.34E-2	1.88E+2
1.12E-1	8.51E+2	2.37E-2	1.90E+2
1.15E-1	8.88E+2	2.22E-2	1.49E+2
1.10E-1	8.54E+2	2.39E-2	1.51E+2
1.21E-1	9.03E+2	2.51E-2	1.26E+2
1.19E-1	9.40E+2	2.29E-2	1.25E+2
1.15E-1	9.21E+2	2.15E-2	1.22E+2
1.12E-1	9.05E+2	2.42E-2	1.44E+2
1.20E-1	9.52E+2	2.22E-2	1.60E+2
1.17E-1	9.33E+2	2.54E-2	1.69E+2
1.11E-1	9.03E+2	2.27E-2	1.57E+2
1.16E-1	8.62E+2	2.42E-2	1.92E+2
1.16E-1	9.32E+2	2.76E-2	2.07E+2
1.09E-1	8.83E+2	2.34E-2	1.40E+2
1.16E-1	9.16E+2	2.37E-2	1.82E+2
1.12E-1	8.77E+2	2.32E-2	1.52E+2
1.13E-1	8.66E+2	2.42E-2	1.51E+2
1.23E-1	8.91E+2	2.29E-2	1.98E+2
1.22E-1	9.59E+2	2.54E-2	1.58E+2
1.25E-1	9.62E+2	2.64E-2	1.64E+2
1.12E-1	8.76E+2	2.49E-2	1.44E+2
1.14E-1	9.49E+2	2.37E-2	1.92E+2
1.25E-1	9.69E+2	2.17E-2	1.40E+2
1.19E-1	9.42E+2	2.47E-2	1.55E+2
1.14E-1	9.34E+2	2.42E-2	2.01E+2
1.13E-1	8.73E+2	2.17E-2	1.41E+2
1.22E-1	9.32E+2	2.56E-2	1.38E+2
1.20E-1	9.35E+2	2.51E-2	1.61E+2
1.19E-1	9.22E+2	2.59E-2	1.44E+2
1.21E-1	9.41E+2	2.29E-2	1.52E+2
1.14E-1	8.95E+2	2.47E-2	1.55E+2
1.17E-1	8.86E+2	2.12E-2	1.16E+2
1.11E-1	8.92E+2	2.51E-2	1.79E+2
1.13E-1	9.23E+2	2.39E-2	1.35E+2
1.20E-1	9.52E+2	2.64E-2	1.94E+2
1.15E-1	8.97E+2	2.32E-2	1.54E+2
1.25E-1	9.20E+2	2.27E-2	1.64E+2
1.17E-1	9.41E+2	2.44E-2	2.09E+2
1.15E-1	8.90E+2	2.37E-2	1.75E+2
1.21E-1	9.51E+2	2.27E-2	2.16E+2
1.13E-1	9.41E+2	2.47E-2	1.44E+2
1.17E-1	9.28E+2	2.51E-2	1.60E+2
1.22E-1	9.17E+2	2.51E-2	1.58E+2
1.12E-1	9.51E+2	2.17E-2	1.47E+2
1.16E-1	9.43E+2	2.93E-2	1.52E+2
1.10E-1	8.67E+2	2.39E-2	1.44E+2
1.13E-1	1.00E+3	2.44E-2	1.74E+2
1.10E-1	8.97E+2	2.81E-2	2.14E+2
1.15E-1	9.39E+2	2.44E-2	1.74E+2
1.08E-1	8.61E+2	2.27E-2	1.47E+2
1.26E-1	9.56E+2	2.37E-2	1.58E+2
1.21E-1	9.59E+2	2.76E-2	2.11E+2
1.24E-1	9.76E+2	2.64E-2	2.23E+2
1.19E-1	9.39E+2	2.44E-2	1.94E+2
1.15E-1	8.87E+2	2.49E-2	1.49E+2
1.17E-1	9.19E+2	2.10E-2	1.60E+2
1.13E-1	9.19E+2	2.37E-2	1.93E+2
1.14E-1	9.32E+2	2.34E-2	2.01E+2
1.19E-1	9.23E+2	2.15E-2	1.68E+2
1.18E-1	9.38E+2	2.27E-2	1.88E+2
1.15E-1	9.32E+2	2.34E-2	2.10E+2
4.88E-3	2.05E+0	9.67E-2	5.38E+2
1.22E-1	9.40E+2	2.56E-2	1.62E+2
1.14E-1	8.90E+2	2.27E-2	1.36E+2
1.14E-1	8.85E+2	2.47E-2	1.52E+2
1.17E-1	9.30E+2	2.73E-2	1.69E+2
1.13E-1	8.72E+2	2.37E-2	1.58E+2
1.18E-1	8.80E+2	2.32E-2	1.14E+2
1.21E-1	9.57E+2	2.71E-2	1.57E+2
1.15E-1	8.99E+2	2.42E-2	1.52E+2
1.09E-1	8.90E+2	2.54E-2	1.84E+2
1.12E-1	9.22E+2	2.44E-2	2.05E+2
1.15E-1	9.37E+2	2.81E-2	2.11E+2
1.17E-1	9.03E+2	2.61E-2	1.64E+2
1.12E-1	8.80E+2	2.44E-2	1.80E+2
1.15E-1	9.63E+2	2.29E-2	1.95E+2
1.18E-1	9.24E+2	2.64E-2	1.44E+2
1.18E-1	9.70E+2	2.44E-2	1.84E+2
1.24E-1	9.99E+2	2.44E-2	1.94E+2
1.14E-1	9.53E+2	2.59E-2	1.51E+2
1.17E-1	9.65E+2	2.59E-2	2.12E+2
1.22E-1	9.74E+2	2.42E-2	1.42E+2
1.14E-1	9.39E+2	2.49E-2	1.56E+2
1.16E-1	9.38E+2	2.12E-2	1.72E+2
1.14E-1	9.40E+2	2.25E-2	1.39E+2
1.13E-1	9.35E+2	2.12E-2	1.60E+2
1.15E-1	9.17E+2	2.20E-2	1.52E+2
1.16E-1	9.25E+2	2.47E-2	1.59E+2
1.14E-1	8.47E+2	2.32E-2	1.36E+2
1.17E-1	8.92E+2	2.56E-2	1.76E+2
1.18E-1	9.38E+2	2.71E-2	1.55E+2
1.19E-1	9.70E+2	2.69E-2	1.53E+2
1.18E-1	9.56E+2	2.44E-2	1.71E+2
1.15E-1	9.72E+2	2.86E-2	2.00E+2
1.21E-1	8.89E+2	2.64E-2	1.92E+2
1.11E-1	8.89E+2	2.20E-2	1.84E+2
1.13E-1	8.88E+2	2.61E-2	1.55E+2
1.13E-1	9.17E+2	2.25E-2	1.83E+2
1.10E-1	9.24E+2	2.56E-2	2.10E+2
1.17E-1	9.32E+2	2.71E-2	1.48E+2
1.14E-1	9.07E+2	2.20E-2	1.51E+2
1.16E-1	9.26E+2	2.91E-2	1.78E+2
1.11E-1	8.87E+2	2.51E-2	1.40E+2
1.20E-1	9.42E+2	2.47E-2	1.94E+2
1.17E-1	8.85E+2	2.56E-2	1.74E+2
1.17E-1	8.91E+2	2.47E-2	1.43E+2
1.13E-1	9.48E+2	2.25E-2	1.61E+2
1.19E-1	9.66E+2	2.37E-2	1.61E+2
1.16E-1	8.97E+2	2.37E-2	1.69E+2
1.13E-1	9.38E+2	2.56E-2	1.94E+2
1.22E-1	9.59E+2	2.37E-2	1.67E+2
1.14E-1	8.85E+2	2.51E-2	1.69E+2
1.21E-1	9.61E+2	2.15E-2	1.25E+2
1.21E-1	9.18E+2	2.32E-2	1.49E+2
1.15E-1	9.37E+2	2.54E-2	1.62E+2
1.15E-1	9.37E+2	2.59E-2	1.75E+2
1.18E-1	9.08E+2	2.32E-2	1.37E+2
1.14E-1	9.54E+2	2.47E-2	1.56E+2
1.15E-1	9.60E+2	2.42E-2	1.77E+2
1.25E-1	9.43E+2	2.93E-2	1.80E+2
1.20E-1	9.51E+2	2.44E-2	1.82E+2
1.14E-1	8.86E+2	2.42E-2	1.70E+2
1.21E-1	9.28E+2	2.39E-2	1.17E+2
1.14E-1	8.83E+2	2.69E-2	1.91E+2
1.20E-1	9.32E+2	2.56E-2	1.62E+2
1.11E-1	9.02E+2	2.44E-2	1.69E+2
1.21E-1	9.11E+2	2.25E-2	1.54E+2
1.14E-1	9.04E+2	2.27E-2	1.19E+2
1.08E-1	9.05E+2	2.12E-2	1.70E+2
1.16E-1	9.49E+2	2.39E-2	1.84E+2
1.21E-1	9.25E+2	2.47E-2	1.72E+2
1.13E-1	8.99E+2	2.27E-2	1.92E+2
1.17E-1	1.00E+3	2.49E-2	2.28E+2
1.19E-1	9.06E+2	2.39E-2	1.68E+2
1.18E-1	8.88E+2	2.37E-2	1.34E+2
1.23E-1	8.95E+2	2.42E-2	1.54E+2
1.16E-1	9.00E+2	2.51E-2	1.23E+2
1.16E-1	9.05E+2	2.37E-2	1.32E+2
1.18E-1	8.97E+2	2.91E-2	1.45E+2
1.23E-1	9.56E+2	2.59E-2	1.70E+2
1.19E-1	9.24E+2	2.42E-2	1.40E+2
1.17E-1	8.91E+2	2.56E-2	1.55E+2
1.13E-1	9.23E+2	2.71E-2	2.04E+2
1.15E-1	9.20E+2	2.76E-2	1.78E+2
1.22E-1	9.20E+2	2.51E-2	1.49E+2
1.15E-1	9.54E+2	2.37E-2	1.68E+2
1.14E-1	8.85E+2	2.27E-2	1.15E+2
1.10E-1	8.51E+2	2.59E-2	1.74E+2
1.22E-1	9.46E+2	2.54E-2	1.94E+2
1.20E-1	9.57E+2	2.51E-2	1.56E+2
1.16E-1	9.20E+2	2.42E-2	1.52E+2
1.15E-1	9.46E+2	2.66E-2	1.72E+2
1.12E-1	9.27E+2	2.34E-2	1.48E+2
1.15E-1	8.90E+2	2.27E-2	1.64E+2
1.14E-1	9.48E+2	2.29E-2	1.54E+2
1.18E-1	9.29E+2	2.54E-2	1.69E+2
1.22E-1	9.58E+2	2.37E-2	2.24E+2
1.13E-1	8.43E+2	2.54E-2	1.60E+2
1.22E-1	9.47E+2	2.44E-2	1.59E+2
1.19E-1	9.16E+2	2.51E-2	1.50E+2
1.16E-1	8.69E+2	2.54E-2	1.39E+2
1.15E-1	9.18E+2	2.47E-2	1.54E+2
1.13E-1	9.44E+2	2.59E-2	1.63E+2
1.21E-1	9.54E+2	2.34E-2	1.44E+2
1.19E-1	8.94E+2	2.64E-2	1.43E+2
1.21E-1	9.20E+2	2.20E-2	1.95E+2
1.18E-1	9.07E+2	2.54E-2	1.82E+2
1.17E-1	9.17E+2	2.25E-2	2.00E+2
1.13E-1	8.66E+2	2.37E-2	1.16E+2
1.18E-1	9.39E+2	2.54E-2	2.32E+2
1.15E-1	8.84E+2	2.34E-2	1.60E+2
1.14E-1	8.74E+2	2.51E-2	1.65E+2
1.10E-1	9.06E+2	2.44E-2	1.61E+2
1.14E-1	9.00E+2	2.44E-2	1.74E+2
1.18E-1	9.75E+2	2.29E-2	1.70E+2
1.14E-1	9.38E+2	2.37E-2	1.67E+2
1.18E-1	9.30E+2	2.27E-2	1.30E+2
1.10E-1	9.33E+2	2.81E-2	1.71E+2
1.15E-1	9.34E+2	2.34E-2	1.71E+2
1.15E-1	9.25E+2	2.47E-2	1.62E+2
1.11E-1	9.03E+2	2.66E-2	1.72E+2
1.21E-1	9.00E+2	2.51E-2	1.64E+2
1.26E-1	9.74E+2	2.34E-2	1.75E+2
1.23E-1	9.49E+2	2.61E-2	1.71E+2
1.15E-1	9.05E+2	2.34E-2	1.48E+2
1.16E-1	8.65E+2	2.34E-2	1.38E+2
1.14E-1	8.92E+2	2.29E-2	1.62E+2
1.14E-1	9.15E+2	2.78E-2	1.45E+2
1.09E-1	8.50E+2	2.47E-2	1.79E+2
1.18E-1	9.12E+2	2.59E-2	1.47E+2
1.17E-1	9.69E+2	2.22E-2	2.12E+2
1.18E-1	9.24E+2	2.49E-2	1.24E+2
1.12E-1	8.66E+2	2.25E-2	1.71E+2
1.20E-1	9.15E+2	2.29E-2	1.70E+2
1.18E-1	9.17E+2	2.49E-2	1.69E+2
1.20E-1	9.12E+2	2.42E-2	1.25E+2
1.21E-1	9.63E+2	2.66E-2	1.74E+2
1.16E-1	9.17E+2	2.27E-2	1.70E+2
1.12E-1	8.59E+2	2.56E-2	1.83E+2
1.10E-1	8.81E+2	2.56E-2	1.31E+2
1.13E-1	9.16E+2	2.32E-2	1.77E+2
1.21E-1	1.01E+3	2.37E-2	2.17E+2
1.08E-1	8.67E+2	2.64E-2	1.94E+2
1.20E-1	9.76E+2	2.93E-2	2.15E+2
1.16E-1	8.81E+2	2.27E-2	1.94E+2
1.21E-1	8.62E+2	2.32E-2	1.44E+2
1.22E-1	8.83E+2	2.42E-2	1.56E+2
1.07E-1	8.85E+2	2.39E-2	2.05E+2
1.24E-1	9.83E+2	2.12E-2	1.77E+2
1.16E-1	9.47E+2	2.73E-2	1.97E+2
1.11E-1	8.59E+2	2.34E-2	1.83E+2
1.18E-1	9.30E+2	2.34E-2	1.48E+2
1.12E-1	9.19E+2	2.64E-2	1.83E+2
1.25E-1	9.85E+2	2.51E-2	1.56E+2
8.30E-3	2.08E+1	1.03E-1	6.01E+2
1.12E-1	9.23E+2	2.44E-2	1.58E+2
1.19E-1	9.16E+2	2.39E-2	1.57E+2
1.20E-1	9.27E+2	2.25E-2	1.67E+2
1.18E-1	9.22E+2	2.29E-2	1.04E+2
1.20E-1	9.11E+2	2.37E-2	1.56E+2
1.21E-1	9.23E+2	2.44E-2	1.59E+2
1.15E-1	9.51E+2	2.54E-2	1.49E+2
1.19E-1	9.63E+2	2.39E-2	1.57E+2
1.18E-1	9.36E+2	2.59E-2	1.89E+2
1.16E-1	9.65E+2	2.17E-2	1.91E+2
1.19E-1	9.25E+2	2.69E-2	1.85E+2
1.13E-1	9.38E+2	2.47E-2	1.85E+2
1.22E-1	9.83E+2	2.15E-2	2.02E+2
1.16E-1	9.28E+2	2.88E-2	1.95E+2
1.18E-1	9.58E+2	2.25E-2	1.79E+2
1.12E-1	9.00E+2	2.32E-2	1.56E+2
1.06E-1	8.64E+2	2.56E-2	1.56E+2
1.14E-1	8.96E+2	2.32E-2	1.31E+2
1.14E-1	9.18E+2	2.76E-2	1.09E+2
1.15E-1	8.66E+2	2.47E-2	1.42E+2
1.18E-1	8.92E+2	2.42E-2	1.39E+2
1.16E-1	9.01E+2	2.69E-2	1.57E+2
1.11E-1	9.07E+2	2.42E-2	1.88E+2
1.20E-1	9.56E+2	2.42E-2	1.64E+2
1.12E-1	8.29E+2	2.54E-2	1.55E+2
1.16E-1	9.17E+2	2.29E-2	1.70E+2
1.11E-1	8.54E+2	2.08E-2	1.36E+2
1.15E-1	9.11E+2	2.66E-2	2.04E+2
1.13E-1	9.29E+2	2.15E-2	1.79E+2
1.25E-1	9.74E+2	2.32E-2	1.78E+2
1.18E-1	8.93E+2	2.61E-2	1.56E+2
1.15E-1	9.16E+2	2.37E-2	1.42E+2
1.09E-1	8.94E+2	2.81E-2	2.00E+2
1.12E-1	9.09E+2	2.51E-2	2.16E+2
1.25E-1	9.29E+2	2.42E-2	1.22E+2
1.13E-1	9.03E+2	2.59E-2	1.43E+2
1.17E-1	9.41E+2	2.34E-2	1.31E+2
1.16E-1	9.05E+2	2.29E-2	1.70E+2
1.14E-1	9.10E+2	2.66E-2	1.42E+2
1.15E-1	9.17E+2	2.66E-2	1.93E+2
1.21E-1	9.32E+2	2.37E-2	1.70E+2
1.15E-1	8.89E+2	2.34E-2	1.10E+2
1.21E-1	9.46E+2	2.54E-2	1.73E+2
1.17E-1	9.01E+2	2.29E-2	9.77E+1
1.14E-1	9.76E+2	2.42E-2	1.78E+2
1.20E-1	9.58E+2	2.44E-2	1.66E+2
1.17E-1	9.15E+2	2.22E-2	1.81E+2
1.12E-1	8.74E+2	2.15E-2	1.67E+2
1.10E-1	8.91E+2	2.73E-2	2.10E+2
1.18E-1	9.31E+2	2.61E-2	1.67E+2
1.27E-1	9.38E+2	2.44E-2	1.52E+2
1.11E-1	8.97E+2	2.12E-2	1.37E+2
1.17E-1	9.52E+2	2.10E-2	1.72E+2
1.13E-1	9.22E+2	2.27E-2	1.55E+2
1.17E-1	9.08E+2	2.25E-2	1.41E+2
1.15E-1	8.73E+2	2.42E-2	1.24E+2
7.08E-3	1.84E+1	1.10E-1	6.01E+2
1.13E-1	9.51E+2	2.32E-2	1.84E+2
1.20E-1	9.10E+2	2.15E-2	1.55E+2
1.13E-1	9.09E+2	2.51E-2	1.57E+2
1.13E-1	9.13E+2	2.47E-2	1.72E+2
1.13E-1	8.74E+2	2.20E-2	1.81E+2
1.14E-1	8.67E+2	2.64E-2	2.18E+2
1.15E-1	8.89E+2	2.51E-2	1.93E+2
1.19E-1	9.12E+2	2.12E-2	1.84E+2
1.17E-1	8.79E+2	2.37E-2	1.40E+2
1.05E-1	8.93E+2	2.47E-2	1.50E+2
1.18E-1	9.44E+2	2.20E-2	1.79E+2
1.16E-1	9.26E+2	2.20E-2	1.92E+2
1.24E-1	9.71E+2	2.12E-2	1.44E+2
1.20E-1	9.69E+2	2.15E-2	1.27E+2
1.17E-1	9.25E+2	2.17E-2	1.25E+2
1.18E-1	9.49E+2	2.61E-2	2.20E+2
1.21E-1	9.51E+2	2.27E-2	1.76E+2
1.12E-1	8.99E+2	2.71E-2	1.39E+2
1.06E-1	8.71E+2	2.42E-2	1.43E+2
1.25E-1	9.18E+2	2.56E-2	1.64E+2
1.17E-1	9.42E+2	2.27E-2	1.35E+2
1.22E-1	9.47E+2	2.32E-2	1.39E+2
1.10E-1	8.08E+2	2.49E-2	1.21E+2
1.12E-1	9.00E+2	2.29E-2	1.85E+2
1.15E-1	9.23E+2	2.25E-2	1.76E+2
1.19E-1	9.21E+2	2.64E-2	1.62E+2
1.15E-1	9.10E+2	2.22E-2	1.72E+2
1.14E-1	9.20E+2	2.20E-2	2.02E+2
1.08E-1	8.63E+2	2.47E-2	1.84E+2
1.10E-1	8.78E+2	2.69E-2	1.90E+2
1.24E-1	9.90E+2	2.17E-2	1.69E+2
1.16E-1	9.15E+2	2.59E-2	1.50E+2
1.17E-1	9.36E+2	2.25E-2	1.55E+2
1.22E-1	9.56E+2	2.44E-2	1.35E+2
1.17E-1	9.48E+2	2.05E-2	1.47E+2
1.20E-1	9.52E+2	2.29E-2	1.31E+2
1.11E-1	9.32E+2	2.61E-2	1.56E+2
1.22E-1	9.73E+2	2.27E-2	1.79E+2
1.17E-1	9.43E+2	2.61E-2	2.05E+2
1.12E-1	8.61E+2	2.51E-2	1.60E+2
1.23E-1	9.31E+2	2.29E-2	1.58E+2
1.18E-1	9.18E+2	2.39E-2	1.43E+2
1.15E-1	8.94E+2	2.25E-2	1.81E+2
1.16E-1	9.33E+2	2.59E-2	1.66E+2
1.13E-1	8.63E+2	2.71E-2	1.28E+2
1.22E-1	9.30E+2	2.39E-2	1.63E+2
1.11E-1	9.33E+2	2.59E-2	1.77E+2
1.12E-1	9.10E+2	2.37E-2	1.89E+2
1.21E-1	9.42E+2	2.44E-2	1.64E+2
1.16E-1	9.31E+2	2.44E-2	1.96E+2
1.14E-1	9.34E+2	2.69E-2	2.09E+2
1.16E-1	9.37E+2	2.49E-2	1.95E+2
1.22E-1	9.02E+2	2.56E-2	1.28E+2
1.19E-1	8.55E+2	2.27E-2	1.35E+2
1.18E-1	9.38E+2	2.56E-2	1.76E+2
1.18E-1	9.37E+2	2.51E-2	1.58E+2
1.15E-1	8.90E+2	2.49E-2	1.60E+2
1.20E-1	9.41E+2	2.39E-2	1.60E+2
1.16E-1	9.57E+2	2.64E-2	1.37E+2
1.09E-1	9.44E+2	2.59E-2	1.93E+2
1.15E-1	9.34E+2	2.29E-2	1.96E+2
1.15E-1	9.74E+2	2.56E-2	2.24E+2
1.15E-1	8.87E+2	2.25E-2	1.23E+2
1.22E-1	9.49E+2	2.47E-2	1.69E+2
1.17E-1	8.99E+2	2.37E-2	1.85E+2
1.09E-1	8.92E+2	2.29E-2	1.65E+2
1.11E-1	9.51E+2	2.22E-2	2.06E+2
1.20E-1	9.02E+2	2.25E-2	1.31E+2
1.10E-1	8.90E+2	2.37E-2	1.36E+2
1.20E-1	8.86E+2	2.49E-2	1.27E+2
1.18E-1	9.68E+2	2.34E-2	1.53E+2
1.20E-1	9.34E+2	2.54E-2	1.45E+2
1.19E-1	8.92E+2	2.47E-2	1.37E+2
1.16E-1	9.72E+2	2.59E-2	1.87E+2
1.18E-1	8.75E+2	2.22E-2	1.04E+2
1.14E-1	8.95E+2	2.22E-2	1.53E+2
1.18E-1	9.33E+2	2.51E-2	1.73E+2
1.16E-1	8.88E+2	2.22E-2	1.44E+2
1.17E-1	9.15E+2	2.44E-2	1.25E+2
1.11E-1	9.05E+2	2.76E-2	1.84E+2
1.18E-1	8.85E+2	2.44E-2	1.68E+2
1.14E-1	9.11E+2	2.32E-2	1.36E+2
1.25E-1	9.88E+2	2.25E-2	1.65E+2
1.23E-1	9.28E+2	2.61E-2	1.77E+2
1.19E-1	9.36E+2	2.44E-2	1.98E+2
1.13E-1	9.01E+2	2.39E-2	1.81E+2
1.13E-1	9.14E+2	2.27E-2	2.07E+2
1.13E-1	9.10E+2	2.39E-2	1.86E+2
1.17E-1	9.23E+2	2.27E-2	1.79E+2
1.21E-1	9.45E+2	2.54E-2	1.34E+2
1.18E-1	9.40E+2	2.34E-2	1.69E+2
1.20E-1	9.13E+2	2.66E-2	1.65E+2
1.21E-1	9.26E+2	2.34E-2	1.56E+2
1.22E-1	9.31E+2	2.44E-2	1.17E+2
1.19E-1	9.11E+2	2.66E-2	1.14E+2
1.17E-1	9.20E+2	2.86E-2	1.92E+2
1.15E-1	9.38E+2	2.49E-2	2.11E+2
1.21E-1	9.28E+2	2.15E-2	1.32E+2
1.10E-1	8.76E+2	2.54E-2	1.84E+2
1.18E-1	9.25E+2	2.59E-2	1.92E+2
1.13E-1	8.59E+2	2.20E-2	1.74E+2
1.17E-1	8.95E+2	2.25E-2	1.56E+2
1.17E-1	8.88E+2	2.27E-2	1.41E+2
1.15E-1	9.06E+2	2.22E-2	1.42E+2
1.15E-1	9.18E+2	2.64E-2	1.77E+2
1.19E-1	9.94E+2	2.59E-2	1.99E+2
1.17E-1	9.57E+2	2.27E-2	1.55E+2
1.24E-1	9.72E+2	2.64E-2	1.70E+2
1.25E-1	9.29E+2	2.61E-2	1.67E+2
1.10E-1	9.33E+2	2.54E-2	1.46E+2
1.13E-1	9.26E+2	2.66E-2	1.70E+2
1.14E-1	9.32E+2	2.76E-2	1.66E+2
1.20E-1	9.55E+2	2.32E-2	1.44E+2
1.10E-1	8.78E+2	2.39E-2	1.66E+2
1.21E-1	9.14E+2	2.44E-2	1.47E+2
1.22E-1	9.19E+2	2.44E-2	1.64E+2
1.26E-1	9.61E+2	2.76E-2	1.78E+2
1.08E-1	8.75E+2	2.27E-2	1.38E+2
1.16E-1	9.16E+2	2.22E-2	1.80E+2
1.09E-1	8.85E+2	2.42E-2	2.28E+2
1.25E-1	9.58E+2	2.34E-2	1.78E+2
1.18E-1	9.55E+2	1.95E-2	1.44E+2
1.10E-1	9.20E+2	2.86E-2	1.83E+2
1.22E-1	9.35E+2	2.22E-2	1.74E+2
1.21E-1	9.32E+2	2.59E-2	1.75E+2
1.15E-1	8.87E+2	2.42E-2	1.36E+2
1.17E-1	9.65E+2	2.54E-2	1.38E+2
1.12E-1	9.15E+2	2.22E-2	2.01E+2
1.16E-1	8.64E+2	2.69E-2	1.28E+2
1.22E-1	9.58E+2	2.10E-2	1.29E+2
1.19E-1	9.35E+2	2.39E-2	1.47E+2
1.21E-1	9.29E+2	2.32E-2	1.33E+2
1.30E-1	9.39E+2	2.32E-2	1.62E+2
1.13E-1	8.37E+2	2.71E-2	1.68E+2
1.14E-1	9.24E+2	2.51E-2	1.79E+2
1.23E-1	9.15E+2	2.34E-2	1.61E+2
1.14E-1	8.99E+2	2.81E-2	2.04E+2
1.15E-1	9.04E+2	2.20E-2	1.79E+2
1.16E-1	9.31E+2	2.12E-2	1.34E+2
1.23E-1	9.44E+2	2.71E-2	1.59E+2
1.20E-1	9.51E+2	2.54E-2	1.79E+2
1.17E-1	9.36E+2	2.54E-2	1.69E+2
1.19E-1	9.27E+2	2.66E-2	1.67E+2
1.15E-1	9.06E+2	4.74E-2	1.63E+2
1.15E-1	9.27E+2	2.44E-2	1.31E+2
1.18E-1	9.41E+2	2.39E-2	1.99E+2
1.14E-1	9.23E+2	2.49E-2	1.91E+2
1.25E-1	9.42E+2	2.25E-2	1.38E+2
1.24E-1	9.42E+2	2.39E-2	1.50E+2
1.14E-1	9.21E+2	2.44E-2	1.74E+2
1.18E-1	9.34E+2	2.64E-2	2.15E+2
1.17E-1	9.42E+2	2.12E-2	1.70E+2
1.18E-1	8.90E+2	2.49E-2	1.44E+2
1.18E-1	9.18E+2	2.34E-2	1.24E+2
1.12E-1	8.91E+2	2.27E-2	1.33E+2
1.16E-1	9.02E+2	2.42E-2	1.67E+2
1.13E-1	8.98E+2	2.64E-2	2.04E+2
1.17E-1	8.99E+2	2.49E-2	1.31E+2
1.15E-1	9.54E+2	2.25E-2	1.55E+2
1.10E-1	8.83E+2	2.64E-2	1.46E+2
1.10E-1	9.33E+2	2.17E-2	1.76E+2
1.20E-1	9.48E+2	2.22E-2	1.27E+2
1.15E-1	9.34E+2	2.66E-2	1.39E+2
1.23E-1	9.52E+2	2.10E-2	1.42E+2
1.14E-1	9.20E+2	2.64E-2	1.38E+2
1.22E-1	8.94E+2	2.44E-2	1.78E+2
1.18E-1	9.17E+2	2.44E-2	1.31E+2
1.10E-1	8.79E+2	2.51E-2	1.72E+2
1.11E-1	9.32E+2	2.20E-2	1.77E+2
1.21E-1	9.47E+2	2.27E-2	1.65E+2
1.14E-1	9.08E+2	2.39E-2	1.33E+2
1.08E-1	8.37E+2	2.25E-2	1.34E+2
1.13E-1	8.58E+2	2.37E-2	1.58E+2
1.18E-1	9.32E+2	2.54E-2	1.60E+2
1.12E-1	8.85E+2	2.51E-2	1.48E+2
1.12E-1	8.88E+2	2.08E-2	1.10E+2
1.20E-1	1.01E+3	2.59E-2	1.48E+2
1.18E-1	9.48E+2	2.25E-2	1.43E+2
1.13E-1	9.22E+2	2.81E-2	1.98E+2
1.11E-1	9.38E+2	2.34E-2	1.84E+2
1.15E-1	9.26E+2	2.59E-2	1.44E+2
1.12E-1	9.13E+2	2.56E-2	1.71E+2
1.27E-1	1.00E+3	2.54E-2	2.14E+2
1.15E-1	9.14E+2	2.61E-2	1.74E+2
1.20E-1	8.84E+2	2.49E-2	1.64E+2
1.18E-1	8.99E+2	2.42E-2	1.38E+2
1.17E-1	9.29E+2	2.29E-2	1.89E+2
1.23E-1	9.23E+2	2.22E-2	1.71E+2
1.14E-1	8.57E+2	2.34E-2	1.25E+2
1.19E-1	9.17E+2	2.37E-2	1.69E+2
1.16E-1	8.95E+2	2.44E-2	1.43E+2
1.15E-1	9.27E+2	2.69E-2	2.29E+2
1.10E-1	8.82E+2	2.49E-2	1.98E+2
1.16E-1	9.18E+2	2.39E-2	1.36E+2
1.15E-1	9.19E+2	2.32E-2	1.80E+2
1.08E-1	8.99E+2	2.49E-2	1.92E+2
1.17E-1	9.09E+2	2.83E-2	1.98E+2
1.19E-1	9.23E+2	2.34E-2	1.48E+2
1.14E-1	9.01E+2	2.29E-2	1.32E+2
1.13E-1	9.16E+2	2.49E-2	1.58E+2
1.19E-1	8.99E+2	2.61E-2	1.35E+2
1.10E-1	8.61E+2	2.49E-2	1.22E+2
1.18E-1	8.88E+2	2.66E-2	1.65E+2
