4.49E-1	2.50E+3	1.26E-1	5.92E+2
4.58E-1	2.69E+3	1.21E-1	5.43E+2
4.54E-1	2.61E+3	1.27E-1	4.91E+2
4.53E-1	2.53E+3	1.27E-1	4.87E+2
4.37E-1	2.49E+3	1.20E-1	5.18E+2
4.35E-1	2.63E+3	1.32E-1	5.52E+2
4.48E-1	2.64E+3	1.19E-1	5.36E+2
4.42E-1	2.69E+3	1.25E-1	5.46E+2
4.39E-1	2.63E+3	1.23E-1	4.99E+2
4.77E-1	2.68E+3	1.18E-1	5.00E+2
4.88E-1	2.67E+3	1.23E-1	5.34E+2
4.61E-1	2.65E+3	1.30E-1	5.32E+2
4.64E-1	2.83E+3	1.32E-1	5.61E+2
4.50E-1	2.73E+3	1.28E-1	6.35E+2
4.73E-1	2.71E+3	1.25E-1	5.11E+2
4.47E-1	2.82E+3	1.21E-1	4.90E+2
4.55E-1	2.67E+3	1.18E-1	5.21E+2
4.66E-1	2.57E+3	1.28E-1	5.01E+2
4.58E-1	2.81E+3	1.27E-1	4.78E+2
4.45E-1	2.69E+3	1.28E-1	5.20E+2
4.49E-1	2.67E+3	1.17E-1	4.90E+2
4.39E-1	2.63E+3	1.18E-1	5.04E+2
4.50E-1	2.71E+3	1.23E-1	4.58E+2
4.44E-1	2.57E+3	1.36E-1	5.56E+2
4.48E-1	2.72E+3	1.17E-1	4.46E+2
4.68E-1	2.75E+3	1.24E-1	5.58E+2
4.43E-1	2.75E+3	1.25E-1	5.09E+2
4.34E-1	2.63E+3	1.28E-1	5.55E+2
4.74E-1	2.72E+3	1.28E-1	5.64E+2
4.32E-1	2.54E+3	1.24E-1	5.11E+2
4.36E-1	2.55E+3	1.27E-1	5.29E+2
4.35E-1	2.54E+3	1.35E-1	5.16E+2
4.32E-1	2.56E+3	1.31E-1	5.21E+2
4.61E-1	2.75E+3	1.32E-1	5.33E+2
4.79E-1	2.66E+3	1.29E-1	5.20E+2
1.00E-2	1.68E+1	3.50E-1	1.31E+3
4.51E-1	2.70E+3	1.19E-1	4.57E+2
4.82E-1	2.75E+3	1.32E-1	6.32E+2
4.65E-1	2.65E+3	1.19E-1	5.45E+2
4.73E-1	2.78E+3	1.24E-1	5.52E+2
4.91E-1	2.74E+3	1.22E-1	4.84E+2
4.65E-1	2.65E+3	1.22E-1	5.36E+2
4.77E-1	2.72E+3	1.31E-1	5.42E+2
4.46E-1	2.72E+3	1.22E-1	5.30E+2
4.32E-1	2.58E+3	1.28E-1	5.62E+2
4.41E-1	2.68E+3	1.17E-1	4.58E+2
4.32E-1	2.59E+3	1.20E-1	5.08E+2
4.68E-1	2.66E+3	1.24E-1	4.99E+2
4.45E-1	2.72E+3	1.24E-1	4.61E+2
4.62E-1	2.79E+3	1.30E-1	5.11E+2
4.58E-1	2.60E+3	1.27E-1	5.45E+2
4.61E-1	2.69E+3	1.26E-1	5.13E+2
4.39E-1	2.66E+3	1.31E-1	5.26E+2
4.51E-1	2.67E+3	1.36E-1	5.81E+2
4.46E-1	2.79E+3	1.18E-1	5.28E+2
4.40E-1	2.60E+3	1.31E-1	4.97E+2
4.34E-1	2.60E+3	1.31E-1	5.22E+2
4.38E-1	2.59E+3	1.27E-1	5.28E+2
4.62E-1	2.67E+3	1.26E-1	5.29E+2
4.64E-1	2.63E+3	1.34E-1	5.31E+2
4.46E-1	2.60E+3	1.26E-1	5.29E+2
4.38E-1	2.67E+3	1.29E-1	5.33E+2
4.38E-1	2.64E+3	1.19E-1	4.74E+2
4.51E-1	2.73E+3	1.21E-1	5.08E+2
4.59E-1	2.83E+3	1.25E-1	4.99E+2
4.53E-1	2.63E+3	1.20E-1	4.95E+2
4.46E-1	2.69E+3	1.23E-1	5.29E+2
4.77E-1	2.74E+3	1.24E-1	4.98E+2
4.78E-1	2.78E+3	1.26E-1	5.31E+2
4.37E-1	2.64E+3	1.22E-1	4.72E+2
4.61E-1	2.61E+3	1.34E-1	5.59E+2
4.72E-1	2.70E+3	1.31E-1	5.55E+2
4.60E-1	2.68E+3	1.24E-1	5.15E+2
4.67E-1	2.75E+3	1.19E-1	4.81E+2
4.37E-1	2.65E+3	1.24E-1	4.75E+2
4.40E-1	2.61E+3	1.19E-1	5.18E+2
4.46E-1	2.61E+3	1.19E-1	4.81E+2
4.53E-1	2.63E+3	1.21E-1	4.90E+2
4.32E-1	2.58E+3	1.21E-1	5.29E+2
4.80E-1	2.67E+3	1.20E-1	4.43E+2
4.46E-1	2.66E+3	1.25E-1	5.15E+2
4.79E-1	2.81E+3	1.24E-1	4.83E+2
4.43E-1	2.64E+3	1.33E-1	5.69E+2
4.48E-1	2.66E+3	1.20E-1	5.46E+2
4.40E-1	2.62E+3	1.29E-1	5.10E+2
4.44E-1	2.62E+3	1.24E-1	5.56E+2
4.43E-1	2.61E+3	1.36E-1	5.19E+2
4.48E-1	2.73E+3	1.20E-1	4.82E+2
4.49E-1	2.85E+3	1.13E-1	4.99E+2
4.55E-1	2.62E+3	1.20E-1	4.36E+2
4.82E-1	2.72E+3	1.29E-1	5.92E+2
4.48E-1	2.82E+3	1.29E-1	5.64E+2
4.68E-1	2.73E+3	1.35E-1	5.85E+2
4.42E-1	2.77E+3	1.22E-1	5.33E+2
4.63E-1	2.65E+3	1.21E-1	4.91E+2
4.38E-1	2.67E+3	1.22E-1	5.08E+2
4.59E-1	2.75E+3	1.18E-1	4.54E+2
4.60E-1	2.63E+3	1.17E-1	4.87E+2
4.49E-1	2.76E+3	1.29E-1	4.95E+2
4.31E-1	2.60E+3	1.21E-1	5.04E+2
4.64E-1	2.75E+3	1.28E-1	4.88E+2
4.55E-1	2.71E+3	1.23E-1	5.61E+2
4.39E-1	2.60E+3	1.20E-1	5.02E+2
4.40E-1	2.69E+3	1.23E-1	4.19E+2
4.66E-1	2.71E+3	1.31E-1	5.15E+2
4.59E-1	2.69E+3	1.17E-1	5.28E+2
4.75E-1	2.71E+3	1.27E-1	5.40E+2
4.86E-1	2.73E+3	1.35E-1	5.21E+2
4.78E-1	2.83E+3	1.27E-1	5.32E+2
4.71E-1	2.57E+3	1.28E-1	5.32E+2
4.66E-1	2.71E+3	1.31E-1	5.76E+2
4.61E-1	2.60E+3	1.34E-1	5.64E+2
4.69E-1	2.72E+3	1.39E-1	6.14E+2
4.67E-1	2.61E+3	1.30E-1	5.82E+2
4.55E-1	2.54E+3	1.26E-1	5.68E+2
4.44E-1	2.59E+3	1.17E-1	5.25E+2
4.43E-1	2.60E+3	1.16E-1	5.09E+2
4.62E-1	2.67E+3	1.25E-1	5.03E+2
4.84E-1	2.80E+3	1.27E-1	5.54E+2
4.66E-1	2.70E+3	1.14E-1	4.70E+2
4.59E-1	2.56E+3	1.35E-1	4.93E+2
4.75E-1	2.57E+3	1.21E-1	4.86E+2
4.54E-1	2.73E+3	1.20E-1	5.17E+2
4.52E-1	2.60E+3	1.22E-1	4.64E+2
4.67E-1	2.75E+3	1.29E-1	5.16E+2
4.61E-1	2.61E+3	1.19E-1	5.29E+2
4.40E-1	2.59E+3	1.35E-1	4.86E+2
4.40E-1	2.70E+3	1.28E-1	5.00E+2
4.48E-1	2.66E+3	1.37E-1	5.91E+2
4.41E-1	2.58E+3	1.29E-1	4.91E+2
4.40E-1	2.63E+3	1.22E-1	4.49E+2
4.62E-1	2.69E+3	1.29E-1	5.32E+2
4.35E-1	2.58E+3	1.30E-1	4.91E+2
4.64E-1	2.66E+3	1.29E-1	5.74E+2
4.72E-1	2.72E+3	1.28E-1	5.55E+2
4.52E-1	2.66E+3	1.21E-1	5.40E+2
4.67E-1	2.66E+3	1.20E-1	5.18E+2
4.60E-1	2.67E+3	1.30E-1	4.94E+2
4.40E-1	2.68E+3	1.13E-1	4.18E+2
4.45E-1	2.72E+3	1.24E-1	5.38E+2
4.64E-1	2.61E+3	1.29E-1	5.50E+2
4.59E-1	2.79E+3	1.19E-1	5.06E+2
4.79E-1	2.72E+3	1.22E-1	4.73E+2
4.66E-1	2.69E+3	1.17E-1	4.46E+2
4.68E-1	2.73E+3	1.27E-1	5.60E+2
4.66E-1	2.74E+3	1.28E-1	5.05E+2
4.39E-1	2.73E+3	1.22E-1	5.29E+2
4.51E-1	2.76E+3	1.26E-1	5.95E+2
4.57E-1	2.70E+3	1.26E-1	5.11E+2
4.46E-1	2.62E+3	1.24E-1	5.70E+2
4.86E-1	2.71E+3	1.25E-1	5.24E+2
4.68E-1	2.74E+3	1.16E-1	5.31E+2
4.69E-1	2.70E+3	1.26E-1	5.47E+2
4.53E-1	2.64E+3	1.30E-1	5.29E+2
4.61E-1	2.67E+3	1.27E-1	4.95E+2
4.45E-1	2.58E+3	1.15E-1	3.67E+2
4.36E-1	2.61E+3	1.24E-1	4.85E+2
4.35E-1	2.63E+3	1.25E-1	5.27E+2
4.57E-1	2.70E+3	1.24E-1	5.45E+2
4.40E-1	2.58E+3	1.16E-1	4.76E+2
4.70E-1	2.82E+3	1.26E-1	5.19E+2
4.41E-1	2.69E+3	1.16E-1	4.93E+2
4.83E-1	2.75E+3	1.23E-1	5.00E+2
4.49E-1	2.60E+3	1.25E-1	4.71E+2
4.58E-1	2.59E+3	1.31E-1	5.64E+2
4.52E-1	2.64E+3	1.13E-1	4.48E+2
4.72E-1	2.68E+3	1.31E-1	5.55E+2
4.50E-1	2.67E+3	1.23E-1	5.17E+2
4.49E-1	2.62E+3	1.26E-1	5.12E+2
4.45E-1	2.72E+3	1.25E-1	4.86E+2
4.60E-1	2.77E+3	1.23E-1	5.08E+2
4.65E-1	2.70E+3	1.24E-1	5.46E+2
4.79E-1	2.70E+3	1.19E-1	4.52E+2
4.53E-1	2.73E+3	1.19E-1	5.25E+2
4.41E-1	2.68E+3	1.19E-1	5.31E+2
4.50E-1	2.74E+3	1.20E-1	4.73E+2
4.46E-1	2.70E+3	1.28E-1	5.45E+2
4.71E-1	2.68E+3	1.24E-1	5.28E+2
4.54E-1	2.57E+3	1.27E-1	5.59E+2
4.66E-1	2.74E+3	1.21E-1	4.88E+2
4.69E-1	2.67E+3	1.22E-1	5.50E+2
4.52E-1	2.64E+3	1.20E-1	4.69E+2
4.43E-1	2.64E+3	1.27E-1	5.24E+2
4.34E-1	2.59E+3	1.18E-1	5.47E+2
4.62E-1	2.63E+3	1.30E-1	5.10E+2
4.41E-1	2.65E+3	1.21E-1	4.23E+2
4.69E-1	2.80E+3	1.29E-1	5.62E+2
4.39E-1	2.64E+3	1.16E-1	4.62E+2
4.73E-1	2.73E+3	1.28E-1	5.21E+2
4.54E-1	2.72E+3	1.24E-1	5.70E+2
4.65E-1	2.64E+3	1.25E-1	5.29E+2
4.75E-1	2.62E+3	1.31E-1	5.54E+2
4.40E-1	2.58E+3	1.25E-1	5.13E+2
4.45E-1	2.70E+3	1.30E-1	5.50E+2
4.58E-1	2.75E+3	1.26E-1	5.51E+2
4.78E-1	2.72E+3	1.26E-1	5.55E+2
4.39E-1	2.61E+3	1.26E-1	5.34E+2
4.48E-1	2.54E+3	1.28E-1	5.09E+2
4.37E-1	2.60E+3	1.21E-1	4.19E+2
4.64E-1	2.60E+3	1.25E-1	5.35E+2
4.70E-1	2.65E+3	1.21E-1	5.08E+2
4.46E-1	2.74E+3	1.28E-1	5.64E+2
4.58E-1	2.71E+3	1.27E-1	5.55E+2
4.67E-1	2.75E+3	1.22E-1	5.31E+2
4.71E-1	2.73E+3	1.41E-1	5.55E+2
4.44E-1	2.68E+3	1.23E-1	5.27E+2
4.29E-1	2.55E+3	1.23E-1	5.23E+2
4.82E-1	2.77E+3	1.29E-1	4.70E+2
4.76E-1	2.76E+3	1.27E-1	4.83E+2
4.70E-1	2.63E+3	1.20E-1	4.64E+2
4.40E-1	2.64E+3	1.22E-1	4.76E+2
4.54E-1	2.75E+3	1.27E-1	5.29E+2
4.56E-1	2.82E+3	1.36E-1	4.74E+2
4.66E-1	2.70E+3	1.24E-1	4.92E+2
4.47E-1	2.69E+3	1.24E-1	4.99E+2
4.43E-1	2.69E+3	1.24E-1	4.52E+2
4.57E-1	2.69E+3	1.22E-1	5.18E+2
4.86E-1	2.74E+3	1.30E-1	5.68E+2
4.33E-1	2.63E+3	1.33E-1	5.20E+2
4.47E-1	2.57E+3	1.28E-1	5.75E+2
4.59E-1	2.68E+3	1.21E-1	5.55E+2
4.39E-1	2.64E+3	1.29E-1	5.71E+2
4.35E-1	2.52E+3	1.26E-1	5.10E+2
4.63E-1	2.71E+3	1.25E-1	5.05E+2
4.51E-1	2.67E+3	1.24E-1	5.14E+2
4.38E-1	2.64E+3	1.26E-1	5.38E+2
4.55E-1	2.75E+3	1.16E-1	4.64E+2
4.56E-1	2.72E+3	1.21E-1	5.04E+2
4.37E-1	2.55E+3	1.30E-1	5.59E+2
4.51E-1	2.67E+3	1.21E-1	5.40E+2
4.60E-1	2.68E+3	1.21E-1	4.78E+2
4.54E-1	2.79E+3	1.20E-1	5.04E+2
4.79E-1	2.63E+3	1.20E-1	5.27E+2
4.66E-1	2.58E+3	1.36E-1	5.24E+2
4.48E-1	2.58E+3	1.28E-1	5.19E+2
4.54E-1	2.69E+3	1.26E-1	5.73E+2
4.47E-1	2.72E+3	1.34E-1	5.79E+2
4.60E-1	2.61E+3	1.23E-1	4.39E+2
4.53E-1	2.71E+3	1.23E-1	5.02E+2
4.38E-1	2.64E+3	1.28E-1	5.27E+2
4.59E-1	2.68E+3	1.25E-1	5.37E+2
4.59E-1	2.84E+3	1.24E-1	5.02E+2
4.54E-1	2.65E+3	1.23E-1	4.24E+2
4.39E-1	2.62E+3	1.22E-1	4.99E+2
4.71E-1	2.68E+3	1.23E-1	5.30E+2
4.65E-1	2.66E+3	1.25E-1	4.79E+2
4.52E-1	2.78E+3	1.28E-1	5.25E+2
4.37E-1	2.69E+3	1.29E-1	5.78E+2
4.35E-1	2.59E+3	1.32E-1	5.75E+2
4.64E-1	2.69E+3	1.25E-1	5.55E+2
4.73E-1	2.68E+3	1.26E-1	5.23E+2
4.68E-1	2.73E+3	1.27E-1	5.91E+2
4.39E-1	2.61E+3	1.36E-1	4.88E+2
4.49E-1	2.78E+3	1.19E-1	4.58E+2
4.61E-1	2.72E+3	1.18E-1	4.36E+2
5.04E-1	2.79E+3	1.18E-1	4.71E+2
4.44E-1	2.51E+3	1.21E-1	4.98E+2
4.67E-1	2.63E+3	1.24E-1	5.53E+2
4.56E-1	2.73E+3	1.27E-1	6.13E+2
4.41E-1	2.71E+3	1.20E-1	4.99E+2
4.56E-1	2.76E+3	1.22E-1	5.24E+2
4.49E-1	2.78E+3	1.28E-1	5.56E+2
4.42E-1	2.64E+3	1.28E-1	4.54E+2
4.73E-1	2.73E+3	1.21E-1	4.51E+2
4.46E-1	2.70E+3	1.22E-1	5.20E+2
4.29E-1	2.55E+3	1.15E-1	4.21E+2
2.98E-2	3.46E+1	3.36E-1	1.38E+3
4.36E-1	2.65E+3	1.27E-1	4.86E+2
4.33E-1	2.62E+3	1.22E-1	5.02E+2
4.28E-1	2.51E+3	1.31E-1	5.48E+2
4.33E-1	2.58E+3	1.18E-1	4.67E+2
4.76E-1	2.77E+3	1.20E-1	4.96E+2
4.66E-1	2.69E+3	1.32E-1	5.62E+2
4.59E-1	2.65E+3	1.29E-1	5.01E+2
4.59E-1	2.61E+3	1.34E-1	5.74E+2
4.62E-1	2.63E+3	1.30E-1	5.48E+2
4.62E-1	2.65E+3	1.24E-1	5.43E+2
4.69E-1	2.73E+3	1.29E-1	5.16E+2
4.54E-1	2.65E+3	1.23E-1	5.86E+2
4.82E-1	2.69E+3	1.32E-1	5.62E+2
4.70E-1	2.64E+3	1.25E-1	4.70E+2
4.49E-1	2.68E+3	1.19E-1	4.68E+2
4.48E-1	2.68E+3	1.22E-1	5.19E+2
4.68E-1	2.60E+3	1.17E-1	4.73E+2
4.45E-1	2.62E+3	1.18E-1	4.69E+2
4.49E-1	2.68E+3	1.21E-1	4.46E+2
4.72E-1	2.63E+3	1.21E-1	4.78E+2
8.79E-3	2.18E+1	3.46E-1	1.28E+3
4.49E-1	2.70E+3	1.26E-1	5.46E+2
4.66E-1	2.72E+3	1.28E-1	5.29E+2
4.78E-1	2.71E+3	1.33E-1	5.38E+2
4.39E-1	2.66E+3	1.32E-1	5.35E+2
4.54E-1	2.65E+3	1.27E-1	4.58E+2
4.37E-1	2.64E+3	1.27E-1	4.85E+2
4.44E-1	2.63E+3	1.23E-1	5.34E+2
4.76E-1	2.79E+3	1.26E-1	4.55E+2
4.75E-1	2.69E+3	1.25E-1	4.81E+2
4.51E-1	2.72E+3	1.34E-1	5.05E+2
4.71E-1	2.79E+3	1.17E-1	4.93E+2
4.39E-1	2.55E+3	1.16E-1	4.46E+2
4.56E-1	2.52E+3	1.32E-1	5.64E+2
4.58E-1	2.76E+3	1.23E-1	5.02E+2
4.64E-1	2.60E+3	1.22E-1	5.42E+2
4.61E-1	2.62E+3	1.33E-1	5.53E+2
4.71E-1	2.70E+3	1.25E-1	4.79E+2
4.75E-1	2.75E+3	1.23E-1	5.50E+2
4.81E-1	2.78E+3	1.37E-1	5.91E+2
4.44E-1	2.64E+3	1.27E-1	4.79E+2
4.45E-1	2.76E+3	1.29E-1	5.35E+2
4.63E-1	2.72E+3	1.30E-1	5.60E+2
4.82E-1	2.81E+3	1.35E-1	5.66E+2
4.58E-1	2.63E+3	1.23E-1	5.63E+2
4.35E-1	2.60E+3	1.25E-1	5.17E+2
4.67E-1	2.74E+3	1.20E-1	5.00E+2
4.58E-1	2.78E+3	1.25E-1	5.12E+2
4.54E-1	2.72E+3	1.18E-1	5.35E+2
4.43E-1	2.71E+3	1.27E-1	5.87E+2
4.58E-1	2.71E+3	1.30E-1	5.17E+2
4.34E-1	2.61E+3	1.22E-1	4.51E+2
4.72E-1	2.68E+3	1.25E-1	5.11E+2
4.38E-1	2.63E+3	1.30E-1	5.26E+2
4.42E-1	2.57E+3	1.22E-1	4.66E+2
4.67E-1	2.77E+3	1.27E-1	5.38E+2
4.55E-1	2.74E+3	1.23E-1	4.75E+2
4.36E-1	2.55E+3	1.18E-1	4.55E+2
4.77E-1	2.68E+3	1.30E-1	5.57E+2
4.47E-1	2.73E+3	1.26E-1	5.20E+2
4.42E-1	2.60E+3	1.28E-1	5.78E+2
4.65E-1	2.65E+3	1.22E-1	5.84E+2
4.52E-1	2.67E+3	1.23E-1	5.49E+2
4.57E-1	2.67E+3	1.15E-1	4.74E+2
4.80E-1	2.76E+3	1.35E-1	5.70E+2
4.67E-1	2.73E+3	1.31E-1	5.61E+2
4.70E-1	2.58E+3	1.36E-1	5.60E+2
4.47E-1	2.70E+3	1.29E-1	5.29E+2
4.44E-1	2.68E+3	1.24E-1	4.41E+2
4.40E-1	2.70E+3	1.22E-1	4.91E+2
4.54E-1	2.74E+3	1.22E-1	5.40E+2
4.85E-1	2.83E+3	1.25E-1	5.59E+2
4.62E-1	2.70E+3	1.20E-1	4.90E+2
4.63E-1	2.65E+3	1.22E-1	5.16E+2
4.76E-1	2.74E+3	1.28E-1	5.16E+2
4.94E-1	2.74E+3	1.26E-1	5.15E+2
4.61E-1	2.70E+3	1.15E-1	4.51E+2
4.64E-1	2.73E+3	1.30E-1	5.21E+2
4.54E-1	2.68E+3	1.27E-1	5.03E+2
4.39E-1	2.60E+3	1.29E-1	4.90E+2
4.86E-1	2.82E+3	1.28E-1	5.57E+2
4.45E-1	2.76E+3	1.15E-1	4.68E+2
4.50E-1	2.73E+3	1.34E-1	5.02E+2
4.38E-1	2.66E+3	1.28E-1	5.03E+2
4.51E-1	2.71E+3	1.24E-1	5.07E+2
4.64E-1	2.70E+3	1.27E-1	5.15E+2
4.58E-1	2.70E+3	1.21E-1	5.12E+2
4.55E-1	2.60E+3	1.23E-1	4.87E+2
4.48E-1	2.60E+3	1.28E-1	4.94E+2
4.67E-1	2.59E+3	1.31E-1	5.73E+2
4.50E-1	2.68E+3	1.26E-1	5.45E+2
4.65E-1	2.61E+3	1.29E-1	4.81E+2
4.50E-1	2.55E+3	1.20E-1	5.22E+2
4.55E-1	2.60E+3	1.22E-1	5.22E+2
4.64E-1	2.68E+3	1.20E-1	5.57E+2
4.43E-1	2.67E+3	1.24E-1	4.91E+2
4.36E-1	2.61E+3	1.20E-1	4.80E+2
4.76E-1	2.74E+3	1.16E-1	4.60E+2
4.72E-1	2.69E+3	1.24E-1	5.39E+2
4.76E-1	2.68E+3	1.18E-1	4.83E+2
4.72E-1	2.77E+3	1.30E-1	5.30E+2
4.42E-1	2.66E+3	1.18E-1	5.06E+2
4.47E-1	2.69E+3	1.25E-1	5.38E+2
4.77E-1	2.71E+3	1.29E-1	5.20E+2
4.68E-1	2.65E+3	1.31E-1	5.52E+2
4.67E-1	2.62E+3	1.27E-1	5.03E+2
4.63E-1	2.63E+3	1.18E-1	4.93E+2
4.68E-1	2.67E+3	1.29E-1	4.89E+2
4.70E-1	2.65E+3	1.34E-1	5.77E+2
4.43E-1	2.73E+3	1.17E-1	4.49E+2
4.38E-1	2.59E+3	1.26E-1	5.04E+2
4.52E-1	2.75E+3	1.21E-1	5.04E+2
4.45E-1	2.73E+3	1.18E-1	4.30E+2
4.48E-1	2.67E+3	1.23E-1	5.68E+2
4.56E-1	2.59E+3	1.27E-1	5.15E+2
4.59E-1	2.67E+3	1.22E-1	5.76E+2
4.36E-1	2.60E+3	1.27E-1	5.13E+2
4.44E-1	2.68E+3	1.25E-1	5.47E+2
4.50E-1	2.62E+3	1.31E-1	5.17E+2
4.43E-1	2.60E+3	1.29E-1	5.64E+2
4.56E-1	2.57E+3	1.24E-1	5.42E+2
4.74E-1	2.73E+3	1.20E-1	5.02E+2
4.62E-1	2.72E+3	1.17E-1	4.72E+2
4.34E-1	2.66E+3	1.21E-1	5.22E+2
4.64E-1	2.67E+3	1.19E-1	3.94E+2
4.55E-1	2.67E+3	1.25E-1	5.29E+2
4.60E-1	2.70E+3	1.22E-1	4.99E+2
4.70E-1	2.66E+3	1.20E-1	5.34E+2
4.41E-1	2.60E+3	1.26E-1	5.50E+2
4.58E-1	2.64E+3	1.26E-1	5.26E+2
4.41E-1	2.76E+3	1.18E-1	5.07E+2
4.64E-1	2.63E+3	1.27E-1	5.75E+2
4.61E-1	2.68E+3	1.23E-1	5.41E+2
4.51E-1	2.70E+3	1.25E-1	5.96E+2
4.36E-1	2.66E+3	1.21E-1	5.07E+2
4.43E-1	2.65E+3	1.20E-1	4.53E+2
4.46E-1	2.54E+3	1.24E-1	5.14E+2
4.64E-1	2.73E+3	1.28E-1	5.11E+2
4.44E-1	2.70E+3	1.23E-1	4.62E+2
4.45E-1	2.73E+3	1.15E-1	4.53E+2
4.52E-1	2.70E+3	1.22E-1	4.93E+2
4.44E-1	2.71E+3	1.22E-1	4.64E+2
4.99E-1	2.80E+3	1.34E-1	5.36E+2
4.44E-1	2.71E+3	1.23E-1	5.10E+2
4.46E-1	2.71E+3	1.29E-1	5.31E+2
4.81E-1	2.74E+3	1.25E-1	4.97E+2
4.61E-1	2.59E+3	1.22E-1	5.44E+2
4.66E-1	2.68E+3	1.26E-1	5.32E+2
4.52E-1	2.65E+3	1.27E-1	5.41E+2
4.57E-1	2.71E+3	1.14E-1	5.00E+2
4.40E-1	2.69E+3	1.23E-1	4.91E+2
4.68E-1	2.68E+3	1.17E-1	4.97E+2
4.61E-1	2.75E+3	1.23E-1	4.63E+2
4.63E-1	2.71E+3	1.32E-1	5.25E+2
4.51E-1	2.74E+3	1.16E-1	5.07E+2
4.40E-1	2.67E+3	1.14E-1	4.47E+2
4.55E-1	2.65E+3	1.25E-1	5.36E+2
4.65E-1	2.70E+3	1.24E-1	4.88E+2
4.78E-1	2.72E+3	1.25E-1	5.31E+2
4.52E-1	2.73E+3	1.26E-1	5.23E+2
4.42E-1	2.61E+3	1.31E-1	5.19E+2
4.42E-1	2.68E+3	1.19E-1	4.87E+2
4.74E-1	2.56E+3	1.25E-1	4.62E+2
4.94E-1	2.73E+3	1.20E-1	5.03E+2
4.63E-1	2.72E+3	1.24E-1	5.02E+2
4.40E-1	2.65E+3	1.24E-1	4.46E+2
4.33E-1	2.65E+3	1.26E-1	5.93E+2
4.62E-1	2.77E+3	1.26E-1	5.23E+2
4.49E-1	2.65E+3	1.17E-1	5.26E+2
4.35E-1	2.57E+3	1.19E-1	5.04E+2
4.45E-1	2.68E+3	1.24E-1	4.82E+2
4.64E-1	2.71E+3	1.27E-1	5.18E+2
4.82E-1	2.76E+3	1.31E-1	5.59E+2
4.45E-1	2.67E+3	1.27E-1	4.78E+2
4.48E-1	2.60E+3	1.21E-1	4.53E+2
4.70E-1	2.70E+3	1.33E-1	5.54E+2
4.47E-1	2.61E+3	1.29E-1	5.78E+2
4.68E-1	2.73E+3	1.20E-1	4.43E+2
4.49E-1	2.70E+3	1.24E-1	5.31E+2
4.52E-1	2.76E+3	1.30E-1	5.46E+2
4.78E-1	2.75E+3	1.22E-1	5.19E+2
4.47E-1	2.56E+3	1.28E-1	5.76E+2
4.65E-1	2.78E+3	1.24E-1	5.33E+2
4.70E-1	2.76E+3	1.23E-1	4.68E+2
4.59E-1	2.69E+3	1.26E-1	5.19E+2
4.63E-1	2.78E+3	1.27E-1	5.51E+2
4.54E-1	2.72E+3	1.35E-1	5.33E+2
4.59E-1	2.69E+3	1.25E-1	4.61E+2
4.35E-1	2.58E+3	1.25E-1	5.01E+2
4.62E-1	2.68E+3	1.27E-1	5.26E+2
4.43E-1	2.60E+3	1.26E-1	5.14E+2
4.94E-1	2.73E+3	1.23E-1	4.64E+2
4.74E-1	2.75E+3	1.26E-1	4.93E+2
4.50E-1	2.65E+3	1.27E-1	5.33E+2
4.67E-1	2.81E+3	1.34E-1	6.09E+2
4.50E-1	2.69E+3	1.25E-1	5.69E+2
4.54E-1	2.75E+3	1.25E-1	4.85E+2
4.53E-1	2.64E+3	1.21E-1	5.03E+2
4.42E-1	2.58E+3	1.26E-1	4.90E+2
4.79E-1	2.67E+3	1.17E-1	4.45E+2
4.42E-1	2.63E+3	1.21E-1	4.49E+2
4.66E-1	2.76E+3	1.22E-1	4.79E+2
4.37E-1	2.60E+3	1.19E-1	4.49E+2
4.37E-1	2.61E+3	1.26E-1	5.49E+2
4.84E-1	2.73E+3	1.22E-1	5.18E+2
4.72E-1	2.73E+3	1.27E-1	5.50E+2
4.39E-1	2.70E+3	1.22E-1	4.97E+2
4.52E-1	2.63E+3	1.39E-1	6.05E+2
4.60E-1	2.82E+3	1.28E-1	4.78E+2
4.70E-1	2.78E+3	1.18E-1	5.21E+2
4.42E-1	2.66E+3	1.26E-1	5.29E+2
4.47E-1	2.64E+3	1.22E-1	5.64E+2
4.62E-1	2.64E+3	1.25E-1	5.18E+2
4.59E-1	2.72E+3	1.22E-1	5.67E+2
4.42E-1	2.64E+3	1.22E-1	5.50E+2
4.46E-1	2.75E+3	1.26E-1	5.42E+2
4.65E-1	2.66E+3	1.24E-1	5.13E+2
4.46E-1	2.71E+3	1.25E-1	5.65E+2
4.85E-1	2.68E+3	1.26E-1	4.67E+2
4.41E-1	2.62E+3	1.23E-1	4.80E+2
4.39E-1	2.61E+3	1.24E-1	5.62E+2
8.54E-3	1.09E+1	3.49E-1	1.26E+3
4.58E-1	2.61E+3	1.24E-1	5.76E+2
4.52E-1	2.71E+3	1.22E-1	5.29E+2
4.61E-1	2.76E+3	1.19E-1	5.12E+2
4.47E-1	2.64E+3	1.25E-1	5.04E+2
4.33E-1	2.56E+3	1.17E-1	4.63E+2
4.61E-1	2.79E+3	1.24E-1	5.20E+2
4.37E-1	2.62E+3	1.16E-1	4.37E+2
4.70E-1	2.61E+3	1.23E-1	5.26E+2
4.51E-1	2.60E+3	1.26E-1	4.96E+2
4.71E-1	2.72E+3	1.23E-1	5.25E+2
4.58E-1	2.67E+3	1.34E-1	5.54E+2
4.62E-1	2.61E+3	1.18E-1	4.64E+2
4.44E-1	2.72E+3	1.24E-1	5.37E+2
4.53E-1	2.58E+3	1.24E-1	4.87E+2
4.59E-1	2.73E+3	1.22E-1	5.57E+2
4.68E-1	2.62E+3	1.28E-1	5.30E+2
4.86E-1	2.84E+3	1.33E-1	5.28E+2
4.53E-1	2.71E+3	1.31E-1	5.29E+2
4.54E-1	2.70E+3	1.26E-1	5.52E+2
4.41E-1	2.59E+3	1.27E-1	4.72E+2
4.56E-1	2.66E+3	1.20E-1	5.40E+2
4.69E-1	2.74E+3	1.23E-1	4.76E+2
4.42E-1	2.71E+3	1.31E-1	5.64E+2
4.51E-1	2.77E+3	1.26E-1	5.29E+2
4.64E-1	2.67E+3	1.19E-1	5.19E+2
4.64E-1	2.87E+3	1.15E-1	5.00E+2
4.62E-1	2.73E+3	1.20E-1	5.18E+2
4.87E-1	2.77E+3	1.25E-1	4.91E+2
4.81E-1	2.83E+3	1.25E-1	5.66E+2
4.52E-1	2.65E+3	1.22E-1	5.19E+2
4.36E-1	2.64E+3	1.23E-1	4.91E+2
4.40E-1	2.67E+3	1.18E-1	4.50E+2
4.74E-1	2.81E+3	1.22E-1	4.67E+2
4.44E-1	2.74E+3	1.27E-1	4.73E+2
4.30E-1	2.57E+3	1.20E-1	4.76E+2
4.55E-1	2.65E+3	1.25E-1	5.20E+2
4.65E-1	2.60E+3	1.17E-1	4.61E+2
4.47E-1	2.75E+3	1.30E-1	5.63E+2
4.38E-1	2.66E+3	1.28E-1	5.46E+2
4.54E-1	2.66E+3	1.33E-1	5.63E+2
4.59E-1	2.52E+3	1.31E-1	5.31E+2
4.37E-1	2.60E+3	1.24E-1	5.17E+2
4.61E-1	2.64E+3	1.31E-1	5.56E+2
4.72E-1	2.74E+3	1.28E-1	4.95E+2
4.43E-1	2.63E+3	1.32E-1	5.17E+2
4.86E-1	2.68E+3	1.27E-1	5.02E+2
4.56E-1	2.67E+3	1.26E-1	4.86E+2
4.53E-1	2.69E+3	1.20E-1	5.03E+2
4.75E-1	2.77E+3	1.28E-1	5.35E+2
4.73E-1	2.73E+3	1.34E-1	5.22E+2
4.60E-1	2.72E+3	1.27E-1	4.97E+2
4.45E-1	2.72E+3	1.24E-1	5.39E+2
4.60E-1	2.78E+3	1.25E-1	4.91E+2
4.71E-1	2.61E+3	1.25E-1	5.67E+2
4.46E-1	2.76E+3	1.26E-1	5.74E+2
4.57E-1	2.72E+3	1.27E-1	5.69E+2
4.46E-1	2.68E+3	1.27E-1	5.32E+2
4.53E-1	2.62E+3	1.28E-1	5.66E+2
4.44E-1	2.62E+3	1.27E-1	5.23E+2
4.48E-1	2.58E+3	1.32E-1	4.76E+2
4.64E-1	2.63E+3	1.22E-1	4.85E+2
4.42E-1	2.62E+3	1.22E-1	5.18E+2
4.74E-1	2.69E+3	1.25E-1	4.60E+2
4.69E-1	2.74E+3	1.28E-1	4.97E+2
4.38E-1	2.59E+3	1.22E-1	5.58E+2
4.41E-1	2.63E+3	1.23E-1	5.59E+2
4.69E-1	2.69E+3	1.22E-1	5.09E+2
4.50E-1	2.71E+3	1.24E-1	5.29E+2
4.47E-1	2.72E+3	1.32E-1	5.73E+2
4.42E-1	2.67E+3	1.30E-1	5.54E+2
4.36E-1	2.61E+3	1.23E-1	5.23E+2
4.61E-1	2.68E+3	1.32E-1	5.38E+2
4.51E-1	2.72E+3	1.33E-1	5.22E+2
4.39E-1	2.68E+3	1.21E-1	5.25E+2
4.38E-1	2.64E+3	1.29E-1	5.28E+2
4.66E-1	2.73E+3	1.31E-1	5.26E+2
4.46E-1	2.66E+3	1.16E-1	4.36E+2
4.42E-1	2.65E+3	1.20E-1	5.27E+2
4.36E-1	2.65E+3	1.17E-1	5.01E+2
4.36E-1	2.57E+3	1.20E-1	4.48E+2
4.54E-1	2.68E+3	1.21E-1	4.68E+2
4.78E-1	2.83E+3	1.27E-1	5.96E+2
4.67E-1	2.63E+3	1.35E-1	5.12E+2
4.66E-1	2.66E+3	1.36E-1	5.02E+2
4.32E-1	2.59E+3	1.26E-1	4.98E+2
4.37E-1	2.75E+3	1.26E-1	5.62E+2
4.62E-1	2.75E+3	1.27E-1	5.49E+2
4.65E-1	2.72E+3	1.32E-1	5.72E+2
4.39E-1	2.63E+3	1.29E-1	5.21E+2
4.63E-1	2.68E+3	1.30E-1	5.32E+2
4.38E-1	2.67E+3	1.17E-1	4.53E+2
4.38E-1	2.68E+3	1.26E-1	5.62E+2
4.68E-1	2.63E+3	1.22E-1	4.89E+2
4.66E-1	2.74E+3	1.33E-1	5.11E+2
4.51E-1	2.78E+3	1.26E-1	5.83E+2
4.54E-1	2.71E+3	1.24E-1	5.68E+2
4.73E-1	2.73E+3	1.30E-1	5.54E+2
4.60E-1	2.60E+3	1.22E-1	5.54E+2
4.60E-1	2.68E+3	1.27E-1	5.19E+2
4.56E-1	2.64E+3	1.23E-1	4.83E+2
4.53E-1	2.65E+3	1.21E-1	5.91E+2
4.61E-1	2.70E+3	1.20E-1	4.78E+2
4.55E-1	2.75E+3	1.23E-1	4.96E+2
4.44E-1	2.71E+3	1.26E-1	5.26E+2
4.61E-1	2.66E+3	1.28E-1	5.35E+2
4.73E-1	2.81E+3	1.31E-1	5.88E+2
4.32E-1	2.53E+3	1.29E-1	4.85E+2
4.69E-1	2.69E+3	1.30E-1	5.38E+2
4.49E-1	2.67E+3	1.26E-1	5.36E+2
4.37E-1	2.59E+3	1.26E-1	5.00E+2
4.73E-1	2.76E+3	1.24E-1	5.38E+2
4.65E-1	2.64E+3	1.32E-1	6.01E+2
4.55E-1	2.78E+3	1.42E-1	5.42E+2
4.44E-1	2.66E+3	1.29E-1	5.24E+2
4.42E-1	2.66E+3	1.22E-1	4.96E+2
4.37E-1	2.60E+3	1.26E-1	5.98E+2
4.37E-1	2.60E+3	1.26E-1	5.19E+2
4.69E-1	2.70E+3	1.23E-1	4.24E+2
4.45E-1	2.74E+3	1.19E-1	5.05E+2
4.45E-1	2.71E+3	1.27E-1	5.25E+2
4.64E-1	2.65E+3	1.30E-1	5.04E+2
4.57E-1	2.73E+3	1.22E-1	5.03E+2
4.37E-1	2.64E+3	1.26E-1	5.15E+2
4.63E-1	2.68E+3	1.21E-1	5.49E+2
4.36E-1	2.62E+3	1.20E-1	4.74E+2
4.66E-1	2.60E+3	1.32E-1	5.16E+2
4.69E-1	2.77E+3	1.24E-1	4.65E+2
4.42E-1	2.71E+3	1.31E-1	5.19E+2
4.49E-1	2.60E+3	1.24E-1	5.12E+2
7.81E-3	2.25E+1	3.50E-1	1.30E+3
4.65E-1	2.66E+3	1.33E-1	6.07E+2
4.43E-1	2.69E+3	1.19E-1	4.66E+2
4.38E-1	2.68E+3	1.24E-1	5.42E+2
4.73E-1	2.76E+3	1.26E-1	5.36E+2
4.53E-1	2.72E+3	1.26E-1	5.62E+2
4.44E-1	2.70E+3	1.23E-1	4.98E+2
4.58E-1	2.76E+3	1.24E-1	5.88E+2
4.53E-1	2.65E+3	1.18E-1	5.30E+2
4.40E-1	2.64E+3	1.33E-1	5.00E+2
4.53E-1	2.59E+3	1.23E-1	5.67E+2
4.91E-1	2.73E+3	1.21E-1	4.54E+2
4.60E-1	2.65E+3	1.25E-1	5.10E+2
4.57E-1	2.64E+3	1.26E-1	5.12E+2
4.42E-1	2.70E+3	1.26E-1	4.77E+2
4.58E-1	2.61E+3	1.18E-1	5.20E+2
4.44E-1	2.63E+3	1.29E-1	5.01E+2
4.51E-1	2.65E+3	1.18E-1	4.72E+2
4.80E-1	2.70E+3	1.41E-1	6.05E+2
4.72E-1	2.68E+3	1.28E-1	5.02E+2
4.43E-1	2.66E+3	1.24E-1	4.78E+2
4.71E-1	2.64E+3	1.21E-1	4.83E+2
4.46E-1	2.64E+3	1.29E-1	4.67E+2
4.51E-1	2.78E+3	1.41E-1	5.97E+2
4.46E-1	2.67E+3	1.29E-1	5.73E+2
4.48E-1	2.70E+3	1.18E-1	4.92E+2
4.47E-1	2.72E+3	1.29E-1	4.91E+2
4.55E-1	2.76E+3	1.25E-1	5.23E+2
4.59E-1	2.68E+3	1.22E-1	5.17E+2
4.72E-1	2.77E+3	1.25E-1	4.83E+2
4.77E-1	2.69E+3	1.33E-1	5.20E+2
4.85E-1	2.71E+3	1.16E-1	4.99E+2
4.40E-1	2.68E+3	1.26E-1	5.15E+2
4.77E-1	2.72E+3	1.24E-1	5.26E+2
4.87E-1	2.79E+3	1.17E-1	4.71E+2
4.31E-1	2.60E+3	1.35E-1	5.46E+2
4.47E-1	2.68E+3	1.16E-1	4.67E+2
4.41E-1	2.66E+3	1.19E-1	5.09E+2
4.69E-1	2.64E+3	1.24E-1	5.44E+2
4.44E-1	2.64E+3	1.15E-1	3.96E+2
4.42E-1	2.60E+3	1.20E-1	3.91E+2
4.34E-1	2.56E+3	1.21E-1	4.33E+2
4.44E-1	2.74E+3	1.23E-1	5.07E+2
4.46E-1	2.65E+3	1.21E-1	5.04E+2
4.92E-1	2.75E+3	1.21E-1	5.46E+2
4.61E-1	2.61E+3	1.33E-1	5.34E+2
4.60E-1	2.63E+3	1.31E-1	5.24E+2
4.76E-1	2.76E+3	1.22E-1	4.49E+2
4.56E-1	2.72E+3	1.27E-1	5.55E+2
4.58E-1	2.77E+3	1.21E-1	4.60E+2
4.42E-1	2.67E+3	1.33E-1	5.71E+2
4.67E-1	2.65E+3	1.25E-1	5.50E+2
4.64E-1	2.64E+3	1.34E-1	5.76E+2
4.49E-1	2.72E+3	1.14E-1	4.02E+2
4.76E-1	2.69E+3	1.16E-1	4.76E+2
4.32E-1	2.59E+3	1.16E-1	4.23E+2
4.47E-1	2.66E+3	1.22E-1	5.40E+2
4.85E-1	2.74E+3	1.26E-1	5.79E+2
4.67E-1	2.63E+3	1.25E-1	5.54E+2
4.54E-1	2.64E+3	1.28E-1	5.06E+2
4.78E-1	2.79E+3	1.20E-1	4.52E+2
4.40E-1	2.60E+3	1.21E-1	5.47E+2
4.40E-1	2.71E+3	1.25E-1	5.38E+2
4.36E-1	2.65E+3	1.32E-1	5.41E+2
4.42E-1	2.52E+3	1.28E-1	4.49E+2
4.59E-1	2.71E+3	1.25E-1	5.09E+2
4.46E-1	2.68E+3	1.24E-1	4.96E+2
4.52E-1	2.67E+3	1.24E-1	4.70E+2
4.43E-1	2.74E+3	1.25E-1	5.13E+2
4.32E-1	2.54E+3	1.21E-1	5.22E+2
4.48E-1	2.69E+3	1.17E-1	4.73E+2
4.61E-1	2.61E+3	1.26E-1	4.77E+2
4.78E-1	2.72E+3	1.18E-1	5.55E+2
4.39E-1	2.62E+3	1.28E-1	5.20E+2
4.62E-1	2.71E+3	1.19E-1	5.25E+2
4.50E-1	2.70E+3	1.18E-1	4.53E+2
4.62E-1	2.67E+3	1.21E-1	5.69E+2
4.53E-1	2.58E+3	1.25E-1	5.15E+2
4.85E-1	2.76E+3	1.29E-1	5.36E+2
4.52E-1	2.66E+3	1.17E-1	5.03E+2
4.45E-1	2.66E+3	1.22E-1	5.10E+2
4.55E-1	2.69E+3	1.31E-1	5.29E+2
4.46E-1	2.68E+3	1.17E-1	5.17E+2
4.72E-1	2.79E+3	1.31E-1	5.54E+2
4.67E-1	2.69E+3	1.36E-1	5.83E+2
4.81E-1	2.70E+3	1.33E-1	5.54E+2
4.71E-1	2.64E+3	1.34E-1	5.61E+2
4.54E-1	2.61E+3	1.24E-1	5.14E+2
4.80E-1	2.82E+3	1.25E-1	5.34E+2
4.84E-1	2.76E+3	1.24E-1	4.99E+2
4.54E-1	2.80E+3	1.31E-1	5.50E+2
4.40E-1	2.65E+3	1.22E-1	5.14E+2
4.56E-1	2.79E+3	1.18E-1	5.62E+2
4.45E-1	2.71E+3	1.23E-1	5.22E+2
4.34E-1	2.65E+3	1.22E-1	5.14E+2
4.63E-1	2.69E+3	1.25E-1	5.38E+2
4.41E-1	2.69E+3	1.19E-1	5.05E+2
4.43E-1	2.68E+3	1.26E-1	5.51E+2
4.54E-1	2.69E+3	1.27E-1	5.62E+2
4.58E-1	2.62E+3	1.24E-1	5.27E+2
4.72E-1	2.75E+3	1.35E-1	5.81E+2
4.69E-1	2.75E+3	1.30E-1	5.87E+2
4.41E-1	2.59E+3	1.19E-1	5.31E+2
4.77E-1	2.68E+3	1.26E-1	4.69E+2
4.75E-1	2.75E+3	1.26E-1	4.99E+2
4.52E-1	2.64E+3	1.25E-1	4.94E+2
4.39E-1	2.61E+3	1.24E-1	4.92E+2
4.44E-1	2.63E+3	1.20E-1	5.01E+2
4.39E-1	2.62E+3	1.21E-1	5.03E+2
4.84E-1	2.73E+3	1.21E-1	5.01E+2
4.43E-1	2.61E+3	1.19E-1	4.75E+2
4.76E-1	2.73E+3	1.26E-1	5.46E+2
4.81E-1	2.77E+3	1.24E-1	5.26E+2
4.91E-1	2.76E+3	1.30E-1	5.92E+2
4.55E-1	2.79E+3	1.23E-1	5.31E+2
4.66E-1	2.68E+3	1.17E-1	4.79E+2
4.73E-1	2.77E+3	1.25E-1	5.18E+2
4.59E-1	2.64E+3	1.22E-1	4.57E+2
4.50E-1	2.67E+3	1.25E-1	5.21E+2
4.70E-1	2.69E+3	1.21E-1	4.87E+2
4.60E-1	2.68E+3	1.18E-1	4.28E+2
4.59E-1	2.61E+3	1.28E-1	4.79E+2
4.54E-1	2.70E+3	1.24E-1	4.90E+2
4.72E-1	2.77E+3	1.22E-1	5.44E+2
4.75E-1	2.70E+3	1.18E-1	4.91E+2
4.47E-1	2.64E+3	1.18E-1	4.79E+2
4.78E-1	2.68E+3	1.29E-1	5.47E+2
4.66E-1	2.66E+3	1.19E-1	5.66E+2
4.36E-1	2.51E+3	1.16E-1	3.97E+2
4.61E-1	2.73E+3	1.22E-1	4.50E+2
4.47E-1	2.59E+3	1.28E-1	4.94E+2
4.67E-1	2.68E+3	1.20E-1	5.33E+2
4.45E-1	2.56E+3	1.20E-1	5.01E+2
4.65E-1	2.75E+3	1.22E-1	4.52E+2
4.76E-1	2.68E+3	1.23E-1	4.92E+2
4.41E-1	2.74E+3	1.28E-1	5.02E+2
4.79E-1	2.67E+3	1.21E-1	5.49E+2
4.46E-1	2.68E+3	1.20E-1	4.92E+2
4.80E-1	2.71E+3	1.27E-1	5.00E+2
4.48E-1	2.64E+3	1.27E-1	5.08E+2
4.62E-1	2.59E+3	1.32E-1	5.13E+2
4.72E-1	2.66E+3	1.35E-1	5.73E+2
4.72E-1	2.83E+3	1.34E-1	5.60E+2
4.66E-1	2.71E+3	1.19E-1	5.04E+2
4.38E-1	2.68E+3	1.29E-1	5.31E+2
4.48E-1	2.79E+3	1.24E-1	5.08E+2
4.27E-1	2.50E+3	1.17E-1	4.68E+2
4.42E-1	2.69E+3	1.22E-1	5.26E+2
4.59E-1	2.61E+3	1.20E-1	5.21E+2
4.70E-1	2.73E+3	1.18E-1	5.02E+2
4.49E-1	2.58E+3	1.23E-1	5.14E+2
4.58E-1	2.60E+3	1.28E-1	4.94E+2
4.52E-1	2.67E+3	1.23E-1	5.42E+2
4.50E-1	2.76E+3	1.23E-1	5.39E+2
4.43E-1	2.60E+3	1.21E-1	4.95E+2
4.52E-1	2.63E+3	1.25E-1	5.33E+2
4.54E-1	2.63E+3	1.26E-1	5.34E+2
4.39E-1	2.59E+3	1.27E-1	5.26E+2
4.34E-1	2.48E+3	1.26E-1	5.58E+2
4.49E-1	2.76E+3	1.22E-1	5.05E+2
4.61E-1	2.83E+3	1.21E-1	4.89E+2
4.40E-1	2.68E+3	1.25E-1	5.07E+2
4.46E-1	2.78E+3	1.24E-1	4.84E+2
4.77E-1	2.69E+3	1.23E-1	5.03E+2
4.82E-1	2.73E+3	1.18E-1	5.15E+2
4.76E-1	2.59E+3	1.25E-1	5.05E+2
4.69E-1	2.67E+3	1.28E-1	5.28E+2
4.59E-1	2.66E+3	1.23E-1	5.52E+2
4.75E-1	2.68E+3	1.22E-1	4.63E+2
4.40E-1	2.60E+3	1.29E-1	5.33E+2
4.43E-1	2.64E+3	1.28E-1	5.00E+2
4.45E-1	2.60E+3	1.26E-1	5.35E+2
4.49E-1	2.77E+3	1.24E-1	4.49E+2
4.46E-1	2.70E+3	1.23E-1	4.52E+2
4.68E-1	2.71E+3	1.23E-1	4.75E+2
4.79E-1	2.75E+3	1.20E-1	5.17E+2
4.60E-1	2.75E+3	1.23E-1	5.13E+2
4.42E-1	2.65E+3	1.29E-1	5.12E+2
4.82E-1	2.67E+3	1.17E-1	4.85E+2
4.83E-1	2.61E+3	1.22E-1	5.16E+2
4.49E-1	2.83E+3	1.27E-1	5.84E+2
4.38E-1	2.66E+3	1.31E-1	5.83E+2
4.73E-1	2.70E+3	1.16E-1	5.26E+2
4.55E-1	2.62E+3	1.26E-1	4.65E+2
4.51E-1	2.60E+3	1.27E-1	5.12E+2
4.43E-1	2.61E+3	1.23E-1	4.86E+2
4.86E-1	2.70E+3	1.23E-1	4.50E+2
4.69E-1	2.71E+3	1.27E-1	4.73E+2
4.58E-1	2.74E+3	1.21E-1	5.32E+2
4.66E-1	2.74E+3	1.25E-1	5.39E+2
4.87E-1	2.73E+3	1.16E-1	4.75E+2
4.56E-1	2.60E+3	1.30E-1	5.24E+2
4.66E-1	2.63E+3	1.27E-1	5.39E+2
4.65E-1	2.68E+3	1.27E-1	5.26E+2
4.73E-1	2.75E+3	1.31E-1	5.05E+2
4.34E-1	2.55E+3	1.27E-1	4.68E+2
4.75E-1	2.67E+3	1.33E-1	5.26E+2
4.29E-1	2.58E+3	1.19E-1	5.17E+2
4.58E-1	2.73E+3	1.19E-1	5.02E+2
4.57E-1	2.57E+3	1.24E-1	4.61E+2
4.69E-1	2.80E+3	1.29E-1	4.79E+2
4.33E-1	2.61E+3	1.23E-1	5.08E+2
4.61E-1	2.66E+3	1.26E-1	5.52E+2
4.53E-1	2.72E+3	1.18E-1	5.23E+2
4.62E-1	2.60E+3	1.19E-1	4.57E+2
4.38E-1	2.63E+3	1.32E-1	5.52E+2
4.55E-1	2.67E+3	1.37E-1	6.24E+2
4.57E-1	2.63E+3	1.26E-1	4.97E+2
4.46E-1	2.71E+3	1.27E-1	4.77E+2
4.51E-1	2.77E+3	1.28E-1	5.12E+2
4.77E-1	2.71E+3	1.23E-1	4.74E+2
4.77E-1	2.75E+3	1.28E-1	5.23E+2
4.47E-1	2.64E+3	1.27E-1	5.13E+2
4.36E-1	2.66E+3	1.32E-1	5.57E+2
4.44E-1	2.68E+3	1.20E-1	5.06E+2
4.45E-1	2.66E+3	1.20E-1	4.97E+2
4.43E-1	2.64E+3	1.22E-1	5.21E+2
4.73E-1	2.89E+3	1.18E-1	5.04E+2
4.69E-1	2.70E+3	1.20E-1	5.12E+2
4.53E-1	2.70E+3	1.22E-1	5.06E+2
4.44E-1	2.59E+3	1.23E-1	4.98E+2
4.43E-1	2.56E+3	1.22E-1	4.98E+2
4.50E-1	2.77E+3	1.20E-1	5.32E+2
4.68E-1	2.68E+3	1.22E-1	5.21E+2
4.57E-1	2.67E+3	1.23E-1	5.74E+2
4.43E-1	2.61E+3	1.25E-1	5.37E+2
4.63E-1	2.72E+3	1.14E-1	4.55E+2
4.30E-1	2.57E+3	1.18E-1	4.98E+2
4.40E-1	2.67E+3	1.27E-1	5.43E+2
4.38E-1	2.66E+3	1.25E-1	5.05E+2
4.82E-1	2.69E+3	1.24E-1	5.40E+2
4.86E-1	2.71E+3	1.19E-1	4.89E+2
4.44E-1	2.72E+3	1.25E-1	5.58E+2
4.40E-1	2.58E+3	1.27E-1	5.16E+2
4.78E-1	2.78E+3	1.40E-1	5.19E+2
4.44E-1	2.66E+3	1.33E-1	4.92E+2
4.37E-1	2.61E+3	1.33E-1	5.56E+2
4.56E-1	2.76E+3	1.23E-1	4.87E+2
4.71E-1	2.68E+3	1.22E-1	5.04E+2
4.78E-1	2.70E+3	1.28E-1	5.23E+2
4.44E-1	2.71E+3	1.17E-1	4.76E+2
4.66E-1	2.62E+3	1.25E-1	5.24E+2
4.52E-1	2.55E+3	1.27E-1	5.30E+2
4.53E-1	2.68E+3	1.16E-1	4.42E+2
4.53E-1	2.64E+3	1.28E-1	5.02E+2
4.95E-1	2.87E+3	1.29E-1	5.71E+2
4.63E-1	2.67E+3	1.32E-1	5.99E+2
4.64E-1	2.70E+3	1.24E-1	5.80E+2
4.74E-1	2.78E+3	1.30E-1	5.14E+2
4.72E-1	2.63E+3	1.27E-1	5.41E+2
4.40E-1	2.66E+3	1.27E-1	5.29E+2
4.63E-1	2.71E+3	1.30E-1	5.50E+2
4.46E-1	2.63E+3	1.17E-1	4.61E+2
4.39E-1	2.59E+3	1.22E-1	4.43E+2
4.31E-1	2.58E+3	1.33E-1	4.98E+2
4.63E-1	2.58E+3	1.25E-1	4.63E+2
4.49E-1	2.83E+3	1.21E-1	4.99E+2
4.50E-1	2.67E+3	1.26E-1	5.26E+2
4.77E-1	2.65E+3	1.20E-1	4.88E+2
4.42E-1	2.66E+3	1.30E-1	5.15E+2
4.76E-1	2.84E+3	1.20E-1	4.82E+2
4.59E-1	2.60E+3	1.33E-1	5.81E+2
4.71E-1	2.69E+3	1.32E-1	5.69E+2
4.78E-1	2.73E+3	1.23E-1	5.10E+2
4.75E-1	2.83E+3	1.26E-1	5.68E+2
4.51E-1	2.75E+3	1.20E-1	4.84E+2
4.40E-1	2.67E+3	1.32E-1	5.54E+2
4.39E-1	2.64E+3	1.22E-1	4.90E+2
4.34E-1	2.60E+3	1.36E-1	5.40E+2
4.41E-1	2.55E+3	1.30E-1	5.55E+2
4.48E-1	2.62E+3	1.25E-1	4.92E+2
4.73E-1	2.71E+3	1.26E-1	4.71E+2
4.56E-1	2.69E+3	1.20E-1	5.58E+2
4.49E-1	2.68E+3	1.24E-1	4.94E+2
4.49E-1	2.62E+3	1.25E-1	6.20E+2
4.49E-1	2.66E+3	1.25E-1	5.70E+2
4.49E-1	2.67E+3	1.23E-1	4.91E+2
4.71E-1	2.72E+3	1.31E-1	5.22E+2
4.44E-1	2.62E+3	1.22E-1	4.90E+2
4.71E-1	2.77E+3	1.36E-1	5.56E+2
4.59E-1	2.77E+3	1.30E-1	4.58E+2
4.73E-1	2.79E+3	1.20E-1	4.09E+2
4.51E-1	2.75E+3	1.29E-1	5.32E+2
4.38E-1	2.55E+3	1.21E-1	4.73E+2
4.50E-1	2.64E+3	1.22E-1	5.25E+2
4.70E-1	2.71E+3	1.27E-1	4.51E+2
4.69E-1	2.65E+3	1.20E-1	5.09E+2
4.56E-1	2.62E+3	1.18E-1	5.19E+2
4.51E-1	2.64E+3	1.22E-1	4.69E+2
4.65E-1	2.66E+3	1.23E-1	4.65E+2
4.45E-1	2.56E+3	1.26E-1	5.05E+2
6.59E-3	1.14E+1	3.29E-1	1.36E+3
4.31E-1	2.53E+3	1.26E-1	5.14E+2
4.41E-1	2.67E+3	1.24E-1	5.15E+2
4.40E-1	2.60E+3	1.25E-1	4.79E+2
4.53E-1	2.76E+3	1.29E-1	5.21E+2
4.41E-1	2.62E+3	1.19E-1	4.95E+2
4.43E-1	2.67E+3	1.29E-1	5.02E+2
4.43E-1	2.71E+3	1.20E-1	4.79E+2
4.72E-1	2.61E+3	1.29E-1	4.94E+2
4.67E-1	2.60E+3	1.32E-1	5.65E+2
4.73E-1	2.71E+3	1.29E-1	5.72E+2
4.50E-1	2.72E+3	1.20E-1	5.29E+2
4.68E-1	2.68E+3	1.28E-1	5.19E+2
4.74E-1	2.68E+3	1.30E-1	5.37E+2
4.83E-1	2.72E+3	1.26E-1	5.48E+2
4.75E-1	2.75E+3	1.36E-1	5.44E+2
4.37E-1	2.65E+3	1.24E-1	5.03E+2
4.69E-1	2.64E+3	1.19E-1	4.74E+2
4.35E-1	2.59E+3	1.23E-1	4.63E+2
4.42E-1	2.74E+3	1.32E-1	5.35E+2
4.54E-1	2.79E+3	1.13E-1	5.01E+2
4.54E-1	2.74E+3	1.19E-1	5.26E+2
4.88E-1	2.66E+3	1.14E-1	4.59E+2
4.66E-1	2.76E+3	1.30E-1	4.87E+2
4.51E-1	2.56E+3	1.20E-1	5.18E+2
4.63E-1	2.66E+3	1.25E-1	5.67E+2
4.68E-1	2.61E+3	1.25E-1	5.29E+2
4.57E-1	2.63E+3	1.30E-1	5.21E+2
4.42E-1	2.70E+3	1.22E-1	4.56E+2
4.31E-1	2.58E+3	1.25E-1	4.40E+2
4.70E-1	2.64E+3	1.15E-1	4.40E+2
4.69E-1	2.62E+3	1.22E-1	4.80E+2
4.45E-1	2.63E+3	1.24E-1	5.62E+2
4.43E-1	2.68E+3	1.25E-1	5.03E+2
4.42E-1	2.72E+3	1.22E-1	5.03E+2
4.73E-1	2.65E+3	1.31E-1	5.13E+2
4.64E-1	2.70E+3	1.35E-1	5.58E+2
4.51E-1	2.76E+3	1.24E-1	4.58E+2
4.71E-1	2.61E+3	1.24E-1	4.75E+2
4.37E-1	2.64E+3	1.20E-1	4.67E+2
4.53E-1	2.63E+3	1.36E-1	5.80E+2
4.72E-1	2.72E+3	1.27E-1	4.80E+2
4.36E-1	2.60E+3	1.29E-1	5.81E+2
4.33E-1	2.45E+3	1.20E-1	4.96E+2
4.51E-1	2.74E+3	1.21E-1	4.80E+2
4.62E-1	2.74E+3	1.23E-1	5.26E+2
4.38E-1	2.65E+3	1.23E-1	5.49E+2
4.69E-1	2.75E+3	1.31E-1	5.41E+2
4.82E-1	2.68E+3	1.21E-1	4.98E+2
4.51E-1	2.60E+3	1.24E-1	4.94E+2
4.40E-1	2.65E+3	1.22E-1	4.76E+2
4.69E-1	2.63E+3	1.28E-1	4.95E+2
4.56E-1	2.61E+3	1.35E-1	5.87E+2
4.48E-1	2.63E+3	1.19E-1	4.68E+2
4.38E-1	2.63E+3	1.27E-1	5.59E+2
4.59E-1	2.61E+3	1.26E-1	4.79E+2
4.37E-1	2.65E+3	1.25E-1	5.57E+2
4.57E-1	2.72E+3	1.27E-1	5.77E+2
4.56E-1	2.78E+3	1.26E-1	4.92E+2
4.47E-1	2.72E+3	1.20E-1	4.81E+2
4.56E-1	2.76E+3	1.32E-1	4.80E+2
4.63E-1	2.66E+3	1.22E-1	4.93E+2
4.69E-1	2.78E+3	1.18E-1	4.76E+2
4.64E-1	2.64E+3	1.21E-1	5.53E+2
4.37E-1	2.67E+3	1.31E-1	5.15E+2
4.45E-1	2.73E+3	1.18E-1	4.73E+2
4.62E-1	2.56E+3	1.26E-1	5.45E+2
4.61E-1	2.68E+3	1.19E-1	5.37E+2
4.44E-1	2.69E+3	1.21E-1	4.91E+2
4.43E-1	2.74E+3	1.38E-1	5.69E+2
4.34E-1	2.59E+3	1.24E-1	5.28E+2
4.40E-1	2.69E+3	1.15E-1	4.83E+2
4.52E-1	2.80E+3	1.23E-1	5.12E+2
4.52E-1	2.72E+3	1.26E-1	5.86E+2
4.64E-1	2.68E+3	1.34E-1	5.59E+2
4.68E-1	2.62E+3	1.31E-1	5.42E+2
4.67E-1	2.79E+3	1.38E-1	5.49E+2
4.54E-1	2.68E+3	1.23E-1	4.85E+2
4.56E-1	2.66E+3	1.32E-1	5.46E+2
4.53E-1	2.84E+3	1.22E-1	4.86E+2
4.37E-1	2.59E+3	1.30E-1	5.54E+2
4.72E-1	2.75E+3	1.25E-1	4.64E+2
4.42E-1	2.67E+3	1.24E-1	5.17E+2
4.37E-1	2.70E+3	1.17E-1	4.83E+2
4.54E-1	2.64E+3	1.29E-1	5.27E+2
4.48E-1	2.72E+3	1.23E-1	5.44E+2
4.59E-1	2.59E+3	1.29E-1	4.85E+2
4.46E-1	2.64E+3	1.14E-1	4.29E+2
4.56E-1	2.66E+3	1.17E-1	4.31E+2
4.88E-1	2.75E+3	1.21E-1	5.40E+2
4.77E-1	2.74E+3	1.23E-1	5.22E+2
