6.38E-1	5.82E+3	1.98E-1	1.28E+3
6.41E-1	5.86E+3	1.88E-1	1.27E+3
6.33E-1	5.82E+3	1.92E-1	1.29E+3
6.43E-1	5.75E+3	1.70E-1	1.18E+3
6.54E-1	5.96E+3	1.87E-1	1.28E+3
6.48E-1	5.88E+3	1.87E-1	1.32E+3
6.57E-1	5.78E+3	1.88E-1	1.26E+3
6.42E-1	5.76E+3	1.83E-1	1.19E+3
6.41E-1	5.90E+3	1.81E-1	1.24E+3
6.30E-1	5.82E+3	1.72E-1	1.18E+3
6.43E-1	5.85E+3	2.10E-1	1.22E+3
6.56E-1	5.87E+3	1.84E-1	1.24E+3
6.23E-1	5.66E+3	1.83E-1	1.20E+3
6.35E-1	5.84E+3	1.85E-1	1.26E+3
6.33E-1	5.89E+3	1.77E-1	1.24E+3
6.33E-1	5.83E+3	1.78E-1	1.26E+3
6.28E-1	5.82E+3	1.79E-1	1.18E+3
6.20E-1	5.69E+3	1.77E-1	1.21E+3
6.53E-1	5.95E+3	1.79E-1	1.22E+3
6.40E-1	5.82E+3	1.69E-1	1.12E+3
6.55E-1	5.75E+3	1.84E-1	1.30E+3
6.47E-1	5.76E+3	1.87E-1	1.24E+3
6.44E-1	5.89E+3	1.80E-1	1.26E+3
6.45E-1	5.74E+3	1.96E-1	1.25E+3
6.48E-1	5.88E+3	1.79E-1	1.30E+3
6.37E-1	5.82E+3	1.85E-1	1.33E+3
6.39E-1	5.72E+3	2.11E-1	1.40E+3
6.45E-1	5.87E+3	1.80E-1	1.27E+3
6.28E-1	5.78E+3	1.92E-1	1.24E+3
6.40E-1	5.98E+3	1.75E-1	1.21E+3
6.41E-1	5.85E+3	1.72E-1	1.24E+3
6.49E-1	5.82E+3	1.78E-1	1.24E+3
6.33E-1	5.79E+3	1.88E-1	1.25E+3
6.38E-1	5.91E+3	1.93E-1	1.32E+3
6.50E-1	5.80E+3	1.82E-1	1.22E+3
6.28E-1	5.80E+3	1.76E-1	1.23E+3
6.44E-1	5.84E+3	1.86E-1	1.29E+3
6.30E-1	5.86E+3	1.79E-1	1.24E+3
6.50E-1	5.91E+3	1.83E-1	1.26E+3
6.56E-1	5.81E+3	1.99E-1	1.31E+3
6.39E-1	5.73E+3	1.84E-1	1.24E+3
6.57E-1	5.84E+3	1.67E-1	1.16E+3
6.65E-1	5.93E+3	1.80E-1	1.26E+3
6.48E-1	5.90E+3	1.79E-1	1.27E+3
6.21E-1	5.71E+3	1.89E-1	1.26E+3
6.32E-1	5.83E+3	2.10E-1	1.36E+3
6.46E-1	5.83E+3	1.81E-1	1.29E+3
6.40E-1	5.94E+3	1.77E-1	1.25E+3
6.38E-1	5.84E+3	1.84E-1	1.23E+3
6.24E-1	5.82E+3	1.98E-1	1.35E+3
6.47E-1	5.80E+3	1.90E-1	1.25E+3
6.19E-1	5.67E+3	1.84E-1	1.26E+3
6.38E-1	5.92E+3	1.86E-1	1.29E+3
6.27E-1	5.85E+3	1.89E-1	1.27E+3
6.46E-1	5.81E+3	1.74E-1	1.18E+3
6.53E-1	5.91E+3	1.83E-1	1.25E+3
6.32E-1	5.87E+3	1.94E-1	1.24E+3
6.33E-1	5.83E+3	1.83E-1	1.22E+3
1.03E-2	2.78E+1	4.25E-1	2.95E+3
6.43E-1	5.77E+3	1.82E-1	1.21E+3
6.46E-1	5.83E+3	2.03E-1	1.39E+3
6.35E-1	5.85E+3	1.85E-1	1.30E+3
6.51E-1	5.95E+3	1.83E-1	1.29E+3
6.41E-1	5.86E+3	1.85E-1	1.24E+3
6.37E-1	5.80E+3	2.01E-1	1.27E+3
6.50E-1	5.77E+3	1.86E-1	1.24E+3
6.25E-1	5.76E+3	1.94E-1	1.28E+3
6.34E-1	5.79E+3	1.74E-1	1.25E+3
6.42E-1	5.85E+3	1.78E-1	1.21E+3
6.29E-1	5.82E+3	1.84E-1	1.28E+3
6.27E-1	5.75E+3	1.80E-1	1.22E+3
6.31E-1	5.76E+3	1.77E-1	1.23E+3
6.39E-1	5.92E+3	1.95E-1	1.32E+3
6.38E-1	5.94E+3	1.81E-1	1.30E+3
6.35E-1	5.86E+3	1.85E-1	1.32E+3
6.29E-1	5.86E+3	1.86E-1	1.25E+3
6.49E-1	5.72E+3	1.79E-1	1.26E+3
6.29E-1	5.78E+3	1.73E-1	1.19E+3
6.28E-1	5.72E+3	1.82E-1	1.15E+3
6.43E-1	5.78E+3	1.87E-1	1.23E+3
6.28E-1	5.85E+3	1.75E-1	1.23E+3
6.23E-1	5.72E+3	1.75E-1	1.28E+3
6.47E-1	5.83E+3	1.97E-1	1.29E+3
6.51E-1	5.98E+3	1.82E-1	1.18E+3
6.46E-1	5.76E+3	1.93E-1	1.25E+3
6.46E-1	5.88E+3	1.72E-1	1.19E+3
6.40E-1	5.80E+3	1.72E-1	1.22E+3
6.40E-1	5.98E+3	1.80E-1	1.27E+3
6.49E-1	5.94E+3	1.85E-1	1.29E+3
6.29E-1	5.76E+3	1.78E-1	1.20E+3
6.27E-1	5.80E+3	1.90E-1	1.33E+3
6.38E-1	5.90E+3	1.82E-1	1.26E+3
6.40E-1	5.84E+3	1.75E-1	1.28E+3
6.25E-1	5.80E+3	1.78E-1	1.22E+3
6.36E-1	5.84E+3	1.91E-1	1.34E+3
6.34E-1	5.80E+3	1.81E-1	1.20E+3
6.42E-1	5.83E+3	1.74E-1	1.22E+3
6.46E-1	5.89E+3	1.76E-1	1.23E+3
6.62E-1	5.91E+3	1.73E-1	1.19E+3
6.42E-1	5.72E+3	1.65E-1	1.16E+3
6.43E-1	5.93E+3	1.84E-1	1.26E+3
6.53E-1	5.78E+3	1.71E-1	1.16E+3
6.45E-1	5.88E+3	1.77E-1	1.18E+3
6.55E-1	5.83E+3	1.90E-1	1.34E+3
6.33E-1	5.82E+3	1.99E-1	1.38E+3
6.48E-1	5.90E+3	1.91E-1	1.28E+3
6.36E-1	5.95E+3	2.02E-1	1.33E+3
6.40E-1	5.91E+3	1.92E-1	1.27E+3
6.42E-1	5.98E+3	1.74E-1	1.27E+3
6.16E-1	5.72E+3	2.02E-1	1.32E+3
6.36E-1	5.94E+3	1.66E-1	1.12E+3
1.92E-1	1.27E+2	4.37E-1	2.92E+3
6.37E-1	5.75E+3	1.83E-1	1.25E+3
6.30E-1	5.92E+3	1.70E-1	1.23E+3
6.50E-1	5.95E+3	1.84E-1	1.26E+3
6.31E-1	5.81E+3	1.68E-1	1.16E+3
6.32E-1	5.85E+3	1.75E-1	1.20E+3
6.49E-1	5.87E+3	1.83E-1	1.24E+3
6.30E-1	5.76E+3	1.92E-1	1.33E+3
6.54E-1	6.00E+3	1.75E-1	1.25E+3
6.40E-1	5.85E+3	1.79E-1	1.26E+3
6.29E-1	5.87E+3	1.88E-1	1.34E+3
6.20E-1	5.69E+3	1.87E-1	1.29E+3
6.34E-1	5.88E+3	1.81E-1	1.26E+3
6.36E-1	5.98E+3	1.78E-1	1.24E+3
6.36E-1	5.85E+3	1.92E-1	1.33E+3
6.48E-1	5.97E+3	1.78E-1	1.27E+3
6.34E-1	5.86E+3	1.81E-1	1.24E+3
6.43E-1	5.82E+3	1.79E-1	1.23E+3
6.41E-1	5.77E+3	1.85E-1	1.24E+3
6.37E-1	5.82E+3	1.86E-1	1.29E+3
6.35E-1	5.82E+3	1.83E-1	1.31E+3
6.32E-1	5.78E+3	1.77E-1	1.18E+3
6.32E-1	5.89E+3	1.81E-1	1.25E+3
6.40E-1	5.78E+3	1.76E-1	1.19E+3
6.30E-1	5.85E+3	1.85E-1	1.26E+3
6.43E-1	5.94E+3	1.86E-1	1.25E+3
6.20E-1	5.73E+3	1.82E-1	1.19E+3
6.48E-1	5.87E+3	1.73E-1	1.15E+3
6.24E-1	5.80E+3	1.67E-1	1.21E+3
6.31E-1	5.89E+3	1.80E-1	1.18E+3
6.52E-1	5.90E+3	1.80E-1	1.27E+3
6.39E-1	5.79E+3	2.01E-1	1.33E+3
6.29E-1	5.81E+3	1.75E-1	1.23E+3
6.26E-1	5.76E+3	1.83E-1	1.23E+3
6.43E-1	5.85E+3	1.78E-1	1.23E+3
6.46E-1	5.81E+3	1.94E-1	1.29E+3
6.37E-1	5.84E+3	1.81E-1	1.24E+3
6.31E-1	5.79E+3	1.92E-1	1.25E+3
6.55E-1	5.72E+3	1.97E-1	1.28E+3
6.49E-1	5.89E+3	1.77E-1	1.13E+3
6.47E-1	5.90E+3	1.79E-1	1.24E+3
6.17E-1	5.77E+3	1.71E-1	1.20E+3
6.53E-1	5.96E+3	1.81E-1	1.24E+3
6.34E-1	5.74E+3	1.89E-1	1.30E+3
6.55E-1	5.89E+3	1.83E-1	1.24E+3
6.49E-1	5.83E+3	1.82E-1	1.30E+3
6.40E-1	5.86E+3	1.80E-1	1.15E+3
6.50E-1	5.88E+3	1.79E-1	1.26E+3
6.30E-1	5.78E+3	1.76E-1	1.18E+3
6.28E-1	5.77E+3	1.87E-1	1.26E+3
6.33E-1	5.88E+3	1.79E-1	1.19E+3
6.46E-1	5.76E+3	1.88E-1	1.24E+3
6.41E-1	5.70E+3	1.80E-1	1.20E+3
6.19E-1	5.76E+3	1.94E-1	1.30E+3
6.32E-1	5.80E+3	1.80E-1	1.25E+3
6.23E-1	5.72E+3	1.90E-1	1.23E+3
6.42E-1	5.87E+3	1.66E-1	1.18E+3
6.44E-1	5.86E+3	1.81E-1	1.23E+3
6.45E-1	5.81E+3	1.92E-1	1.26E+3
6.56E-1	5.83E+3	1.78E-1	1.21E+3
6.42E-1	5.77E+3	1.89E-1	1.25E+3
6.25E-1	5.75E+3	1.85E-1	1.24E+3
6.24E-1	5.75E+3	1.89E-1	1.32E+3
6.26E-1	5.80E+3	1.94E-1	1.28E+3
6.47E-1	5.85E+3	1.89E-1	1.26E+3
6.28E-1	5.81E+3	1.89E-1	1.32E+3
6.26E-1	5.80E+3	1.82E-1	1.16E+3
6.33E-1	5.86E+3	1.76E-1	1.25E+3
6.40E-1	5.78E+3	1.74E-1	1.20E+3
6.55E-1	5.79E+3	1.87E-1	1.25E+3
6.40E-1	5.88E+3	1.62E-1	1.12E+3
6.41E-1	5.95E+3	1.76E-1	1.21E+3
6.53E-1	5.84E+3	1.71E-1	1.19E+3
6.52E-1	5.92E+3	1.84E-1	1.27E+3
6.45E-1	5.87E+3	1.72E-1	1.22E+3
6.36E-1	5.87E+3	2.00E-1	1.33E+3
6.47E-1	5.81E+3	1.98E-1	1.30E+3
6.45E-1	5.86E+3	1.71E-1	1.21E+3
6.39E-1	5.79E+3	1.97E-1	1.35E+3
6.46E-1	5.83E+3	1.89E-1	1.22E+3
6.39E-1	5.88E+3	1.83E-1	1.27E+3
6.26E-1	5.71E+3	1.71E-1	1.14E+3
6.40E-1	5.82E+3	1.85E-1	1.23E+3
6.61E-1	5.87E+3	1.78E-1	1.25E+3
6.33E-1	5.80E+3	1.84E-1	1.27E+3
6.24E-1	5.75E+3	1.64E-1	1.16E+3
6.39E-1	5.79E+3	1.78E-1	1.29E+3
6.54E-1	5.77E+3	1.87E-1	1.26E+3
6.33E-1	5.79E+3	1.88E-1	1.18E+3
6.36E-1	5.71E+3	1.73E-1	1.16E+3
6.42E-1	5.78E+3	1.74E-1	1.26E+3
6.28E-1	5.86E+3	1.81E-1	1.19E+3
6.31E-1	5.83E+3	1.80E-1	1.25E+3
6.45E-1	5.85E+3	1.91E-1	1.30E+3
6.47E-1	5.80E+3	1.74E-1	1.23E+3
6.39E-1	5.80E+3	1.96E-1	1.30E+3
6.54E-1	5.88E+3	1.75E-1	1.26E+3
6.49E-1	5.94E+3	2.00E-1	1.35E+3
6.51E-1	5.85E+3	1.81E-1	1.24E+3
6.23E-1	5.76E+3	1.76E-1	1.18E+3
6.21E-1	5.76E+3	1.76E-1	1.20E+3
6.43E-1	5.83E+3	1.94E-1	1.32E+3
6.37E-1	5.90E+3	1.91E-1	1.31E+3
6.40E-1	5.82E+3	1.82E-1	1.28E+3
6.45E-1	5.79E+3	1.92E-1	1.21E+3
6.39E-1	5.92E+3	1.77E-1	1.23E+3
6.43E-1	5.87E+3	1.82E-1	1.20E+3
6.30E-1	5.80E+3	1.87E-1	1.25E+3
6.28E-1	5.79E+3	1.89E-1	1.28E+3
6.48E-1	6.03E+3	1.78E-1	1.24E+3
6.47E-1	5.91E+3	1.84E-1	1.26E+3
6.35E-1	5.80E+3	1.85E-1	1.26E+3
6.33E-1	5.66E+3	1.70E-1	1.19E+3
6.40E-1	5.83E+3	1.84E-1	1.31E+3
6.51E-1	5.91E+3	1.78E-1	1.26E+3
6.31E-1	5.85E+3	1.92E-1	1.26E+3
6.70E-1	5.84E+3	1.81E-1	1.22E+3
6.57E-1	5.88E+3	1.85E-1	1.28E+3
6.31E-1	5.82E+3	1.82E-1	1.25E+3
6.35E-1	5.89E+3	1.89E-1	1.28E+3
8.54E-3	1.06E+1	4.29E-1	2.95E+3
6.20E-1	5.60E+3	1.82E-1	1.22E+3
6.48E-1	5.84E+3	1.78E-1	1.22E+3
6.41E-1	5.81E+3	1.92E-1	1.29E+3
6.22E-1	5.74E+3	1.69E-1	1.23E+3
6.43E-1	5.85E+3	1.91E-1	1.33E+3
6.35E-1	5.76E+3	1.79E-1	1.26E+3
6.39E-1	5.79E+3	1.81E-1	1.30E+3
6.38E-1	5.81E+3	1.88E-1	1.30E+3
6.38E-1	5.91E+3	1.80E-1	1.22E+3
6.46E-1	5.83E+3	1.81E-1	1.21E+3
6.26E-1	5.80E+3	1.93E-1	1.30E+3
6.47E-1	5.84E+3	1.84E-1	1.20E+3
6.39E-1	5.74E+3	1.74E-1	1.13E+3
6.50E-1	5.98E+3	1.80E-1	1.27E+3
6.30E-1	5.81E+3	1.84E-1	1.20E+3
6.42E-1	5.76E+3	1.87E-1	1.28E+3
6.31E-1	5.85E+3	1.85E-1	1.21E+3
6.46E-1	5.75E+3	1.75E-1	1.22E+3
6.32E-1	5.75E+3	1.89E-1	1.29E+3
6.39E-1	5.88E+3	1.75E-1	1.25E+3
6.48E-1	5.84E+3	1.78E-1	1.30E+3
6.34E-1	5.81E+3	1.81E-1	1.24E+3
6.38E-1	5.94E+3	1.81E-1	1.22E+3
6.51E-1	5.69E+3	1.82E-1	1.23E+3
6.32E-1	5.87E+3	1.87E-1	1.22E+3
6.43E-1	5.81E+3	1.86E-1	1.28E+3
6.40E-1	5.80E+3	1.77E-1	1.17E+3
6.27E-1	5.79E+3	1.73E-1	1.21E+3
6.56E-1	5.97E+3	1.68E-1	1.15E+3
6.36E-1	5.91E+3	1.80E-1	1.24E+3
6.48E-1	5.86E+3	1.87E-1	1.26E+3
6.45E-1	5.90E+3	1.93E-1	1.33E+3
6.55E-1	5.91E+3	1.77E-1	1.29E+3
6.43E-1	5.91E+3	1.80E-1	1.20E+3
6.57E-1	5.85E+3	1.84E-1	1.24E+3
6.52E-1	6.00E+3	1.97E-1	1.29E+3
6.22E-1	5.74E+3	1.81E-1	1.23E+3
6.33E-1	5.67E+3	1.80E-1	1.23E+3
6.26E-1	5.80E+3	1.76E-1	1.22E+3
6.33E-1	5.85E+3	1.81E-1	1.16E+3
6.49E-1	5.82E+3	1.73E-1	1.25E+3
6.44E-1	5.86E+3	1.78E-1	1.25E+3
6.28E-1	5.83E+3	1.75E-1	1.25E+3
6.52E-1	5.91E+3	1.83E-1	1.26E+3
6.43E-1	5.85E+3	1.81E-1	1.26E+3
6.49E-1	5.80E+3	1.84E-1	1.27E+3
6.58E-1	5.95E+3	1.86E-1	1.27E+3
6.45E-1	5.77E+3	1.72E-1	1.15E+3
6.34E-1	5.82E+3	1.82E-1	1.26E+3
6.31E-1	5.77E+3	1.80E-1	1.23E+3
6.56E-1	5.74E+3	1.86E-1	1.22E+3
6.42E-1	5.92E+3	1.87E-1	1.27E+3
6.35E-1	5.86E+3	1.81E-1	1.24E+3
6.37E-1	5.89E+3	1.77E-1	1.20E+3
6.41E-1	5.90E+3	1.83E-1	1.22E+3
6.33E-1	5.95E+3	1.74E-1	1.22E+3
7.57E-3	6.45E+0	4.28E-1	3.16E+3
6.49E-1	5.79E+3	1.66E-1	1.16E+3
6.47E-1	5.88E+3	1.83E-1	1.30E+3
6.31E-1	5.76E+3	1.73E-1	1.17E+3
6.27E-1	5.80E+3	1.95E-1	1.32E+3
6.42E-1	5.87E+3	1.83E-1	1.27E+3
6.51E-1	5.96E+3	2.04E-1	1.35E+3
6.41E-1	5.87E+3	1.71E-1	1.23E+3
6.30E-1	5.76E+3	1.80E-1	1.26E+3
6.39E-1	5.79E+3	1.76E-1	1.16E+3
6.26E-1	5.75E+3	1.94E-1	1.26E+3
6.36E-1	5.90E+3	1.85E-1	1.34E+3
6.48E-1	5.93E+3	1.84E-1	1.24E+3
6.40E-1	5.91E+3	1.72E-1	1.19E+3
6.41E-1	5.97E+3	1.74E-1	1.18E+3
6.35E-1	5.83E+3	1.71E-1	1.17E+3
6.55E-1	5.83E+3	1.66E-1	1.20E+3
6.47E-1	5.88E+3	1.71E-1	1.21E+3
6.53E-1	5.88E+3	1.71E-1	1.17E+3
6.51E-1	5.79E+3	1.91E-1	1.33E+3
6.30E-1	5.83E+3	1.77E-1	1.20E+3
6.31E-1	5.85E+3	1.82E-1	1.27E+3
6.58E-1	5.89E+3	1.90E-1	1.23E+3
6.39E-1	5.93E+3	1.81E-1	1.24E+3
6.55E-1	5.88E+3	1.86E-1	1.22E+3
6.42E-1	5.77E+3	1.97E-1	1.26E+3
6.31E-1	5.85E+3	1.80E-1	1.21E+3
6.56E-1	5.85E+3	1.77E-1	1.19E+3
6.41E-1	5.83E+3	1.78E-1	1.24E+3
6.46E-1	5.87E+3	1.92E-1	1.26E+3
6.53E-1	5.75E+3	1.86E-1	1.28E+3
6.44E-1	5.87E+3	1.83E-1	1.27E+3
6.54E-1	5.87E+3	1.80E-1	1.27E+3
6.51E-1	5.94E+3	1.95E-1	1.30E+3
6.43E-1	5.87E+3	1.77E-1	1.19E+3
6.49E-1	5.86E+3	1.93E-1	1.28E+3
6.26E-1	5.79E+3	1.81E-1	1.27E+3
6.56E-1	5.85E+3	1.86E-1	1.24E+3
6.38E-1	5.84E+3	1.75E-1	1.16E+3
6.67E-1	5.94E+3	1.76E-1	1.18E+3
6.36E-1	5.92E+3	1.90E-1	1.28E+3
6.51E-1	5.84E+3	1.66E-1	1.19E+3
6.53E-1	5.94E+3	1.88E-1	1.26E+3
6.39E-1	5.89E+3	1.77E-1	1.25E+3
6.25E-1	5.71E+3	1.68E-1	1.19E+3
6.33E-1	5.85E+3	1.66E-1	1.16E+3
6.18E-1	5.80E+3	1.90E-1	1.28E+3
6.32E-1	5.87E+3	1.86E-1	1.25E+3
6.20E-1	5.64E+3	1.85E-1	1.19E+3
6.30E-1	5.77E+3	1.87E-1	1.24E+3
6.46E-1	5.87E+3	1.81E-1	1.21E+3
6.46E-1	5.79E+3	1.81E-1	1.20E+3
6.31E-1	5.77E+3	1.76E-1	1.21E+3
6.31E-1	5.84E+3	1.82E-1	1.24E+3
6.45E-1	5.94E+3	1.83E-1	1.28E+3
6.29E-1	5.80E+3	1.80E-1	1.27E+3
6.42E-1	5.73E+3	1.75E-1	1.20E+3
6.58E-1	5.79E+3	1.84E-1	1.26E+3
6.47E-1	5.88E+3	1.74E-1	1.22E+3
6.36E-1	5.99E+3	1.76E-1	1.25E+3
6.56E-1	5.85E+3	1.81E-1	1.21E+3
6.54E-1	5.95E+3	1.94E-1	1.29E+3
6.55E-1	5.91E+3	1.87E-1	1.30E+3
6.30E-1	5.76E+3	1.86E-1	1.28E+3
6.42E-1	5.90E+3	1.80E-1	1.28E+3
6.28E-1	5.79E+3	1.81E-1	1.23E+3
6.39E-1	5.96E+3	1.74E-1	1.20E+3
6.51E-1	5.87E+3	1.83E-1	1.23E+3
6.34E-1	5.95E+3	1.92E-1	1.30E+3
6.47E-1	5.97E+3	1.79E-1	1.25E+3
6.25E-1	5.82E+3	1.84E-1	1.30E+3
6.30E-1	5.81E+3	1.86E-1	1.23E+3
6.35E-1	5.73E+3	1.76E-1	1.26E+3
6.32E-1	5.87E+3	1.84E-1	1.32E+3
6.49E-1	5.91E+3	1.81E-1	1.23E+3
6.34E-1	5.89E+3	1.78E-1	1.24E+3
6.49E-1	5.64E+3	1.87E-1	1.23E+3
6.39E-1	5.77E+3	1.78E-1	1.20E+3
6.37E-1	5.85E+3	1.68E-1	1.17E+3
6.32E-1	5.84E+3	1.81E-1	1.20E+3
6.46E-1	5.91E+3	1.84E-1	1.23E+3
6.24E-1	5.79E+3	1.89E-1	1.22E+3
6.26E-1	5.79E+3	1.80E-1	1.29E+3
6.43E-1	5.68E+3	1.82E-1	1.25E+3
6.32E-1	5.84E+3	1.91E-1	1.35E+3
6.51E-1	5.84E+3	1.77E-1	1.23E+3
6.35E-1	5.81E+3	1.79E-1	1.29E+3
6.43E-1	5.81E+3	1.90E-1	1.25E+3
6.51E-1	5.83E+3	1.92E-1	1.29E+3
6.54E-1	5.88E+3	1.84E-1	1.33E+3
6.35E-1	5.77E+3	1.81E-1	1.30E+3
6.63E-1	6.02E+3	1.75E-1	1.19E+3
6.54E-1	5.91E+3	1.88E-1	1.27E+3
6.29E-1	5.78E+3	1.82E-1	1.25E+3
6.30E-1	5.84E+3	1.69E-1	1.18E+3
6.28E-1	5.85E+3	1.77E-1	1.22E+3
6.39E-1	5.83E+3	1.83E-1	1.28E+3
6.59E-1	5.86E+3	1.73E-1	1.15E+3
6.50E-1	5.89E+3	1.80E-1	1.24E+3
6.35E-1	5.75E+3	1.90E-1	1.26E+3
6.58E-1	5.89E+3	1.80E-1	1.26E+3
6.52E-1	5.88E+3	1.79E-1	1.23E+3
6.34E-1	5.92E+3	1.77E-1	1.19E+3
6.60E-1	5.86E+3	1.89E-1	1.22E+3
6.61E-1	5.92E+3	1.80E-1	1.22E+3
6.30E-1	5.84E+3	1.77E-1	1.26E+3
6.30E-1	5.91E+3	1.70E-1	1.20E+3
6.28E-1	5.82E+3	1.75E-1	1.23E+3
6.33E-1	5.76E+3	1.83E-1	1.27E+3
6.32E-1	5.91E+3	1.94E-1	1.27E+3
6.38E-1	5.86E+3	1.89E-1	1.29E+3
6.29E-1	5.81E+3	1.79E-1	1.22E+3
6.54E-1	5.78E+3	2.09E-1	1.30E+3
6.50E-1	5.81E+3	1.85E-1	1.31E+3
6.51E-1	5.84E+3	1.92E-1	1.35E+3
6.45E-1	5.80E+3	1.82E-1	1.26E+3
6.46E-1	5.95E+3	1.70E-1	1.20E+3
6.51E-1	5.97E+3	1.74E-1	1.18E+3
6.56E-1	5.96E+3	1.88E-1	1.28E+3
6.50E-1	5.84E+3	1.91E-1	1.29E+3
6.32E-1	5.87E+3	1.94E-1	1.25E+3
6.31E-1	5.85E+3	1.94E-1	1.27E+3
6.42E-1	5.91E+3	1.72E-1	1.18E+3
6.36E-1	5.79E+3	1.79E-1	1.28E+3
6.57E-1	5.92E+3	2.06E-1	1.46E+3
6.51E-1	5.87E+3	1.93E-1	1.33E+3
6.43E-1	5.79E+3	1.89E-1	1.27E+3
6.38E-1	5.84E+3	1.90E-1	1.31E+3
6.37E-1	5.88E+3	1.81E-1	1.23E+3
6.54E-1	5.88E+3	1.92E-1	1.30E+3
6.45E-1	5.91E+3	1.79E-1	1.25E+3
6.34E-1	5.82E+3	1.73E-1	1.22E+3
6.41E-1	5.88E+3	1.83E-1	1.22E+3
6.24E-1	5.70E+3	1.67E-1	1.13E+3
6.42E-1	5.85E+3	1.66E-1	1.14E+3
6.33E-1	5.87E+3	1.97E-1	1.25E+3
6.25E-1	5.73E+3	1.88E-1	1.26E+3
6.25E-1	5.84E+3	1.87E-1	1.26E+3
6.31E-1	5.75E+3	1.88E-1	1.23E+3
6.32E-1	5.85E+3	1.71E-1	1.20E+3
6.43E-1	5.90E+3	1.79E-1	1.28E+3
6.61E-1	5.84E+3	1.82E-1	1.19E+3
6.40E-1	5.85E+3	1.67E-1	1.17E+3
6.47E-1	5.83E+3	1.70E-1	1.21E+3
6.25E-1	5.73E+3	1.86E-1	1.34E+3
6.47E-1	5.92E+3	1.69E-1	1.19E+3
6.41E-1	5.85E+3	1.78E-1	1.29E+3
6.34E-1	5.70E+3	1.79E-1	1.29E+3
6.33E-1	5.83E+3	1.74E-1	1.18E+3
6.39E-1	5.91E+3	1.67E-1	1.16E+3
6.59E-1	5.89E+3	1.84E-1	1.29E+3
6.40E-1	5.88E+3	1.86E-1	1.29E+3
6.44E-1	5.81E+3	1.88E-1	1.28E+3
6.29E-1	5.70E+3	1.85E-1	1.32E+3
6.41E-1	5.83E+3	1.80E-1	1.23E+3
6.35E-1	5.86E+3	1.74E-1	1.21E+3
6.57E-1	5.91E+3	1.76E-1	1.20E+3
6.32E-1	5.86E+3	1.94E-1	1.34E+3
6.33E-1	5.73E+3	1.78E-1	1.25E+3
6.38E-1	5.94E+3	1.78E-1	1.25E+3
6.24E-1	5.73E+3	1.81E-1	1.26E+3
6.35E-1	5.98E+3	1.62E-1	1.13E+3
6.45E-1	6.06E+3	1.69E-1	1.13E+3
6.25E-1	5.79E+3	1.87E-1	1.27E+3
6.23E-1	5.74E+3	1.86E-1	1.28E+3
6.35E-1	5.88E+3	1.78E-1	1.20E+3
6.30E-1	5.74E+3	1.82E-1	1.25E+3
6.35E-1	5.89E+3	1.72E-1	1.17E+3
6.58E-1	5.91E+3	1.80E-1	1.27E+3
6.36E-1	5.89E+3	1.88E-1	1.31E+3
6.51E-1	5.88E+3	1.91E-1	1.27E+3
6.54E-1	5.86E+3	1.84E-1	1.26E+3
6.39E-1	5.93E+3	1.80E-1	1.23E+3
6.36E-1	5.86E+3	1.91E-1	1.27E+3
6.50E-1	5.90E+3	1.78E-1	1.26E+3
6.56E-1	5.93E+3	1.74E-1	1.12E+3
6.28E-1	5.84E+3	1.95E-1	1.36E+3
6.36E-1	5.93E+3	1.86E-1	1.15E+3
6.48E-1	5.80E+3	1.80E-1	1.24E+3
6.34E-1	5.81E+3	1.71E-1	1.17E+3
6.34E-1	5.88E+3	1.84E-1	1.31E+3
6.37E-1	5.83E+3	1.71E-1	1.26E+3
6.31E-1	5.80E+3	1.71E-1	1.20E+3
6.35E-1	5.98E+3	1.76E-1	1.24E+3
6.55E-1	5.92E+3	1.77E-1	1.29E+3
6.31E-1	5.80E+3	1.88E-1	1.31E+3
6.46E-1	6.03E+3	1.77E-1	1.18E+3
6.55E-1	5.93E+3	1.77E-1	1.13E+3
6.27E-1	5.83E+3	1.87E-1	1.23E+3
6.28E-1	5.87E+3	1.81E-1	1.15E+3
6.26E-1	5.83E+3	1.99E-1	1.36E+3
6.35E-1	5.79E+3	1.89E-1	1.30E+3
6.31E-1	5.79E+3	1.84E-1	1.21E+3
6.24E-1	5.69E+3	1.65E-1	1.12E+3
6.49E-1	5.95E+3	1.73E-1	1.19E+3
6.48E-1	5.78E+3	1.85E-1	1.23E+3
6.47E-1	5.89E+3	1.87E-1	1.28E+3
6.41E-1	5.74E+3	1.67E-1	1.22E+3
6.50E-1	5.85E+3	1.91E-1	1.28E+3
6.47E-1	5.81E+3	1.86E-1	1.25E+3
6.33E-1	5.84E+3	1.89E-1	1.23E+3
6.52E-1	5.91E+3	1.78E-1	1.24E+3
6.22E-1	5.76E+3	1.92E-1	1.25E+3
6.53E-1	5.85E+3	1.84E-1	1.23E+3
6.53E-1	5.96E+3	1.86E-1	1.23E+3
6.41E-1	5.84E+3	1.77E-1	1.27E+3
6.43E-1	5.87E+3	1.72E-1	1.15E+3
6.36E-1	5.89E+3	1.66E-1	1.07E+3
6.43E-1	5.72E+3	1.77E-1	1.24E+3
6.32E-1	5.75E+3	1.88E-1	1.32E+3
6.35E-1	5.82E+3	1.72E-1	1.21E+3
6.56E-1	5.86E+3	1.82E-1	1.22E+3
6.46E-1	5.96E+3	1.79E-1	1.28E+3
6.37E-1	5.86E+3	1.96E-1	1.30E+3
6.46E-1	5.80E+3	1.58E-1	1.16E+3
6.46E-1	5.91E+3	1.80E-1	1.22E+3
6.22E-1	5.65E+3	1.83E-1	1.28E+3
6.42E-1	5.81E+3	1.67E-1	1.17E+3
6.55E-1	5.80E+3	1.79E-1	1.29E+3
6.36E-1	5.80E+3	1.83E-1	1.30E+3
6.13E-1	5.66E+3	1.74E-1	1.24E+3
9.28E-3	2.67E+1	4.25E-1	2.97E+3
6.30E-1	5.90E+3	1.62E-1	1.10E+3
6.47E-1	5.85E+3	1.80E-1	1.21E+3
6.46E-1	5.80E+3	1.71E-1	1.20E+3
6.37E-1	5.72E+3	1.99E-1	1.29E+3
6.37E-1	5.93E+3	1.97E-1	1.18E+3
6.28E-1	5.77E+3	1.75E-1	1.17E+3
6.27E-1	5.78E+3	1.69E-1	1.17E+3
6.45E-1	5.88E+3	1.83E-1	1.20E+3
6.37E-1	5.79E+3	1.88E-1	1.30E+3
6.32E-1	5.93E+3	1.66E-1	1.21E+3
6.51E-1	5.87E+3	1.75E-1	1.19E+3
6.46E-1	5.83E+3	1.79E-1	1.19E+3
6.40E-1	5.88E+3	1.76E-1	1.23E+3
6.46E-1	5.98E+3	1.93E-1	1.36E+3
6.31E-1	5.82E+3	1.88E-1	1.22E+3
6.46E-1	6.01E+3	1.70E-1	1.16E+3
6.48E-1	5.91E+3	1.87E-1	1.33E+3
6.41E-1	5.95E+3	1.89E-1	1.28E+3
6.47E-1	5.96E+3	1.74E-1	1.23E+3
6.53E-1	5.91E+3	1.84E-1	1.21E+3
6.25E-1	5.73E+3	1.86E-1	1.23E+3
6.23E-1	5.78E+3	1.69E-1	1.19E+3
6.37E-1	5.89E+3	1.85E-1	1.29E+3
6.65E-1	5.94E+3	1.80E-1	1.27E+3
6.43E-1	5.83E+3	1.78E-1	1.26E+3
6.34E-1	5.79E+3	1.70E-1	1.17E+3
6.42E-1	5.77E+3	1.84E-1	1.25E+3
6.32E-1	5.87E+3	1.81E-1	1.29E+3
6.38E-1	5.94E+3	1.79E-1	1.26E+3
6.49E-1	5.86E+3	1.85E-1	1.32E+3
6.29E-1	5.76E+3	1.85E-1	1.28E+3
6.56E-1	5.86E+3	1.87E-1	1.27E+3
6.28E-1	5.80E+3	1.79E-1	1.16E+3
6.28E-1	5.65E+3	1.72E-1	1.20E+3
6.25E-1	5.78E+3	1.85E-1	1.25E+3
6.25E-1	5.84E+3	1.81E-1	1.23E+3
6.42E-1	5.83E+3	1.77E-1	1.20E+3
6.44E-1	5.83E+3	1.85E-1	1.27E+3
6.52E-1	5.97E+3	1.78E-1	1.23E+3
6.40E-1	5.80E+3	1.71E-1	1.15E+3
6.32E-1	5.87E+3	1.75E-1	1.28E+3
6.56E-1	5.94E+3	1.89E-1	1.26E+3
6.49E-1	5.77E+3	1.87E-1	1.29E+3
6.31E-1	5.89E+3	1.94E-1	1.32E+3
6.28E-1	5.77E+3	1.90E-1	1.25E+3
6.45E-1	5.78E+3	1.81E-1	1.30E+3
6.45E-1	5.89E+3	1.87E-1	1.28E+3
6.28E-1	5.76E+3	1.71E-1	1.18E+3
6.34E-1	5.91E+3	1.97E-1	1.32E+3
6.47E-1	5.74E+3	1.83E-1	1.29E+3
6.46E-1	5.81E+3	1.63E-1	1.13E+3
6.37E-1	5.87E+3	1.83E-1	1.23E+3
6.39E-1	5.76E+3	1.95E-1	1.24E+3
6.55E-1	5.92E+3	1.78E-1	1.19E+3
6.66E-1	5.88E+3	1.85E-1	1.26E+3
6.30E-1	5.87E+3	1.77E-1	1.29E+3
6.49E-1	5.88E+3	1.68E-1	1.18E+3
6.38E-1	5.89E+3	1.82E-1	1.27E+3
6.51E-1	5.87E+3	1.88E-1	1.27E+3
6.40E-1	5.87E+3	1.84E-1	1.25E+3
6.41E-1	5.87E+3	1.85E-1	1.29E+3
6.53E-1	5.87E+3	1.85E-1	1.28E+3
6.19E-1	5.74E+3	1.88E-1	1.22E+3
6.29E-1	5.89E+3	1.76E-1	1.18E+3
6.28E-1	5.88E+3	1.78E-1	1.20E+3
6.57E-1	5.93E+3	1.80E-1	1.17E+3
6.65E-1	5.85E+3	1.79E-1	1.23E+3
6.58E-1	5.90E+3	1.87E-1	1.27E+3
6.43E-1	5.85E+3	1.78E-1	1.26E+3
6.32E-1	5.80E+3	1.88E-1	1.24E+3
6.24E-1	5.72E+3	1.84E-1	1.21E+3
6.38E-1	5.89E+3	1.92E-1	1.23E+3
6.34E-1	5.86E+3	1.87E-1	1.31E+3
6.44E-1	5.78E+3	1.76E-1	1.25E+3
6.39E-1	5.83E+3	1.75E-1	1.24E+3
6.24E-1	5.79E+3	1.87E-1	1.22E+3
6.40E-1	5.69E+3	1.96E-1	1.29E+3
6.37E-1	5.84E+3	1.87E-1	1.26E+3
6.44E-1	5.99E+3	1.90E-1	1.32E+3
6.67E-1	5.91E+3	1.91E-1	1.30E+3
6.51E-1	5.84E+3	1.97E-1	1.32E+3
6.55E-1	5.89E+3	1.90E-1	1.31E+3
6.35E-1	5.76E+3	1.72E-1	1.20E+3
6.61E-1	5.88E+3	1.97E-1	1.32E+3
6.50E-1	5.78E+3	1.76E-1	1.26E+3
6.37E-1	5.90E+3	1.82E-1	1.25E+3
6.43E-1	5.77E+3	1.86E-1	1.29E+3
6.29E-1	5.77E+3	1.91E-1	1.28E+3
6.29E-1	5.84E+3	1.76E-1	1.22E+3
6.26E-1	5.88E+3	1.77E-1	1.22E+3
6.37E-1	5.82E+3	1.72E-1	1.18E+3
6.24E-1	5.75E+3	1.82E-1	1.25E+3
6.60E-1	5.89E+3	1.69E-1	1.17E+3
6.35E-1	5.72E+3	1.86E-1	1.29E+3
6.40E-1	5.84E+3	1.82E-1	1.21E+3
6.63E-1	6.00E+3	1.91E-1	1.22E+3
6.53E-1	5.99E+3	1.88E-1	1.26E+3
6.36E-1	5.90E+3	1.93E-1	1.29E+3
1.12E-2	2.37E+1	4.28E-1	2.94E+3
6.36E-1	5.91E+3	1.69E-1	1.13E+3
6.56E-1	5.97E+3	1.82E-1	1.25E+3
6.51E-1	5.91E+3	1.86E-1	1.24E+3
6.47E-1	5.83E+3	1.81E-1	1.29E+3
6.26E-1	5.83E+3	1.74E-1	1.25E+3
6.35E-1	5.90E+3	1.75E-1	1.16E+3
6.52E-1	5.86E+3	1.78E-1	1.23E+3
6.57E-1	5.97E+3	1.80E-1	1.21E+3
6.38E-1	5.82E+3	1.74E-1	1.24E+3
6.42E-1	5.75E+3	1.82E-1	1.28E+3
6.52E-1	5.86E+3	1.84E-1	1.25E+3
6.55E-1	5.79E+3	1.87E-1	1.31E+3
6.42E-1	5.94E+3	1.89E-1	1.32E+3
6.42E-1	5.77E+3	1.81E-1	1.21E+3
6.34E-1	5.89E+3	1.83E-1	1.29E+3
6.35E-1	5.85E+3	1.84E-1	1.25E+3
6.30E-1	5.90E+3	1.99E-1	1.30E+3
6.50E-1	6.01E+3	1.82E-1	1.25E+3
6.25E-1	5.76E+3	1.81E-1	1.25E+3
6.32E-1	5.90E+3	1.71E-1	1.17E+3
6.53E-1	5.89E+3	1.84E-1	1.25E+3
6.38E-1	5.91E+3	1.92E-1	1.23E+3
6.59E-1	5.76E+3	1.86E-1	1.20E+3
6.60E-1	5.97E+3	1.86E-1	1.28E+3
6.35E-1	5.93E+3	1.78E-1	1.22E+3
6.26E-1	5.80E+3	1.96E-1	1.29E+3
6.38E-1	5.89E+3	1.86E-1	1.21E+3
6.25E-1	5.72E+3	1.87E-1	1.29E+3
6.38E-1	5.89E+3	1.73E-1	1.15E+3
6.43E-1	5.97E+3	1.92E-1	1.30E+3
6.32E-1	5.76E+3	1.83E-1	1.19E+3
6.35E-1	5.89E+3	1.93E-1	1.27E+3
6.28E-1	5.83E+3	1.80E-1	1.21E+3
6.43E-1	5.88E+3	1.80E-1	1.23E+3
6.41E-1	5.82E+3	1.83E-1	1.25E+3
6.41E-1	5.82E+3	1.89E-1	1.32E+3
6.34E-1	5.86E+3	1.73E-1	1.23E+3
6.40E-1	5.94E+3	1.90E-1	1.27E+3
6.45E-1	5.81E+3	1.91E-1	1.25E+3
6.44E-1	5.81E+3	1.82E-1	1.26E+3
6.38E-1	5.75E+3	1.75E-1	1.25E+3
6.33E-1	5.81E+3	1.77E-1	1.25E+3
6.44E-1	5.69E+3	1.88E-1	1.24E+3
6.32E-1	5.79E+3	1.75E-1	1.18E+3
6.39E-1	5.72E+3	1.80E-1	1.12E+3
6.50E-1	5.86E+3	1.73E-1	1.21E+3
6.42E-1	5.89E+3	1.82E-1	1.22E+3
6.35E-1	5.95E+3	1.71E-1	1.24E+3
6.51E-1	5.88E+3	1.78E-1	1.23E+3
6.48E-1	5.86E+3	1.74E-1	1.20E+3
6.45E-1	6.03E+3	1.74E-1	1.19E+3
6.50E-1	5.78E+3	1.87E-1	1.21E+3
6.46E-1	5.88E+3	1.82E-1	1.27E+3
6.31E-1	5.78E+3	1.84E-1	1.22E+3
6.34E-1	5.84E+3	1.90E-1	1.29E+3
6.45E-1	5.79E+3	1.80E-1	1.20E+3
6.36E-1	5.81E+3	1.80E-1	1.26E+3
6.47E-1	5.86E+3	1.95E-1	1.28E+3
6.28E-1	5.83E+3	1.84E-1	1.18E+3
6.40E-1	5.89E+3	1.80E-1	1.27E+3
6.36E-1	5.92E+3	1.82E-1	1.16E+3
6.34E-1	5.86E+3	1.81E-1	1.26E+3
6.53E-1	5.80E+3	1.88E-1	1.30E+3
6.39E-1	5.81E+3	1.85E-1	1.30E+3
6.61E-1	5.90E+3	1.85E-1	1.24E+3
6.55E-1	5.93E+3	1.83E-1	1.22E+3
6.23E-1	5.71E+3	1.80E-1	1.20E+3
6.39E-1	5.75E+3	1.69E-1	1.22E+3
6.46E-1	5.83E+3	1.85E-1	1.26E+3
6.65E-1	5.95E+3	1.92E-1	1.33E+3
6.25E-1	5.73E+3	1.77E-1	1.21E+3
1.05E-2	1.84E+1	4.29E-1	2.87E+3
6.37E-1	5.77E+3	1.87E-1	1.29E+3
6.37E-1	5.87E+3	1.78E-1	1.24E+3
6.53E-1	5.88E+3	1.92E-1	1.25E+3
6.38E-1	5.83E+3	1.77E-1	1.29E+3
6.28E-1	5.81E+3	1.73E-1	1.19E+3
6.37E-1	5.94E+3	1.84E-1	1.23E+3
6.38E-1	5.91E+3	1.65E-1	1.13E+3
6.48E-1	5.93E+3	1.88E-1	1.28E+3
6.57E-1	5.86E+3	1.88E-1	1.22E+3
6.37E-1	5.86E+3	1.80E-1	1.20E+3
6.16E-1	5.66E+3	1.77E-1	1.22E+3
6.31E-1	5.74E+3	1.84E-1	1.23E+3
6.34E-1	5.80E+3	1.73E-1	1.23E+3
6.42E-1	5.88E+3	1.76E-1	1.17E+3
6.52E-1	5.91E+3	1.83E-1	1.19E+3
6.33E-1	5.83E+3	1.81E-1	1.19E+3
6.54E-1	5.91E+3	1.80E-1	1.35E+3
6.46E-1	5.88E+3	1.83E-1	1.31E+3
6.35E-1	5.87E+3	1.78E-1	1.24E+3
6.36E-1	5.80E+3	1.80E-1	1.27E+3
6.52E-1	5.96E+3	1.85E-1	1.23E+3
6.30E-1	5.85E+3	1.78E-1	1.19E+3
6.44E-1	5.78E+3	1.86E-1	1.23E+3
6.54E-1	5.91E+3	1.80E-1	1.25E+3
6.49E-1	5.91E+3	1.81E-1	1.27E+3
6.35E-1	5.80E+3	1.80E-1	1.25E+3
6.51E-1	5.67E+3	1.82E-1	1.21E+3
6.30E-1	5.82E+3	1.85E-1	1.24E+3
6.47E-1	5.91E+3	1.85E-1	1.29E+3
6.39E-1	5.84E+3	1.73E-1	1.21E+3
6.50E-1	5.93E+3	1.79E-1	1.22E+3
6.38E-1	5.92E+3	1.82E-1	1.32E+3
6.73E-1	5.90E+3	1.88E-1	1.30E+3
6.32E-1	5.90E+3	1.87E-1	1.26E+3
6.44E-1	5.76E+3	1.78E-1	1.25E+3
6.43E-1	5.88E+3	1.76E-1	1.26E+3
6.51E-1	5.92E+3	1.71E-1	1.22E+3
6.38E-1	5.83E+3	1.82E-1	1.22E+3
6.30E-1	5.84E+3	1.79E-1	1.22E+3
6.24E-1	5.80E+3	1.92E-1	1.24E+3
6.28E-1	5.77E+3	1.93E-1	1.26E+3
6.40E-1	5.86E+3	1.85E-1	1.27E+3
6.39E-1	5.74E+3	1.90E-1	1.29E+3
6.27E-1	5.86E+3	1.68E-1	1.15E+3
6.31E-1	5.81E+3	1.70E-1	1.18E+3
6.41E-1	5.95E+3	1.83E-1	1.20E+3
6.24E-1	5.72E+3	1.87E-1	1.23E+3
6.41E-1	5.84E+3	1.79E-1	1.28E+3
6.45E-1	5.80E+3	1.81E-1	1.25E+3
6.37E-1	5.89E+3	1.85E-1	1.31E+3
6.39E-1	5.76E+3	1.77E-1	1.20E+3
6.50E-1	5.89E+3	1.79E-1	1.19E+3
6.48E-1	5.89E+3	1.69E-1	1.19E+3
6.40E-1	5.87E+3	1.88E-1	1.26E+3
6.34E-1	5.85E+3	1.95E-1	1.25E+3
6.25E-1	5.83E+3	1.81E-1	1.26E+3
6.56E-1	5.97E+3	1.77E-1	1.25E+3
6.35E-1	5.86E+3	1.83E-1	1.25E+3
6.31E-1	5.84E+3	1.79E-1	1.26E+3
6.40E-1	5.76E+3	1.77E-1	1.21E+3
6.49E-1	5.86E+3	1.94E-1	1.34E+3
6.35E-1	5.92E+3	1.72E-1	1.19E+3
6.53E-1	5.83E+3	1.70E-1	1.24E+3
6.66E-1	5.91E+3	1.99E-1	1.35E+3
6.36E-1	5.73E+3	1.81E-1	1.23E+3
6.29E-1	5.86E+3	1.97E-1	1.30E+3
6.45E-1	5.98E+3	1.72E-1	1.24E+3
6.23E-1	5.73E+3	1.97E-1	1.31E+3
6.22E-1	5.79E+3	1.90E-1	1.24E+3
6.34E-1	5.73E+3	1.87E-1	1.27E+3
6.26E-1	5.78E+3	1.80E-1	1.31E+3
6.61E-1	5.99E+3	1.76E-1	1.19E+3
6.51E-1	5.83E+3	1.78E-1	1.23E+3
6.48E-1	5.92E+3	1.73E-1	1.17E+3
6.43E-1	5.91E+3	1.82E-1	1.28E+3
6.48E-1	5.92E+3	1.73E-1	1.20E+3
6.37E-1	5.89E+3	1.80E-1	1.23E+3
6.30E-1	5.92E+3	1.79E-1	1.25E+3
6.42E-1	5.98E+3	1.85E-1	1.26E+3
6.41E-1	5.81E+3	1.86E-1	1.32E+3
6.35E-1	5.76E+3	1.74E-1	1.21E+3
6.42E-1	5.73E+3	1.83E-1	1.25E+3
6.37E-1	5.81E+3	1.93E-1	1.28E+3
6.44E-1	5.76E+3	1.84E-1	1.22E+3
6.37E-1	5.84E+3	1.75E-1	1.22E+3
6.41E-1	5.78E+3	1.72E-1	1.21E+3
6.42E-1	5.80E+3	1.72E-1	1.20E+3
6.30E-1	5.92E+3	1.86E-1	1.26E+3
6.24E-1	5.76E+3	1.80E-1	1.22E+3
6.34E-1	5.87E+3	1.84E-1	1.25E+3
6.49E-1	5.94E+3	1.86E-1	1.23E+3
6.49E-1	5.89E+3	1.83E-1	1.26E+3
6.38E-1	5.97E+3	1.84E-1	1.23E+3
6.25E-1	5.74E+3	1.75E-1	1.15E+3
6.29E-1	5.84E+3	1.82E-1	1.24E+3
6.28E-1	5.78E+3	1.87E-1	1.24E+3
6.23E-1	5.82E+3	1.90E-1	1.28E+3
6.26E-1	5.69E+3	1.86E-1	1.24E+3
6.46E-1	5.90E+3	1.86E-1	1.33E+3
6.41E-1	5.77E+3	1.84E-1	1.24E+3
6.31E-1	5.81E+3	1.76E-1	1.26E+3
6.57E-1	5.83E+3	1.83E-1	1.27E+3
6.47E-1	5.94E+3	1.85E-1	1.28E+3
6.49E-1	5.91E+3	1.77E-1	1.24E+3
6.32E-1	5.87E+3	1.75E-1	1.23E+3
6.39E-1	5.97E+3	1.75E-1	1.19E+3
6.43E-1	5.75E+3	1.77E-1	1.23E+3
6.41E-1	5.84E+3	1.86E-1	1.29E+3
6.36E-1	5.86E+3	1.77E-1	1.22E+3
6.20E-1	5.74E+3	1.95E-1	1.25E+3
6.42E-1	5.85E+3	1.99E-1	1.34E+3
6.41E-1	5.79E+3	1.89E-1	1.23E+3
6.45E-1	5.95E+3	1.82E-1	1.20E+3
6.33E-1	5.85E+3	1.70E-1	1.17E+3
6.30E-1	5.87E+3	1.82E-1	1.23E+3
6.42E-1	5.98E+3	1.76E-1	1.19E+3
6.35E-1	5.94E+3	1.86E-1	1.23E+3
6.46E-1	5.81E+3	1.83E-1	1.27E+3
6.46E-1	5.86E+3	1.80E-1	1.29E+3
6.50E-1	5.78E+3	1.75E-1	1.19E+3
6.38E-1	5.68E+3	1.78E-1	1.19E+3
6.49E-1	5.85E+3	1.90E-1	1.22E+3
6.33E-1	5.87E+3	1.95E-1	1.36E+3
6.22E-1	5.73E+3	1.97E-1	1.29E+3
6.46E-1	5.77E+3	1.81E-1	1.22E+3
6.41E-1	5.75E+3	1.89E-1	1.23E+3
6.22E-1	5.81E+3	1.86E-1	1.20E+3
6.28E-1	5.77E+3	1.84E-1	1.25E+3
6.38E-1	5.77E+3	1.81E-1	1.19E+3
6.36E-1	5.79E+3	1.71E-1	1.20E+3
6.32E-1	5.82E+3	1.79E-1	1.24E+3
6.57E-1	5.93E+3	1.80E-1	1.32E+3
6.50E-1	5.89E+3	1.81E-1	1.29E+3
6.60E-1	5.80E+3	1.92E-1	1.22E+3
6.55E-1	5.87E+3	1.80E-1	1.18E+3
6.60E-1	5.95E+3	1.71E-1	1.23E+3
6.39E-1	5.83E+3	1.72E-1	1.21E+3
6.42E-1	5.91E+3	1.81E-1	1.30E+3
6.21E-1	5.77E+3	1.86E-1	1.21E+3
6.30E-1	5.84E+3	1.84E-1	1.28E+3
6.35E-1	5.84E+3	1.87E-1	1.23E+3
6.47E-1	5.78E+3	1.70E-1	1.17E+3
6.46E-1	5.90E+3	1.88E-1	1.26E+3
6.52E-1	5.89E+3	1.81E-1	1.26E+3
6.43E-1	5.87E+3	1.78E-1	1.22E+3
6.48E-1	5.83E+3	1.84E-1	1.24E+3
6.41E-1	5.88E+3	1.82E-1	1.21E+3
6.58E-1	5.87E+3	1.88E-1	1.27E+3
6.30E-1	5.76E+3	1.78E-1	1.25E+3
6.60E-1	6.05E+3	1.88E-1	1.29E+3
6.55E-1	5.86E+3	1.92E-1	1.27E+3
6.31E-1	5.80E+3	1.78E-1	1.25E+3
6.28E-1	5.84E+3	1.85E-1	1.21E+3
6.48E-1	5.90E+3	1.85E-1	1.27E+3
6.52E-1	5.92E+3	1.86E-1	1.19E+3
6.30E-1	5.86E+3	1.81E-1	1.26E+3
6.37E-1	5.78E+3	1.76E-1	1.16E+3
6.37E-1	5.72E+3	2.00E-1	1.32E+3
6.36E-1	5.83E+3	1.95E-1	1.30E+3
6.35E-1	5.88E+3	1.80E-1	1.24E+3
6.55E-1	5.95E+3	1.85E-1	1.30E+3
6.62E-1	6.01E+3	1.91E-1	1.27E+3
6.59E-1	5.98E+3	1.84E-1	1.25E+3
6.43E-1	5.86E+3	1.79E-1	1.26E+3
6.42E-1	5.84E+3	1.78E-1	1.30E+3
6.31E-1	5.82E+3	1.85E-1	1.26E+3
6.28E-1	5.82E+3	1.71E-1	1.20E+3
6.40E-1	5.80E+3	1.87E-1	1.23E+3
6.24E-1	5.76E+3	1.83E-1	1.29E+3
6.41E-1	5.86E+3	1.81E-1	1.23E+3
6.59E-1	5.99E+3	1.75E-1	1.21E+3
6.54E-1	5.90E+3	1.95E-1	1.31E+3
6.33E-1	5.85E+3	1.76E-1	1.24E+3
6.41E-1	5.99E+3	1.79E-1	1.25E+3
6.44E-1	6.00E+3	1.72E-1	1.17E+3
6.49E-1	5.89E+3	1.77E-1	1.25E+3
6.45E-1	5.92E+3	1.86E-1	1.28E+3
6.30E-1	5.86E+3	1.82E-1	1.25E+3
6.31E-1	5.79E+3	1.87E-1	1.28E+3
6.26E-1	5.80E+3	1.68E-1	1.18E+3
6.37E-1	5.81E+3	1.75E-1	1.18E+3
6.17E-1	5.71E+3	1.70E-1	1.17E+3
6.43E-1	5.75E+3	1.87E-1	1.18E+3
1.00E-2	3.88E+1	4.34E-1	3.03E+3
6.38E-1	5.87E+3	1.78E-1	1.25E+3
6.42E-1	5.94E+3	1.80E-1	1.23E+3
6.56E-1	5.92E+3	1.87E-1	1.27E+3
6.53E-1	6.00E+3	1.93E-1	1.30E+3
6.55E-1	5.94E+3	1.95E-1	1.34E+3
6.62E-1	5.95E+3	1.95E-1	1.28E+3
6.37E-1	5.71E+3	1.88E-1	1.26E+3
6.50E-1	5.85E+3	1.78E-1	1.20E+3
6.38E-1	5.90E+3	1.90E-1	1.25E+3
6.56E-1	5.91E+3	1.75E-1	1.25E+3
6.62E-1	5.96E+3	1.73E-1	1.12E+3
6.32E-1	5.79E+3	1.85E-1	1.22E+3
6.43E-1	5.75E+3	1.77E-1	1.21E+3
6.40E-1	5.76E+3	1.97E-1	1.36E+3
6.36E-1	5.82E+3	1.81E-1	1.24E+3
6.47E-1	5.91E+3	1.81E-1	1.21E+3
6.49E-1	5.86E+3	1.94E-1	1.27E+3
6.58E-1	5.84E+3	1.75E-1	1.20E+3
6.50E-1	5.87E+3	1.82E-1	1.23E+3
6.50E-1	5.78E+3	1.90E-1	1.27E+3
6.40E-1	5.84E+3	2.01E-1	1.28E+3
6.62E-1	5.99E+3	1.93E-1	1.28E+3
6.34E-1	5.84E+3	1.80E-1	1.20E+3
6.47E-1	5.85E+3	1.86E-1	1.19E+3
6.40E-1	5.99E+3	1.77E-1	1.23E+3
6.40E-1	5.89E+3	1.84E-1	1.19E+3
6.47E-1	5.92E+3	1.70E-1	1.19E+3
6.42E-1	5.83E+3	1.86E-1	1.27E+3
6.37E-1	5.75E+3	1.97E-1	1.28E+3
6.32E-1	5.78E+3	1.84E-1	1.31E+3
6.50E-1	5.83E+3	1.74E-1	1.22E+3
6.58E-1	5.93E+3	1.77E-1	1.27E+3
6.62E-1	5.80E+3	1.90E-1	1.24E+3
6.48E-1	5.91E+3	1.82E-1	1.22E+3
6.46E-1	6.04E+3	1.77E-1	1.26E+3
6.54E-1	5.95E+3	1.98E-1	1.37E+3
6.30E-1	5.74E+3	1.72E-1	1.23E+3
6.30E-1	5.86E+3	1.74E-1	1.22E+3
6.27E-1	5.83E+3	1.80E-1	1.24E+3
6.27E-1	5.80E+3	1.94E-1	1.29E+3
6.52E-1	6.02E+3	1.84E-1	1.27E+3
6.46E-1	5.82E+3	1.85E-1	1.27E+3
6.50E-1	5.95E+3	1.78E-1	1.24E+3
6.45E-1	6.00E+3	1.94E-1	1.28E+3
6.54E-1	5.95E+3	1.87E-1	1.23E+3
6.27E-1	5.85E+3	1.80E-1	1.29E+3
6.59E-1	5.85E+3	1.88E-1	1.24E+3
6.44E-1	5.81E+3	1.76E-1	1.22E+3
6.38E-1	5.90E+3	1.70E-1	1.20E+3
6.33E-1	5.85E+3	1.77E-1	1.21E+3
6.22E-1	5.74E+3	1.87E-1	1.24E+3
6.32E-1	5.79E+3	1.83E-1	1.23E+3
6.44E-1	5.91E+3	1.79E-1	1.23E+3
6.36E-1	5.86E+3	1.80E-1	1.24E+3
6.32E-1	5.79E+3	1.86E-1	1.27E+3
6.47E-1	5.82E+3	1.91E-1	1.33E+3
6.40E-1	5.71E+3	1.84E-1	1.25E+3
6.47E-1	5.86E+3	1.73E-1	1.19E+3
6.31E-1	5.76E+3	1.84E-1	1.25E+3
6.39E-1	5.86E+3	1.79E-1	1.25E+3
6.34E-1	5.91E+3	1.80E-1	1.27E+3
6.36E-1	5.84E+3	1.82E-1	1.25E+3
6.27E-1	5.76E+3	1.79E-1	1.20E+3
6.30E-1	5.77E+3	1.74E-1	1.17E+3
6.22E-1	5.80E+3	1.81E-1	1.23E+3
6.48E-1	5.74E+3	1.83E-1	1.21E+3
6.37E-1	5.92E+3	1.80E-1	1.27E+3
6.58E-1	5.88E+3	1.74E-1	1.20E+3
6.25E-1	5.75E+3	1.87E-1	1.30E+3
6.49E-1	5.95E+3	1.80E-1	1.23E+3
6.46E-1	5.76E+3	1.82E-1	1.26E+3
6.51E-1	5.90E+3	1.74E-1	1.26E+3
6.49E-1	5.88E+3	1.96E-1	1.28E+3
6.40E-1	5.84E+3	1.75E-1	1.20E+3
6.56E-1	5.84E+3	1.81E-1	1.22E+3
6.56E-1	5.84E+3	1.89E-1	1.27E+3
6.48E-1	5.79E+3	1.83E-1	1.19E+3
8.79E-3	2.04E+1	4.28E-1	3.00E+3
6.37E-1	5.94E+3	1.69E-1	1.14E+3
6.44E-1	5.81E+3	1.77E-1	1.23E+3
6.54E-1	5.92E+3	1.84E-1	1.25E+3
6.48E-1	5.88E+3	1.81E-1	1.29E+3
6.56E-1	5.88E+3	1.75E-1	1.22E+3
6.58E-1	5.89E+3	1.83E-1	1.23E+3
6.48E-1	5.85E+3	1.80E-1	1.23E+3
6.35E-1	5.86E+3	1.87E-1	1.16E+3
6.42E-1	5.82E+3	1.81E-1	1.32E+3
6.52E-1	5.83E+3	1.88E-1	1.29E+3
6.22E-1	5.79E+3	1.83E-1	1.24E+3
6.32E-1	5.83E+3	1.79E-1	1.23E+3
6.24E-1	5.85E+3	1.86E-1	1.30E+3
6.49E-1	5.80E+3	2.05E-1	1.29E+3
6.26E-1	5.80E+3	1.79E-1	1.19E+3
6.31E-1	5.83E+3	1.71E-1	1.11E+3
6.25E-1	5.75E+3	1.75E-1	1.24E+3
6.32E-1	5.84E+3	1.84E-1	1.25E+3
6.51E-1	5.94E+3	1.70E-1	1.19E+3
6.55E-1	5.91E+3	1.79E-1	1.20E+3
6.35E-1	5.68E+3	1.83E-1	1.29E+3
6.29E-1	5.81E+3	1.75E-1	1.22E+3
6.36E-1	5.84E+3	1.92E-1	1.26E+3
6.34E-1	5.82E+3	1.94E-1	1.24E+3
6.39E-1	5.88E+3	1.74E-1	1.22E+3
6.22E-1	5.72E+3	1.86E-1	1.25E+3
6.49E-1	5.79E+3	1.86E-1	1.26E+3
6.29E-1	5.75E+3	1.77E-1	1.18E+3
6.40E-1	5.89E+3	1.76E-1	1.24E+3
6.44E-1	5.82E+3	1.69E-1	1.13E+3
6.32E-1	5.77E+3	2.07E-1	1.32E+3
6.48E-1	5.88E+3	1.86E-1	1.28E+3
6.53E-1	5.90E+3	1.73E-1	1.24E+3
6.25E-1	5.79E+3	1.79E-1	1.20E+3
6.47E-1	5.91E+3	1.82E-1	1.29E+3
6.33E-1	5.75E+3	1.91E-1	1.24E+3
6.25E-1	5.76E+3	1.77E-1	1.21E+3
6.44E-1	5.80E+3	1.77E-1	1.18E+3
6.46E-1	5.91E+3	1.96E-1	1.31E+3
6.34E-1	5.79E+3	1.71E-1	1.21E+3
6.44E-1	5.76E+3	1.86E-1	1.29E+3
6.35E-1	5.89E+3	1.77E-1	1.23E+3
6.28E-1	5.83E+3	1.69E-1	1.18E+3
6.48E-1	5.94E+3	1.66E-1	1.17E+3
2.81E-2	3.46E+1	4.51E-1	3.20E+3
6.42E-1	5.84E+3	1.88E-1	1.30E+3
6.54E-1	5.85E+3	1.91E-1	1.29E+3
6.46E-1	5.83E+3	1.99E-1	1.29E+3
6.53E-1	5.67E+3	1.90E-1	1.27E+3
6.35E-1	5.90E+3	1.93E-1	1.26E+3
6.32E-1	5.90E+3	1.96E-1	1.26E+3
6.41E-1	5.80E+3	1.76E-1	1.27E+3
6.33E-1	5.81E+3	1.96E-1	1.30E+3
6.26E-1	5.73E+3	1.99E-1	1.28E+3
6.37E-1	5.92E+3	1.88E-1	1.31E+3
6.38E-1	5.86E+3	1.87E-1	1.29E+3
6.43E-1	5.92E+3	1.90E-1	1.29E+3
