7.25E-1	7.83E+3	2.55E-1	1.94E+3
7.28E-1	7.96E+3	2.49E-1	1.87E+3
7.25E-1	7.88E+3	2.50E-1	1.90E+3
7.09E-1	7.87E+3	2.66E-1	1.92E+3
7.29E-1	7.88E+3	2.63E-1	1.99E+3
7.25E-1	7.92E+3	2.56E-1	1.89E+3
7.34E-1	7.98E+3	2.71E-1	2.05E+3
7.27E-1	7.87E+3	2.53E-1	2.00E+3
7.29E-1	7.92E+3	2.69E-1	1.88E+3
7.30E-1	7.89E+3	2.62E-1	1.98E+3
7.32E-1	7.89E+3	2.49E-1	1.93E+3
7.24E-1	7.88E+3	2.62E-1	1.93E+3
7.24E-1	7.94E+3	2.49E-1	1.91E+3
7.19E-1	7.89E+3	2.70E-1	2.02E+3
7.31E-1	7.92E+3	2.58E-1	1.93E+3
7.32E-1	7.92E+3	2.69E-1	1.95E+3
7.22E-1	7.80E+3	2.63E-1	1.95E+3
7.26E-1	7.91E+3	2.61E-1	1.80E+3
7.30E-1	7.84E+3	2.64E-1	1.88E+3
7.28E-1	8.04E+3	2.51E-1	1.80E+3
7.23E-1	7.94E+3	2.66E-1	1.91E+3
7.18E-1	7.88E+3	2.49E-1	1.88E+3
7.22E-1	7.87E+3	2.63E-1	1.99E+3
7.26E-1	7.81E+3	2.75E-1	1.94E+3
7.18E-1	7.82E+3	2.52E-1	1.86E+3
7.12E-1	7.84E+3	2.55E-1	1.94E+3
7.34E-1	7.98E+3	2.73E-1	2.06E+3
7.28E-1	7.85E+3	2.63E-1	1.94E+3
7.29E-1	7.82E+3	2.62E-1	2.00E+3
7.17E-1	7.84E+3	2.50E-1	1.93E+3
7.27E-1	7.84E+3	2.71E-1	1.94E+3
7.21E-1	7.85E+3	2.55E-1	1.92E+3
7.29E-1	7.93E+3	2.63E-1	1.98E+3
7.17E-1	7.76E+3	2.78E-1	1.96E+3
7.16E-1	7.84E+3	2.76E-1	2.01E+3
7.29E-1	7.90E+3	2.67E-1	1.86E+3
7.20E-1	7.97E+3	2.58E-1	1.99E+3
7.36E-1	7.93E+3	2.60E-1	1.89E+3
7.09E-1	7.91E+3	2.69E-1	2.06E+3
7.37E-1	7.97E+3	2.60E-1	1.93E+3
7.37E-1	7.95E+3	2.59E-1	1.86E+3
7.32E-1	7.89E+3	2.70E-1	1.95E+3
7.38E-1	8.02E+3	2.63E-1	1.95E+3
7.29E-1	7.84E+3	2.52E-1	1.96E+3
7.31E-1	7.89E+3	2.55E-1	1.92E+3
7.17E-1	7.81E+3	2.56E-1	1.88E+3
7.18E-1	7.85E+3	2.48E-1	1.91E+3
7.31E-1	7.95E+3	2.67E-1	1.96E+3
7.29E-1	7.86E+3	2.65E-1	1.98E+3
7.25E-1	7.86E+3	2.66E-1	2.02E+3
7.28E-1	7.87E+3	2.64E-1	1.96E+3
7.31E-1	7.90E+3	2.64E-1	1.94E+3
7.24E-1	7.93E+3	2.60E-1	1.92E+3
7.30E-1	7.98E+3	2.66E-1	2.02E+3
7.24E-1	7.98E+3	2.55E-1	1.90E+3
7.16E-1	7.87E+3	2.84E-1	2.08E+3
7.25E-1	7.80E+3	2.58E-1	1.82E+3
7.18E-1	7.83E+3	2.58E-1	1.95E+3
7.24E-1	7.87E+3	2.71E-1	1.96E+3
7.19E-1	7.97E+3	2.58E-1	1.91E+3
7.38E-1	8.00E+3	2.59E-1	1.98E+3
7.20E-1	7.86E+3	2.49E-1	1.86E+3
7.28E-1	7.87E+3	2.56E-1	1.86E+3
7.21E-1	7.77E+3	2.56E-1	1.97E+3
7.20E-1	7.82E+3	2.71E-1	1.96E+3
7.28E-1	7.85E+3	2.68E-1	2.04E+3
7.16E-1	7.85E+3	2.45E-1	1.80E+3
7.30E-1	7.84E+3	2.71E-1	1.91E+3
7.28E-1	7.95E+3	2.51E-1	1.86E+3
7.18E-1	7.86E+3	2.44E-1	1.84E+3
7.28E-1	7.88E+3	2.62E-1	1.90E+3
7.18E-1	7.76E+3	2.61E-1	1.92E+3
7.29E-1	7.91E+3	2.67E-1	1.93E+3
7.30E-1	7.81E+3	2.63E-1	2.03E+3
7.34E-1	7.95E+3	2.48E-1	1.94E+3
7.19E-1	7.84E+3	2.57E-1	1.98E+3
7.22E-1	7.93E+3	2.58E-1	1.95E+3
7.33E-1	7.94E+3	2.72E-1	1.92E+3
7.26E-1	7.90E+3	2.55E-1	1.95E+3
7.20E-1	7.95E+3	2.49E-1	1.84E+3
7.35E-1	7.95E+3	2.66E-1	1.97E+3
7.47E-1	7.97E+3	2.63E-1	1.93E+3
7.29E-1	7.95E+3	2.77E-1	1.96E+3
7.40E-1	8.02E+3	2.34E-1	1.81E+3
7.22E-1	7.95E+3	2.71E-1	1.96E+3
7.22E-1	7.85E+3	2.65E-1	1.92E+3
7.24E-1	7.84E+3	2.50E-1	1.87E+3
7.21E-1	7.92E+3	2.53E-1	1.92E+3
7.27E-1	7.93E+3	2.73E-1	1.99E+3
7.27E-1	7.91E+3	2.51E-1	1.92E+3
7.29E-1	7.87E+3	2.47E-1	1.91E+3
7.35E-1	7.91E+3	2.50E-1	1.88E+3
7.27E-1	7.72E+3	2.65E-1	1.97E+3
7.24E-1	7.89E+3	2.56E-1	1.94E+3
7.26E-1	7.88E+3	2.53E-1	1.91E+3
7.30E-1	7.98E+3	2.58E-1	1.91E+3
7.29E-1	7.88E+3	2.49E-1	1.92E+3
7.26E-1	7.86E+3	2.60E-1	1.87E+3
7.39E-1	8.01E+3	2.59E-1	1.93E+3
7.12E-1	7.77E+3	2.69E-1	1.96E+3
7.22E-1	7.87E+3	2.64E-1	1.96E+3
7.31E-1	7.90E+3	2.63E-1	1.93E+3
7.35E-1	8.00E+3	2.54E-1	1.94E+3
7.34E-1	7.91E+3	2.60E-1	1.97E+3
7.25E-1	7.89E+3	2.66E-1	1.92E+3
7.21E-1	7.78E+3	2.58E-1	1.85E+3
7.27E-1	7.84E+3	2.54E-1	1.93E+3
7.32E-1	7.91E+3	2.51E-1	1.90E+3
7.19E-1	7.81E+3	2.40E-1	1.76E+3
7.30E-1	7.89E+3	2.39E-1	1.85E+3
7.34E-1	7.99E+3	2.65E-1	2.01E+3
7.37E-1	7.92E+3	2.62E-1	1.96E+3
7.23E-1	7.82E+3	2.56E-1	1.91E+3
7.21E-1	7.85E+3	2.53E-1	1.88E+3
7.30E-1	8.01E+3	2.62E-1	1.99E+3
7.24E-1	7.95E+3	2.54E-1	1.93E+3
7.31E-1	7.91E+3	2.48E-1	1.80E+3
7.20E-1	7.85E+3	2.45E-1	1.84E+3
7.30E-1	7.89E+3	2.56E-1	1.98E+3
7.24E-1	7.83E+3	2.58E-1	2.00E+3
7.29E-1	8.01E+3	2.42E-1	1.83E+3
7.32E-1	7.83E+3	2.56E-1	1.94E+3
7.35E-1	7.92E+3	2.50E-1	1.88E+3
7.29E-1	7.77E+3	2.62E-1	1.95E+3
7.53E-1	7.90E+3	2.84E-1	1.99E+3
7.31E-1	7.94E+3	2.63E-1	1.89E+3
7.35E-1	7.92E+3	2.63E-1	1.97E+3
7.17E-1	7.88E+3	2.42E-1	1.86E+3
7.16E-1	7.84E+3	2.48E-1	1.91E+3
7.17E-1	7.84E+3	2.72E-1	1.96E+3
7.27E-1	7.82E+3	2.50E-1	1.93E+3
7.26E-1	7.95E+3	2.53E-1	1.91E+3
7.23E-1	7.86E+3	2.67E-1	1.92E+3
7.27E-1	7.83E+3	2.63E-1	1.90E+3
7.33E-1	7.90E+3	2.57E-1	1.91E+3
7.29E-1	7.88E+3	2.65E-1	2.03E+3
7.36E-1	8.07E+3	2.63E-1	1.88E+3
7.15E-1	7.81E+3	2.58E-1	1.93E+3
7.22E-1	7.91E+3	2.70E-1	2.08E+3
7.24E-1	7.86E+3	2.74E-1	1.98E+3
7.23E-1	7.83E+3	2.65E-1	1.96E+3
7.15E-1	7.85E+3	2.67E-1	2.01E+3
7.18E-1	7.90E+3	2.62E-1	1.97E+3
7.26E-1	7.81E+3	2.57E-1	1.94E+3
7.27E-1	7.95E+3	2.70E-1	1.94E+3
7.30E-1	7.91E+3	2.73E-1	1.97E+3
7.34E-1	8.01E+3	2.51E-1	1.89E+3
7.34E-1	7.89E+3	2.50E-1	1.86E+3
7.17E-1	8.04E+3	2.53E-1	1.96E+3
7.24E-1	7.92E+3	2.64E-1	1.97E+3
7.27E-1	7.93E+3	2.66E-1	2.00E+3
7.32E-1	7.84E+3	2.49E-1	1.89E+3
7.28E-1	7.97E+3	2.82E-1	2.07E+3
7.23E-1	7.82E+3	2.63E-1	1.92E+3
7.26E-1	7.91E+3	2.66E-1	1.95E+3
7.29E-1	7.89E+3	2.82E-1	2.00E+3
7.19E-1	7.86E+3	2.65E-1	1.94E+3
7.37E-1	7.99E+3	2.48E-1	1.93E+3
7.32E-1	7.89E+3	2.59E-1	2.05E+3
7.30E-1	7.98E+3	2.61E-1	2.00E+3
7.19E-1	7.83E+3	2.49E-1	1.87E+3
7.21E-1	7.87E+3	2.56E-1	1.91E+3
7.10E-1	8.03E+3	2.60E-1	2.00E+3
7.31E-1	7.83E+3	2.64E-1	1.93E+3
7.35E-1	7.93E+3	2.52E-1	1.90E+3
7.25E-1	7.88E+3	2.50E-1	1.92E+3
7.17E-1	7.92E+3	2.69E-1	1.96E+3
7.30E-1	8.11E+3	2.41E-1	1.86E+3
7.27E-1	7.93E+3	2.76E-1	1.95E+3
7.40E-1	7.98E+3	2.61E-1	1.91E+3
7.29E-1	7.88E+3	2.59E-1	1.88E+3
7.35E-1	8.00E+3	2.77E-1	2.01E+3
7.21E-1	7.93E+3	2.48E-1	1.88E+3
7.29E-1	7.84E+3	2.69E-1	1.97E+3
7.20E-1	7.95E+3	2.54E-1	1.94E+3
7.29E-1	7.99E+3	2.67E-1	2.05E+3
7.35E-1	7.98E+3	2.52E-1	1.89E+3
7.13E-1	7.80E+3	2.73E-1	1.97E+3
7.29E-1	7.93E+3	2.49E-1	1.95E+3
7.41E-1	8.02E+3	2.62E-1	1.89E+3
7.24E-1	7.84E+3	2.83E-1	1.96E+3
7.32E-1	7.94E+3	2.55E-1	1.94E+3
7.26E-1	7.87E+3	2.57E-1	1.84E+3
7.22E-1	7.83E+3	2.40E-1	1.87E+3
7.26E-1	7.86E+3	2.53E-1	1.92E+3
7.24E-1	7.90E+3	2.56E-1	1.91E+3
7.23E-1	7.90E+3	2.72E-1	1.89E+3
7.29E-1	7.92E+3	2.59E-1	2.00E+3
7.26E-1	7.81E+3	2.58E-1	1.98E+3
7.21E-1	7.85E+3	2.71E-1	2.03E+3
7.30E-1	7.85E+3	2.54E-1	1.93E+3
7.21E-1	7.92E+3	2.59E-1	1.89E+3
7.33E-1	7.96E+3	2.51E-1	1.90E+3
7.36E-1	7.93E+3	2.55E-1	1.97E+3
7.30E-1	7.93E+3	2.45E-1	1.81E+3
7.32E-1	7.92E+3	2.54E-1	1.83E+3
7.23E-1	7.88E+3	2.64E-1	1.89E+3
7.27E-1	7.87E+3	2.65E-1	1.90E+3
7.25E-1	7.95E+3	2.50E-1	1.93E+3
7.09E-1	7.79E+3	2.49E-1	1.85E+3
7.20E-1	7.95E+3	2.81E-1	2.02E+3
7.19E-1	7.83E+3	2.66E-1	1.97E+3
7.24E-1	7.80E+3	2.59E-1	1.91E+3
7.21E-1	7.89E+3	2.62E-1	1.95E+3
7.33E-1	7.91E+3	2.64E-1	1.95E+3
7.26E-1	7.97E+3	2.51E-1	1.91E+3
7.17E-1	7.89E+3	2.65E-1	1.93E+3
7.32E-1	8.02E+3	2.70E-1	1.93E+3
7.31E-1	8.01E+3	2.46E-1	1.94E+3
7.27E-1	7.95E+3	2.65E-1	1.98E+3
7.30E-1	8.00E+3	2.72E-1	1.99E+3
7.19E-1	7.77E+3	2.76E-1	1.98E+3
7.32E-1	7.95E+3	2.54E-1	1.98E+3
7.35E-1	7.93E+3	2.53E-1	1.95E+3
7.22E-1	7.95E+3	2.54E-1	1.96E+3
7.23E-1	7.76E+3	2.55E-1	1.84E+3
7.25E-1	7.86E+3	2.60E-1	1.91E+3
7.14E-1	7.79E+3	2.56E-1	1.92E+3
7.36E-1	7.99E+3	2.69E-1	1.99E+3
7.27E-1	7.79E+3	2.58E-1	1.89E+3
7.13E-1	7.76E+3	2.52E-1	1.81E+3
7.30E-1	7.99E+3	2.53E-1	1.93E+3
7.18E-1	7.91E+3	2.67E-1	1.93E+3
7.28E-1	7.84E+3	2.53E-1	1.90E+3
7.32E-1	7.95E+3	2.48E-1	1.90E+3
7.18E-1	7.86E+3	2.70E-1	1.99E+3
7.32E-1	7.94E+3	2.56E-1	1.93E+3
7.34E-1	7.89E+3	2.57E-1	1.93E+3
7.34E-1	8.01E+3	2.57E-1	1.95E+3
7.22E-1	7.88E+3	2.64E-1	1.98E+3
7.38E-1	7.99E+3	2.66E-1	2.04E+3
7.30E-1	7.78E+3	2.63E-1	1.91E+3
7.28E-1	7.95E+3	2.57E-1	2.00E+3
7.28E-1	7.86E+3	2.64E-1	1.99E+3
7.28E-1	7.97E+3	2.45E-1	1.89E+3
7.33E-1	7.95E+3	2.72E-1	1.98E+3
7.24E-1	7.97E+3	2.55E-1	1.91E+3
7.32E-1	7.91E+3	2.63E-1	1.96E+3
7.25E-1	7.91E+3	2.56E-1	1.94E+3
7.28E-1	7.91E+3	2.77E-1	2.03E+3
7.41E-1	8.06E+3	2.86E-1	2.09E+3
7.24E-1	7.79E+3	2.56E-1	1.98E+3
7.14E-1	7.84E+3	2.52E-1	1.92E+3
7.21E-1	7.79E+3	2.55E-1	1.96E+3
7.19E-1	7.88E+3	2.55E-1	1.87E+3
7.32E-1	7.97E+3	2.64E-1	1.99E+3
7.31E-1	8.05E+3	2.65E-1	2.01E+3
7.37E-1	7.98E+3	2.71E-1	1.95E+3
7.27E-1	7.86E+3	2.53E-1	1.86E+3
7.24E-1	7.83E+3	2.44E-1	1.93E+3
7.25E-1	7.86E+3	2.60E-1	2.09E+3
7.27E-1	7.87E+3	2.46E-1	1.89E+3
7.28E-1	7.85E+3	2.62E-1	1.96E+3
7.35E-1	7.94E+3	2.56E-1	1.94E+3
7.31E-1	8.00E+3	2.53E-1	1.96E+3
7.30E-1	7.93E+3	2.56E-1	1.98E+3
7.12E-1	7.81E+3	2.59E-1	1.96E+3
7.24E-1	7.92E+3	2.73E-1	1.99E+3
7.30E-1	7.89E+3	2.56E-1	1.92E+3
7.27E-1	7.85E+3	2.59E-1	1.89E+3
7.38E-1	7.97E+3	2.56E-1	2.01E+3
7.29E-1	7.90E+3	2.53E-1	1.86E+3
7.21E-1	7.87E+3	2.58E-1	1.93E+3
7.19E-1	7.90E+3	2.41E-1	1.83E+3
7.22E-1	7.88E+3	2.60E-1	1.90E+3
7.31E-1	8.01E+3	2.62E-1	1.90E+3
7.29E-1	7.94E+3	2.45E-1	1.86E+3
7.24E-1	7.84E+3	2.54E-1	1.95E+3
7.23E-1	7.76E+3	2.57E-1	1.82E+3
7.35E-1	7.84E+3	2.63E-1	2.02E+3
7.29E-1	7.97E+3	2.56E-1	2.01E+3
7.35E-1	8.01E+3	2.60E-1	2.02E+3
7.19E-1	7.97E+3	2.48E-1	1.88E+3
7.28E-1	7.80E+3	2.67E-1	1.91E+3
7.19E-1	7.73E+3	2.60E-1	1.93E+3
7.27E-1	7.90E+3	2.68E-1	1.95E+3
7.28E-1	7.89E+3	2.53E-1	1.87E+3
7.27E-1	8.05E+3	2.55E-1	2.00E+3
7.24E-1	7.91E+3	2.61E-1	1.96E+3
7.30E-1	7.89E+3	2.57E-1	1.87E+3
7.23E-1	7.88E+3	2.66E-1	1.97E+3
7.26E-1	7.90E+3	2.67E-1	2.04E+3
7.19E-1	7.95E+3	2.53E-1	1.96E+3
7.19E-1	7.88E+3	2.80E-1	2.05E+3
7.17E-1	7.86E+3	2.55E-1	1.91E+3
7.35E-1	7.87E+3	2.63E-1	1.84E+3
7.36E-1	7.95E+3	2.62E-1	1.82E+3
7.24E-1	7.82E+3	2.54E-1	1.88E+3
7.28E-1	7.82E+3	2.73E-1	1.93E+3
7.30E-1	7.94E+3	2.65E-1	1.99E+3
7.31E-1	7.85E+3	2.61E-1	1.95E+3
7.27E-1	7.87E+3	2.67E-1	1.95E+3
7.21E-1	7.92E+3	2.55E-1	1.97E+3
7.23E-1	7.84E+3	2.60E-1	1.94E+3
7.25E-1	7.90E+3	2.58E-1	1.94E+3
7.28E-1	7.86E+3	2.64E-1	1.96E+3
7.30E-1	7.94E+3	2.52E-1	1.96E+3
7.33E-1	7.94E+3	2.62E-1	1.95E+3
7.35E-1	7.96E+3	2.75E-1	2.05E+3
7.17E-1	7.95E+3	2.46E-1	1.84E+3
7.37E-1	7.99E+3	2.62E-1	1.90E+3
7.29E-1	7.98E+3	2.44E-1	1.91E+3
7.27E-1	7.92E+3	2.59E-1	1.90E+3
7.33E-1	7.86E+3	2.51E-1	1.85E+3
7.32E-1	7.91E+3	2.56E-1	1.89E+3
7.25E-1	7.96E+3	2.60E-1	1.99E+3
7.26E-1	7.85E+3	2.62E-1	1.97E+3
7.36E-1	8.04E+3	2.80E-1	2.01E+3
7.33E-1	7.98E+3	2.64E-1	1.99E+3
7.19E-1	7.78E+3	2.59E-1	2.03E+3
7.39E-1	7.97E+3	2.58E-1	1.90E+3
7.32E-1	8.01E+3	2.53E-1	1.93E+3
7.30E-1	7.96E+3	2.55E-1	1.97E+3
7.29E-1	7.87E+3	2.63E-1	1.95E+3
7.23E-1	7.87E+3	2.72E-1	2.00E+3
7.28E-1	7.94E+3	2.47E-1	1.86E+3
7.22E-1	7.89E+3	2.52E-1	1.84E+3
7.39E-1	7.96E+3	2.43E-1	1.89E+3
7.27E-1	7.85E+3	2.56E-1	1.89E+3
7.20E-1	7.83E+3	2.59E-1	1.98E+3
7.16E-1	7.79E+3	2.52E-1	1.93E+3
7.30E-1	7.91E+3	2.56E-1	1.96E+3
7.34E-1	8.00E+3	2.58E-1	1.92E+3
7.19E-1	7.75E+3	2.72E-1	1.99E+3
7.24E-1	7.91E+3	2.61E-1	1.95E+3
7.27E-1	7.84E+3	2.63E-1	1.96E+3
7.38E-1	7.92E+3	2.50E-1	1.90E+3
7.29E-1	7.90E+3	2.54E-1	1.90E+3
7.18E-1	7.87E+3	2.57E-1	1.94E+3
7.29E-1	7.96E+3	2.61E-1	2.03E+3
7.29E-1	7.97E+3	2.60E-1	1.98E+3
7.23E-1	7.84E+3	2.51E-1	1.88E+3
7.24E-1	7.77E+3	2.61E-1	1.88E+3
7.03E-1	7.94E+3	2.54E-1	1.91E+3
7.34E-1	7.98E+3	2.53E-1	1.91E+3
7.25E-1	7.82E+3	2.70E-1	1.98E+3
7.28E-1	7.87E+3	2.44E-1	1.85E+3
7.17E-1	7.88E+3	2.52E-1	1.85E+3
7.25E-1	7.84E+3	2.60E-1	1.92E+3
7.19E-1	7.87E+3	2.50E-1	1.81E+3
7.31E-1	7.94E+3	2.61E-1	1.93E+3
7.20E-1	7.85E+3	2.68E-1	2.00E+3
7.23E-1	7.84E+3	2.58E-1	1.92E+3
7.25E-1	7.87E+3	2.79E-1	2.01E+3
7.26E-1	7.93E+3	2.64E-1	1.98E+3
7.36E-1	7.92E+3	2.61E-1	1.97E+3
7.43E-1	8.01E+3	2.46E-1	1.85E+3
7.25E-1	7.91E+3	2.52E-1	1.96E+3
7.29E-1	7.85E+3	2.42E-1	1.94E+3
7.27E-1	7.91E+3	2.75E-1	1.97E+3
7.07E-1	7.86E+3	2.44E-1	1.88E+3
7.34E-1	7.88E+3	2.75E-1	2.02E+3
7.24E-1	7.88E+3	2.70E-1	1.98E+3
7.24E-1	7.90E+3	2.52E-1	1.93E+3
7.29E-1	7.84E+3	2.58E-1	1.96E+3
7.26E-1	7.85E+3	2.51E-1	1.86E+3
7.23E-1	7.96E+3	2.72E-1	1.98E+3
7.18E-1	7.98E+3	2.66E-1	1.90E+3
7.19E-1	7.79E+3	2.55E-1	1.88E+3
7.29E-1	7.94E+3	2.60E-1	2.03E+3
7.21E-1	7.82E+3	2.52E-1	1.90E+3
7.28E-1	7.93E+3	2.50E-1	1.88E+3
7.21E-1	7.89E+3	2.52E-1	1.88E+3
7.23E-1	7.83E+3	2.75E-1	1.97E+3
7.31E-1	7.89E+3	2.57E-1	1.97E+3
7.25E-1	7.92E+3	2.65E-1	1.95E+3
7.10E-1	7.79E+3	2.59E-1	1.95E+3
7.15E-1	7.83E+3	2.61E-1	1.97E+3
7.23E-1	7.88E+3	2.80E-1	1.90E+3
7.30E-1	7.95E+3	2.51E-1	1.91E+3
7.15E-1	7.87E+3	2.68E-1	2.05E+3
7.31E-1	8.06E+3	2.64E-1	2.04E+3
7.28E-1	8.00E+3	2.65E-1	2.00E+3
7.30E-1	7.92E+3	2.55E-1	1.91E+3
7.24E-1	7.84E+3	2.71E-1	1.91E+3
7.30E-1	7.92E+3	2.37E-1	1.85E+3
7.29E-1	8.00E+3	2.60E-1	1.99E+3
7.31E-1	7.96E+3	2.57E-1	2.00E+3
7.36E-1	8.00E+3	2.42E-1	1.81E+3
7.18E-1	7.92E+3	2.70E-1	1.98E+3
7.23E-1	7.87E+3	2.43E-1	1.89E+3
7.28E-1	7.87E+3	2.79E-1	1.97E+3
7.26E-1	7.91E+3	2.67E-1	1.88E+3
7.21E-1	7.83E+3	2.55E-1	1.89E+3
7.31E-1	7.91E+3	2.57E-1	1.95E+3
7.31E-1	7.84E+3	2.59E-1	1.92E+3
7.31E-1	7.87E+3	2.54E-1	1.96E+3
7.48E-1	8.14E+3	2.55E-1	1.99E+3
7.33E-1	7.80E+3	2.59E-1	1.88E+3
7.23E-1	7.90E+3	2.56E-1	1.94E+3
7.29E-1	8.06E+3	2.53E-1	1.99E+3
7.31E-1	7.98E+3	2.62E-1	1.95E+3
7.31E-1	7.88E+3	2.50E-1	1.91E+3
7.26E-1	7.88E+3	2.53E-1	1.98E+3
7.24E-1	8.02E+3	2.59E-1	1.97E+3
7.28E-1	7.93E+3	2.61E-1	1.92E+3
7.24E-1	7.87E+3	2.63E-1	1.96E+3
7.25E-1	7.81E+3	2.68E-1	2.05E+3
7.23E-1	7.87E+3	2.70E-1	1.94E+3
7.21E-1	7.93E+3	2.62E-1	1.92E+3
6.99E-1	7.94E+3	2.57E-1	1.98E+3
7.29E-1	8.00E+3	2.59E-1	1.94E+3
7.31E-1	7.96E+3	2.73E-1	2.01E+3
7.37E-1	8.00E+3	2.62E-1	1.97E+3
7.22E-1	7.86E+3	2.71E-1	2.01E+3
7.35E-1	7.91E+3	2.56E-1	1.82E+3
7.38E-1	7.97E+3	2.65E-1	1.96E+3
7.27E-1	8.01E+3	2.61E-1	1.97E+3
7.21E-1	7.93E+3	2.51E-1	1.94E+3
7.30E-1	7.99E+3	2.59E-1	1.93E+3
7.28E-1	7.90E+3	2.62E-1	1.86E+3
7.20E-1	7.86E+3	2.59E-1	1.88E+3
7.27E-1	7.85E+3	2.36E-1	1.83E+3
7.23E-1	7.98E+3	2.71E-1	2.06E+3
7.19E-1	7.91E+3	2.45E-1	1.87E+3
7.33E-1	7.99E+3	2.68E-1	1.94E+3
7.27E-1	7.84E+3	2.66E-1	1.95E+3
7.31E-1	7.91E+3	2.60E-1	1.91E+3
7.33E-1	7.98E+3	2.56E-1	1.95E+3
7.18E-1	7.89E+3	2.70E-1	2.09E+3
7.30E-1	7.99E+3	2.54E-1	1.83E+3
7.24E-1	7.89E+3	2.73E-1	1.96E+3
7.27E-1	7.95E+3	2.93E-1	2.07E+3
7.34E-1	7.87E+3	2.75E-1	1.97E+3
7.26E-1	7.76E+3	2.61E-1	1.92E+3
7.45E-1	8.13E+3	2.71E-1	2.03E+3
7.15E-1	7.93E+3	2.74E-1	2.06E+3
7.21E-1	7.87E+3	2.51E-1	1.90E+3
7.23E-1	7.85E+3	2.69E-1	1.93E+3
7.22E-1	7.92E+3	2.57E-1	1.85E+3
7.35E-1	7.97E+3	2.65E-1	1.94E+3
7.34E-1	7.99E+3	2.50E-1	1.90E+3
7.20E-1	7.85E+3	2.68E-1	1.90E+3
7.34E-1	8.05E+3	2.55E-1	1.90E+3
7.26E-1	7.90E+3	2.50E-1	1.94E+3
7.13E-1	7.76E+3	2.60E-1	1.94E+3
7.20E-1	7.82E+3	2.62E-1	1.93E+3
7.35E-1	7.93E+3	2.56E-1	1.88E+3
7.33E-1	8.04E+3	2.66E-1	2.02E+3
7.37E-1	7.88E+3	2.70E-1	2.03E+3
7.27E-1	7.82E+3	2.60E-1	1.92E+3
7.16E-1	7.85E+3	2.70E-1	2.09E+3
7.29E-1	7.89E+3	2.67E-1	2.03E+3
7.26E-1	7.93E+3	2.46E-1	1.84E+3
7.30E-1	7.95E+3	2.64E-1	1.99E+3
7.34E-1	7.93E+3	2.64E-1	1.86E+3
7.30E-1	7.91E+3	2.62E-1	1.97E+3
7.25E-1	7.79E+3	2.39E-1	1.82E+3
7.32E-1	7.86E+3	2.46E-1	1.83E+3
7.24E-1	7.85E+3	2.71E-1	2.06E+3
7.26E-1	7.87E+3	2.62E-1	1.93E+3
7.34E-1	8.00E+3	2.64E-1	2.02E+3
7.24E-1	7.92E+3	2.72E-1	1.94E+3
7.23E-1	7.94E+3	2.67E-1	1.92E+3
7.15E-1	7.82E+3	2.47E-1	1.86E+3
7.33E-1	8.02E+3	2.49E-1	1.93E+3
7.25E-1	7.79E+3	2.68E-1	1.93E+3
7.20E-1	7.93E+3	2.61E-1	1.92E+3
7.26E-1	7.93E+3	2.62E-1	1.92E+3
7.01E-1	7.78E+3	2.46E-1	1.90E+3
7.26E-1	7.86E+3	2.44E-1	1.88E+3
7.17E-1	7.99E+3	2.66E-1	1.97E+3
7.32E-1	7.99E+3	2.58E-1	1.93E+3
7.35E-1	7.98E+3	2.47E-1	1.82E+3
7.25E-1	7.97E+3	2.62E-1	1.94E+3
7.31E-1	7.94E+3	2.62E-1	2.04E+3
7.21E-1	7.74E+3	2.68E-1	1.94E+3
7.28E-1	7.91E+3	2.61E-1	2.04E+3
7.21E-1	7.97E+3	2.50E-1	1.92E+3
7.25E-1	7.80E+3	2.55E-1	1.92E+3
7.30E-1	7.92E+3	2.63E-1	2.06E+3
7.24E-1	7.84E+3	2.55E-1	1.93E+3
7.17E-1	7.77E+3	2.44E-1	1.86E+3
7.05E-1	7.83E+3	2.77E-1	1.95E+3
7.25E-1	7.79E+3	2.64E-1	1.96E+3
7.12E-1	7.77E+3	2.74E-1	2.01E+3
7.21E-1	7.82E+3	2.60E-1	1.90E+3
1.03E-2	2.25E+1	5.54E-1	4.49E+3
7.23E-1	7.87E+3	2.79E-1	2.00E+3
7.33E-1	7.92E+3	2.49E-1	1.88E+3
7.16E-1	7.87E+3	2.54E-1	1.98E+3
7.27E-1	7.88E+3	2.53E-1	1.89E+3
7.24E-1	7.94E+3	2.67E-1	2.01E+3
7.11E-1	7.70E+3	2.59E-1	1.95E+3
7.15E-1	7.81E+3	2.70E-1	1.95E+3
7.26E-1	7.90E+3	2.62E-1	1.94E+3
7.27E-1	7.93E+3	2.50E-1	1.90E+3
7.26E-1	7.90E+3	2.70E-1	1.95E+3
7.31E-1	8.01E+3	2.49E-1	1.87E+3
7.28E-1	7.98E+3	2.63E-1	1.96E+3
7.27E-1	7.91E+3	2.53E-1	1.98E+3
7.24E-1	8.00E+3	2.54E-1	2.01E+3
7.26E-1	7.79E+3	2.68E-1	1.90E+3
7.25E-1	7.83E+3	2.62E-1	1.92E+3
7.31E-1	7.94E+3	2.73E-1	2.00E+3
7.31E-1	7.91E+3	2.51E-1	1.90E+3
7.20E-1	7.88E+3	2.66E-1	1.96E+3
7.25E-1	7.95E+3	2.59E-1	1.95E+3
7.24E-1	7.88E+3	2.60E-1	1.91E+3
7.17E-1	7.91E+3	2.55E-1	1.88E+3
7.26E-1	7.95E+3	2.54E-1	2.00E+3
7.25E-1	7.87E+3	2.63E-1	1.95E+3
7.18E-1	7.90E+3	2.64E-1	2.04E+3
7.29E-1	7.88E+3	2.53E-1	1.93E+3
7.25E-1	7.91E+3	2.41E-1	1.88E+3
7.25E-1	7.86E+3	2.61E-1	1.85E+3
7.22E-1	7.98E+3	2.49E-1	1.93E+3
7.32E-1	7.97E+3	2.74E-1	2.01E+3
7.31E-1	7.87E+3	2.65E-1	2.01E+3
7.27E-1	7.96E+3	2.58E-1	1.88E+3
7.40E-1	8.03E+3	2.72E-1	2.04E+3
7.30E-1	7.89E+3	2.60E-1	1.92E+3
7.32E-1	7.97E+3	2.48E-1	1.93E+3
7.25E-1	7.81E+3	2.58E-1	1.86E+3
7.38E-1	7.97E+3	2.52E-1	1.85E+3
7.23E-1	7.85E+3	2.34E-1	1.84E+3
7.22E-1	7.76E+3	2.50E-1	1.80E+3
7.29E-1	7.98E+3	2.65E-1	2.04E+3
7.25E-1	7.87E+3	2.72E-1	1.98E+3
7.30E-1	7.96E+3	2.45E-1	1.87E+3
6.84E-3	3.27E+0	5.63E-1	4.55E+3
7.29E-1	7.94E+3	2.50E-1	1.94E+3
7.21E-1	7.94E+3	2.50E-1	1.88E+3
7.21E-1	7.83E+3	2.53E-1	1.95E+3
7.30E-1	7.88E+3	2.57E-1	1.90E+3
7.21E-1	7.93E+3	2.65E-1	1.97E+3
7.28E-1	7.89E+3	2.66E-1	1.89E+3
7.18E-1	7.89E+3	2.59E-1	1.92E+3
7.26E-1	7.87E+3	2.41E-1	1.90E+3
7.31E-1	7.91E+3	2.62E-1	1.95E+3
7.23E-1	7.93E+3	2.80E-1	1.98E+3
7.21E-1	7.80E+3	2.45E-1	1.90E+3
7.20E-1	7.79E+3	2.64E-1	1.94E+3
7.31E-1	7.82E+3	2.65E-1	1.95E+3
7.16E-1	7.78E+3	2.75E-1	2.01E+3
7.27E-1	7.94E+3	2.52E-1	1.93E+3
7.12E-1	7.82E+3	2.49E-1	1.87E+3
7.28E-1	7.95E+3	2.60E-1	2.03E+3
7.27E-1	7.90E+3	2.36E-1	1.84E+3
7.23E-1	7.87E+3	2.58E-1	1.87E+3
7.21E-1	7.89E+3	2.66E-1	1.94E+3
7.22E-1	7.83E+3	2.49E-1	1.94E+3
7.32E-1	7.97E+3	2.64E-1	1.85E+3
7.28E-1	7.85E+3	2.74E-1	1.90E+3
7.33E-1	7.95E+3	2.40E-1	1.85E+3
7.27E-1	7.95E+3	2.65E-1	1.98E+3
7.28E-1	7.90E+3	2.67E-1	1.98E+3
7.33E-1	7.98E+3	2.49E-1	1.87E+3
7.22E-1	7.81E+3	2.53E-1	1.93E+3
7.25E-1	8.00E+3	2.53E-1	1.85E+3
7.22E-1	7.92E+3	2.60E-1	1.93E+3
7.22E-1	7.85E+3	2.66E-1	1.93E+3
7.35E-1	7.93E+3	2.66E-1	1.89E+3
7.23E-1	8.01E+3	2.62E-1	1.95E+3
7.26E-1	7.86E+3	2.66E-1	1.98E+3
7.24E-1	7.90E+3	2.52E-1	1.92E+3
7.33E-1	7.95E+3	2.58E-1	1.89E+3
7.15E-1	7.96E+3	2.57E-1	2.00E+3
7.11E-1	7.88E+3	2.58E-1	1.92E+3
7.26E-1	7.88E+3	2.69E-1	1.94E+3
7.07E-1	7.84E+3	2.64E-1	1.97E+3
7.14E-1	7.78E+3	2.60E-1	1.95E+3
7.39E-1	7.98E+3	2.54E-1	1.89E+3
7.26E-1	7.92E+3	2.64E-1	1.94E+3
7.15E-1	7.93E+3	2.92E-1	2.08E+3
7.26E-1	7.90E+3	2.66E-1	1.96E+3
7.15E-1	7.80E+3	2.62E-1	1.93E+3
7.18E-1	7.88E+3	2.62E-1	1.97E+3
7.27E-1	7.86E+3	2.56E-1	1.96E+3
7.31E-1	7.97E+3	2.59E-1	1.87E+3
7.22E-1	7.93E+3	2.60E-1	1.90E+3
7.30E-1	7.95E+3	2.49E-1	1.82E+3
7.30E-1	7.97E+3	2.71E-1	1.95E+3
7.34E-1	7.95E+3	2.64E-1	1.85E+3
7.21E-1	7.85E+3	2.58E-1	1.98E+3
7.26E-1	7.89E+3	2.52E-1	1.97E+3
7.33E-1	7.90E+3	2.43E-1	1.80E+3
7.34E-1	7.89E+3	2.68E-1	1.95E+3
7.35E-1	7.99E+3	2.51E-1	1.84E+3
7.32E-1	8.04E+3	2.60E-1	1.93E+3
7.32E-1	7.95E+3	2.55E-1	1.89E+3
7.37E-1	8.02E+3	2.43E-1	1.87E+3
7.27E-1	7.90E+3	2.53E-1	1.90E+3
7.33E-1	8.07E+3	2.51E-1	1.94E+3
7.28E-1	7.86E+3	2.65E-1	2.07E+3
7.27E-1	7.96E+3	2.48E-1	1.91E+3
7.29E-1	7.93E+3	2.61E-1	1.96E+3
7.17E-1	7.89E+3	2.59E-1	1.96E+3
7.29E-1	7.94E+3	2.67E-1	1.95E+3
7.16E-1	7.93E+3	2.59E-1	1.94E+3
7.31E-1	7.81E+3	2.64E-1	1.90E+3
7.16E-1	7.84E+3	2.61E-1	1.89E+3
7.37E-1	7.93E+3	2.53E-1	1.89E+3
7.22E-1	7.87E+3	2.57E-1	1.88E+3
7.25E-1	7.88E+3	2.55E-1	1.87E+3
7.36E-1	8.06E+3	2.78E-1	1.98E+3
7.14E-1	7.89E+3	2.46E-1	1.84E+3
7.39E-1	8.09E+3	2.70E-1	1.95E+3
7.19E-1	7.82E+3	2.62E-1	1.99E+3
7.28E-1	7.85E+3	2.59E-1	1.95E+3
7.30E-1	7.87E+3	2.51E-1	1.87E+3
7.22E-1	7.98E+3	2.55E-1	1.93E+3
7.29E-1	7.91E+3	2.65E-1	2.01E+3
7.31E-1	7.95E+3	2.58E-1	1.92E+3
7.29E-1	7.89E+3	2.52E-1	1.89E+3
7.32E-1	7.95E+3	2.55E-1	1.93E+3
7.30E-1	7.97E+3	2.63E-1	1.92E+3
7.24E-1	7.87E+3	2.67E-1	1.97E+3
7.29E-1	7.86E+3	2.73E-1	1.93E+3
7.35E-1	7.97E+3	2.71E-1	1.97E+3
7.29E-1	7.95E+3	2.70E-1	1.95E+3
7.26E-1	7.88E+3	2.68E-1	1.92E+3
7.27E-1	7.98E+3	2.54E-1	1.92E+3
7.32E-1	8.03E+3	2.66E-1	2.00E+3
7.32E-1	8.02E+3	2.47E-1	1.88E+3
7.31E-1	7.93E+3	2.42E-1	1.86E+3
7.08E-1	7.82E+3	2.53E-1	1.82E+3
7.33E-1	7.98E+3	2.44E-1	1.79E+3
7.25E-1	7.95E+3	2.55E-1	1.93E+3
7.29E-1	7.97E+3	2.47E-1	1.84E+3
7.18E-1	7.94E+3	2.74E-1	2.03E+3
7.34E-1	8.03E+3	2.68E-1	1.95E+3
7.26E-1	8.00E+3	2.55E-1	1.91E+3
7.27E-1	7.90E+3	2.72E-1	1.94E+3
7.24E-1	7.82E+3	2.70E-1	2.00E+3
7.28E-1	7.85E+3	2.62E-1	2.00E+3
1.00E-2	3.16E+1	5.42E-1	4.48E+3
7.35E-1	8.05E+3	2.77E-1	2.05E+3
7.31E-1	7.83E+3	2.63E-1	1.90E+3
7.21E-1	7.91E+3	2.57E-1	1.92E+3
7.18E-1	7.80E+3	2.57E-1	1.91E+3
7.28E-1	7.90E+3	2.71E-1	1.93E+3
7.36E-1	7.90E+3	2.66E-1	1.94E+3
7.29E-1	7.93E+3	2.58E-1	2.02E+3
7.29E-1	7.87E+3	2.46E-1	1.87E+3
7.23E-1	7.84E+3	2.56E-1	1.93E+3
7.34E-1	7.97E+3	2.62E-1	2.02E+3
7.25E-1	7.86E+3	2.56E-1	1.97E+3
7.22E-1	7.95E+3	2.69E-1	2.00E+3
7.21E-1	7.92E+3	2.71E-1	1.96E+3
7.22E-1	7.93E+3	2.56E-1	1.93E+3
7.39E-1	7.91E+3	2.61E-1	1.91E+3
7.10E-1	7.86E+3	2.59E-1	1.91E+3
7.32E-1	7.96E+3	2.61E-1	1.90E+3
7.21E-1	8.00E+3	2.79E-1	1.93E+3
7.22E-1	7.92E+3	2.61E-1	1.92E+3
7.25E-1	7.82E+3	2.56E-1	1.86E+3
7.36E-1	7.96E+3	2.62E-1	2.02E+3
7.26E-1	7.83E+3	2.54E-1	1.85E+3
7.28E-1	7.89E+3	2.48E-1	1.83E+3
7.35E-1	7.99E+3	2.54E-1	1.97E+3
7.38E-1	8.11E+3	2.49E-1	1.93E+3
7.27E-1	7.96E+3	2.52E-1	1.95E+3
7.23E-1	7.90E+3	2.58E-1	1.98E+3
7.30E-1	7.88E+3	2.64E-1	1.95E+3
7.26E-1	7.85E+3	2.50E-1	1.96E+3
7.28E-1	7.91E+3	2.62E-1	1.97E+3
7.27E-1	7.77E+3	2.81E-1	1.99E+3
7.18E-1	7.89E+3	2.42E-1	1.87E+3
7.27E-1	7.85E+3	2.61E-1	1.90E+3
7.27E-1	7.88E+3	2.61E-1	1.91E+3
7.32E-1	7.92E+3	2.52E-1	1.95E+3
7.24E-1	7.98E+3	2.73E-1	2.07E+3
7.21E-1	7.87E+3	2.74E-1	1.95E+3
7.29E-1	7.79E+3	2.58E-1	1.91E+3
7.25E-1	7.92E+3	2.57E-1	1.90E+3
7.25E-1	7.93E+3	2.71E-1	2.13E+3
7.14E-1	7.74E+3	2.81E-1	1.97E+3
7.38E-1	7.94E+3	2.62E-1	1.94E+3
7.18E-1	7.87E+3	2.64E-1	1.92E+3
7.19E-1	7.92E+3	2.73E-1	1.91E+3
7.26E-1	7.88E+3	2.49E-1	1.88E+3
7.27E-1	7.97E+3	2.62E-1	1.97E+3
7.32E-1	7.94E+3	2.61E-1	1.96E+3
7.27E-1	7.81E+3	2.85E-1	2.12E+3
7.30E-1	7.90E+3	2.61E-1	1.97E+3
7.14E-1	7.96E+3	2.73E-1	2.01E+3
7.33E-1	7.87E+3	2.58E-1	1.95E+3
7.28E-1	7.94E+3	2.50E-1	1.90E+3
7.26E-1	7.88E+3	2.57E-1	1.97E+3
7.31E-1	8.00E+3	2.40E-1	1.83E+3
7.37E-1	7.97E+3	2.50E-1	1.92E+3
7.32E-1	7.94E+3	2.63E-1	1.94E+3
7.33E-1	7.92E+3	2.50E-1	1.93E+3
7.18E-1	7.78E+3	2.65E-1	1.91E+3
7.06E-1	7.76E+3	2.76E-1	1.96E+3
7.24E-1	7.93E+3	2.65E-1	1.91E+3
7.14E-1	7.94E+3	2.72E-1	2.07E+3
7.08E-1	7.94E+3	2.80E-1	2.13E+3
7.25E-1	7.88E+3	2.82E-1	2.10E+3
7.28E-1	7.88E+3	2.46E-1	1.85E+3
7.32E-1	7.94E+3	2.73E-1	1.99E+3
7.30E-1	7.99E+3	2.60E-1	2.01E+3
7.27E-1	7.94E+3	2.68E-1	1.96E+3
7.25E-1	7.91E+3	2.61E-1	1.94E+3
7.11E-1	7.83E+3	2.80E-1	2.03E+3
7.34E-1	7.94E+3	2.40E-1	1.82E+3
7.25E-1	7.76E+3	2.78E-1	2.00E+3
7.25E-1	7.86E+3	2.53E-1	1.94E+3
7.33E-1	7.92E+3	2.72E-1	2.00E+3
7.18E-1	7.87E+3	2.72E-1	1.95E+3
7.30E-1	7.92E+3	2.77E-1	1.93E+3
7.32E-1	7.90E+3	2.76E-1	1.99E+3
7.08E-1	7.83E+3	2.56E-1	1.90E+3
7.22E-1	7.89E+3	2.71E-1	2.04E+3
7.24E-1	7.89E+3	2.67E-1	1.97E+3
7.21E-1	7.78E+3	2.59E-1	1.91E+3
7.31E-1	7.81E+3	2.42E-1	1.90E+3
7.19E-1	7.83E+3	2.57E-1	1.96E+3
7.12E-1	7.86E+3	2.48E-1	1.90E+3
7.14E-1	7.90E+3	2.51E-1	1.93E+3
7.24E-1	7.96E+3	2.58E-1	2.02E+3
7.31E-1	7.86E+3	2.66E-1	2.00E+3
7.30E-1	7.91E+3	2.54E-1	1.86E+3
7.20E-1	7.87E+3	2.62E-1	2.00E+3
7.30E-1	7.99E+3	2.67E-1	1.91E+3
7.24E-1	7.87E+3	2.60E-1	1.98E+3
7.19E-1	7.87E+3	2.56E-1	1.92E+3
7.26E-1	7.97E+3	2.52E-1	1.94E+3
7.31E-1	7.95E+3	2.76E-1	2.04E+3
7.11E-1	7.84E+3	2.63E-1	1.97E+3
7.25E-1	7.88E+3	2.56E-1	1.95E+3
7.24E-1	7.87E+3	2.63E-1	1.95E+3
7.29E-1	7.89E+3	2.63E-1	1.92E+3
7.29E-1	7.89E+3	2.73E-1	1.95E+3
7.23E-1	7.88E+3	2.60E-1	1.97E+3
7.28E-1	7.92E+3	2.71E-1	2.00E+3
7.23E-1	7.81E+3	2.78E-1	2.10E+3
7.26E-1	7.96E+3	2.49E-1	1.87E+3
7.20E-1	7.92E+3	2.43E-1	1.86E+3
7.36E-1	8.02E+3	2.85E-1	2.03E+3
7.26E-1	7.76E+3	2.59E-1	2.00E+3
7.16E-1	7.85E+3	2.48E-1	1.96E+3
7.14E-1	7.77E+3	2.65E-1	2.02E+3
7.29E-1	7.92E+3	2.55E-1	1.88E+3
7.16E-1	7.78E+3	2.55E-1	1.94E+3
7.20E-1	7.86E+3	2.49E-1	1.93E+3
7.28E-1	7.85E+3	2.51E-1	1.93E+3
7.28E-1	7.87E+3	2.58E-1	1.96E+3
7.21E-1	7.81E+3	2.72E-1	2.01E+3
7.32E-1	7.93E+3	2.61E-1	1.95E+3
7.19E-1	7.74E+3	2.58E-1	1.96E+3
7.23E-1	7.89E+3	2.55E-1	1.88E+3
7.25E-1	7.95E+3	2.84E-1	2.04E+3
7.12E-1	7.95E+3	2.59E-1	1.93E+3
7.21E-1	7.79E+3	2.48E-1	1.92E+3
7.30E-1	7.96E+3	2.49E-1	1.91E+3
7.19E-1	7.93E+3	2.59E-1	1.87E+3
7.28E-1	7.86E+3	2.85E-1	2.00E+3
7.25E-1	7.84E+3	2.55E-1	1.81E+3
7.16E-1	7.79E+3	2.70E-1	1.92E+3
7.29E-1	7.97E+3	2.75E-1	2.01E+3
7.23E-1	7.85E+3	2.45E-1	1.86E+3
7.23E-1	7.80E+3	2.56E-1	1.84E+3
7.41E-1	7.98E+3	2.56E-1	1.91E+3
7.29E-1	7.88E+3	2.65E-1	1.97E+3
7.23E-1	7.92E+3	2.56E-1	1.91E+3
7.33E-1	7.89E+3	2.63E-1	2.04E+3
7.31E-1	7.94E+3	2.59E-1	1.96E+3
7.25E-1	7.87E+3	2.63E-1	1.98E+3
7.18E-1	7.79E+3	2.59E-1	1.98E+3
7.27E-1	7.94E+3	2.57E-1	1.92E+3
7.19E-1	7.78E+3	2.58E-1	1.91E+3
7.12E-1	7.93E+3	2.76E-1	2.05E+3
7.41E-1	7.92E+3	2.72E-1	1.90E+3
7.19E-1	7.90E+3	2.55E-1	1.95E+3
7.28E-1	7.85E+3	2.60E-1	1.93E+3
7.13E-1	7.87E+3	2.52E-1	1.92E+3
7.21E-1	7.92E+3	2.68E-1	1.95E+3
7.07E-1	7.82E+3	2.64E-1	1.96E+3
1.20E-2	4.17E+1	5.87E-1	4.61E+3
7.32E-1	7.87E+3	2.70E-1	2.02E+3
7.34E-1	8.03E+3	2.68E-1	1.91E+3
7.29E-1	7.88E+3	2.42E-1	1.84E+3
7.13E-1	7.87E+3	2.56E-1	1.93E+3
7.28E-1	7.89E+3	2.58E-1	1.92E+3
7.27E-1	7.90E+3	2.55E-1	1.90E+3
7.13E-1	7.88E+3	2.45E-1	1.89E+3
7.28E-1	7.94E+3	2.66E-1	1.93E+3
7.27E-1	7.78E+3	2.62E-1	2.01E+3
7.30E-1	7.96E+3	2.46E-1	1.90E+3
7.18E-1	7.90E+3	2.73E-1	1.99E+3
7.24E-1	7.93E+3	2.62E-1	1.93E+3
7.25E-1	7.91E+3	2.63E-1	1.95E+3
7.20E-1	7.81E+3	2.64E-1	2.00E+3
7.25E-1	7.82E+3	2.60E-1	1.99E+3
7.31E-1	7.98E+3	2.76E-1	2.03E+3
7.30E-1	8.03E+3	2.66E-1	2.00E+3
7.21E-1	7.87E+3	2.69E-1	1.94E+3
7.22E-1	7.88E+3	2.68E-1	2.02E+3
7.24E-1	7.92E+3	2.66E-1	1.89E+3
7.29E-1	7.93E+3	2.60E-1	1.87E+3
7.17E-1	7.87E+3	2.50E-1	1.85E+3
7.40E-1	7.94E+3	2.70E-1	1.99E+3
7.24E-1	7.95E+3	2.54E-1	1.85E+3
7.28E-1	7.97E+3	2.63E-1	1.89E+3
7.25E-1	7.86E+3	2.63E-1	1.87E+3
7.23E-1	7.85E+3	2.61E-1	1.92E+3
7.28E-1	7.89E+3	2.60E-1	2.05E+3
7.28E-1	7.90E+3	2.51E-1	1.93E+3
7.24E-1	7.84E+3	2.61E-1	2.01E+3
7.34E-1	7.94E+3	2.59E-1	1.93E+3
7.26E-1	7.80E+3	2.72E-1	2.05E+3
7.24E-1	7.83E+3	2.69E-1	2.06E+3
7.08E-1	7.85E+3	2.59E-1	1.92E+3
7.27E-1	7.98E+3	2.60E-1	1.95E+3
7.17E-1	7.90E+3	2.56E-1	1.94E+3
7.33E-1	8.00E+3	2.53E-1	1.92E+3
7.19E-1	7.91E+3	2.50E-1	1.78E+3
7.28E-1	7.85E+3	2.59E-1	2.02E+3
7.36E-1	8.00E+3	2.65E-1	1.99E+3
7.24E-1	7.96E+3	2.70E-1	1.97E+3
7.33E-1	8.00E+3	2.57E-1	2.05E+3
7.33E-1	7.97E+3	2.56E-1	1.98E+3
7.30E-1	7.95E+3	2.68E-1	1.99E+3
7.26E-1	7.98E+3	2.48E-1	1.88E+3
7.31E-1	7.90E+3	2.66E-1	2.00E+3
7.28E-1	7.89E+3	2.68E-1	2.01E+3
7.33E-1	7.90E+3	2.51E-1	1.95E+3
7.33E-1	7.87E+3	2.60E-1	1.87E+3
7.30E-1	7.93E+3	2.59E-1	1.87E+3
7.22E-1	7.83E+3	2.71E-1	1.89E+3
7.18E-1	7.84E+3	2.49E-1	1.87E+3
7.37E-1	7.96E+3	2.65E-1	2.01E+3
7.34E-1	7.96E+3	2.47E-1	1.86E+3
7.26E-1	7.87E+3	2.71E-1	1.96E+3
7.39E-1	8.02E+3	2.51E-1	1.92E+3
7.38E-1	8.01E+3	2.71E-1	1.98E+3
7.17E-1	7.78E+3	2.68E-1	1.91E+3
7.11E-1	8.01E+3	2.75E-1	1.99E+3
7.08E-1	7.86E+3	2.57E-1	1.94E+3
7.20E-1	7.87E+3	2.75E-1	2.04E+3
7.22E-1	7.90E+3	2.79E-1	1.99E+3
7.24E-1	7.87E+3	2.62E-1	1.89E+3
7.26E-1	7.87E+3	2.62E-1	1.94E+3
7.25E-1	7.84E+3	2.57E-1	1.89E+3
7.27E-1	7.86E+3	2.53E-1	1.93E+3
7.27E-1	7.90E+3	2.76E-1	2.02E+3
7.32E-1	7.99E+3	2.50E-1	1.91E+3
7.35E-1	7.90E+3	2.47E-1	1.96E+3
7.37E-1	8.09E+3	2.42E-1	1.88E+3
7.22E-1	7.86E+3	2.58E-1	2.02E+3
7.17E-1	7.81E+3	2.71E-1	1.96E+3
7.35E-1	7.91E+3	2.45E-1	1.79E+3
7.38E-1	7.95E+3	2.58E-1	1.93E+3
7.26E-1	7.83E+3	2.71E-1	1.89E+3
7.29E-1	7.89E+3	2.63E-1	1.93E+3
7.29E-1	7.81E+3	2.58E-1	1.91E+3
7.21E-1	7.75E+3	2.68E-1	1.97E+3
7.27E-1	7.93E+3	2.52E-1	1.81E+3
7.24E-1	7.93E+3	2.74E-1	1.99E+3
7.12E-1	7.81E+3	2.65E-1	2.02E+3
7.29E-1	7.92E+3	2.56E-1	1.94E+3
7.27E-1	7.80E+3	2.62E-1	1.94E+3
7.31E-1	7.81E+3	2.40E-1	1.81E+3
7.11E-1	7.78E+3	2.52E-1	1.81E+3
7.18E-1	7.92E+3	2.70E-1	1.98E+3
7.35E-1	7.89E+3	2.70E-1	2.01E+3
7.29E-1	7.86E+3	2.70E-1	2.08E+3
7.29E-1	7.99E+3	2.58E-1	1.92E+3
7.20E-1	7.81E+3	2.62E-1	2.01E+3
7.29E-1	7.96E+3	2.70E-1	2.01E+3
7.31E-1	7.89E+3	2.69E-1	1.92E+3
7.28E-1	7.88E+3	2.46E-1	1.88E+3
7.22E-1	7.86E+3	2.69E-1	1.89E+3
7.31E-1	7.96E+3	2.68E-1	2.05E+3
7.26E-1	7.89E+3	2.53E-1	1.90E+3
7.24E-1	7.87E+3	2.68E-1	1.98E+3
7.21E-1	7.82E+3	2.60E-1	2.02E+3
7.26E-1	7.85E+3	2.68E-1	1.97E+3
7.06E-1	7.83E+3	2.78E-1	1.97E+3
7.25E-1	7.95E+3	2.59E-1	2.03E+3
7.31E-1	7.87E+3	2.59E-1	1.98E+3
7.32E-1	7.80E+3	2.58E-1	1.96E+3
7.17E-1	7.85E+3	2.57E-1	1.93E+3
7.23E-1	8.09E+3	2.61E-1	1.90E+3
7.21E-1	7.87E+3	2.59E-1	1.95E+3
7.26E-1	7.84E+3	2.56E-1	2.01E+3
7.25E-1	7.85E+3	2.51E-1	1.92E+3
7.36E-1	7.89E+3	2.55E-1	1.93E+3
7.24E-1	7.83E+3	2.53E-1	1.90E+3
7.17E-1	7.82E+3	2.66E-1	1.95E+3
7.34E-1	7.92E+3	2.64E-1	2.00E+3
7.29E-1	7.94E+3	2.59E-1	1.91E+3
7.18E-1	7.80E+3	2.59E-1	1.97E+3
7.24E-1	7.89E+3	2.62E-1	1.98E+3
7.17E-1	7.66E+3	2.57E-1	1.91E+3
7.26E-1	7.93E+3	2.67E-1	2.03E+3
7.24E-1	7.79E+3	2.57E-1	1.90E+3
7.29E-1	7.92E+3	2.61E-1	2.07E+3
7.30E-1	7.92E+3	2.59E-1	1.98E+3
7.23E-1	7.84E+3	2.58E-1	2.03E+3
7.39E-1	7.79E+3	2.83E-1	1.96E+3
7.24E-1	7.87E+3	2.67E-1	1.95E+3
7.22E-1	7.84E+3	2.39E-1	1.77E+3
8.79E-3	1.02E+1	5.68E-1	4.49E+3
7.18E-1	7.84E+3	2.60E-1	1.92E+3
7.15E-1	7.86E+3	2.56E-1	1.95E+3
7.29E-1	7.85E+3	2.71E-1	1.93E+3
7.22E-1	7.84E+3	2.56E-1	1.92E+3
7.30E-1	7.93E+3	2.62E-1	1.84E+3
7.30E-1	8.01E+3	2.50E-1	1.89E+3
7.30E-1	7.93E+3	2.71E-1	1.97E+3
7.26E-1	7.91E+3	2.68E-1	1.97E+3
7.23E-1	7.80E+3	2.63E-1	1.98E+3
7.20E-1	7.85E+3	2.56E-1	1.96E+3
7.18E-1	7.80E+3	2.48E-1	1.97E+3
7.13E-1	7.85E+3	2.45E-1	1.85E+3
7.29E-1	7.76E+3	2.61E-1	2.00E+3
7.31E-1	7.96E+3	2.60E-1	2.00E+3
7.14E-1	7.89E+3	2.52E-1	1.89E+3
7.36E-1	8.01E+3	2.66E-1	1.98E+3
7.26E-1	7.94E+3	2.71E-1	1.91E+3
7.21E-1	7.99E+3	2.60E-1	2.02E+3
7.02E-1	7.82E+3	2.60E-1	1.90E+3
7.26E-1	7.89E+3	2.56E-1	1.97E+3
7.21E-1	7.90E+3	2.71E-1	2.00E+3
7.27E-1	7.81E+3	2.68E-1	2.11E+3
7.19E-1	7.91E+3	2.64E-1	2.00E+3
7.26E-1	7.84E+3	2.53E-1	1.95E+3
7.27E-1	7.79E+3	2.55E-1	1.90E+3
7.10E-1	7.79E+3	2.45E-1	1.87E+3
7.18E-1	7.78E+3	2.34E-1	1.72E+3
7.28E-1	7.84E+3	2.68E-1	1.96E+3
7.23E-1	7.87E+3	2.72E-1	1.98E+3
7.30E-1	7.84E+3	2.77E-1	1.97E+3
7.24E-1	7.88E+3	2.77E-1	2.00E+3
7.22E-1	7.86E+3	2.58E-1	1.94E+3
7.27E-1	7.90E+3	2.83E-1	2.03E+3
7.22E-1	7.78E+3	2.50E-1	1.85E+3
7.26E-1	7.84E+3	2.69E-1	1.97E+3
7.30E-1	7.91E+3	2.57E-1	1.99E+3
7.06E-1	7.77E+3	2.65E-1	1.97E+3
7.20E-1	7.81E+3	2.71E-1	1.96E+3
7.34E-1	7.90E+3	2.63E-1	1.90E+3
7.30E-1	7.88E+3	2.57E-1	1.92E+3
7.28E-1	7.86E+3	2.58E-1	1.89E+3
7.27E-1	7.85E+3	2.67E-1	1.99E+3
7.20E-1	7.72E+3	2.51E-1	1.91E+3
7.23E-1	7.99E+3	2.47E-1	1.92E+3
7.29E-1	7.90E+3	2.46E-1	1.92E+3
7.27E-1	7.90E+3	2.60E-1	1.99E+3
7.12E-1	7.99E+3	2.54E-1	1.89E+3
7.40E-1	8.08E+3	2.67E-1	2.00E+3
7.37E-1	7.97E+3	2.71E-1	1.97E+3
7.23E-1	7.97E+3	2.78E-1	2.12E+3
7.32E-1	7.92E+3	2.59E-1	2.02E+3
7.24E-1	7.87E+3	2.50E-1	1.96E+3
7.25E-1	7.90E+3	2.70E-1	2.05E+3
7.35E-1	7.98E+3	2.72E-1	2.00E+3
7.21E-1	7.91E+3	2.79E-1	1.95E+3
7.20E-1	7.93E+3	2.66E-1	1.98E+3
7.31E-1	7.84E+3	2.56E-1	1.95E+3
7.08E-1	7.76E+3	2.65E-1	1.98E+3
7.29E-1	7.92E+3	2.85E-1	2.06E+3
7.27E-1	7.89E+3	2.73E-1	1.89E+3
7.23E-1	8.01E+3	2.52E-1	1.94E+3
7.38E-1	7.89E+3	2.60E-1	1.97E+3
7.25E-1	7.96E+3	2.67E-1	1.94E+3
7.21E-1	7.79E+3	2.78E-1	1.95E+3
7.25E-1	7.82E+3	2.42E-1	1.86E+3
7.31E-1	7.99E+3	2.53E-1	1.93E+3
7.31E-1	7.99E+3	2.64E-1	2.00E+3
7.20E-1	7.83E+3	2.63E-1	1.91E+3
7.24E-1	7.97E+3	2.65E-1	2.00E+3
7.28E-1	7.96E+3	2.63E-1	1.95E+3
7.22E-1	7.90E+3	2.73E-1	1.97E+3
7.29E-1	7.89E+3	2.57E-1	2.00E+3
7.23E-1	7.92E+3	2.54E-1	1.98E+3
7.18E-1	7.81E+3	2.54E-1	1.84E+3
7.27E-1	7.97E+3	2.50E-1	1.90E+3
7.16E-1	7.78E+3	2.66E-1	2.04E+3
7.26E-1	7.96E+3	2.54E-1	1.93E+3
7.30E-1	8.01E+3	2.60E-1	1.96E+3
7.29E-1	7.83E+3	2.59E-1	1.98E+3
7.31E-1	7.82E+3	2.49E-1	1.90E+3
7.05E-1	7.88E+3	2.50E-1	1.89E+3
7.26E-1	7.81E+3	2.43E-1	1.88E+3
7.16E-1	7.89E+3	2.55E-1	1.89E+3
7.21E-1	7.87E+3	2.72E-1	1.98E+3
7.24E-1	7.90E+3	2.56E-1	1.97E+3
7.38E-1	7.96E+3	2.43E-1	1.86E+3
7.22E-1	7.84E+3	2.57E-1	1.92E+3
7.29E-1	7.87E+3	2.58E-1	1.93E+3
7.37E-1	7.96E+3	2.48E-1	1.88E+3
7.23E-1	7.90E+3	2.65E-1	2.05E+3
7.33E-1	7.90E+3	2.53E-1	1.88E+3
7.25E-1	7.90E+3	2.69E-1	1.99E+3
7.29E-1	8.04E+3	2.53E-1	1.92E+3
7.27E-1	7.78E+3	2.76E-1	1.92E+3
7.19E-1	7.91E+3	2.54E-1	1.83E+3
7.21E-1	7.83E+3	2.49E-1	1.87E+3
7.29E-1	7.91E+3	2.65E-1	1.86E+3
7.25E-1	7.91E+3	2.55E-1	1.93E+3
7.35E-1	7.94E+3	2.50E-1	1.91E+3
7.23E-1	7.75E+3	2.51E-1	1.97E+3
7.16E-1	7.84E+3	2.63E-1	1.91E+3
7.26E-1	7.92E+3	2.69E-1	2.03E+3
7.19E-1	7.84E+3	2.76E-1	2.03E+3
7.33E-1	7.86E+3	2.60E-1	1.98E+3
