4.52E-1	3.08E+3	8.23E-2	5.57E+2
4.55E-1	2.89E+3	9.37E-2	5.60E+2
4.47E-1	2.78E+3	8.72E-2	5.45E+2
4.52E-1	2.87E+3	8.54E-2	4.89E+2
4.29E-1	2.95E+3	9.35E-2	5.65E+2
4.23E-1	2.76E+3	8.50E-2	5.11E+2
4.37E-1	2.93E+3	8.59E-2	5.65E+2
4.57E-1	2.96E+3	9.08E-2	6.00E+2
4.52E-1	2.94E+3	9.94E-2	6.62E+2
4.37E-1	2.91E+3	7.79E-2	4.56E+2
4.46E-1	2.98E+3	8.72E-2	5.40E+2
4.54E-1	2.83E+3	8.81E-2	5.53E+2
4.45E-1	2.91E+3	9.47E-2	5.54E+2
4.67E-1	2.99E+3	9.20E-2	5.65E+2
4.35E-1	2.89E+3	8.35E-2	5.54E+2
4.49E-1	2.88E+3	8.67E-2	5.62E+2
4.54E-1	2.95E+3	8.84E-2	5.45E+2
4.50E-1	2.93E+3	8.37E-2	5.32E+2
4.60E-1	2.97E+3	9.67E-2	6.43E+2
4.40E-1	2.98E+3	8.98E-2	5.33E+2
4.27E-1	2.89E+3	8.76E-2	5.60E+2
4.63E-1	2.83E+3	8.89E-2	5.03E+2
4.47E-1	2.86E+3	8.59E-2	5.45E+2
4.27E-1	2.87E+3	8.13E-2	5.14E+2
4.58E-1	2.95E+3	8.81E-2	5.62E+2
4.36E-1	2.96E+3	8.42E-2	5.66E+2
4.40E-1	2.87E+3	9.16E-2	5.75E+2
4.34E-1	2.83E+3	8.72E-2	5.66E+2
4.50E-1	2.88E+3	9.03E-2	5.91E+2
4.64E-1	2.88E+3	8.98E-2	5.35E+2
4.45E-1	2.93E+3	8.28E-2	5.14E+2
4.69E-1	2.92E+3	9.42E-2	6.21E+2
4.36E-1	2.94E+3	8.52E-2	4.69E+2
4.35E-1	2.79E+3	8.45E-2	5.25E+2
4.41E-1	2.74E+3	8.52E-2	5.18E+2
4.44E-1	2.93E+3	9.40E-2	6.15E+2
4.42E-1	2.77E+3	8.23E-2	5.05E+2
4.41E-1	2.93E+3	8.54E-2	5.39E+2
4.28E-1	2.88E+3	8.72E-2	5.22E+2
4.49E-1	2.96E+3	8.30E-2	5.09E+2
6.10E-3	2.34E+1	3.29E-1	1.38E+3
4.40E-1	2.95E+3	8.54E-2	4.72E+2
4.23E-1	2.89E+3	9.11E-2	5.72E+2
4.55E-1	3.01E+3	8.45E-2	5.77E+2
4.66E-1	2.98E+3	9.86E-2	6.68E+2
4.05E-1	2.78E+3	8.47E-2	5.30E+2
4.55E-1	2.96E+3	9.35E-2	5.96E+2
4.49E-1	2.93E+3	8.54E-2	5.67E+2
4.36E-1	2.75E+3	8.74E-2	4.90E+2
4.43E-1	3.02E+3	7.81E-2	4.75E+2
4.32E-1	2.84E+3	8.11E-2	4.43E+2
4.17E-1	2.80E+3	8.28E-2	5.05E+2
4.24E-1	2.88E+3	8.40E-2	5.39E+2
4.24E-1	2.80E+3	9.33E-2	5.96E+2
4.67E-1	2.82E+3	8.91E-2	5.11E+2
4.24E-1	2.76E+3	8.67E-2	5.59E+2
4.44E-1	2.83E+3	9.08E-2	5.93E+2
4.12E-1	2.84E+3	8.59E-2	5.53E+2
4.41E-1	2.87E+3	9.37E-2	5.38E+2
4.30E-1	2.87E+3	9.20E-2	5.22E+2
4.19E-1	2.88E+3	8.08E-2	4.94E+2
4.66E-1	2.93E+3	8.91E-2	5.56E+2
4.30E-1	2.84E+3	9.03E-2	5.67E+2
4.30E-1	2.74E+3	8.35E-2	4.98E+2
4.54E-1	2.93E+3	9.35E-2	5.47E+2
4.19E-1	2.78E+3	8.11E-2	4.70E+2
6.84E-3	1.13E+1	3.34E-1	1.37E+3
4.29E-1	2.87E+3	8.37E-2	4.85E+2
4.41E-1	2.98E+3	8.72E-2	5.26E+2
4.20E-1	2.83E+3	8.89E-2	5.23E+2
4.33E-1	2.77E+3	8.28E-2	5.69E+2
4.49E-1	3.03E+3	8.74E-2	5.30E+2
4.28E-1	2.91E+3	8.37E-2	5.46E+2
4.32E-1	2.85E+3	8.20E-2	4.98E+2
4.31E-1	2.78E+3	8.52E-2	5.25E+2
4.25E-1	2.90E+3	8.64E-2	5.23E+2
4.48E-1	2.86E+3	9.62E-2	5.90E+2
4.22E-1	2.86E+3	9.06E-2	5.68E+2
4.35E-1	2.83E+3	8.74E-2	5.29E+2
4.52E-1	2.94E+3	8.20E-2	4.65E+2
4.26E-1	2.83E+3	8.50E-2	4.97E+2
4.52E-1	2.84E+3	8.79E-2	5.53E+2
4.61E-1	2.89E+3	8.18E-2	4.98E+2
4.62E-1	2.91E+3	8.40E-2	5.19E+2
4.62E-1	2.98E+3	8.67E-2	5.28E+2
4.47E-1	2.97E+3	8.89E-2	5.37E+2
4.55E-1	2.82E+3	8.20E-2	5.18E+2
4.33E-1	2.98E+3	8.20E-2	5.12E+2
4.25E-1	2.81E+3	8.98E-2	5.86E+2
4.38E-1	2.90E+3	8.96E-2	5.77E+2
4.13E-1	2.75E+3	8.64E-2	5.67E+2
4.43E-1	2.88E+3	9.16E-2	6.36E+2
4.15E-1	2.76E+3	8.96E-2	5.48E+2
4.15E-1	2.70E+3	8.50E-2	5.52E+2
4.31E-1	2.80E+3	9.11E-2	5.41E+2
4.52E-1	2.93E+3	8.64E-2	5.55E+2
4.56E-1	2.93E+3	8.23E-2	5.32E+2
4.86E-1	2.92E+3	8.86E-2	5.83E+2
4.32E-1	2.91E+3	8.03E-2	4.61E+2
4.33E-1	2.78E+3	9.23E-2	5.56E+2
4.46E-1	2.95E+3	9.16E-2	5.71E+2
4.30E-1	2.84E+3	8.59E-2	5.10E+2
4.67E-1	2.99E+3	8.40E-2	5.57E+2
4.11E-1	2.74E+3	9.25E-2	5.44E+2
4.51E-1	3.03E+3	8.64E-2	5.20E+2
4.09E-1	2.80E+3	8.28E-2	5.45E+2
4.52E-1	2.91E+3	8.18E-2	4.94E+2
4.37E-1	2.84E+3	8.28E-2	4.93E+2
4.35E-1	2.78E+3	9.13E-2	5.86E+2
4.40E-1	2.98E+3	9.03E-2	5.90E+2
4.54E-1	2.92E+3	7.93E-2	4.68E+2
4.21E-1	2.88E+3	9.03E-2	5.89E+2
4.67E-1	2.98E+3	9.16E-2	5.48E+2
4.88E-1	3.00E+3	8.84E-2	5.66E+2
4.68E-1	3.02E+3	8.69E-2	5.56E+2
4.36E-1	2.95E+3	8.40E-2	5.13E+2
4.46E-1	2.84E+3	9.01E-2	5.94E+2
4.28E-1	2.86E+3	9.59E-2	5.67E+2
4.13E-1	2.79E+3	7.81E-2	4.69E+2
4.30E-1	2.91E+3	8.91E-2	5.33E+2
4.28E-1	2.83E+3	8.13E-2	4.87E+2
4.55E-1	2.93E+3	9.25E-2	6.26E+2
4.30E-1	2.77E+3	8.35E-2	4.73E+2
4.37E-1	2.93E+3	8.50E-2	5.77E+2
4.63E-1	2.86E+3	8.57E-2	5.22E+2
4.54E-1	2.95E+3	9.08E-2	5.19E+2
4.49E-1	2.85E+3	9.30E-2	6.33E+2
4.59E-1	2.96E+3	9.06E-2	6.01E+2
4.35E-1	2.99E+3	9.06E-2	5.70E+2
4.37E-1	2.80E+3	8.37E-2	5.16E+2
4.57E-1	2.91E+3	8.91E-2	5.56E+2
4.25E-1	2.91E+3	9.35E-2	5.22E+2
4.47E-1	2.82E+3	8.47E-2	4.68E+2
4.46E-1	2.92E+3	8.67E-2	5.56E+2
4.49E-1	2.91E+3	8.69E-2	5.45E+2
4.38E-1	2.83E+3	8.59E-2	5.03E+2
4.26E-1	2.85E+3	8.67E-2	5.29E+2
4.54E-1	2.96E+3	8.64E-2	5.19E+2
4.29E-1	2.94E+3	9.20E-2	6.07E+2
4.47E-1	2.91E+3	9.16E-2	5.48E+2
4.31E-1	2.89E+3	8.11E-2	5.12E+2
4.42E-1	2.87E+3	8.08E-2	5.42E+2
4.54E-1	3.01E+3	8.08E-2	5.52E+2
4.36E-1	2.92E+3	8.74E-2	6.13E+2
4.55E-1	2.95E+3	8.64E-2	5.59E+2
4.45E-1	2.84E+3	8.30E-2	5.11E+2
4.35E-1	2.86E+3	8.47E-2	5.31E+2
4.08E-1	2.71E+3	8.47E-2	4.81E+2
4.53E-1	2.92E+3	8.86E-2	5.23E+2
4.31E-1	2.83E+3	8.08E-2	4.70E+2
4.27E-1	2.91E+3	9.01E-2	5.70E+2
4.65E-1	2.95E+3	8.98E-2	5.86E+2
4.47E-1	2.97E+3	9.64E-2	6.04E+2
4.87E-1	3.01E+3	8.81E-2	5.53E+2
4.77E-1	3.08E+3	9.16E-2	5.71E+2
4.49E-1	2.89E+3	9.08E-2	5.67E+2
4.56E-1	2.86E+3	8.81E-2	5.48E+2
4.47E-1	3.01E+3	9.45E-2	5.81E+2
4.40E-1	2.85E+3	8.59E-2	5.25E+2
4.25E-1	2.81E+3	8.08E-2	4.98E+2
4.62E-1	2.88E+3	8.40E-2	5.65E+2
4.20E-1	2.70E+3	8.98E-2	5.26E+2
4.41E-1	2.85E+3	8.79E-2	5.30E+2
4.07E-1	2.71E+3	8.57E-2	5.03E+2
4.48E-1	3.00E+3	8.42E-2	5.47E+2
4.15E-1	2.84E+3	8.37E-2	4.95E+2
4.40E-1	2.82E+3	9.01E-2	5.12E+2
4.51E-1	2.87E+3	9.20E-2	5.95E+2
4.37E-1	2.92E+3	8.40E-2	4.58E+2
4.51E-1	2.90E+3	8.84E-2	5.30E+2
4.36E-1	2.97E+3	8.35E-2	5.44E+2
4.58E-1	2.93E+3	1.01E-1	6.22E+2
4.66E-1	3.05E+3	8.84E-2	5.58E+2
4.32E-1	2.85E+3	8.84E-2	5.57E+2
4.27E-1	2.89E+3	8.86E-2	5.71E+2
4.59E-1	2.91E+3	8.76E-2	5.03E+2
4.46E-1	2.87E+3	9.23E-2	5.18E+2
4.58E-1	2.90E+3	8.35E-2	5.27E+2
4.33E-1	2.79E+3	8.96E-2	5.35E+2
4.27E-1	2.80E+3	9.50E-2	5.68E+2
4.72E-1	2.88E+3	8.35E-2	5.14E+2
4.52E-1	2.91E+3	8.20E-2	5.08E+2
4.52E-1	2.78E+3	8.98E-2	5.39E+2
4.26E-1	2.88E+3	8.40E-2	4.62E+2
4.47E-1	2.88E+3	7.96E-2	4.86E+2
4.37E-1	3.00E+3	9.64E-2	5.83E+2
4.25E-1	2.89E+3	8.54E-2	5.13E+2
4.17E-1	2.76E+3	8.20E-2	4.66E+2
4.37E-1	2.91E+3	8.33E-2	4.82E+2
4.41E-1	2.87E+3	9.01E-2	5.20E+2
4.32E-1	2.90E+3	8.45E-2	5.43E+2
4.23E-1	2.90E+3	8.57E-2	5.38E+2
4.54E-1	3.00E+3	9.72E-2	5.34E+2
4.42E-1	2.83E+3	8.15E-2	5.08E+2
4.37E-1	2.76E+3	8.15E-2	5.03E+2
4.31E-1	2.92E+3	8.03E-2	4.72E+2
4.25E-1	2.85E+3	8.52E-2	4.50E+2
4.45E-1	2.91E+3	9.64E-2	6.02E+2
4.34E-1	2.82E+3	8.72E-2	5.75E+2
4.55E-1	2.84E+3	8.81E-2	5.65E+2
4.28E-1	2.85E+3	8.57E-2	5.11E+2
4.42E-1	2.91E+3	9.47E-2	5.50E+2
4.39E-1	2.86E+3	8.79E-2	5.40E+2
4.73E-1	2.93E+3	7.93E-2	5.25E+2
4.28E-1	2.88E+3	8.76E-2	4.73E+2
4.49E-1	2.87E+3	9.33E-2	5.78E+2
4.20E-1	2.83E+3	9.03E-2	5.58E+2
4.24E-1	2.79E+3	8.45E-2	4.55E+2
4.59E-1	2.92E+3	9.03E-2	6.09E+2
4.42E-1	3.05E+3	8.40E-2	5.33E+2
4.64E-1	3.06E+3	8.79E-2	5.33E+2
4.36E-1	2.80E+3	8.45E-2	5.51E+2
4.19E-1	2.81E+3	8.98E-2	5.63E+2
4.48E-1	2.84E+3	8.86E-2	6.03E+2
4.60E-1	2.86E+3	8.25E-2	5.57E+2
4.78E-1	2.98E+3	9.45E-2	5.92E+2
4.58E-1	2.88E+3	9.06E-2	5.23E+2
4.55E-1	2.87E+3	9.23E-2	5.82E+2
4.31E-1	2.81E+3	9.16E-2	5.90E+2
4.38E-1	2.88E+3	8.33E-2	5.08E+2
4.43E-1	2.80E+3	8.54E-2	5.15E+2
4.49E-1	2.98E+3	8.13E-2	4.86E+2
4.32E-1	2.98E+3	8.18E-2	5.19E+2
4.26E-1	2.80E+3	8.45E-2	5.22E+2
4.59E-1	2.91E+3	8.18E-2	5.51E+2
4.76E-1	3.05E+3	8.98E-2	5.96E+2
4.46E-1	2.71E+3	8.59E-2	5.33E+2
4.43E-1	2.85E+3	8.62E-2	5.58E+2
4.34E-1	2.89E+3	8.33E-2	5.40E+2
4.61E-1	2.94E+3	9.84E-2	6.22E+2
4.28E-1	2.84E+3	8.81E-2	5.57E+2
4.57E-1	2.85E+3	8.67E-2	5.45E+2
4.29E-1	2.89E+3	8.86E-2	5.11E+2
4.38E-1	2.95E+3	1.05E-1	5.15E+2
4.65E-1	2.99E+3	8.25E-2	5.09E+2
4.25E-1	2.87E+3	8.42E-2	5.32E+2
4.58E-1	3.01E+3	8.84E-2	5.14E+2
4.37E-1	2.89E+3	8.84E-2	5.17E+2
4.40E-1	2.91E+3	8.54E-2	5.08E+2
4.13E-1	2.72E+3	9.08E-2	5.97E+2
4.69E-1	2.94E+3	8.94E-2	5.65E+2
4.65E-1	3.01E+3	9.37E-2	5.61E+2
4.46E-1	2.83E+3	1.00E-1	6.28E+2
4.25E-1	2.86E+3	8.67E-2	5.22E+2
4.47E-1	2.90E+3	8.03E-2	5.09E+2
4.53E-1	3.01E+3	8.94E-2	5.58E+2
4.16E-1	2.82E+3	8.84E-2	5.27E+2
4.25E-1	2.86E+3	9.37E-2	5.64E+2
4.25E-1	2.84E+3	8.33E-2	4.92E+2
4.11E-1	2.78E+3	8.18E-2	5.22E+2
4.32E-1	2.90E+3	8.94E-2	5.36E+2
4.42E-1	2.78E+3	8.67E-2	5.11E+2
4.37E-1	2.78E+3	8.30E-2	4.92E+2
4.62E-1	3.02E+3	9.08E-2	5.49E+2
4.40E-1	2.91E+3	9.13E-2	5.83E+2
4.22E-1	2.81E+3	9.28E-2	5.33E+2
4.44E-1	2.83E+3	8.89E-2	6.26E+2
4.35E-1	2.79E+3	8.15E-2	5.23E+2
4.29E-1	2.89E+3	8.79E-2	5.68E+2
4.31E-1	2.93E+3	8.18E-2	5.21E+2
4.27E-1	2.87E+3	9.03E-2	5.36E+2
4.58E-1	2.81E+3	8.81E-2	5.33E+2
4.17E-1	2.72E+3	8.59E-2	4.73E+2
4.46E-1	2.71E+3	8.35E-2	5.26E+2
4.32E-1	2.81E+3	9.25E-2	6.05E+2
4.64E-1	2.90E+3	8.69E-2	4.89E+2
4.40E-1	2.86E+3	8.86E-2	5.84E+2
4.30E-1	2.94E+3	8.69E-2	5.57E+2
4.50E-1	2.91E+3	8.54E-2	5.58E+2
4.13E-1	2.88E+3	8.98E-2	5.48E+2
4.39E-1	2.98E+3	8.64E-2	5.01E+2
4.30E-1	2.91E+3	8.62E-2	5.52E+2
4.63E-1	2.91E+3	8.86E-2	5.68E+2
4.49E-1	2.87E+3	9.01E-2	5.61E+2
4.42E-1	2.93E+3	9.25E-2	5.34E+2
4.48E-1	2.85E+3	8.98E-2	5.37E+2
4.36E-1	2.89E+3	8.57E-2	4.83E+2
4.27E-1	2.89E+3	8.98E-2	5.41E+2
4.39E-1	2.85E+3	9.33E-2	5.46E+2
4.36E-1	2.86E+3	8.35E-2	5.02E+2
4.48E-1	3.01E+3	8.54E-2	4.94E+2
4.41E-1	2.85E+3	8.89E-2	6.23E+2
4.52E-1	2.87E+3	9.47E-2	6.16E+2
4.44E-1	2.92E+3	9.08E-2	5.65E+2
4.64E-1	2.81E+3	1.01E-1	6.39E+2
4.42E-1	2.91E+3	8.67E-2	5.83E+2
4.50E-1	2.98E+3	7.67E-2	5.08E+2
4.25E-1	2.83E+3	9.28E-2	5.38E+2
4.38E-1	2.90E+3	8.50E-2	5.10E+2
4.39E-1	2.89E+3	8.67E-2	5.33E+2
4.30E-1	2.94E+3	8.57E-2	4.74E+2
4.17E-1	2.72E+3	8.03E-2	4.79E+2
4.25E-1	2.82E+3	8.30E-2	4.57E+2
4.44E-1	2.92E+3	8.72E-2	5.10E+2
4.35E-1	2.79E+3	8.57E-2	5.27E+2
4.12E-1	2.80E+3	8.79E-2	5.17E+2
4.61E-1	2.95E+3	8.86E-2	5.97E+2
4.52E-1	2.92E+3	8.45E-2	5.07E+2
4.45E-1	2.83E+3	8.96E-2	5.71E+2
4.39E-1	2.81E+3	8.18E-2	5.32E+2
4.61E-1	3.01E+3	8.03E-2	5.68E+2
4.57E-1	2.95E+3	8.74E-2	4.97E+2
4.26E-1	2.94E+3	8.96E-2	5.46E+2
4.08E-1	2.70E+3	8.74E-2	5.41E+2
4.29E-1	2.86E+3	8.79E-2	5.11E+2
4.36E-1	2.88E+3	9.72E-2	5.59E+2
4.37E-1	2.96E+3	7.93E-2	4.70E+2
4.13E-1	2.78E+3	8.62E-2	5.33E+2
4.45E-1	2.94E+3	8.64E-2	5.34E+2
4.13E-1	2.77E+3	8.06E-2	5.14E+2
4.61E-1	2.89E+3	9.18E-2	5.47E+2
4.47E-1	2.89E+3	8.96E-2	6.04E+2
4.51E-1	2.89E+3	8.45E-2	5.06E+2
4.31E-1	2.75E+3	8.50E-2	5.12E+2
4.25E-1	2.79E+3	8.54E-2	5.86E+2
4.36E-1	2.81E+3	8.62E-2	4.83E+2
4.25E-1	2.84E+3	9.11E-2	5.70E+2
4.50E-1	2.79E+3	8.79E-2	5.18E+2
4.38E-1	2.77E+3	9.23E-2	5.53E+2
4.17E-1	2.78E+3	8.33E-2	5.54E+2
4.36E-1	2.93E+3	9.13E-2	5.76E+2
4.85E-1	3.01E+3	8.64E-2	5.47E+2
4.51E-1	2.94E+3	8.11E-2	5.49E+2
4.29E-1	2.67E+3	8.96E-2	5.81E+2
4.53E-1	2.89E+3	8.96E-2	5.71E+2
4.54E-1	2.94E+3	8.72E-2	5.41E+2
4.26E-1	2.82E+3	7.96E-2	4.49E+2
4.56E-1	2.92E+3	8.50E-2	5.21E+2
4.31E-1	2.79E+3	8.23E-2	4.93E+2
4.47E-1	2.91E+3	8.64E-2	5.69E+2
4.34E-1	2.92E+3	8.81E-2	5.34E+2
4.46E-1	2.93E+3	8.74E-2	5.16E+2
4.38E-1	2.86E+3	8.01E-2	5.02E+2
4.48E-1	2.80E+3	8.91E-2	4.95E+2
4.57E-1	2.92E+3	8.42E-2	5.37E+2
4.55E-1	2.96E+3	8.52E-2	4.85E+2
4.36E-1	2.91E+3	8.01E-2	4.97E+2
4.51E-1	2.98E+3	8.52E-2	5.63E+2
4.53E-1	2.83E+3	9.37E-2	5.77E+2
4.63E-1	2.93E+3	8.72E-2	5.62E+2
4.51E-1	3.00E+3	8.18E-2	5.02E+2
4.69E-1	2.93E+3	1.06E-1	6.17E+2
4.55E-1	2.87E+3	9.08E-2	5.25E+2
4.25E-1	2.78E+3	9.57E-2	5.55E+2
4.42E-1	2.92E+3	9.08E-2	5.17E+2
4.17E-1	2.82E+3	9.28E-2	5.62E+2
4.30E-1	2.87E+3	9.35E-2	5.78E+2
4.54E-1	2.95E+3	8.23E-2	4.83E+2
4.48E-1	2.96E+3	8.50E-2	5.60E+2
4.67E-1	2.99E+3	9.06E-2	5.50E+2
4.33E-1	2.88E+3	9.42E-2	5.97E+2
4.56E-1	2.87E+3	8.37E-2	5.10E+2
4.88E-1	2.98E+3	8.81E-2	5.80E+2
4.63E-1	2.93E+3	8.69E-2	5.62E+2
4.47E-1	2.85E+3	8.72E-2	5.39E+2
4.46E-1	2.80E+3	8.72E-2	5.68E+2
4.13E-1	2.71E+3	9.23E-2	5.68E+2
4.58E-1	2.88E+3	8.86E-2	5.04E+2
4.39E-1	2.94E+3	8.01E-2	4.87E+2
4.46E-1	2.83E+3	9.35E-2	6.11E+2
4.27E-1	2.83E+3	8.20E-2	5.18E+2
4.48E-1	2.93E+3	8.76E-2	4.72E+2
4.35E-1	3.01E+3	8.11E-2	5.03E+2
4.36E-1	2.89E+3	8.57E-2	4.77E+2
4.25E-1	2.87E+3	8.54E-2	5.04E+2
4.55E-1	2.94E+3	8.91E-2	5.36E+2
4.66E-1	3.07E+3	8.25E-2	4.93E+2
4.44E-1	2.86E+3	8.94E-2	5.57E+2
4.62E-1	2.85E+3	9.30E-2	5.83E+2
4.53E-1	2.85E+3	9.18E-2	5.42E+2
4.20E-1	2.86E+3	8.96E-2	5.32E+2
4.27E-1	2.80E+3	8.81E-2	5.49E+2
4.42E-1	2.91E+3	8.54E-2	5.69E+2
4.26E-1	2.80E+3	8.69E-2	5.54E+2
4.32E-1	2.96E+3	8.13E-2	5.12E+2
4.22E-1	2.76E+3	8.23E-2	5.09E+2
4.33E-1	2.74E+3	9.47E-2	5.89E+2
4.52E-1	2.96E+3	8.28E-2	5.24E+2
4.52E-1	2.92E+3	8.76E-2	4.96E+2
4.42E-1	2.94E+3	9.20E-2	6.10E+2
4.33E-1	2.81E+3	8.72E-2	5.17E+2
4.27E-1	2.90E+3	8.72E-2	5.06E+2
4.46E-1	2.78E+3	8.54E-2	5.51E+2
4.49E-1	3.03E+3	8.25E-2	5.19E+2
4.41E-1	3.00E+3	8.30E-2	5.17E+2
4.21E-1	2.83E+3	8.62E-2	5.10E+2
4.39E-1	2.78E+3	8.81E-2	5.19E+2
4.39E-1	2.87E+3	8.84E-2	5.93E+2
4.22E-1	2.80E+3	9.40E-2	6.02E+2
4.47E-1	2.85E+3	8.91E-2	5.41E+2
4.38E-1	2.87E+3	8.81E-2	5.02E+2
4.72E-1	2.90E+3	8.37E-2	5.40E+2
4.60E-1	2.93E+3	8.25E-2	4.86E+2
4.59E-1	2.85E+3	8.89E-2	5.58E+2
4.55E-1	2.82E+3	8.30E-2	4.99E+2
4.35E-1	2.85E+3	8.94E-2	5.62E+2
4.85E-1	2.92E+3	7.84E-2	4.29E+2
4.37E-1	2.99E+3	9.33E-2	5.88E+2
4.43E-1	2.88E+3	8.40E-2	5.24E+2
4.48E-1	2.83E+3	8.18E-2	5.45E+2
4.60E-1	2.91E+3	9.47E-2	5.76E+2
4.32E-1	2.90E+3	8.67E-2	5.50E+2
4.57E-1	2.88E+3	8.74E-2	5.07E+2
4.17E-1	2.86E+3	8.06E-2	4.92E+2
4.54E-1	2.87E+3	8.45E-2	5.54E+2
4.31E-1	2.76E+3	8.64E-2	4.90E+2
4.20E-1	2.80E+3	8.33E-2	5.47E+2
4.46E-1	2.71E+3	8.72E-2	5.20E+2
4.32E-1	2.85E+3	8.74E-2	5.31E+2
3.96E-1	2.67E+3	8.57E-2	4.93E+2
4.49E-1	2.90E+3	8.67E-2	5.89E+2
4.51E-1	2.89E+3	8.23E-2	5.38E+2
4.24E-1	2.83E+3	8.76E-2	5.95E+2
4.54E-1	2.84E+3	7.79E-2	4.65E+2
4.54E-1	2.96E+3	9.03E-2	5.35E+2
4.37E-1	2.77E+3	8.15E-2	5.48E+2
4.43E-1	2.89E+3	8.64E-2	5.23E+2
4.62E-1	2.97E+3	8.08E-2	5.15E+2
4.34E-1	2.91E+3	8.37E-2	5.18E+2
4.42E-1	2.83E+3	8.42E-2	5.18E+2
4.31E-1	2.88E+3	9.67E-2	5.69E+2
4.42E-1	2.85E+3	9.11E-2	5.85E+2
4.41E-1	2.87E+3	8.67E-2	5.26E+2
4.37E-1	2.92E+3	8.81E-2	5.89E+2
4.26E-1	2.84E+3	9.33E-2	5.60E+2
4.43E-1	2.87E+3	9.50E-2	6.02E+2
4.86E-1	3.02E+3	9.72E-2	5.51E+2
4.50E-1	2.96E+3	9.25E-2	5.57E+2
4.38E-1	2.81E+3	9.28E-2	5.50E+2
4.69E-1	3.05E+3	8.84E-2	6.07E+2
4.46E-1	2.92E+3	9.47E-2	6.47E+2
4.19E-1	2.81E+3	8.84E-2	5.44E+2
4.48E-1	2.91E+3	9.33E-2	5.61E+2
4.48E-1	2.96E+3	8.47E-2	5.27E+2
4.49E-1	2.96E+3	8.47E-2	4.95E+2
4.40E-1	2.97E+3	9.13E-2	4.97E+2
4.29E-1	2.92E+3	8.23E-2	4.88E+2
4.17E-1	2.70E+3	9.11E-2	5.69E+2
4.45E-1	2.93E+3	8.69E-2	5.41E+2
4.48E-1	2.91E+3	8.74E-2	5.42E+2
4.36E-1	2.98E+3	9.42E-2	5.56E+2
4.53E-1	2.89E+3	8.42E-2	5.49E+2
4.53E-1	2.97E+3	8.50E-2	5.49E+2
4.67E-1	2.98E+3	8.50E-2	5.40E+2
4.51E-1	2.92E+3	8.91E-2	5.09E+2
4.47E-1	2.90E+3	8.74E-2	5.31E+2
4.21E-1	2.79E+3	7.50E-2	4.34E+2
4.10E-1	2.70E+3	9.30E-2	5.82E+2
4.53E-1	2.87E+3	9.25E-2	6.31E+2
4.34E-1	2.88E+3	8.64E-2	5.28E+2
4.33E-1	2.77E+3	9.52E-2	5.51E+2
4.29E-1	2.88E+3	8.23E-2	5.34E+2
4.34E-1	2.85E+3	9.25E-2	5.87E+2
4.46E-1	2.90E+3	8.42E-2	5.34E+2
4.48E-1	2.85E+3	8.84E-2	5.36E+2
4.35E-1	2.85E+3	8.79E-2	5.50E+2
4.56E-1	2.96E+3	8.08E-2	5.18E+2
4.33E-1	2.78E+3	9.30E-2	5.48E+2
4.30E-1	2.79E+3	9.28E-2	5.44E+2
4.54E-1	2.84E+3	8.91E-2	5.57E+2
4.66E-1	2.87E+3	8.50E-2	5.32E+2
4.42E-1	2.75E+3	9.16E-2	5.59E+2
4.58E-1	2.96E+3	8.67E-2	5.57E+2
4.28E-1	2.92E+3	8.81E-2	5.09E+2
4.43E-1	2.86E+3	8.89E-2	5.30E+2
4.42E-1	3.01E+3	8.67E-2	5.76E+2
4.31E-1	2.70E+3	9.37E-2	5.36E+2
4.63E-1	3.13E+3	8.50E-2	5.20E+2
4.36E-1	2.76E+3	8.20E-2	5.01E+2
4.47E-1	2.88E+3	8.76E-2	5.61E+2
4.26E-1	2.79E+3	1.01E-1	5.93E+2
4.36E-1	2.87E+3	9.45E-2	5.25E+2
4.40E-1	2.85E+3	8.57E-2	5.51E+2
4.46E-1	2.84E+3	9.13E-2	5.43E+2
4.46E-1	2.85E+3	8.91E-2	5.85E+2
4.28E-1	2.88E+3	8.57E-2	5.10E+2
4.36E-1	2.88E+3	8.76E-2	5.41E+2
4.36E-1	2.85E+3	8.35E-2	5.32E+2
4.41E-1	2.81E+3	9.45E-2	5.83E+2
4.43E-1	2.86E+3	8.67E-2	4.85E+2
4.24E-1	2.90E+3	8.42E-2	5.22E+2
4.26E-1	2.79E+3	9.57E-2	5.03E+2
4.17E-1	2.85E+3	8.64E-2	5.26E+2
4.15E-1	2.79E+3	8.20E-2	4.56E+2
4.42E-1	2.86E+3	8.52E-2	4.94E+2
4.34E-1	2.85E+3	7.89E-2	4.31E+2
4.68E-1	2.88E+3	8.01E-2	5.19E+2
4.62E-1	2.97E+3	8.13E-2	4.99E+2
4.48E-1	2.98E+3	8.47E-2	5.56E+2
4.36E-1	2.83E+3	8.98E-2	5.35E+2
4.78E-1	2.96E+3	8.64E-2	5.69E+2
4.33E-1	2.85E+3	8.64E-2	5.79E+2
4.48E-1	2.86E+3	8.74E-2	5.27E+2
4.43E-1	2.96E+3	8.52E-2	5.73E+2
4.10E-1	2.70E+3	8.59E-2	5.40E+2
4.20E-1	2.71E+3	9.11E-2	5.42E+2
4.28E-1	2.84E+3	8.47E-2	5.40E+2
4.27E-1	2.90E+3	8.57E-2	5.33E+2
4.34E-1	2.74E+3	8.37E-2	4.85E+2
4.33E-1	2.96E+3	8.89E-2	5.72E+2
4.50E-1	2.85E+3	9.37E-2	5.96E+2
4.41E-1	3.04E+3	8.18E-2	5.19E+2
4.66E-1	2.91E+3	9.50E-2	5.97E+2
4.46E-1	2.83E+3	8.11E-2	5.05E+2
4.43E-1	2.89E+3	9.64E-2	5.15E+2
4.70E-1	2.96E+3	9.18E-2	5.31E+2
4.27E-1	2.83E+3	9.37E-2	5.65E+2
4.57E-1	3.02E+3	8.81E-2	5.92E+2
4.30E-1	2.91E+3	9.13E-2	5.78E+2
4.25E-1	2.71E+3	8.52E-2	5.13E+2
4.46E-1	2.96E+3	8.11E-2	5.08E+2
4.57E-1	3.02E+3	8.01E-2	4.38E+2
4.27E-1	2.84E+3	8.18E-2	5.10E+2
4.48E-1	2.90E+3	8.28E-2	4.67E+2
4.60E-1	2.97E+3	9.01E-2	5.71E+2
4.25E-1	2.85E+3	7.89E-2	4.80E+2
4.20E-1	2.82E+3	8.13E-2	5.16E+2
4.34E-1	2.88E+3	8.76E-2	5.62E+2
4.58E-1	2.77E+3	8.84E-2	5.22E+2
4.49E-1	2.93E+3	9.23E-2	6.07E+2
4.35E-1	2.83E+3	8.86E-2	6.13E+2
4.42E-1	2.80E+3	8.54E-2	5.00E+2
4.41E-1	2.85E+3	8.28E-2	5.49E+2
4.26E-1	2.87E+3	9.01E-2	5.42E+2
4.23E-1	2.77E+3	8.23E-2	4.65E+2
4.08E-1	2.74E+3	8.94E-2	5.62E+2
4.41E-1	2.95E+3	8.15E-2	4.74E+2
4.38E-1	2.85E+3	8.18E-2	5.19E+2
4.04E-1	2.69E+3	7.37E-2	4.08E+2
4.44E-1	2.93E+3	8.45E-2	5.18E+2
4.33E-1	2.84E+3	8.64E-2	5.04E+2
4.37E-1	2.90E+3	8.94E-2	5.83E+2
4.44E-1	2.90E+3	8.74E-2	5.25E+2
4.47E-1	2.83E+3	8.18E-2	5.61E+2
4.67E-1	2.99E+3	8.79E-2	5.61E+2
4.23E-1	2.89E+3	8.84E-2	5.80E+2
4.37E-1	2.87E+3	8.94E-2	5.20E+2
4.62E-1	2.92E+3	9.64E-2	6.01E+2
4.36E-1	2.84E+3	8.45E-2	5.26E+2
4.41E-1	2.82E+3	8.72E-2	4.99E+2
4.20E-1	2.80E+3	8.59E-2	5.13E+2
4.29E-1	2.90E+3	7.79E-2	4.62E+2
4.36E-1	3.02E+3	9.18E-2	5.11E+2
4.37E-1	2.77E+3	8.52E-2	5.40E+2
4.56E-1	2.97E+3	7.79E-2	4.73E+2
4.39E-1	2.79E+3	9.64E-2	6.32E+2
4.38E-1	2.95E+3	8.42E-2	5.57E+2
4.40E-1	3.06E+3	8.67E-2	5.70E+2
4.51E-1	2.82E+3	8.62E-2	5.08E+2
4.29E-1	2.91E+3	8.94E-2	5.82E+2
4.60E-1	2.89E+3	8.94E-2	5.61E+2
4.44E-1	2.86E+3	8.96E-2	5.46E+2
4.53E-1	2.88E+3	9.50E-2	5.62E+2
4.21E-1	2.93E+3	8.98E-2	5.83E+2
4.23E-1	2.89E+3	8.11E-2	4.68E+2
4.33E-1	2.81E+3	8.54E-2	5.37E+2
4.32E-1	2.93E+3	7.86E-2	4.91E+2
4.24E-1	2.83E+3	8.13E-2	5.02E+2
4.52E-1	3.00E+3	8.23E-2	5.30E+2
4.27E-1	2.90E+3	8.37E-2	5.02E+2
4.27E-1	2.86E+3	8.79E-2	5.19E+2
4.29E-1	2.84E+3	9.23E-2	5.86E+2
4.60E-1	2.84E+3	9.30E-2	5.69E+2
4.42E-1	2.90E+3	8.96E-2	5.31E+2
4.32E-1	2.87E+3	7.81E-2	5.05E+2
4.21E-1	2.85E+3	8.62E-2	5.41E+2
4.44E-1	2.88E+3	8.50E-2	5.82E+2
4.36E-1	2.82E+3	8.54E-2	5.45E+2
4.41E-1	2.99E+3	9.11E-2	5.32E+2
4.30E-1	2.87E+3	7.96E-2	4.69E+2
4.18E-1	2.89E+3	8.15E-2	5.16E+2
4.64E-1	2.91E+3	8.45E-2	4.90E+2
4.57E-1	2.95E+3	8.18E-2	5.22E+2
4.21E-1	2.75E+3	8.52E-2	5.53E+2
4.38E-1	2.88E+3	8.35E-2	4.63E+2
4.56E-1	2.94E+3	9.03E-2	5.56E+2
4.36E-1	2.76E+3	8.42E-2	5.77E+2
4.36E-1	2.91E+3	8.47E-2	5.62E+2
4.60E-1	2.94E+3	8.72E-2	5.48E+2
4.36E-1	2.80E+3	8.67E-2	5.70E+2
4.77E-1	3.02E+3	8.15E-2	4.75E+2
4.46E-1	2.95E+3	8.35E-2	5.77E+2
4.31E-1	2.87E+3	8.94E-2	5.31E+2
4.38E-1	2.93E+3	8.18E-2	4.94E+2
4.25E-1	2.87E+3	8.59E-2	5.22E+2
4.35E-1	2.79E+3	7.67E-2	4.68E+2
4.40E-1	2.88E+3	8.69E-2	5.11E+2
4.73E-1	2.89E+3	9.33E-2	6.02E+2
4.49E-1	2.91E+3	9.13E-2	5.33E+2
4.52E-1	2.95E+3	8.59E-2	5.77E+2
4.38E-1	2.89E+3	9.42E-2	6.44E+2
4.17E-1	2.81E+3	8.57E-2	5.20E+2
4.47E-1	2.81E+3	1.16E-1	5.77E+2
4.20E-1	2.78E+3	8.72E-2	4.84E+2
4.48E-1	2.92E+3	8.81E-2	5.85E+2
4.65E-1	2.92E+3	9.86E-2	6.20E+2
4.39E-1	2.93E+3	7.98E-2	5.11E+2
4.51E-1	2.85E+3	8.64E-2	5.21E+2
4.29E-1	2.96E+3	8.28E-2	5.29E+2
4.34E-1	2.84E+3	8.69E-2	5.28E+2
4.40E-1	3.00E+3	8.35E-2	5.05E+2
4.38E-1	2.87E+3	8.33E-2	5.39E+2
4.28E-1	2.92E+3	8.33E-2	5.04E+2
4.62E-1	2.81E+3	8.84E-2	5.46E+2
4.62E-1	2.99E+3	9.50E-2	5.73E+2
4.28E-1	2.91E+3	9.16E-2	5.94E+2
4.63E-1	3.00E+3	8.67E-2	5.02E+2
4.60E-1	2.80E+3	8.52E-2	4.98E+2
4.72E-1	2.98E+3	8.76E-2	5.17E+2
4.38E-1	2.97E+3	9.50E-2	6.49E+2
4.41E-1	2.98E+3	8.40E-2	5.07E+2
4.31E-1	2.96E+3	9.45E-2	5.52E+2
4.55E-1	2.82E+3	8.03E-2	5.27E+2
4.12E-1	2.76E+3	8.50E-2	4.94E+2
4.38E-1	2.94E+3	8.40E-2	5.41E+2
6.35E-3	6.59E+0	3.54E-1	1.39E+3
4.18E-1	2.84E+3	8.11E-2	4.67E+2
4.23E-1	2.87E+3	8.40E-2	5.10E+2
4.42E-1	2.90E+3	8.81E-2	5.29E+2
4.30E-1	2.94E+3	8.74E-2	5.49E+2
4.39E-1	2.71E+3	8.96E-2	6.01E+2
4.58E-1	2.95E+3	9.20E-2	5.75E+2
4.48E-1	2.89E+3	8.64E-2	5.03E+2
4.24E-1	2.88E+3	8.84E-2	5.10E+2
4.65E-1	3.09E+3	9.69E-2	6.28E+2
4.58E-1	2.85E+3	9.64E-2	5.95E+2
4.34E-1	2.77E+3	8.23E-2	5.15E+2
4.31E-1	2.82E+3	8.35E-2	5.64E+2
4.61E-1	2.88E+3	9.52E-2	5.95E+2
4.41E-1	2.82E+3	7.91E-2	4.17E+2
4.27E-1	2.82E+3	8.81E-2	4.97E+2
4.39E-1	2.85E+3	8.59E-2	5.58E+2
4.45E-1	3.00E+3	8.28E-2	4.77E+2
4.61E-1	2.93E+3	9.64E-2	5.85E+2
4.40E-1	2.82E+3	8.94E-2	5.70E+2
4.61E-1	3.06E+3	8.37E-2	5.86E+2
4.39E-1	2.92E+3	8.45E-2	4.91E+2
4.22E-1	2.83E+3	8.59E-2	5.19E+2
4.26E-1	2.82E+3	8.62E-2	5.63E+2
4.44E-1	2.96E+3	8.74E-2	6.05E+2
4.55E-1	2.95E+3	8.64E-2	5.73E+2
4.40E-1	2.91E+3	8.50E-2	5.25E+2
4.28E-1	2.85E+3	8.74E-2	5.30E+2
4.50E-1	2.88E+3	9.13E-2	5.64E+2
4.47E-1	2.98E+3	8.11E-2	4.87E+2
4.52E-1	3.01E+3	8.81E-2	5.37E+2
4.37E-1	2.88E+3	8.62E-2	5.02E+2
4.27E-1	2.88E+3	8.67E-2	5.80E+2
4.30E-1	2.85E+3	8.35E-2	5.41E+2
4.24E-1	2.80E+3	9.52E-2	5.75E+2
4.18E-1	2.81E+3	8.79E-2	5.34E+2
4.35E-1	2.80E+3	7.91E-2	4.68E+2
4.46E-1	2.87E+3	8.91E-2	5.54E+2
4.30E-1	2.84E+3	8.40E-2	5.63E+2
4.37E-1	2.71E+3	9.64E-2	5.42E+2
4.51E-1	2.80E+3	8.96E-2	5.61E+2
4.33E-1	2.73E+3	9.06E-2	5.46E+2
4.38E-1	2.73E+3	9.37E-2	5.64E+2
4.47E-1	2.82E+3	8.86E-2	5.25E+2
4.30E-1	2.90E+3	8.08E-2	4.82E+2
4.16E-1	2.78E+3	1.05E-1	5.46E+2
4.13E-1	2.83E+3	8.96E-2	6.18E+2
4.55E-1	2.99E+3	9.62E-2	6.39E+2
4.58E-1	2.98E+3	8.79E-2	5.53E+2
4.69E-1	2.98E+3	8.52E-2	5.08E+2
4.55E-1	2.90E+3	9.20E-2	5.35E+2
4.60E-1	2.89E+3	9.25E-2	5.99E+2
4.43E-1	2.82E+3	9.50E-2	6.11E+2
4.44E-1	2.96E+3	8.59E-2	5.86E+2
4.44E-1	2.84E+3	9.25E-2	6.19E+2
4.52E-1	2.94E+3	9.62E-2	6.04E+2
4.28E-1	2.91E+3	8.33E-2	4.87E+2
4.34E-1	2.91E+3	8.47E-2	5.26E+2
4.54E-1	2.82E+3	8.74E-2	5.07E+2
4.11E-1	2.80E+3	8.47E-2	6.08E+2
4.68E-1	3.01E+3	8.37E-2	5.21E+2
4.42E-1	3.00E+3	9.11E-2	5.66E+2
4.56E-1	2.91E+3	9.16E-2	5.96E+2
4.43E-1	2.98E+3	8.01E-2	5.60E+2
4.26E-1	2.83E+3	9.18E-2	5.71E+2
4.37E-1	2.96E+3	9.40E-2	5.59E+2
4.40E-1	2.85E+3	9.72E-2	5.97E+2
4.37E-1	2.99E+3	8.91E-2	5.70E+2
4.70E-1	2.97E+3	8.54E-2	5.60E+2
4.23E-1	2.89E+3	8.79E-2	5.47E+2
4.26E-1	2.87E+3	9.13E-2	5.85E+2
4.25E-1	2.80E+3	9.06E-2	5.08E+2
4.21E-1	2.82E+3	8.67E-2	5.16E+2
4.42E-1	2.93E+3	8.15E-2	4.87E+2
4.45E-1	3.00E+3	8.67E-2	5.36E+2
4.30E-1	2.95E+3	8.86E-2	6.03E+2
4.59E-1	3.00E+3	8.11E-2	5.27E+2
4.36E-1	2.85E+3	8.62E-2	4.93E+2
4.41E-1	2.91E+3	8.20E-2	4.94E+2
4.20E-1	2.83E+3	8.57E-2	5.57E+2
5.00E-1	3.07E+3	9.59E-2	6.16E+2
4.23E-1	2.83E+3	7.86E-2	4.57E+2
4.56E-1	2.98E+3	8.59E-2	5.52E+2
4.23E-1	2.84E+3	8.94E-2	5.82E+2
4.43E-1	2.82E+3	8.98E-2	5.87E+2
4.21E-1	2.75E+3	9.40E-2	5.68E+2
4.48E-1	2.88E+3	9.45E-2	5.36E+2
4.15E-1	2.74E+3	8.13E-2	4.76E+2
4.56E-1	2.96E+3	8.96E-2	5.79E+2
4.26E-1	2.81E+3	8.28E-2	4.90E+2
4.20E-1	2.74E+3	8.47E-2	5.87E+2
4.50E-1	2.80E+3	8.91E-2	5.55E+2
4.33E-1	2.81E+3	8.15E-2	5.04E+2
4.10E-1	2.82E+3	8.81E-2	5.99E+2
4.29E-1	2.92E+3	8.06E-2	5.21E+2
4.83E-1	2.92E+3	8.67E-2	5.09E+2
4.48E-1	3.00E+3	8.45E-2	5.66E+2
4.30E-1	2.87E+3	8.40E-2	5.40E+2
4.45E-1	2.86E+3	8.20E-2	5.49E+2
4.25E-1	2.72E+3	8.18E-2	5.27E+2
4.60E-1	2.92E+3	8.37E-2	5.22E+2
4.51E-1	2.90E+3	9.74E-2	6.06E+2
5.86E-3	-2.05E+0	3.41E-1	1.39E+3
4.24E-1	2.84E+3	8.69E-2	5.57E+2
4.25E-1	2.84E+3	8.50E-2	4.88E+2
4.53E-1	2.92E+3	8.54E-2	5.06E+2
4.31E-1	2.78E+3	8.52E-2	5.24E+2
4.41E-1	2.93E+3	8.76E-2	5.57E+2
4.52E-1	2.92E+3	8.64E-2	5.28E+2
4.21E-1	2.85E+3	8.57E-2	5.62E+2
4.47E-1	2.96E+3	8.84E-2	5.63E+2
4.28E-1	2.97E+3	8.23E-2	4.72E+2
4.54E-1	2.94E+3	8.94E-2	5.39E+2
4.38E-1	2.90E+3	8.89E-2	5.61E+2
4.38E-1	2.95E+3	8.91E-2	5.60E+2
4.48E-1	3.04E+3	8.81E-2	5.77E+2
4.26E-1	2.89E+3	8.69E-2	5.14E+2
4.46E-1	2.97E+3	8.03E-2	4.73E+2
4.74E-1	2.96E+3	9.01E-2	5.82E+2
4.37E-1	2.84E+3	9.77E-2	5.47E+2
4.36E-1	2.83E+3	8.28E-2	5.65E+2
4.37E-1	2.78E+3	8.98E-2	5.46E+2
4.84E-1	2.95E+3	8.76E-2	5.63E+2
4.26E-1	2.85E+3	8.33E-2	5.00E+2
4.55E-1	2.89E+3	8.40E-2	5.01E+2
4.49E-1	2.86E+3	8.50E-2	5.54E+2
4.27E-1	2.84E+3	8.62E-2	5.21E+2
4.51E-1	2.91E+3	8.13E-2	5.69E+2
4.30E-1	2.97E+3	8.57E-2	5.61E+2
4.44E-1	2.75E+3	8.89E-2	5.39E+2
4.30E-1	2.78E+3	8.25E-2	4.84E+2
4.37E-1	2.94E+3	8.35E-2	5.25E+2
4.38E-1	2.91E+3	8.74E-2	4.98E+2
4.56E-1	2.86E+3	8.94E-2	5.57E+2
4.49E-1	2.83E+3	8.57E-2	5.16E+2
4.19E-1	2.84E+3	8.62E-2	5.35E+2
4.52E-1	2.89E+3	8.89E-2	5.56E+2
4.67E-1	3.05E+3	9.06E-2	6.22E+2
4.22E-1	2.82E+3	8.74E-2	5.68E+2
4.66E-1	2.93E+3	8.79E-2	5.19E+2
4.29E-1	2.77E+3	8.37E-2	5.31E+2
4.44E-1	3.00E+3	7.86E-2	4.69E+2
4.77E-1	3.03E+3	8.98E-2	5.27E+2
4.43E-1	2.97E+3	8.18E-2	5.42E+2
4.35E-1	2.80E+3	9.42E-2	5.72E+2
4.49E-1	2.89E+3	8.50E-2	5.74E+2
4.18E-1	2.84E+3	8.64E-2	5.84E+2
4.49E-1	2.71E+3	9.03E-2	5.53E+2
4.26E-1	2.87E+3	8.50E-2	5.24E+2
4.36E-1	2.86E+3	8.84E-2	5.59E+2
4.52E-1	2.86E+3	8.35E-2	5.10E+2
4.25E-1	2.87E+3	8.59E-2	5.21E+2
4.55E-1	2.90E+3	9.11E-2	5.80E+2
4.36E-1	2.80E+3	8.13E-2	5.11E+2
4.37E-1	2.94E+3	8.62E-2	5.13E+2
4.65E-1	2.87E+3	8.50E-2	5.22E+2
4.37E-1	2.95E+3	9.42E-2	5.73E+2
4.66E-1	2.88E+3	9.28E-2	5.68E+2
4.27E-1	2.82E+3	8.64E-2	5.12E+2
4.43E-1	2.76E+3	9.84E-2	6.06E+2
4.28E-1	2.95E+3	9.30E-2	5.85E+2
4.55E-1	2.89E+3	9.16E-2	5.69E+2
4.27E-1	2.85E+3	8.62E-2	5.60E+2
4.37E-1	2.86E+3	8.64E-2	4.67E+2
4.41E-1	2.84E+3	8.84E-2	5.80E+2
4.12E-1	2.82E+3	8.50E-2	5.40E+2
4.37E-1	2.94E+3	8.54E-2	5.59E+2
4.51E-1	2.84E+3	9.33E-2	5.74E+2
4.53E-1	2.84E+3	8.62E-2	5.51E+2
4.60E-1	2.93E+3	8.35E-2	4.82E+2
4.59E-1	2.94E+3	8.57E-2	5.77E+2
4.14E-1	2.75E+3	8.74E-2	5.09E+2
4.25E-1	2.79E+3	8.57E-2	5.67E+2
4.32E-1	2.79E+3	8.89E-2	5.46E+2
4.22E-1	2.75E+3	8.72E-2	4.64E+2
4.25E-1	2.85E+3	9.01E-2	5.62E+2
4.37E-1	2.96E+3	8.28E-2	5.14E+2
4.39E-1	2.95E+3	8.62E-2	5.00E+2
4.36E-1	2.81E+3	8.40E-2	5.60E+2
4.47E-1	2.88E+3	7.96E-2	5.16E+2
4.26E-1	2.95E+3	7.98E-2	4.89E+2
4.48E-1	2.85E+3	8.67E-2	4.88E+2
4.55E-1	2.89E+3	8.91E-2	5.94E+2
4.38E-1	2.79E+3	8.50E-2	5.39E+2
4.20E-1	2.72E+3	8.91E-2	5.26E+2
4.44E-1	2.87E+3	8.45E-2	5.42E+2
4.47E-1	2.94E+3	8.84E-2	5.39E+2
4.24E-1	2.79E+3	8.86E-2	5.41E+2
4.43E-1	3.06E+3	9.28E-2	5.95E+2
4.33E-1	2.91E+3	8.91E-2	6.15E+2
4.41E-1	2.90E+3	8.96E-2	5.51E+2
4.61E-1	2.97E+3	8.25E-2	4.88E+2
4.40E-1	2.88E+3	8.47E-2	5.18E+2
4.15E-1	2.77E+3	8.79E-2	5.68E+2
4.54E-1	2.91E+3	9.13E-2	5.25E+2
4.42E-1	2.84E+3	9.01E-2	5.59E+2
4.49E-1	2.92E+3	8.81E-2	5.68E+2
4.50E-1	3.02E+3	8.47E-2	5.79E+2
4.58E-1	2.97E+3	8.81E-2	5.83E+2
4.53E-1	2.91E+3	8.45E-2	5.52E+2
4.60E-1	2.87E+3	8.37E-2	5.58E+2
4.14E-1	2.77E+3	8.86E-2	5.73E+2
4.27E-1	2.85E+3	8.81E-2	5.47E+2
4.39E-1	2.82E+3	8.62E-2	5.23E+2
4.27E-1	2.84E+3	8.72E-2	5.42E+2
4.52E-1	2.83E+3	9.28E-2	5.64E+2
4.47E-1	2.94E+3	8.52E-2	5.36E+2
4.41E-1	2.96E+3	9.01E-2	5.69E+2
4.61E-1	2.88E+3	8.94E-2	5.50E+2
4.39E-1	2.95E+3	8.52E-2	5.67E+2
4.62E-1	2.97E+3	8.18E-2	4.89E+2
4.13E-1	2.77E+3	8.69E-2	5.07E+2
4.39E-1	2.90E+3	8.59E-2	5.73E+2
4.37E-1	2.85E+3	8.76E-2	5.18E+2
4.22E-1	2.81E+3	8.62E-2	5.34E+2
4.25E-1	2.83E+3	8.30E-2	4.53E+2
4.45E-1	2.92E+3	8.50E-2	4.73E+2
4.38E-1	2.90E+3	8.81E-2	5.32E+2
4.21E-1	2.78E+3	8.47E-2	5.21E+2
4.26E-1	2.94E+3	9.52E-2	6.02E+2
4.27E-1	2.88E+3	8.72E-2	5.56E+2
4.49E-1	2.94E+3	8.62E-2	5.43E+2
4.31E-1	2.90E+3	8.76E-2	5.40E+2
4.53E-1	2.90E+3	8.45E-2	5.28E+2
4.79E-1	3.00E+3	8.81E-2	5.53E+2
4.66E-1	2.86E+3	8.86E-2	5.85E+2
4.36E-1	2.87E+3	8.45E-2	5.89E+2
4.22E-1	2.85E+3	8.50E-2	5.24E+2
4.48E-1	2.86E+3	8.79E-2	5.42E+2
4.30E-1	2.81E+3	8.45E-2	5.07E+2
4.23E-1	2.85E+3	8.76E-2	5.06E+2
4.67E-1	2.92E+3	9.59E-2	6.14E+2
4.19E-1	2.81E+3	8.69E-2	5.19E+2
4.81E-1	2.92E+3	8.72E-2	5.20E+2
4.18E-1	2.79E+3	8.06E-2	4.78E+2
4.53E-1	3.00E+3	8.91E-2	5.35E+2
4.59E-1	2.92E+3	9.06E-2	5.80E+2
4.59E-1	2.86E+3	8.45E-2	4.70E+2
4.35E-1	2.96E+3	8.89E-2	5.97E+2
4.20E-1	2.78E+3	8.47E-2	4.92E+2
4.57E-1	2.88E+3	8.76E-2	5.12E+2
4.60E-1	3.05E+3	9.01E-2	6.13E+2
4.51E-1	2.78E+3	8.98E-2	5.10E+2
4.45E-1	2.89E+3	8.45E-2	4.90E+2
4.34E-1	2.81E+3	8.72E-2	5.27E+2
4.10E-1	2.81E+3	8.62E-2	5.57E+2
4.33E-1	2.87E+3	8.64E-2	5.14E+2
4.41E-1	2.83E+3	8.03E-2	5.00E+2
4.46E-1	2.86E+3	8.89E-2	5.55E+2
4.50E-1	2.97E+3	8.67E-2	5.48E+2
4.28E-1	2.85E+3	8.42E-2	5.44E+2
4.58E-1	2.92E+3	8.54E-2	5.26E+2
4.63E-1	3.05E+3	9.40E-2	5.85E+2
4.48E-1	2.82E+3	8.86E-2	5.69E+2
4.29E-1	2.79E+3	9.13E-2	5.61E+2
4.28E-1	2.93E+3	9.06E-2	5.18E+2
4.24E-1	2.85E+3	9.35E-2	6.25E+2
4.31E-1	2.98E+3	8.84E-2	5.43E+2
4.17E-1	2.75E+3	8.13E-2	5.07E+2
4.60E-1	3.03E+3	8.54E-2	5.15E+2
4.61E-1	3.03E+3	9.13E-2	5.55E+2
4.45E-1	3.01E+3	8.89E-2	5.52E+2
4.66E-1	2.97E+3	8.89E-2	5.34E+2
4.49E-1	2.97E+3	8.98E-2	5.59E+2
4.55E-1	2.87E+3	8.72E-2	5.87E+2
4.47E-1	2.90E+3	8.86E-2	6.02E+2
4.31E-1	2.87E+3	8.30E-2	5.31E+2
4.62E-1	3.00E+3	8.84E-2	5.56E+2
4.53E-1	3.01E+3	8.30E-2	5.17E+2
4.53E-1	2.94E+3	8.20E-2	4.77E+2
4.45E-1	2.88E+3	9.42E-2	5.72E+2
4.34E-1	2.81E+3	8.35E-2	4.85E+2
4.18E-1	2.75E+3	9.62E-2	6.01E+2
4.17E-1	2.82E+3	8.67E-2	5.05E+2
4.56E-1	2.75E+3	9.08E-2	5.77E+2
4.30E-1	2.85E+3	8.28E-2	5.21E+2
4.48E-1	2.89E+3	8.45E-2	5.52E+2
6.35E-3	1.08E+1	3.37E-1	1.44E+3
4.30E-1	2.88E+3	7.86E-2	4.78E+2
4.26E-1	2.91E+3	8.59E-2	6.06E+2
4.33E-1	2.85E+3	9.01E-2	5.48E+2
4.46E-1	3.10E+3	8.84E-2	5.60E+2
4.59E-1	2.86E+3	9.23E-2	5.45E+2
4.27E-1	2.88E+3	8.91E-2	5.52E+2
4.21E-1	2.96E+3	8.37E-2	5.20E+2
4.45E-1	2.96E+3	8.37E-2	4.76E+2
4.31E-1	2.83E+3	8.45E-2	5.47E+2
4.38E-1	2.81E+3	8.86E-2	5.34E+2
4.43E-1	2.88E+3	8.89E-2	5.68E+2
4.59E-1	2.95E+3	8.62E-2	5.47E+2
4.41E-1	2.79E+3	8.98E-2	5.55E+2
4.55E-1	2.89E+3	9.30E-2	5.03E+2
4.39E-1	2.86E+3	8.59E-2	5.49E+2
4.71E-1	3.01E+3	9.03E-2	5.28E+2
4.58E-1	3.01E+3	8.74E-2	5.96E+2
4.25E-1	2.85E+3	8.25E-2	4.74E+2
4.27E-1	2.81E+3	8.08E-2	4.95E+2
4.21E-1	2.82E+3	8.62E-2	5.29E+2
4.77E-1	2.98E+3	8.15E-2	5.00E+2
4.64E-1	2.91E+3	8.03E-2	5.19E+2
4.22E-1	2.90E+3	7.96E-2	4.58E+2
4.38E-1	2.86E+3	7.84E-2	4.62E+2
4.66E-1	2.93E+3	9.03E-2	5.86E+2
4.73E-1	2.94E+3	8.01E-2	4.88E+2
4.46E-1	2.78E+3	8.69E-2	5.16E+2
4.27E-1	2.73E+3	8.79E-2	5.79E+2
4.49E-1	2.91E+3	8.84E-2	5.62E+2
4.35E-1	2.98E+3	9.30E-2	5.80E+2
4.50E-1	2.90E+3	8.23E-2	4.76E+2
4.27E-1	2.92E+3	8.84E-2	5.72E+2
4.48E-1	2.96E+3	9.11E-2	5.54E+2
4.31E-1	2.92E+3	8.86E-2	5.22E+2
4.26E-1	2.94E+3	8.59E-2	5.26E+2
4.44E-1	2.94E+3	8.91E-2	5.42E+2
4.30E-1	2.86E+3	8.69E-2	5.27E+2
4.18E-1	2.77E+3	9.30E-2	5.61E+2
4.44E-1	2.85E+3	8.67E-2	5.16E+2
4.69E-1	2.92E+3	9.40E-2	6.22E+2
4.58E-1	2.98E+3	8.62E-2	5.61E+2
4.25E-1	2.85E+3	8.20E-2	5.17E+2
4.47E-1	2.91E+3	8.89E-2	5.58E+2
4.55E-1	2.91E+3	1.01E-1	5.80E+2
4.50E-1	2.86E+3	9.57E-2	6.14E+2
4.31E-1	2.81E+3	8.47E-2	5.75E+2
4.27E-1	2.81E+3	9.57E-2	5.61E+2
4.32E-1	2.90E+3	9.11E-2	5.52E+2
4.37E-1	2.86E+3	8.96E-2	5.51E+2
4.15E-1	2.75E+3	7.74E-2	4.64E+2
4.18E-1	2.88E+3	8.64E-2	5.31E+2
4.51E-1	2.86E+3	8.33E-2	5.38E+2
4.58E-1	3.06E+3	8.86E-2	5.68E+2
4.27E-1	2.88E+3	7.42E-2	4.86E+2
4.62E-1	2.96E+3	8.72E-2	5.36E+2
4.62E-1	2.91E+3	8.06E-2	4.87E+2
4.45E-1	2.88E+3	8.76E-2	5.83E+2
4.44E-1	2.92E+3	9.35E-2	6.10E+2
4.41E-1	2.86E+3	8.69E-2	5.30E+2
4.54E-1	2.94E+3	8.64E-2	6.00E+2
4.30E-1	2.80E+3	8.89E-2	5.36E+2
4.14E-1	2.74E+3	8.15E-2	5.12E+2
4.48E-1	2.97E+3	8.52E-2	5.60E+2
4.62E-1	2.89E+3	9.25E-2	4.83E+2
4.29E-1	2.82E+3	9.13E-2	5.44E+2
4.38E-1	2.91E+3	9.11E-2	5.53E+2
4.38E-1	2.87E+3	9.13E-2	5.61E+2
4.56E-1	2.85E+3	9.01E-2	5.31E+2
4.31E-1	2.97E+3	8.57E-2	5.09E+2
4.50E-1	2.87E+3	8.74E-2	5.38E+2
4.81E-1	2.91E+3	9.77E-2	5.93E+2
4.46E-1	2.93E+3	7.81E-2	5.14E+2
4.33E-1	2.85E+3	9.18E-2	5.31E+2
4.20E-1	2.76E+3	9.28E-2	5.66E+2
4.20E-1	2.78E+3	8.18E-2	5.11E+2
4.08E-1	2.74E+3	8.79E-2	5.53E+2
4.09E-1	2.70E+3	8.42E-2	4.95E+2
4.37E-1	2.93E+3	8.84E-2	5.14E+2
4.32E-1	2.93E+3	8.30E-2	4.85E+2
4.35E-1	2.90E+3	8.62E-2	5.23E+2
4.64E-1	3.12E+3	8.54E-2	5.42E+2
4.58E-1	2.95E+3	8.67E-2	5.49E+2
4.58E-1	2.98E+3	1.04E-1	6.16E+2
4.20E-1	2.85E+3	8.84E-2	5.56E+2
4.28E-1	2.91E+3	8.50E-2	5.45E+2
4.48E-1	2.84E+3	8.08E-2	5.51E+2
4.21E-1	2.78E+3	9.01E-2	5.90E+2
4.27E-1	2.86E+3	9.57E-2	5.59E+2
4.27E-1	2.81E+3	8.28E-2	5.10E+2
4.41E-1	2.86E+3	8.54E-2	5.12E+2
4.52E-1	2.90E+3	9.37E-2	5.50E+2
4.39E-1	2.79E+3	8.89E-2	5.41E+2
4.46E-1	2.94E+3	8.76E-2	5.04E+2
4.49E-1	2.88E+3	8.57E-2	5.22E+2
4.53E-1	2.88E+3	8.50E-2	5.86E+2
4.27E-1	2.83E+3	8.72E-2	5.37E+2
4.27E-1	2.85E+3	8.42E-2	5.69E+2
4.42E-1	2.90E+3	8.35E-2	5.54E+2
4.43E-1	2.87E+3	9.16E-2	5.79E+2
4.50E-1	2.86E+3	9.33E-2	6.26E+2
4.35E-1	2.88E+3	8.01E-2	4.93E+2
4.35E-1	2.98E+3	8.62E-2	5.51E+2
4.43E-1	2.88E+3	9.33E-2	6.28E+2
4.71E-1	2.86E+3	8.59E-2	4.86E+2
4.67E-1	3.00E+3	8.50E-2	5.01E+2
4.21E-1	2.82E+3	8.33E-2	5.54E+2
4.67E-1	3.01E+3	8.40E-2	4.81E+2
