2.47E-1	1.56E+3	4.93E-2	2.78E+2
2.62E-1	1.66E+3	4.96E-2	2.47E+2
2.71E-1	1.53E+3	5.20E-2	2.92E+2
2.58E-1	1.55E+3	4.64E-2	2.68E+2
2.55E-1	1.51E+3	4.44E-2	2.75E+2
2.58E-1	1.59E+3	4.79E-2	2.10E+2
2.64E-1	1.65E+3	4.93E-2	2.84E+2
2.76E-1	1.59E+3	4.98E-2	2.64E+2
2.44E-1	1.47E+3	5.35E-2	3.06E+2
2.58E-1	1.56E+3	4.96E-2	2.84E+2
2.53E-1	1.57E+3	6.49E-2	3.05E+2
2.63E-1	1.46E+3	4.91E-2	2.83E+2
2.48E-1	1.43E+3	5.37E-2	3.31E+2
2.46E-1	1.38E+3	5.22E-2	2.61E+2
2.51E-1	1.54E+3	5.37E-2	2.69E+2
2.51E-1	1.51E+3	4.69E-2	2.48E+2
2.70E-1	1.49E+3	5.37E-2	3.04E+2
2.57E-1	1.54E+3	5.15E-2	2.46E+2
2.56E-1	1.59E+3	5.00E-2	2.78E+2
2.52E-1	1.47E+3	4.88E-2	2.59E+2
2.50E-1	1.47E+3	4.81E-2	2.22E+2
2.52E-1	1.48E+3	4.96E-2	2.47E+2
2.59E-1	1.48E+3	4.93E-2	2.43E+2
2.51E-1	1.50E+3	5.30E-2	3.00E+2
2.48E-1	1.42E+3	5.20E-2	2.72E+2
2.67E-1	1.51E+3	5.22E-2	2.90E+2
2.59E-1	1.51E+3	5.30E-2	3.04E+2
2.55E-1	1.53E+3	4.98E-2	2.70E+2
2.60E-1	1.49E+3	5.13E-2	3.12E+2
2.62E-1	1.57E+3	5.03E-2	2.34E+2
2.52E-1	1.51E+3	4.79E-2	2.52E+2
2.61E-1	1.54E+3	4.96E-2	2.66E+2
2.54E-1	1.61E+3	5.18E-2	2.99E+2
2.51E-1	1.54E+3	4.98E-2	2.78E+2
2.64E-1	1.56E+3	5.05E-2	2.90E+2
2.52E-1	1.51E+3	5.57E-2	3.07E+2
2.58E-1	1.53E+3	5.59E-2	3.00E+2
2.57E-1	1.53E+3	5.00E-2	3.10E+2
2.62E-1	1.55E+3	5.15E-2	2.69E+2
2.58E-1	1.53E+3	5.13E-2	2.93E+2
2.55E-1	1.58E+3	5.10E-2	2.84E+2
2.62E-1	1.46E+3	4.79E-2	3.09E+2
2.59E-1	1.42E+3	4.88E-2	2.92E+2
2.65E-1	1.51E+3	5.59E-2	2.80E+2
2.51E-1	1.50E+3	5.08E-2	3.05E+2
2.45E-1	1.42E+3	5.30E-2	2.44E+2
2.60E-1	1.44E+3	4.96E-2	2.79E+2
2.46E-1	1.53E+3	4.96E-2	2.51E+2
2.71E-1	1.54E+3	4.61E-2	2.66E+2
2.56E-1	1.54E+3	4.98E-2	3.11E+2
2.73E-1	1.58E+3	5.47E-2	3.15E+2
2.57E-1	1.56E+3	5.05E-2	2.52E+2
2.44E-1	1.52E+3	4.98E-2	2.92E+2
2.65E-1	1.48E+3	4.79E-2	2.74E+2
2.73E-1	1.61E+3	4.61E-2	2.73E+2
2.65E-1	1.55E+3	4.59E-2	2.57E+2
2.62E-1	1.53E+3	5.13E-2	2.88E+2
2.60E-1	1.51E+3	5.03E-2	3.26E+2
2.52E-1	1.49E+3	5.27E-2	2.92E+2
2.59E-1	1.60E+3	5.47E-2	2.91E+2
2.58E-1	1.45E+3	4.98E-2	2.32E+2
2.56E-1	1.49E+3	4.83E-2	2.35E+2
2.47E-1	1.55E+3	5.20E-2	3.26E+2
2.70E-1	1.55E+3	5.00E-2	3.29E+2
2.51E-1	1.50E+3	5.32E-2	3.21E+2
2.73E-1	1.50E+3	5.37E-2	3.04E+2
2.51E-1	1.49E+3	4.91E-2	2.78E+2
2.55E-1	1.45E+3	4.88E-2	2.60E+2
2.65E-1	1.46E+3	5.32E-2	3.22E+2
2.60E-1	1.58E+3	5.20E-2	2.71E+2
2.63E-1	1.55E+3	5.64E-2	3.68E+2
2.56E-1	1.54E+3	5.15E-2	2.99E+2
2.68E-1	1.49E+3	5.35E-2	2.93E+2
2.65E-1	1.53E+3	4.98E-2	2.95E+2
2.57E-1	1.48E+3	5.47E-2	3.12E+2
2.59E-1	1.56E+3	5.08E-2	2.63E+2
2.38E-1	1.38E+3	4.98E-2	2.22E+2
5.13E-3	1.35E+1	2.27E-1	7.42E+2
2.67E-1	1.58E+3	5.15E-2	2.91E+2
2.67E-1	1.52E+3	5.69E-2	3.36E+2
2.68E-1	1.58E+3	5.22E-2	2.76E+2
2.56E-1	1.55E+3	5.05E-2	2.81E+2
2.75E-1	1.59E+3	5.03E-2	3.21E+2
2.65E-1	1.59E+3	5.15E-2	2.79E+2
2.56E-1	1.52E+3	5.22E-2	2.49E+2
2.58E-1	1.58E+3	5.00E-2	3.24E+2
2.54E-1	1.50E+3	5.22E-2	3.44E+2
2.59E-1	1.57E+3	5.15E-2	2.99E+2
2.73E-1	1.55E+3	5.10E-2	2.58E+2
2.52E-1	1.46E+3	5.40E-2	2.67E+2
2.50E-1	1.49E+3	5.03E-2	3.02E+2
2.63E-1	1.55E+3	5.15E-2	2.92E+2
2.48E-1	1.49E+3	4.83E-2	2.51E+2
2.65E-1	1.62E+3	5.15E-2	3.18E+2
2.53E-1	1.56E+3	5.13E-2	2.99E+2
2.69E-1	1.57E+3	4.76E-2	2.63E+2
2.71E-1	1.56E+3	5.13E-2	3.15E+2
2.56E-1	1.50E+3	5.15E-2	3.25E+2
2.65E-1	1.51E+3	4.76E-2	3.03E+2
2.62E-1	1.55E+3	5.37E-2	2.98E+2
2.50E-1	1.49E+3	5.20E-2	2.64E+2
2.52E-1	1.51E+3	5.08E-2	2.74E+2
2.66E-1	1.55E+3	4.96E-2	2.82E+2
2.52E-1	1.59E+3	5.18E-2	2.84E+2
2.69E-1	1.59E+3	4.74E-2	2.49E+2
2.63E-1	1.56E+3	5.03E-2	2.78E+2
2.55E-1	1.55E+3	5.20E-2	3.20E+2
2.50E-1	1.56E+3	4.91E-2	2.57E+2
2.58E-1	1.49E+3	5.35E-2	2.65E+2
2.57E-1	1.47E+3	5.30E-2	3.15E+2
2.51E-1	1.47E+3	5.15E-2	2.95E+2
2.61E-1	1.46E+3	4.79E-2	2.96E+2
2.66E-1	1.56E+3	5.22E-2	3.08E+2
2.62E-1	1.47E+3	5.32E-2	2.99E+2
2.64E-1	1.46E+3	5.91E-2	3.59E+2
2.70E-1	1.56E+3	5.13E-2	2.80E+2
2.49E-1	1.39E+3	5.49E-2	2.67E+2
2.47E-1	1.54E+3	5.37E-2	2.88E+2
2.49E-1	1.52E+3	5.42E-2	2.87E+2
2.63E-1	1.43E+3	5.08E-2	2.22E+2
2.50E-1	1.55E+3	4.64E-2	2.80E+2
2.48E-1	1.50E+3	5.47E-2	3.24E+2
2.57E-1	1.56E+3	5.57E-2	3.17E+2
2.54E-1	1.50E+3	4.64E-2	2.68E+2
2.66E-1	1.51E+3	5.66E-2	3.21E+2
2.44E-1	1.48E+3	5.15E-2	2.77E+2
2.55E-1	1.53E+3	5.40E-2	2.79E+2
2.65E-1	1.58E+3	4.71E-2	2.70E+2
2.59E-1	1.47E+3	5.27E-2	2.48E+2
2.71E-1	1.56E+3	5.00E-2	3.08E+2
2.61E-1	1.50E+3	4.93E-2	3.02E+2
2.63E-1	1.52E+3	5.08E-2	3.05E+2
2.60E-1	1.55E+3	4.93E-2	2.79E+2
2.44E-1	1.47E+3	5.59E-2	3.08E+2
2.52E-1	1.54E+3	5.08E-2	2.45E+2
2.52E-1	1.57E+3	4.93E-2	2.83E+2
2.48E-1	1.53E+3	5.22E-2	2.86E+2
2.50E-1	1.54E+3	5.10E-2	2.84E+2
2.66E-1	1.64E+3	4.83E-2	2.60E+2
2.57E-1	1.50E+3	5.13E-2	3.31E+2
2.57E-1	1.49E+3	5.00E-2	2.58E+2
2.66E-1	1.52E+3	4.66E-2	2.76E+2
2.51E-1	1.46E+3	5.27E-2	3.00E+2
2.55E-1	1.53E+3	5.03E-2	3.15E+2
2.62E-1	1.46E+3	5.08E-2	2.79E+2
2.63E-1	1.52E+3	5.62E-2	3.56E+2
2.65E-1	1.52E+3	4.79E-2	2.66E+2
2.51E-1	1.47E+3	5.22E-2	2.94E+2
2.50E-1	1.45E+3	5.35E-2	3.02E+2
2.47E-1	1.42E+3	5.05E-2	2.53E+2
2.62E-1	1.47E+3	4.93E-2	2.62E+2
2.65E-1	1.45E+3	5.08E-2	2.73E+2
2.52E-1	1.54E+3	4.76E-2	2.96E+2
2.75E-1	1.57E+3	4.93E-2	2.94E+2
2.71E-1	1.51E+3	5.25E-2	3.54E+2
2.51E-1	1.48E+3	5.27E-2	3.62E+2
2.68E-1	1.52E+3	5.10E-2	3.40E+2
2.49E-1	1.50E+3	5.25E-2	3.22E+2
2.57E-1	1.51E+3	5.13E-2	3.36E+2
2.68E-1	1.58E+3	5.37E-2	2.83E+2
2.69E-1	1.52E+3	5.83E-2	3.07E+2
2.45E-1	1.50E+3	5.32E-2	3.34E+2
2.73E-1	1.55E+3	4.88E-2	2.74E+2
2.44E-1	1.46E+3	5.05E-2	2.83E+2
2.50E-1	1.48E+3	4.98E-2	2.20E+2
2.59E-1	1.49E+3	5.10E-2	2.82E+2
2.81E-1	1.51E+3	4.83E-2	2.83E+2
2.65E-1	1.56E+3	5.05E-2	2.33E+2
2.84E-1	1.57E+3	5.37E-2	3.20E+2
2.62E-1	1.52E+3	4.64E-2	3.09E+2
2.71E-1	1.64E+3	5.74E-2	3.69E+2
2.67E-1	1.53E+3	4.57E-2	2.84E+2
2.69E-1	1.51E+3	5.00E-2	3.06E+2
2.57E-1	1.53E+3	5.37E-2	2.47E+2
2.49E-1	1.48E+3	5.52E-2	2.85E+2
2.63E-1	1.55E+3	5.32E-2	3.21E+2
2.69E-1	1.56E+3	5.42E-2	3.32E+2
2.68E-1	1.49E+3	5.08E-2	2.87E+2
2.54E-1	1.51E+3	5.13E-2	2.90E+2
2.51E-1	1.52E+3	5.35E-2	2.79E+2
2.46E-1	1.47E+3	5.35E-2	3.19E+2
5.86E-3	1.66E+1	1.94E-1	8.52E+2
2.49E-1	1.46E+3	4.96E-2	2.99E+2
2.76E-1	1.44E+3	4.83E-2	2.28E+2
2.69E-1	1.59E+3	5.47E-2	3.37E+2
2.67E-1	1.57E+3	4.66E-2	3.01E+2
2.61E-1	1.54E+3	5.64E-2	3.82E+2
2.62E-1	1.54E+3	4.71E-2	3.04E+2
2.76E-1	1.56E+3	5.37E-2	2.90E+2
2.59E-1	1.59E+3	5.27E-2	3.37E+2
2.66E-1	1.61E+3	5.71E-2	2.70E+2
2.76E-1	1.61E+3	5.20E-2	3.10E+2
2.54E-1	1.54E+3	5.25E-2	2.47E+2
2.75E-1	1.56E+3	4.83E-2	2.87E+2
2.49E-1	1.51E+3	5.32E-2	2.58E+2
2.41E-1	1.43E+3	4.88E-2	2.07E+2
2.51E-1	1.53E+3	4.86E-2	2.45E+2
2.56E-1	1.56E+3	4.86E-2	2.28E+2
2.49E-1	1.50E+3	5.20E-2	3.11E+2
2.76E-1	1.54E+3	5.37E-2	2.74E+2
2.70E-1	1.50E+3	5.00E-2	2.91E+2
2.57E-1	1.51E+3	5.15E-2	2.99E+2
2.65E-1	1.55E+3	5.42E-2	3.50E+2
2.82E-1	1.60E+3	5.00E-2	2.58E+2
2.77E-1	1.68E+3	5.44E-2	3.20E+2
2.51E-1	1.52E+3	5.52E-2	3.35E+2
2.59E-1	1.47E+3	5.42E-2	3.26E+2
2.61E-1	1.52E+3	5.27E-2	3.21E+2
2.51E-1	1.57E+3	5.05E-2	2.83E+2
2.47E-1	1.55E+3	5.13E-2	2.57E+2
2.50E-1	1.49E+3	4.86E-2	2.79E+2
2.72E-1	1.59E+3	5.44E-2	2.91E+2
2.68E-1	1.58E+3	4.88E-2	2.53E+2
2.55E-1	1.60E+3	5.13E-2	2.82E+2
2.51E-1	1.54E+3	5.49E-2	3.19E+2
2.73E-1	1.57E+3	5.20E-2	3.12E+2
2.72E-1	1.56E+3	5.52E-2	2.93E+2
2.53E-1	1.54E+3	5.30E-2	2.99E+2
2.72E-1	1.60E+3	5.71E-2	3.40E+2
2.51E-1	1.45E+3	4.59E-2	2.45E+2
2.68E-1	1.52E+3	5.25E-2	2.94E+2
2.63E-1	1.53E+3	5.40E-2	2.94E+2
2.72E-1	1.52E+3	5.44E-2	3.23E+2
2.59E-1	1.54E+3	5.62E-2	3.44E+2
2.61E-1	1.56E+3	5.18E-2	2.87E+2
2.52E-1	1.53E+3	4.98E-2	2.64E+2
2.54E-1	1.47E+3	5.27E-2	2.74E+2
2.50E-1	1.53E+3	5.10E-2	2.76E+2
2.65E-1	1.63E+3	5.27E-2	3.29E+2
2.61E-1	1.45E+3	4.79E-2	2.73E+2
2.62E-1	1.52E+3	4.83E-2	3.11E+2
2.59E-1	1.58E+3	5.20E-2	2.80E+2
2.66E-1	1.50E+3	5.22E-2	3.06E+2
2.65E-1	1.57E+3	4.74E-2	2.79E+2
2.61E-1	1.57E+3	5.40E-2	3.52E+2
2.66E-1	1.54E+3	5.30E-2	3.24E+2
2.66E-1	1.49E+3	4.79E-2	2.65E+2
2.50E-1	1.47E+3	5.13E-2	3.29E+2
2.50E-1	1.52E+3	4.96E-2	2.90E+2
2.62E-1	1.49E+3	4.83E-2	2.05E+2
2.65E-1	1.61E+3	5.64E-2	3.57E+2
2.50E-1	1.52E+3	5.57E-2	2.81E+2
2.66E-1	1.64E+3	5.49E-2	3.16E+2
2.69E-1	1.51E+3	4.93E-2	2.76E+2
2.77E-1	1.53E+3	5.13E-2	2.99E+2
2.60E-1	1.60E+3	4.79E-2	2.65E+2
2.63E-1	1.52E+3	4.83E-2	2.62E+2
2.50E-1	1.48E+3	5.18E-2	3.32E+2
2.73E-1	1.52E+3	5.05E-2	2.29E+2
2.65E-1	1.59E+3	4.91E-2	2.86E+2
2.68E-1	1.57E+3	4.98E-2	2.93E+2
2.54E-1	1.52E+3	5.47E-2	3.32E+2
2.79E-1	1.57E+3	5.64E-2	3.57E+2
2.59E-1	1.52E+3	5.13E-2	3.52E+2
2.49E-1	1.57E+3	5.15E-2	3.41E+2
2.46E-1	1.40E+3	5.32E-2	2.57E+2
2.44E-1	1.47E+3	5.05E-2	2.27E+2
2.82E-1	1.56E+3	5.00E-2	3.28E+2
2.51E-1	1.51E+3	4.79E-2	2.22E+2
2.60E-1	1.49E+3	5.30E-2	3.15E+2
2.64E-1	1.59E+3	5.25E-2	3.26E+2
2.64E-1	1.48E+3	5.08E-2	2.74E+2
2.72E-1	1.52E+3	5.13E-2	3.18E+2
2.65E-1	1.52E+3	5.49E-2	3.47E+2
2.77E-1	1.62E+3	4.81E-2	2.63E+2
2.61E-1	1.62E+3	5.35E-2	2.72E+2
2.64E-1	1.52E+3	4.88E-2	2.73E+2
2.62E-1	1.51E+3	5.08E-2	3.39E+2
2.58E-1	1.51E+3	5.08E-2	2.81E+2
2.50E-1	1.48E+3	5.05E-2	2.56E+2
2.55E-1	1.51E+3	5.37E-2	2.97E+2
2.63E-1	1.48E+3	5.20E-2	2.59E+2
2.59E-1	1.55E+3	4.61E-2	2.91E+2
2.67E-1	1.65E+3	5.25E-2	3.69E+2
2.71E-1	1.52E+3	5.10E-2	2.88E+2
2.67E-1	1.54E+3	5.15E-2	3.27E+2
2.58E-1	1.51E+3	5.54E-2	3.05E+2
2.60E-1	1.60E+3	5.00E-2	2.88E+2
2.54E-1	1.59E+3	5.00E-2	2.78E+2
2.46E-1	1.54E+3	5.40E-2	2.74E+2
2.76E-1	1.62E+3	4.88E-2	2.64E+2
2.70E-1	1.60E+3	5.57E-2	3.39E+2
2.70E-1	1.50E+3	5.40E-2	3.26E+2
2.51E-1	1.51E+3	5.25E-2	3.12E+2
2.74E-1	1.55E+3	5.15E-2	3.04E+2
2.42E-1	1.40E+3	5.20E-2	2.73E+2
2.49E-1	1.50E+3	5.35E-2	3.00E+2
2.58E-1	1.50E+3	5.30E-2	2.77E+2
2.49E-1	1.52E+3	4.76E-2	2.58E+2
2.50E-1	1.52E+3	4.98E-2	2.73E+2
2.45E-1	1.42E+3	5.30E-2	3.45E+2
2.57E-1	1.55E+3	6.25E-2	2.51E+2
2.53E-1	1.54E+3	5.03E-2	2.65E+2
2.67E-1	1.45E+3	5.15E-2	3.13E+2
2.56E-1	1.51E+3	4.76E-2	2.28E+2
2.54E-1	1.55E+3	4.86E-2	2.60E+2
2.61E-1	1.66E+3	5.32E-2	3.19E+2
2.57E-1	1.48E+3	4.88E-2	2.98E+2
2.63E-1	1.54E+3	4.44E-2	2.47E+2
2.64E-1	1.50E+3	4.93E-2	3.08E+2
2.66E-1	1.53E+3	4.83E-2	2.79E+2
2.60E-1	1.51E+3	4.66E-2	2.23E+2
2.53E-1	1.50E+3	5.05E-2	2.71E+2
2.56E-1	1.54E+3	5.03E-2	2.66E+2
2.54E-1	1.61E+3	4.59E-2	2.23E+2
2.52E-1	1.55E+3	5.03E-2	3.14E+2
2.67E-1	1.58E+3	5.32E-2	2.93E+2
2.63E-1	1.47E+3	4.54E-2	2.60E+2
2.57E-1	1.50E+3	5.32E-2	3.02E+2
2.64E-1	1.55E+3	5.47E-2	2.94E+2
2.66E-1	1.51E+3	4.86E-2	2.57E+2
2.75E-1	1.50E+3	5.00E-2	3.21E+2
2.73E-1	1.66E+3	5.35E-2	3.25E+2
2.75E-1	1.54E+3	5.22E-2	2.92E+2
2.63E-1	1.50E+3	4.93E-2	2.66E+2
2.56E-1	1.49E+3	4.57E-2	2.83E+2
2.62E-1	1.52E+3	5.20E-2	2.67E+2
2.56E-1	1.57E+3	4.88E-2	2.41E+2
2.52E-1	1.53E+3	5.13E-2	2.67E+2
2.49E-1	1.42E+3	5.25E-2	2.71E+2
2.52E-1	1.55E+3	5.18E-2	2.79E+2
2.69E-1	1.55E+3	4.88E-2	2.10E+2
2.67E-1	1.60E+3	5.40E-2	2.94E+2
2.50E-1	1.50E+3	5.35E-2	2.63E+2
2.50E-1	1.59E+3	5.10E-2	3.16E+2
2.44E-1	1.48E+3	4.98E-2	3.06E+2
2.68E-1	1.64E+3	4.91E-2	2.67E+2
2.68E-1	1.56E+3	5.03E-2	3.18E+2
2.64E-1	1.48E+3	5.03E-2	3.09E+2
2.61E-1	1.59E+3	4.57E-2	3.00E+2
2.49E-1	1.47E+3	5.03E-2	2.67E+2
2.57E-1	1.49E+3	4.96E-2	2.29E+2
2.52E-1	1.46E+3	5.37E-2	2.72E+2
2.45E-1	1.45E+3	5.22E-2	2.84E+2
2.54E-1	1.41E+3	5.25E-2	2.69E+2
2.42E-1	1.43E+3	5.00E-2	2.81E+2
2.74E-1	1.58E+3	4.76E-2	2.50E+2
2.55E-1	1.50E+3	5.30E-2	3.17E+2
2.54E-1	1.47E+3	5.08E-2	2.88E+2
2.62E-1	1.56E+3	5.37E-2	2.83E+2
2.64E-1	1.57E+3	4.93E-2	2.52E+2
2.49E-1	1.52E+3	5.18E-2	2.90E+2
2.68E-1	1.57E+3	4.71E-2	2.54E+2
2.65E-1	1.48E+3	5.00E-2	3.36E+2
2.71E-1	1.48E+3	4.88E-2	2.81E+2
2.50E-1	1.51E+3	5.32E-2	3.26E+2
2.50E-1	1.56E+3	4.86E-2	3.13E+2
2.51E-1	1.51E+3	4.39E-2	2.40E+2
2.54E-1	1.61E+3	5.54E-2	3.12E+2
2.52E-1	1.58E+3	5.05E-2	2.64E+2
2.39E-1	1.48E+3	5.52E-2	3.12E+2
2.54E-1	1.48E+3	4.88E-2	2.45E+2
2.67E-1	1.60E+3	5.08E-2	2.35E+2
2.54E-1	1.59E+3	4.88E-2	2.50E+2
2.72E-1	1.60E+3	4.91E-2	2.31E+2
2.51E-1	1.57E+3	5.35E-2	3.30E+2
2.64E-1	1.57E+3	5.25E-2	3.20E+2
2.58E-1	1.45E+3	5.32E-2	3.01E+2
2.80E-1	1.59E+3	5.44E-2	2.78E+2
2.48E-1	1.47E+3	5.20E-2	2.89E+2
2.47E-1	1.51E+3	4.98E-2	2.87E+2
2.81E-1	1.52E+3	5.05E-2	2.72E+2
2.45E-1	1.40E+3	5.00E-2	2.26E+2
2.62E-1	1.51E+3	5.00E-2	3.25E+2
2.48E-1	1.45E+3	5.08E-2	2.66E+2
2.49E-1	1.57E+3	4.66E-2	2.54E+2
2.45E-1	1.48E+3	5.47E-2	3.18E+2
2.64E-1	1.44E+3	5.35E-2	2.75E+2
2.49E-1	1.43E+3	4.71E-2	2.47E+2
2.61E-1	1.50E+3	5.37E-2	2.71E+2
2.64E-1	1.52E+3	4.88E-2	2.57E+2
2.60E-1	1.51E+3	5.10E-2	2.85E+2
2.63E-1	1.54E+3	4.83E-2	2.51E+2
2.59E-1	1.47E+3	5.22E-2	3.13E+2
2.55E-1	1.58E+3	5.20E-2	2.86E+2
2.57E-1	1.56E+3	5.20E-2	3.15E+2
2.52E-1	1.51E+3	4.98E-2	2.40E+2
2.47E-1	1.43E+3	4.79E-2	2.95E+2
2.67E-1	1.52E+3	4.93E-2	2.85E+2
2.52E-1	1.50E+3	5.20E-2	3.03E+2
2.50E-1	1.56E+3	4.81E-2	2.27E+2
2.52E-1	1.50E+3	5.30E-2	2.31E+2
2.68E-1	1.48E+3	4.86E-2	2.12E+2
2.49E-1	1.51E+3	4.64E-2	2.35E+2
2.57E-1	1.55E+3	5.22E-2	2.87E+2
2.58E-1	1.59E+3	4.93E-2	3.12E+2
2.46E-1	1.49E+3	5.13E-2	3.14E+2
2.57E-1	1.47E+3	5.42E-2	3.21E+2
2.65E-1	1.54E+3	5.49E-2	3.45E+2
2.52E-1	1.52E+3	5.54E-2	2.74E+2
2.56E-1	1.50E+3	5.05E-2	2.56E+2
2.54E-1	1.55E+3	5.44E-2	3.15E+2
2.48E-1	1.50E+3	5.54E-2	2.97E+2
2.59E-1	1.50E+3	5.30E-2	2.96E+2
2.51E-1	1.51E+3	5.18E-2	2.89E+2
2.48E-1	1.44E+3	5.00E-2	2.63E+2
2.55E-1	1.53E+3	5.10E-2	2.39E+2
2.63E-1	1.51E+3	5.15E-2	2.68E+2
2.51E-1	1.51E+3	4.93E-2	2.70E+2
2.54E-1	1.58E+3	4.79E-2	2.58E+2
2.73E-1	1.55E+3	5.08E-2	2.74E+2
2.48E-1	1.43E+3	5.15E-2	3.11E+2
6.10E-3	-7.81E-1	1.93E-1	7.60E+2
2.63E-1	1.53E+3	5.49E-2	3.42E+2
2.51E-1	1.45E+3	5.18E-2	2.82E+2
2.71E-1	1.50E+3	5.13E-2	2.74E+2
2.49E-1	1.47E+3	5.40E-2	2.83E+2
2.56E-1	1.52E+3	5.15E-2	3.09E+2
2.49E-1	1.44E+3	4.98E-2	3.08E+2
2.72E-1	1.44E+3	5.37E-2	3.15E+2
2.63E-1	1.53E+3	5.13E-2	2.84E+2
2.61E-1	1.49E+3	5.35E-2	2.68E+2
2.65E-1	1.56E+3	4.91E-2	2.21E+2
2.55E-1	1.49E+3	5.44E-2	2.82E+2
2.63E-1	1.56E+3	4.66E-2	2.55E+2
2.52E-1	1.48E+3	4.74E-2	2.57E+2
2.78E-1	1.52E+3	5.03E-2	2.36E+2
2.66E-1	1.55E+3	5.66E-2	3.35E+2
2.55E-1	1.50E+3	5.05E-2	3.15E+2
2.61E-1	1.55E+3	5.44E-2	3.31E+2
2.67E-1	1.47E+3	5.27E-2	3.00E+2
2.53E-1	1.55E+3	5.18E-2	2.50E+2
2.76E-1	1.50E+3	4.69E-2	2.69E+2
2.50E-1	1.48E+3	5.54E-2	2.82E+2
2.49E-1	1.39E+3	5.25E-2	2.97E+2
2.51E-1	1.46E+3	4.98E-2	2.68E+2
2.69E-1	1.51E+3	5.32E-2	2.77E+2
2.78E-1	1.52E+3	5.10E-2	2.31E+2
2.54E-1	1.51E+3	4.86E-2	2.98E+2
2.47E-1	1.56E+3	4.96E-2	3.08E+2
2.44E-1	1.52E+3	5.03E-2	2.81E+2
2.59E-1	1.45E+3	5.27E-2	2.98E+2
2.46E-1	1.40E+3	4.96E-2	2.98E+2
2.67E-1	1.57E+3	5.18E-2	2.86E+2
2.49E-1	1.36E+3	5.37E-2	3.10E+2
2.60E-1	1.57E+3	5.49E-2	3.43E+2
2.44E-1	1.49E+3	4.98E-2	2.32E+2
2.51E-1	1.55E+3	4.96E-2	2.67E+2
2.59E-1	1.49E+3	5.59E-2	3.54E+2
2.64E-1	1.48E+3	4.93E-2	3.33E+2
2.63E-1	1.56E+3	5.18E-2	3.01E+2
2.65E-1	1.44E+3	4.69E-2	2.25E+2
2.43E-1	1.43E+3	4.61E-2	2.49E+2
2.70E-1	1.57E+3	5.22E-2	2.62E+2
2.54E-1	1.54E+3	5.08E-2	2.59E+2
2.62E-1	1.54E+3	4.98E-2	2.72E+2
2.49E-1	1.50E+3	4.91E-2	2.52E+2
2.70E-1	1.56E+3	4.88E-2	2.82E+2
2.66E-1	1.51E+3	5.18E-2	3.09E+2
2.49E-1	1.46E+3	5.13E-2	2.97E+2
2.65E-1	1.51E+3	5.03E-2	3.02E+2
2.51E-1	1.50E+3	4.98E-2	3.21E+2
2.62E-1	1.53E+3	5.27E-2	3.23E+2
2.61E-1	1.52E+3	5.05E-2	3.35E+2
2.60E-1	1.50E+3	5.15E-2	3.03E+2
2.46E-1	1.41E+3	5.62E-2	3.13E+2
2.59E-1	1.52E+3	5.15E-2	3.32E+2
2.48E-1	1.43E+3	5.13E-2	3.28E+2
2.58E-1	1.49E+3	5.18E-2	2.79E+2
2.43E-1	1.49E+3	4.64E-2	2.41E+2
2.56E-1	1.50E+3	5.59E-2	3.32E+2
2.61E-1	1.58E+3	4.81E-2	2.24E+2
2.66E-1	1.54E+3	5.15E-2	3.25E+2
2.60E-1	1.45E+3	5.49E-2	3.64E+2
2.56E-1	1.51E+3	5.42E-2	3.21E+2
2.61E-1	1.50E+3	4.98E-2	3.20E+2
2.57E-1	1.57E+3	4.88E-2	3.29E+2
2.41E-1	1.39E+3	5.37E-2	2.99E+2
2.58E-1	1.50E+3	5.08E-2	3.03E+2
2.75E-1	1.60E+3	5.47E-2	3.68E+2
2.62E-1	1.50E+3	5.32E-2	3.43E+2
2.60E-1	1.53E+3	5.10E-2	3.10E+2
2.50E-1	1.49E+3	4.91E-2	3.27E+2
2.56E-1	1.52E+3	5.05E-2	2.45E+2
2.54E-1	1.49E+3	5.05E-2	2.84E+2
2.50E-1	1.52E+3	4.71E-2	2.34E+2
2.74E-1	1.55E+3	5.03E-2	2.95E+2
2.73E-1	1.57E+3	5.62E-2	3.16E+2
2.58E-1	1.55E+3	5.69E-2	3.40E+2
2.58E-1	1.50E+3	5.49E-2	3.37E+2
2.61E-1	1.53E+3	5.10E-2	2.94E+2
2.50E-1	1.48E+3	5.13E-2	3.15E+2
2.65E-1	1.54E+3	5.05E-2	3.01E+2
2.45E-1	1.53E+3	5.22E-2	3.14E+2
2.46E-1	1.47E+3	5.00E-2	3.16E+2
2.74E-1	1.48E+3	5.18E-2	2.98E+2
2.71E-1	1.51E+3	5.05E-2	3.04E+2
2.54E-1	1.47E+3	4.66E-2	2.36E+2
2.67E-1	1.61E+3	4.83E-2	2.20E+2
2.54E-1	1.46E+3	4.76E-2	2.48E+2
2.51E-1	1.47E+3	5.18E-2	2.75E+2
2.63E-1	1.54E+3	5.13E-2	3.18E+2
2.56E-1	1.43E+3	4.98E-2	3.03E+2
2.67E-1	1.53E+3	5.08E-2	2.64E+2
2.48E-1	1.52E+3	5.10E-2	2.86E+2
2.53E-1	1.44E+3	4.96E-2	2.74E+2
2.54E-1	1.46E+3	4.91E-2	2.61E+2
2.66E-1	1.47E+3	5.22E-2	2.82E+2
2.54E-1	1.47E+3	4.76E-2	2.81E+2
2.48E-1	1.47E+3	5.81E-2	3.47E+2
5.86E-3	1.16E+1	2.11E-1	7.41E+2
2.51E-1	1.39E+3	5.15E-2	2.37E+2
2.55E-1	1.45E+3	4.88E-2	2.12E+2
2.59E-1	1.57E+3	5.35E-2	2.70E+2
2.79E-1	1.53E+3	4.91E-2	2.57E+2
2.53E-1	1.59E+3	4.59E-2	2.86E+2
2.62E-1	1.45E+3	5.49E-2	3.22E+2
2.64E-1	1.59E+3	5.47E-2	3.61E+2
2.51E-1	1.50E+3	4.93E-2	2.84E+2
2.67E-1	1.50E+3	4.83E-2	2.96E+2
2.78E-1	1.63E+3	5.32E-2	2.94E+2
2.46E-1	1.51E+3	5.00E-2	3.17E+2
2.61E-1	1.55E+3	5.25E-2	3.56E+2
2.54E-1	1.46E+3	4.88E-2	3.05E+2
2.42E-1	1.45E+3	5.30E-2	2.53E+2
2.47E-1	1.47E+3	5.44E-2	2.98E+2
3.71E-2	2.67E+1	2.09E-1	7.29E+2
2.42E-1	1.46E+3	4.64E-2	2.74E+2
2.75E-1	1.50E+3	5.13E-2	2.57E+2
2.64E-1	1.48E+3	5.03E-2	2.83E+2
2.81E-1	1.63E+3	5.00E-2	3.14E+2
2.72E-1	1.51E+3	5.20E-2	3.25E+2
2.58E-1	1.61E+3	5.32E-2	3.32E+2
2.65E-1	1.53E+3	4.96E-2	3.01E+2
2.55E-1	1.46E+3	5.44E-2	3.47E+2
2.62E-1	1.52E+3	5.32E-2	3.21E+2
2.82E-1	1.66E+3	5.22E-2	3.06E+2
2.76E-1	1.54E+3	4.83E-2	3.19E+2
2.69E-1	1.58E+3	5.18E-2	3.18E+2
2.60E-1	1.53E+3	5.20E-2	3.22E+2
2.50E-1	1.45E+3	5.10E-2	2.73E+2
2.70E-1	1.45E+3	5.57E-2	2.68E+2
7.57E-3	-1.90E+0	2.12E-1	6.90E+2
2.55E-1	1.51E+3	5.00E-2	2.58E+2
2.73E-1	1.54E+3	5.44E-2	3.29E+2
2.50E-1	1.52E+3	4.98E-2	3.00E+2
2.68E-1	1.51E+3	5.25E-2	3.37E+2
2.69E-1	1.55E+3	5.13E-2	2.63E+2
2.53E-1	1.49E+3	5.08E-2	2.93E+2
2.59E-1	1.54E+3	4.74E-2	2.96E+2
2.62E-1	1.51E+3	5.22E-2	2.99E+2
2.58E-1	1.54E+3	5.13E-2	2.93E+2
2.68E-1	1.54E+3	5.35E-2	3.32E+2
2.71E-1	1.53E+3	5.32E-2	3.35E+2
2.62E-1	1.60E+3	4.74E-2	2.63E+2
2.50E-1	1.50E+3	5.00E-2	2.80E+2
2.56E-1	1.53E+3	5.05E-2	2.68E+2
2.60E-1	1.38E+3	5.18E-2	2.65E+2
2.47E-1	1.47E+3	4.74E-2	2.49E+2
2.61E-1	1.54E+3	4.91E-2	2.60E+2
2.49E-1	1.47E+3	4.74E-2	2.53E+2
7.08E-3	7.08E+0	2.04E-1	7.49E+2
2.54E-1	1.44E+3	5.32E-2	2.79E+2
2.71E-1	1.58E+3	4.96E-2	2.93E+2
2.65E-1	1.44E+3	5.05E-2	3.52E+2
2.64E-1	1.58E+3	4.81E-2	3.24E+2
2.59E-1	1.58E+3	5.22E-2	3.60E+2
2.70E-1	1.58E+3	5.35E-2	3.10E+2
2.62E-1	1.53E+3	5.35E-2	3.31E+2
2.53E-1	1.53E+3	5.25E-2	2.56E+2
7.57E-3	8.69E+0	2.06E-1	6.59E+2
2.57E-1	1.50E+3	5.22E-2	2.84E+2
2.58E-1	1.55E+3	4.88E-2	2.34E+2
2.52E-1	1.54E+3	4.54E-2	2.66E+2
2.52E-1	1.54E+3	5.20E-2	3.01E+2
2.54E-1	1.48E+3	5.13E-2	2.87E+2
2.53E-1	1.53E+3	5.30E-2	2.90E+2
2.57E-1	1.48E+3	5.57E-2	3.37E+2
2.64E-1	1.57E+3	4.81E-2	2.86E+2
2.58E-1	1.55E+3	4.86E-2	3.03E+2
2.52E-1	1.51E+3	4.76E-2	3.03E+2
2.72E-1	1.64E+3	5.66E-2	3.57E+2
2.65E-1	1.56E+3	4.54E-2	2.61E+2
2.59E-1	1.49E+3	5.18E-2	3.33E+2
2.51E-1	1.49E+3	5.44E-2	2.91E+2
2.66E-1	1.49E+3	5.00E-2	2.99E+2
2.53E-1	1.53E+3	4.81E-2	2.70E+2
2.56E-1	1.58E+3	5.35E-2	2.86E+2
2.51E-1	1.48E+3	5.30E-2	2.60E+2
2.67E-1	1.58E+3	4.81E-2	2.95E+2
2.51E-1	1.53E+3	4.86E-2	2.45E+2
2.66E-1	1.50E+3	5.05E-2	2.45E+2
2.58E-1	1.53E+3	5.08E-2	2.76E+2
2.61E-1	1.50E+3	5.13E-2	3.81E+2
2.58E-1	1.47E+3	5.13E-2	3.18E+2
2.52E-1	1.51E+3	5.25E-2	3.05E+2
2.55E-1	1.59E+3	5.69E-2	3.39E+2
2.73E-1	1.53E+3	5.52E-2	3.21E+2
2.74E-1	1.58E+3	5.30E-2	3.50E+2
2.60E-1	1.52E+3	5.27E-2	3.15E+2
2.59E-1	1.44E+3	5.62E-2	3.26E+2
2.67E-1	1.49E+3	5.30E-2	2.58E+2
2.51E-1	1.53E+3	5.18E-2	2.71E+2
2.64E-1	1.56E+3	5.62E-2	3.12E+2
2.61E-1	1.49E+3	4.98E-2	2.89E+2
2.57E-1	1.53E+3	5.08E-2	2.94E+2
2.51E-1	1.59E+3	4.47E-2	2.69E+2
2.72E-1	1.53E+3	5.35E-2	3.04E+2
2.55E-1	1.51E+3	4.83E-2	2.81E+2
2.79E-1	1.57E+3	5.03E-2	2.79E+2
2.71E-1	1.56E+3	5.10E-2	2.76E+2
2.65E-1	1.50E+3	4.86E-2	2.74E+2
2.66E-1	1.53E+3	4.76E-2	2.77E+2
2.41E-1	1.40E+3	5.13E-2	3.06E+2
2.45E-1	1.50E+3	5.13E-2	3.16E+2
2.59E-1	1.52E+3	5.15E-2	2.81E+2
2.54E-1	1.49E+3	5.42E-2	2.84E+2
2.55E-1	1.54E+3	4.74E-2	2.28E+2
2.51E-1	1.56E+3	5.49E-2	2.65E+2
2.50E-1	1.49E+3	5.00E-2	2.71E+2
2.58E-1	1.43E+3	5.20E-2	2.83E+2
2.53E-1	1.57E+3	5.25E-2	2.84E+2
2.61E-1	1.51E+3	5.13E-2	2.79E+2
2.64E-1	1.54E+3	4.76E-2	2.22E+2
2.50E-1	1.46E+3	4.79E-2	2.36E+2
2.68E-1	1.56E+3	5.42E-2	3.45E+2
2.62E-1	1.61E+3	5.54E-2	3.48E+2
2.48E-1	1.48E+3	5.10E-2	3.09E+2
2.54E-1	1.52E+3	4.66E-2	3.28E+2
2.44E-1	1.50E+3	5.18E-2	3.01E+2
2.56E-1	1.45E+3	4.79E-2	2.55E+2
2.50E-1	1.52E+3	5.13E-2	2.89E+2
2.39E-1	1.43E+3	4.64E-2	2.45E+2
2.68E-1	1.65E+3	4.91E-2	2.46E+2
2.60E-1	1.48E+3	4.98E-2	2.40E+2
2.55E-1	1.54E+3	4.57E-2	2.68E+2
2.62E-1	1.57E+3	4.88E-2	2.54E+2
2.68E-1	1.47E+3	5.40E-2	3.04E+2
2.48E-1	1.52E+3	4.61E-2	2.93E+2
2.50E-1	1.51E+3	4.86E-2	2.59E+2
2.66E-1	1.55E+3	4.64E-2	2.53E+2
2.82E-1	1.59E+3	5.27E-2	3.05E+2
2.54E-1	1.50E+3	5.40E-2	3.22E+2
2.57E-1	1.50E+3	5.00E-2	2.80E+2
2.63E-1	1.58E+3	5.10E-2	3.14E+2
2.57E-1	1.44E+3	5.20E-2	2.71E+2
2.50E-1	1.51E+3	5.20E-2	3.17E+2
2.51E-1	1.50E+3	4.93E-2	2.34E+2
2.69E-1	1.57E+3	5.13E-2	2.18E+2
2.48E-1	1.47E+3	5.64E-2	3.12E+2
2.52E-1	1.56E+3	5.54E-2	3.02E+2
2.64E-1	1.57E+3	4.93E-2	2.48E+2
2.49E-1	1.49E+3	4.42E-2	2.54E+2
2.63E-1	1.60E+3	5.49E-2	2.97E+2
6.35E-3	1.61E+0	1.91E-1	7.85E+2
2.69E-1	1.50E+3	5.18E-2	2.93E+2
2.43E-1	1.53E+3	4.74E-2	2.72E+2
2.74E-1	1.59E+3	5.32E-2	3.38E+2
2.67E-1	1.45E+3	5.18E-2	3.33E+2
2.76E-1	1.54E+3	5.20E-2	2.89E+2
2.53E-1	1.52E+3	4.88E-2	2.25E+2
2.52E-1	1.55E+3	4.86E-2	2.73E+2
2.58E-1	1.47E+3	5.32E-2	3.87E+2
2.50E-1	1.49E+3	5.03E-2	2.38E+2
2.52E-1	1.53E+3	5.32E-2	3.24E+2
2.57E-1	1.54E+3	5.15E-2	2.62E+2
2.51E-1	1.49E+3	4.83E-2	2.86E+2
2.48E-1	1.52E+3	5.44E-2	2.96E+2
2.55E-1	1.56E+3	5.00E-2	2.64E+2
2.50E-1	1.46E+3	5.18E-2	2.82E+2
2.74E-1	1.65E+3	5.25E-2	3.27E+2
2.65E-1	1.50E+3	5.22E-2	3.52E+2
2.62E-1	1.52E+3	5.49E-2	3.31E+2
2.49E-1	1.44E+3	4.74E-2	2.93E+2
2.73E-1	1.55E+3	5.05E-2	2.62E+2
2.62E-1	1.48E+3	5.05E-2	2.59E+2
2.51E-1	1.44E+3	5.20E-2	2.90E+2
2.83E-1	1.59E+3	4.93E-2	2.71E+2
2.51E-1	1.51E+3	4.64E-2	2.36E+2
2.69E-1	1.52E+3	4.98E-2	2.91E+2
2.48E-1	1.50E+3	4.88E-2	2.95E+2
2.46E-1	1.47E+3	5.00E-2	2.66E+2
2.49E-1	1.50E+3	4.91E-2	2.48E+2
2.56E-1	1.48E+3	5.05E-2	2.49E+2
2.71E-1	1.59E+3	5.25E-2	2.70E+2
2.75E-1	1.63E+3	4.74E-2	3.08E+2
2.54E-1	1.51E+3	4.83E-2	3.21E+2
2.47E-1	1.50E+3	5.27E-2	2.94E+2
2.51E-1	1.56E+3	5.42E-2	3.25E+2
4.05E-2	2.73E+1	2.03E-1	7.29E+2
2.56E-1	1.50E+3	5.00E-2	2.50E+2
2.51E-1	1.53E+3	4.69E-2	2.55E+2
2.50E-1	1.50E+3	4.88E-2	2.60E+2
2.58E-1	1.54E+3	4.93E-2	2.54E+2
2.55E-1	1.50E+3	5.54E-2	3.00E+2
2.59E-1	1.52E+3	5.32E-2	2.93E+2
2.56E-1	1.48E+3	5.00E-2	2.92E+2
2.55E-1	1.64E+3	5.25E-2	2.60E+2
2.74E-1	1.53E+3	5.15E-2	3.19E+2
2.55E-1	1.51E+3	4.98E-2	2.82E+2
2.70E-1	1.64E+3	4.96E-2	2.84E+2
2.67E-1	1.54E+3	5.27E-2	3.15E+2
2.43E-1	1.47E+3	4.93E-2	2.52E+2
2.44E-1	1.51E+3	5.59E-2	3.38E+2
2.44E-1	1.48E+3	4.98E-2	2.79E+2
2.56E-1	1.54E+3	5.03E-2	2.81E+2
2.60E-1	1.56E+3	5.25E-2	2.76E+2
2.60E-1	1.48E+3	5.42E-2	2.79E+2
2.63E-1	1.52E+3	5.42E-2	3.20E+2
2.47E-1	1.46E+3	4.96E-2	2.43E+2
2.49E-1	1.48E+3	4.93E-2	2.77E+2
2.65E-1	1.53E+3	5.32E-2	2.54E+2
2.45E-1	1.51E+3	4.91E-2	2.30E+2
2.63E-1	1.57E+3	5.20E-2	3.07E+2
2.59E-1	1.53E+3	4.91E-2	3.32E+2
2.68E-1	1.56E+3	5.42E-2	3.61E+2
2.58E-1	1.49E+3	4.39E-2	2.52E+2
2.39E-1	1.41E+3	5.35E-2	2.88E+2
2.67E-1	1.48E+3	5.18E-2	2.65E+2
2.64E-1	1.53E+3	5.47E-2	2.90E+2
2.49E-1	1.46E+3	5.22E-2	3.03E+2
2.47E-1	1.49E+3	5.27E-2	2.73E+2
2.54E-1	1.47E+3	4.88E-2	2.47E+2
2.46E-1	1.52E+3	5.32E-2	2.90E+2
2.50E-1	1.50E+3	5.18E-2	2.54E+2
2.47E-1	1.56E+3	4.79E-2	2.55E+2
2.63E-1	1.53E+3	4.57E-2	1.95E+2
2.72E-1	1.53E+3	4.81E-2	3.15E+2
2.47E-1	1.44E+3	4.86E-2	2.60E+2
2.70E-1	1.49E+3	5.64E-2	3.36E+2
2.46E-1	1.44E+3	4.98E-2	2.71E+2
2.77E-1	1.57E+3	5.35E-2	2.76E+2
2.62E-1	1.57E+3	5.18E-2	3.30E+2
2.44E-1	1.48E+3	5.42E-2	2.61E+2
2.62E-1	1.50E+3	4.76E-2	2.85E+2
2.61E-1	1.49E+3	4.91E-2	2.96E+2
2.55E-1	1.57E+3	5.47E-2	3.17E+2
2.46E-1	1.49E+3	5.69E-2	3.35E+2
2.49E-1	1.45E+3	4.91E-2	2.86E+2
2.78E-1	1.53E+3	5.18E-2	2.52E+2
2.46E-1	1.47E+3	5.08E-2	2.91E+2
2.61E-1	1.56E+3	5.10E-2	2.78E+2
2.68E-1	1.55E+3	5.08E-2	3.01E+2
2.46E-1	1.51E+3	4.96E-2	2.80E+2
2.46E-1	1.46E+3	5.32E-2	2.78E+2
2.53E-1	1.41E+3	5.00E-2	2.59E+2
2.46E-1	1.42E+3	5.08E-2	2.52E+2
2.69E-1	1.55E+3	5.57E-2	3.62E+2
2.68E-1	1.62E+3	5.10E-2	2.90E+2
5.13E-3	-9.86E+0	1.99E-1	7.50E+2
2.55E-1	1.47E+3	5.00E-2	3.48E+2
2.51E-1	1.41E+3	5.05E-2	2.98E+2
2.59E-1	1.53E+3	4.71E-2	2.71E+2
2.58E-1	1.57E+3	5.30E-2	3.08E+2
2.50E-1	1.47E+3	4.91E-2	2.56E+2
2.69E-1	1.58E+3	4.83E-2	2.43E+2
2.54E-1	1.57E+3	5.30E-2	2.64E+2
2.63E-1	1.51E+3	5.49E-2	3.40E+2
2.53E-1	1.60E+3	5.00E-2	3.25E+2
2.68E-1	1.50E+3	5.44E-2	3.34E+2
2.63E-1	1.49E+3	5.47E-2	3.57E+2
2.50E-1	1.52E+3	4.74E-2	2.75E+2
2.47E-1	1.47E+3	4.86E-2	2.57E+2
2.70E-1	1.61E+3	5.18E-2	3.16E+2
2.63E-1	1.54E+3	5.15E-2	3.48E+2
2.57E-1	1.40E+3	4.88E-2	2.94E+2
2.52E-1	1.55E+3	5.25E-2	3.25E+2
2.43E-1	1.50E+3	4.93E-2	2.72E+2
2.48E-1	1.51E+3	4.88E-2	2.87E+2
2.54E-1	1.63E+3	4.76E-2	2.51E+2
2.68E-1	1.55E+3	5.20E-2	3.25E+2
2.61E-1	1.50E+3	5.13E-2	2.38E+2
2.53E-1	1.48E+3	4.81E-2	2.90E+2
2.64E-1	1.44E+3	5.66E-2	3.41E+2
2.66E-1	1.51E+3	5.25E-2	3.36E+2
2.67E-1	1.49E+3	4.93E-2	2.91E+2
2.54E-1	1.49E+3	6.57E-2	3.99E+2
2.50E-1	1.54E+3	5.18E-2	2.60E+2
2.66E-1	1.57E+3	5.18E-2	3.18E+2
2.64E-1	1.51E+3	5.15E-2	3.47E+2
2.46E-1	1.47E+3	5.35E-2	2.94E+2
2.46E-1	1.48E+3	4.79E-2	2.38E+2
2.39E-1	1.44E+3	5.00E-2	2.69E+2
2.55E-1	1.52E+3	5.40E-2	2.75E+2
2.59E-1	1.51E+3	4.74E-2	2.77E+2
2.60E-1	1.59E+3	5.27E-2	3.22E+2
2.52E-1	1.50E+3	5.20E-2	3.10E+2
2.58E-1	1.49E+3	5.30E-2	2.87E+2
2.75E-1	1.51E+3	5.49E-2	3.18E+2
2.69E-1	1.51E+3	5.44E-2	3.37E+2
2.55E-1	1.55E+3	4.35E-2	2.14E+2
2.64E-1	1.55E+3	5.15E-2	2.92E+2
2.64E-1	1.57E+3	5.52E-2	3.24E+2
2.61E-1	1.54E+3	4.76E-2	3.17E+2
2.64E-1	1.55E+3	5.49E-2	3.18E+2
2.62E-1	1.45E+3	4.93E-2	2.29E+2
2.57E-1	1.57E+3	4.93E-2	2.43E+2
2.57E-1	1.58E+3	5.13E-2	2.50E+2
2.52E-1	1.51E+3	5.59E-2	2.87E+2
2.62E-1	1.48E+3	5.03E-2	2.66E+2
2.65E-1	1.54E+3	5.13E-2	2.85E+2
2.54E-1	1.52E+3	5.20E-2	3.15E+2
2.69E-1	1.55E+3	5.44E-2	3.02E+2
2.45E-1	1.48E+3	4.98E-2	2.55E+2
2.49E-1	1.54E+3	5.20E-2	3.27E+2
2.58E-1	1.56E+3	5.22E-2	2.86E+2
2.70E-1	1.52E+3	5.00E-2	2.79E+2
2.50E-1	1.49E+3	5.22E-2	3.34E+2
2.51E-1	1.44E+3	5.25E-2	2.55E+2
2.53E-1	1.40E+3	5.05E-2	2.89E+2
2.58E-1	1.54E+3	5.27E-2	3.00E+2
2.70E-1	1.55E+3	5.15E-2	2.80E+2
2.56E-1	1.56E+3	5.03E-2	2.56E+2
2.61E-1	1.55E+3	5.49E-2	3.18E+2
2.54E-1	1.54E+3	4.91E-2	2.57E+2
2.67E-1	1.61E+3	5.20E-2	2.62E+2
2.56E-1	1.48E+3	5.10E-2	3.01E+2
2.44E-1	1.39E+3	5.52E-2	3.01E+2
2.71E-1	1.53E+3	4.83E-2	3.13E+2
2.49E-1	1.42E+3	5.15E-2	2.10E+2
2.55E-1	1.54E+3	5.40E-2	3.23E+2
2.58E-1	1.56E+3	5.03E-2	3.28E+2
2.51E-1	1.50E+3	5.08E-2	2.76E+2
2.48E-1	1.48E+3	5.00E-2	2.94E+2
2.73E-1	1.51E+3	5.57E-2	3.01E+2
2.62E-1	1.49E+3	5.20E-2	2.48E+2
2.67E-1	1.60E+3	5.15E-2	2.96E+2
2.51E-1	1.51E+3	4.69E-2	2.75E+2
2.55E-1	1.54E+3	4.96E-2	2.54E+2
2.62E-1	1.56E+3	5.20E-2	2.59E+2
2.57E-1	1.51E+3	4.74E-2	2.29E+2
2.46E-1	1.46E+3	5.13E-2	2.87E+2
2.59E-1	1.44E+3	5.10E-2	2.94E+2
6.84E-3	1.81E+1	2.00E-1	8.20E+2
2.72E-1	1.45E+3	4.98E-2	2.95E+2
2.62E-1	1.52E+3	4.88E-2	3.08E+2
2.67E-1	1.58E+3	4.86E-2	3.04E+2
2.67E-1	1.56E+3	4.17E-2	3.08E+2
2.52E-1	1.56E+3	5.59E-2	3.17E+2
2.49E-1	1.54E+3	4.81E-2	2.47E+2
2.60E-1	1.66E+3	4.93E-2	2.73E+2
2.61E-1	1.58E+3	4.91E-2	2.34E+2
2.60E-1	1.57E+3	5.27E-2	3.06E+2
2.74E-1	1.58E+3	4.79E-2	2.81E+2
2.74E-1	1.55E+3	5.05E-2	3.00E+2
2.54E-1	1.55E+3	4.91E-2	2.70E+2
2.59E-1	1.55E+3	5.35E-2	2.94E+2
2.70E-1	1.54E+3	5.44E-2	3.02E+2
2.48E-1	1.49E+3	4.86E-2	2.93E+2
2.64E-1	1.51E+3	5.47E-2	2.98E+2
2.61E-1	1.44E+3	5.00E-2	2.88E+2
2.53E-1	1.52E+3	5.54E-2	3.16E+2
2.48E-1	1.50E+3	5.59E-2	2.83E+2
2.49E-1	1.50E+3	4.81E-2	2.38E+2
2.52E-1	1.48E+3	5.13E-2	2.78E+2
2.61E-1	1.56E+3	4.71E-2	2.97E+2
2.53E-1	1.62E+3	5.03E-2	3.16E+2
2.59E-1	1.53E+3	4.86E-2	2.83E+2
2.64E-1	1.63E+3	4.86E-2	2.53E+2
2.43E-1	1.45E+3	5.27E-2	2.50E+2
2.56E-1	1.50E+3	5.62E-2	3.01E+2
2.50E-1	1.49E+3	4.86E-2	2.62E+2
2.51E-1	1.47E+3	5.03E-2	2.50E+2
2.63E-1	1.59E+3	5.08E-2	3.26E+2
2.74E-1	1.61E+3	5.13E-2	3.20E+2
2.53E-1	1.53E+3	5.10E-2	3.14E+2
2.61E-1	1.52E+3	4.88E-2	2.38E+2
2.64E-1	1.66E+3	4.59E-2	2.37E+2
2.60E-1	1.52E+3	4.69E-2	2.35E+2
2.46E-1	1.50E+3	5.05E-2	2.58E+2
2.62E-1	1.53E+3	5.03E-2	2.87E+2
2.55E-1	1.50E+3	4.64E-2	2.14E+2
2.51E-1	1.53E+3	4.74E-2	2.82E+2
2.68E-1	1.54E+3	5.08E-2	2.90E+2
2.48E-1	1.44E+3	5.13E-2	3.34E+2
2.70E-1	1.63E+3	5.35E-2	3.29E+2
2.45E-1	1.47E+3	4.91E-2	2.35E+2
2.59E-1	1.57E+3	5.42E-2	3.12E+2
2.77E-1	1.54E+3	5.03E-2	2.49E+2
2.59E-1	1.46E+3	5.15E-2	3.05E+2
2.67E-1	1.58E+3	5.32E-2	2.98E+2
2.47E-1	1.44E+3	5.15E-2	2.71E+2
2.48E-1	1.50E+3	5.10E-2	2.51E+2
2.43E-1	1.46E+3	5.52E-2	3.05E+2
2.50E-1	1.53E+3	4.81E-2	2.49E+2
2.55E-1	1.53E+3	5.18E-2	3.00E+2
2.63E-1	1.52E+3	4.79E-2	2.68E+2
2.57E-1	1.60E+3	4.86E-2	2.49E+2
2.54E-1	1.53E+3	4.74E-2	2.74E+2
2.50E-1	1.50E+3	5.18E-2	2.72E+2
2.52E-1	1.54E+3	5.05E-2	2.88E+2
2.49E-1	1.55E+3	5.05E-2	3.08E+2
2.69E-1	1.48E+3	4.96E-2	2.28E+2
2.57E-1	1.52E+3	4.83E-2	3.10E+2
2.52E-1	1.51E+3	5.13E-2	3.33E+2
2.56E-1	1.51E+3	5.22E-2	2.84E+2
2.47E-1	1.58E+3	4.81E-2	2.76E+2
2.53E-1	1.50E+3	5.03E-2	2.57E+2
2.50E-1	1.54E+3	4.47E-2	2.15E+2
2.54E-1	1.49E+3	5.00E-2	3.00E+2
2.59E-1	1.60E+3	4.69E-2	2.64E+2
2.53E-1	1.56E+3	5.10E-2	2.83E+2
2.47E-1	1.52E+3	5.27E-2	3.04E+2
2.47E-1	1.50E+3	4.98E-2	2.72E+2
2.52E-1	1.56E+3	4.66E-2	2.64E+2
2.49E-1	1.48E+3	4.86E-2	2.53E+2
2.71E-1	1.47E+3	5.18E-2	3.06E+2
2.50E-1	1.48E+3	5.18E-2	3.04E+2
2.67E-1	1.57E+3	4.88E-2	2.94E+2
2.54E-1	1.44E+3	4.81E-2	2.88E+2
2.54E-1	1.55E+3	4.66E-2	2.34E+2
2.56E-1	1.55E+3	4.93E-2	2.45E+2
2.52E-1	1.55E+3	5.13E-2	2.78E+2
2.49E-1	1.46E+3	4.86E-2	2.83E+2
2.55E-1	1.51E+3	5.15E-2	2.49E+2
2.54E-1	1.50E+3	4.98E-2	3.07E+2
2.43E-1	1.43E+3	5.13E-2	3.05E+2
2.49E-1	1.48E+3	4.71E-2	2.58E+2
2.59E-1	1.51E+3	4.98E-2	2.78E+2
2.65E-1	1.49E+3	5.13E-2	2.53E+2
2.58E-1	1.63E+3	5.32E-2	2.88E+2
2.76E-1	1.64E+3	5.44E-2	2.98E+2
2.70E-1	1.48E+3	5.54E-2	3.36E+2
2.62E-1	1.48E+3	5.54E-2	3.22E+2
2.56E-1	1.51E+3	5.35E-2	2.91E+2
2.71E-1	1.58E+3	5.42E-2	3.09E+2
2.51E-1	1.53E+3	5.35E-2	3.29E+2
2.70E-1	1.58E+3	5.40E-2	2.98E+2
2.73E-1	1.50E+3	5.42E-2	2.90E+2
2.62E-1	1.51E+3	5.27E-2	3.07E+2
2.46E-1	1.53E+3	4.98E-2	3.03E+2
2.47E-1	1.45E+3	5.08E-2	2.62E+2
2.51E-1	1.46E+3	4.98E-2	2.94E+2
2.51E-1	1.48E+3	4.76E-2	2.46E+2
2.66E-1	1.48E+3	5.18E-2	3.28E+2
2.71E-1	1.52E+3	5.32E-2	2.96E+2
2.60E-1	1.46E+3	5.05E-2	2.74E+2
2.53E-1	1.48E+3	4.96E-2	2.73E+2
2.54E-1	1.52E+3	4.79E-2	2.51E+2
2.59E-1	1.57E+3	5.08E-2	2.58E+2
2.47E-1	1.52E+3	4.93E-2	2.65E+2
2.50E-1	1.53E+3	5.59E-2	3.58E+2
2.66E-1	1.54E+3	5.13E-2	2.81E+2
2.50E-1	1.52E+3	4.88E-2	2.68E+2
2.55E-1	1.51E+3	4.93E-2	2.59E+2
2.54E-1	1.54E+3	5.30E-2	2.79E+2
2.51E-1	1.55E+3	4.76E-2	2.75E+2
2.48E-1	1.51E+3	4.86E-2	2.30E+2
2.60E-1	1.54E+3	5.20E-2	2.53E+2
2.56E-1	1.54E+3	5.08E-2	2.96E+2
2.73E-1	1.54E+3	4.98E-2	2.91E+2
2.69E-1	1.57E+3	5.27E-2	3.09E+2
2.55E-1	1.55E+3	5.30E-2	2.44E+2
2.76E-1	1.60E+3	5.18E-2	2.78E+2
2.53E-1	1.55E+3	5.18E-2	2.89E+2
2.64E-1	1.61E+3	4.86E-2	3.06E+2
2.49E-1	1.46E+3	5.08E-2	2.58E+2
2.47E-1	1.52E+3	4.44E-2	2.24E+2
2.58E-1	1.57E+3	5.13E-2	3.06E+2
2.55E-1	1.50E+3	5.13E-2	3.39E+2
2.52E-1	1.53E+3	5.54E-2	3.19E+2
2.62E-1	1.47E+3	5.47E-2	2.83E+2
2.51E-1	1.50E+3	4.74E-2	2.73E+2
2.65E-1	1.49E+3	5.05E-2	2.31E+2
2.72E-1	1.61E+3	5.64E-2	3.05E+2
2.44E-1	1.43E+3	5.69E-2	3.33E+2
2.68E-1	1.50E+3	5.00E-2	2.81E+2
2.61E-1	1.55E+3	4.69E-2	3.07E+2
2.59E-1	1.52E+3	4.91E-2	3.07E+2
2.47E-1	1.55E+3	4.79E-2	2.80E+2
2.71E-1	1.50E+3	5.15E-2	2.55E+2
2.50E-1	1.54E+3	5.59E-2	3.26E+2
2.66E-1	1.55E+3	4.98E-2	3.08E+2
2.52E-1	1.55E+3	5.27E-2	3.26E+2
2.58E-1	1.44E+3	5.10E-2	2.52E+2
2.52E-1	1.49E+3	4.79E-2	2.36E+2
2.62E-1	1.55E+3	5.64E-2	3.21E+2
2.50E-1	1.53E+3	4.76E-2	2.69E+2
2.69E-1	1.56E+3	4.52E-2	2.37E+2
2.73E-1	1.46E+3	5.08E-2	3.03E+2
2.72E-1	1.56E+3	4.79E-2	2.47E+2
2.53E-1	1.47E+3	4.69E-2	2.74E+2
2.60E-1	1.55E+3	4.88E-2	2.60E+2
2.61E-1	1.53E+3	5.20E-2	3.04E+2
2.48E-1	1.48E+3	5.42E-2	2.94E+2
2.47E-1	1.45E+3	5.05E-2	2.78E+2
2.64E-1	1.57E+3	4.88E-2	3.12E+2
2.55E-1	1.48E+3	5.25E-2	2.85E+2
2.56E-1	1.47E+3	5.10E-2	3.36E+2
2.55E-1	1.59E+3	4.88E-2	2.63E+2
2.50E-1	1.51E+3	4.81E-2	2.21E+2
2.64E-1	1.53E+3	5.13E-2	2.61E+2
2.64E-1	1.55E+3	5.49E-2	3.35E+2
2.55E-1	1.52E+3	5.52E-2	3.23E+2
2.62E-1	1.57E+3	5.30E-2	3.31E+2
2.70E-1	1.52E+3	5.83E-2	3.44E+2
2.63E-1	1.43E+3	5.08E-2	2.92E+2
2.67E-1	1.48E+3	5.37E-2	3.56E+2
2.54E-1	1.55E+3	5.00E-2	3.35E+2
2.48E-1	1.43E+3	4.81E-2	3.06E+2
2.63E-1	1.43E+3	4.71E-2	2.73E+2
2.50E-1	1.57E+3	4.93E-2	3.03E+2
2.64E-1	1.52E+3	5.22E-2	2.63E+2
2.59E-1	1.61E+3	5.20E-2	2.90E+2
2.48E-1	1.54E+3	5.10E-2	2.60E+2
2.48E-1	1.47E+3	4.74E-2	2.86E+2
2.66E-1	1.55E+3	4.52E-2	2.37E+2
2.55E-1	1.49E+3	5.15E-2	2.54E+2
2.72E-1	1.63E+3	5.13E-2	3.16E+2
2.64E-1	1.60E+3	5.03E-2	3.03E+2
