4.13E-1	3.35E+3	8.52E-2	6.19E+2
4.27E-1	3.46E+3	8.54E-2	6.26E+2
4.35E-1	3.50E+3	8.52E-2	6.25E+2
4.18E-1	3.43E+3	8.35E-2	6.10E+2
4.44E-1	3.41E+3	8.76E-2	6.69E+2
4.40E-1	3.41E+3	8.84E-2	6.42E+2
4.24E-1	3.36E+3	8.79E-2	6.39E+2
4.47E-1	3.58E+3	8.94E-2	6.58E+2
4.33E-1	3.46E+3	8.03E-2	6.07E+2
4.52E-1	3.50E+3	9.13E-2	6.83E+2
4.41E-1	3.44E+3	7.79E-2	5.69E+2
4.27E-1	3.47E+3	8.64E-2	6.20E+2
4.24E-1	3.45E+3	9.35E-2	6.17E+2
4.40E-1	3.42E+3	8.42E-2	6.18E+2
4.20E-1	3.35E+3	8.23E-2	5.77E+2
4.26E-1	3.41E+3	8.81E-2	6.05E+2
4.18E-1	3.38E+3	7.96E-2	6.02E+2
4.50E-1	3.49E+3	8.18E-2	6.12E+2
4.25E-1	3.47E+3	8.08E-2	6.31E+2
4.33E-1	3.41E+3	8.76E-2	6.16E+2
4.29E-1	3.54E+3	8.33E-2	5.58E+2
4.10E-1	3.35E+3	8.35E-2	6.08E+2
4.32E-1	3.38E+3	8.54E-2	6.07E+2
4.31E-1	3.42E+3	8.54E-2	6.67E+2
4.24E-1	3.45E+3	8.50E-2	6.19E+2
4.36E-1	3.32E+3	8.52E-2	5.93E+2
4.18E-1	3.37E+3	7.96E-2	6.24E+2
4.39E-1	3.33E+3	8.54E-2	5.94E+2
4.07E-1	3.27E+3	8.76E-2	6.42E+2
4.32E-1	3.58E+3	8.72E-2	6.43E+2
4.37E-1	3.43E+3	8.57E-2	5.94E+2
4.23E-1	3.45E+3	8.18E-2	5.76E+2
4.35E-1	3.51E+3	8.59E-2	6.28E+2
4.22E-1	3.43E+3	8.84E-2	7.14E+2
4.16E-1	3.41E+3	8.84E-2	6.65E+2
4.45E-1	3.44E+3	9.23E-2	6.82E+2
4.23E-1	3.44E+3	8.59E-2	6.59E+2
4.22E-1	3.42E+3	8.84E-2	6.47E+2
4.16E-1	3.40E+3	8.98E-2	6.57E+2
4.25E-1	3.47E+3	8.35E-2	6.10E+2
4.19E-1	3.34E+3	9.23E-2	6.25E+2
4.31E-1	3.55E+3	9.03E-2	6.72E+2
4.25E-1	3.41E+3	9.42E-2	6.70E+2
4.21E-1	3.40E+3	9.57E-2	6.39E+2
4.28E-1	3.52E+3	8.33E-2	6.18E+2
4.32E-1	3.42E+3	9.25E-2	6.56E+2
4.30E-1	3.40E+3	8.28E-2	6.01E+2
4.32E-1	3.46E+3	1.02E-1	6.15E+2
4.25E-1	3.46E+3	8.52E-2	5.95E+2
4.34E-1	3.49E+3	8.96E-2	6.46E+2
4.19E-1	3.47E+3	8.52E-2	6.33E+2
4.41E-1	3.44E+3	9.37E-2	6.51E+2
4.33E-1	3.49E+3	7.62E-2	5.82E+2
4.37E-1	3.52E+3	8.89E-2	6.93E+2
4.14E-1	3.32E+3	9.08E-2	6.39E+2
4.17E-1	3.40E+3	9.06E-2	6.37E+2
4.58E-1	3.52E+3	8.50E-2	6.30E+2
4.27E-1	3.44E+3	8.42E-2	6.15E+2
4.17E-1	3.43E+3	8.89E-2	6.52E+2
4.40E-1	3.41E+3	8.81E-2	6.29E+2
4.18E-1	3.39E+3	8.37E-2	6.00E+2
4.13E-1	3.42E+3	9.08E-2	6.46E+2
4.01E-1	3.31E+3	8.01E-2	5.81E+2
4.17E-1	3.47E+3	8.45E-2	6.22E+2
4.24E-1	3.40E+3	8.91E-2	5.92E+2
4.22E-1	3.32E+3	8.37E-2	6.22E+2
4.43E-1	3.44E+3	7.81E-2	5.32E+2
4.19E-1	3.36E+3	8.86E-2	6.52E+2
4.36E-1	3.49E+3	8.84E-2	6.36E+2
4.19E-1	3.41E+3	9.03E-2	6.26E+2
4.17E-1	3.46E+3	9.91E-2	7.08E+2
4.28E-1	3.38E+3	8.03E-2	6.10E+2
4.23E-1	3.33E+3	8.84E-2	6.28E+2
4.23E-1	3.34E+3	8.81E-2	6.43E+2
4.30E-1	3.48E+3	8.30E-2	6.27E+2
4.14E-1	3.43E+3	8.67E-2	6.38E+2
4.52E-1	3.47E+3	9.03E-2	6.51E+2
4.34E-1	3.45E+3	7.81E-2	5.75E+2
4.49E-1	3.53E+3	8.45E-2	6.20E+2
4.19E-1	3.43E+3	8.76E-2	6.38E+2
4.44E-1	3.53E+3	8.54E-2	6.12E+2
4.19E-1	3.45E+3	8.94E-2	6.40E+2
4.33E-1	3.51E+3	8.64E-2	6.16E+2
4.38E-1	3.43E+3	9.18E-2	6.63E+2
4.28E-1	3.44E+3	8.62E-2	5.59E+2
4.34E-1	3.57E+3	8.64E-2	6.54E+2
4.37E-1	3.49E+3	8.91E-2	6.54E+2
4.22E-1	3.42E+3	8.37E-2	6.20E+2
4.06E-1	3.30E+3	8.35E-2	6.18E+2
4.06E-1	3.33E+3	8.42E-2	6.11E+2
4.19E-1	3.34E+3	8.59E-2	5.71E+2
4.27E-1	3.40E+3	8.86E-2	6.30E+2
4.19E-1	3.42E+3	8.33E-2	6.02E+2
4.38E-1	3.46E+3	8.96E-2	6.95E+2
4.28E-1	3.43E+3	7.76E-2	6.17E+2
4.42E-1	3.48E+3	8.13E-2	6.14E+2
4.29E-1	3.48E+3	9.20E-2	6.86E+2
4.39E-1	3.56E+3	9.08E-2	7.06E+2
4.42E-1	3.43E+3	8.84E-2	6.87E+2
4.23E-1	3.45E+3	7.67E-2	5.98E+2
4.44E-1	3.43E+3	9.42E-2	6.70E+2
4.39E-1	3.41E+3	8.08E-2	5.79E+2
4.29E-1	3.55E+3	9.08E-2	6.25E+2
4.26E-1	3.50E+3	8.08E-2	6.01E+2
4.16E-1	3.39E+3	8.30E-2	6.48E+2
4.38E-1	3.44E+3	8.98E-2	6.50E+2
4.25E-1	3.38E+3	8.30E-2	6.22E+2
4.46E-1	3.58E+3	8.54E-2	6.41E+2
4.27E-1	3.46E+3	8.25E-2	5.81E+2
4.50E-1	3.54E+3	8.64E-2	6.47E+2
4.10E-1	3.33E+3	9.30E-2	6.76E+2
4.26E-1	3.39E+3	8.33E-2	5.91E+2
4.16E-1	3.39E+3	8.74E-2	6.34E+2
4.31E-1	3.37E+3	8.33E-2	5.84E+2
4.39E-1	3.51E+3	8.84E-2	6.80E+2
4.35E-1	3.52E+3	8.96E-2	6.72E+2
4.06E-1	3.28E+3	9.03E-2	6.28E+2
4.23E-1	3.54E+3	8.23E-2	5.95E+2
4.36E-1	3.50E+3	8.69E-2	6.09E+2
4.05E-1	3.30E+3	8.72E-2	6.09E+2
4.39E-1	3.52E+3	8.35E-2	5.67E+2
4.31E-1	3.51E+3	8.98E-2	6.69E+2
4.30E-1	3.46E+3	8.81E-2	6.19E+2
4.42E-1	3.47E+3	8.50E-2	6.01E+2
4.17E-1	3.36E+3	8.47E-2	5.55E+2
4.24E-1	3.45E+3	8.42E-2	5.95E+2
4.47E-1	3.53E+3	8.81E-2	6.74E+2
4.33E-1	3.34E+3	8.81E-2	6.45E+2
4.46E-1	3.57E+3	8.45E-2	6.59E+2
4.19E-1	3.38E+3	9.03E-2	5.92E+2
4.32E-1	3.54E+3	8.40E-2	5.98E+2
4.19E-1	3.43E+3	9.30E-2	6.55E+2
4.52E-1	3.54E+3	7.91E-2	5.77E+2
4.31E-1	3.50E+3	8.89E-2	6.63E+2
4.21E-1	3.47E+3	8.76E-2	6.53E+2
4.30E-1	3.42E+3	8.37E-2	6.13E+2
4.22E-1	3.47E+3	9.37E-2	6.96E+2
4.28E-1	3.39E+3	8.18E-2	6.11E+2
4.45E-1	3.59E+3	8.76E-2	6.39E+2
4.42E-1	3.54E+3	9.01E-2	6.61E+2
4.23E-1	3.39E+3	9.13E-2	6.53E+2
4.23E-1	3.44E+3	8.01E-2	5.28E+2
4.27E-1	3.48E+3	8.76E-2	6.47E+2
4.26E-1	3.41E+3	8.62E-2	6.05E+2
4.55E-1	3.47E+3	9.20E-2	6.50E+2
4.27E-1	3.45E+3	7.74E-2	5.61E+2
4.35E-1	3.43E+3	9.08E-2	6.18E+2
4.23E-1	3.41E+3	8.40E-2	5.75E+2
4.36E-1	3.48E+3	8.86E-2	6.70E+2
4.24E-1	3.37E+3	7.86E-2	5.67E+2
4.35E-1	3.47E+3	8.23E-2	6.23E+2
4.31E-1	3.51E+3	8.23E-2	6.30E+2
4.24E-1	3.34E+3	8.54E-2	6.46E+2
4.29E-1	3.48E+3	7.93E-2	6.15E+2
4.42E-1	3.53E+3	8.28E-2	5.95E+2
4.37E-1	3.54E+3	9.77E-2	7.22E+2
4.20E-1	3.32E+3	7.86E-2	5.76E+2
4.22E-1	3.47E+3	9.06E-2	6.59E+2
4.46E-1	3.47E+3	8.89E-2	6.18E+2
4.18E-1	3.40E+3	8.15E-2	5.71E+2
4.22E-1	3.35E+3	8.54E-2	6.03E+2
4.50E-1	3.50E+3	8.76E-2	6.48E+2
4.34E-1	3.53E+3	9.86E-2	7.27E+2
4.17E-1	3.41E+3	8.81E-2	5.86E+2
4.15E-1	3.36E+3	8.86E-2	6.31E+2
4.33E-1	3.42E+3	8.91E-2	6.34E+2
4.24E-1	3.39E+3	9.16E-2	6.84E+2
4.37E-1	3.42E+3	1.00E-1	7.04E+2
4.23E-1	3.38E+3	8.86E-2	6.39E+2
4.08E-1	3.31E+3	9.03E-2	6.80E+2
4.28E-1	3.50E+3	8.54E-2	6.44E+2
4.24E-1	3.42E+3	8.79E-2	5.78E+2
4.33E-1	3.46E+3	8.03E-2	6.31E+2
4.44E-1	3.45E+3	9.33E-2	6.85E+2
4.46E-1	3.50E+3	9.11E-2	5.97E+2
4.13E-1	3.42E+3	8.30E-2	6.04E+2
4.26E-1	3.40E+3	8.25E-2	6.00E+2
4.31E-1	3.52E+3	9.52E-2	7.44E+2
4.29E-1	3.45E+3	8.69E-2	6.72E+2
4.46E-1	3.42E+3	7.74E-2	5.49E+2
4.27E-1	3.37E+3	9.59E-2	7.16E+2
4.48E-1	3.47E+3	8.67E-2	6.61E+2
4.17E-1	3.40E+3	8.42E-2	6.44E+2
4.31E-1	3.48E+3	8.37E-2	6.51E+2
4.41E-1	3.52E+3	8.64E-2	6.19E+2
4.23E-1	3.40E+3	8.18E-2	6.12E+2
4.31E-1	3.43E+3	8.81E-2	6.39E+2
4.21E-1	3.48E+3	7.89E-2	5.80E+2
4.29E-1	3.44E+3	8.86E-2	6.54E+2
4.25E-1	3.38E+3	8.67E-2	6.23E+2
4.16E-1	3.30E+3	8.98E-2	6.11E+2
4.58E-1	3.52E+3	8.62E-2	6.27E+2
4.35E-1	3.52E+3	8.94E-2	6.32E+2
4.37E-1	3.49E+3	7.40E-2	5.65E+2
4.37E-1	3.53E+3	7.76E-2	5.74E+2
4.42E-1	3.42E+3	9.72E-2	6.64E+2
4.28E-1	3.52E+3	8.81E-2	6.49E+2
4.49E-1	3.55E+3	8.33E-2	5.99E+2
4.17E-1	3.36E+3	9.86E-2	7.16E+2
4.25E-1	3.43E+3	9.74E-2	7.49E+2
4.18E-1	3.44E+3	8.50E-2	6.09E+2
4.27E-1	3.45E+3	8.37E-2	5.66E+2
4.42E-1	3.52E+3	8.91E-2	6.74E+2
4.39E-1	3.57E+3	8.33E-2	6.13E+2
4.35E-1	3.41E+3	9.23E-2	6.28E+2
4.30E-1	3.48E+3	9.35E-2	6.87E+2
4.15E-1	3.35E+3	8.69E-2	6.23E+2
4.38E-1	3.53E+3	9.11E-2	6.92E+2
4.33E-1	3.43E+3	9.18E-2	6.81E+2
4.46E-1	3.43E+3	9.40E-2	7.01E+2
4.38E-1	3.49E+3	8.59E-2	6.47E+2
4.24E-1	3.43E+3	9.37E-2	6.31E+2
4.40E-1	3.43E+3	8.30E-2	6.56E+2
4.26E-1	3.44E+3	8.18E-2	6.16E+2
4.31E-1	3.54E+3	8.28E-2	6.46E+2
4.22E-1	3.42E+3	8.50E-2	6.11E+2
4.13E-1	3.34E+3	8.35E-2	5.62E+2
4.24E-1	3.44E+3	8.67E-2	6.08E+2
4.36E-1	3.32E+3	9.03E-2	6.75E+2
4.37E-1	3.51E+3	7.96E-2	5.94E+2
4.21E-1	3.38E+3	7.91E-2	5.75E+2
4.25E-1	3.48E+3	8.57E-2	6.52E+2
4.30E-1	3.53E+3	8.40E-2	6.19E+2
4.27E-1	3.40E+3	7.86E-2	5.94E+2
4.54E-1	3.51E+3	8.11E-2	6.06E+2
4.36E-1	3.33E+3	8.35E-2	6.30E+2
4.50E-1	3.50E+3	8.37E-2	6.48E+2
4.30E-1	3.50E+3	8.64E-2	6.26E+2
4.40E-1	3.48E+3	8.94E-2	6.28E+2
4.24E-1	3.47E+3	9.52E-2	6.45E+2
4.16E-1	3.35E+3	9.35E-2	6.36E+2
4.42E-1	3.42E+3	8.50E-2	5.99E+2
4.23E-1	3.41E+3	7.91E-2	5.58E+2
4.21E-1	3.44E+3	8.40E-2	6.09E+2
4.18E-1	3.42E+3	9.18E-2	6.49E+2
4.27E-1	3.42E+3	8.98E-2	6.42E+2
4.53E-1	3.51E+3	8.35E-2	6.03E+2
4.42E-1	3.51E+3	8.67E-2	6.51E+2
4.24E-1	3.53E+3	8.47E-2	6.23E+2
4.20E-1	3.39E+3	9.40E-2	7.02E+2
4.12E-1	3.33E+3	8.50E-2	6.32E+2
4.53E-1	3.49E+3	8.25E-2	6.20E+2
4.31E-1	3.38E+3	8.76E-2	6.68E+2
4.21E-1	3.34E+3	8.74E-2	6.67E+2
4.21E-1	3.39E+3	8.57E-2	6.57E+2
4.11E-1	3.32E+3	8.54E-2	6.21E+2
4.22E-1	3.39E+3	8.37E-2	6.07E+2
4.35E-1	3.43E+3	7.81E-2	6.03E+2
4.32E-1	3.38E+3	8.94E-2	6.71E+2
4.40E-1	3.42E+3	8.64E-2	6.41E+2
4.36E-1	3.45E+3	8.37E-2	6.16E+2
4.24E-1	3.41E+3	8.59E-2	5.98E+2
4.26E-1	3.45E+3	8.74E-2	6.01E+2
4.38E-1	3.53E+3	7.64E-2	6.05E+2
4.41E-1	3.46E+3	8.84E-2	6.17E+2
4.28E-1	3.29E+3	9.62E-2	7.17E+2
4.48E-1	3.59E+3	8.96E-2	6.68E+2
4.25E-1	3.46E+3	9.42E-2	6.89E+2
4.40E-1	3.42E+3	9.57E-2	6.62E+2
4.11E-1	3.40E+3	8.45E-2	5.86E+2
4.57E-1	3.47E+3	8.79E-2	6.51E+2
4.25E-1	3.55E+3	8.47E-2	5.96E+2
4.15E-1	3.41E+3	8.59E-2	6.29E+2
4.36E-1	3.40E+3	9.11E-2	6.22E+2
4.38E-1	3.59E+3	8.54E-2	6.20E+2
4.17E-1	3.45E+3	8.59E-2	6.11E+2
4.13E-1	3.37E+3	8.67E-2	5.98E+2
4.33E-1	3.43E+3	8.18E-2	6.04E+2
4.29E-1	3.47E+3	8.84E-2	6.35E+2
4.20E-1	3.37E+3	8.59E-2	6.51E+2
4.30E-1	3.46E+3	8.33E-2	6.16E+2
4.34E-1	3.43E+3	8.86E-2	6.96E+2
4.25E-1	3.39E+3	8.89E-2	6.20E+2
4.41E-1	3.48E+3	8.15E-2	6.32E+2
4.20E-1	3.45E+3	8.74E-2	6.42E+2
4.35E-1	3.43E+3	8.69E-2	6.33E+2
4.21E-1	3.38E+3	8.74E-2	6.50E+2
4.22E-1	3.46E+3	9.40E-2	6.89E+2
4.42E-1	3.50E+3	8.23E-2	6.06E+2
4.26E-1	3.41E+3	8.86E-2	6.37E+2
4.43E-1	3.52E+3	9.77E-2	7.58E+2
4.40E-1	3.42E+3	8.72E-2	6.78E+2
4.13E-1	3.34E+3	9.08E-2	6.71E+2
4.39E-1	3.39E+3	9.42E-2	6.85E+2
4.38E-1	3.40E+3	8.94E-2	6.84E+2
4.34E-1	3.53E+3	8.98E-2	6.65E+2
4.22E-1	3.47E+3	8.64E-2	6.32E+2
4.22E-1	3.37E+3	8.79E-2	5.98E+2
4.26E-1	3.41E+3	7.89E-2	5.85E+2
4.56E-1	3.52E+3	9.74E-2	6.54E+2
4.15E-1	3.37E+3	9.23E-2	6.42E+2
4.19E-1	3.46E+3	8.30E-2	6.38E+2
4.14E-1	3.38E+3	8.20E-2	5.66E+2
4.31E-1	3.51E+3	8.50E-2	6.22E+2
4.17E-1	3.41E+3	8.52E-2	6.49E+2
4.41E-1	3.52E+3	9.11E-2	7.04E+2
4.33E-1	3.52E+3	9.64E-2	7.41E+2
4.30E-1	3.36E+3	7.81E-2	5.83E+2
4.37E-1	3.50E+3	9.20E-2	6.43E+2
4.31E-1	3.42E+3	9.35E-2	6.90E+2
4.21E-1	3.39E+3	8.45E-2	6.18E+2
4.23E-1	3.48E+3	9.57E-2	7.24E+2
4.50E-1	3.49E+3	9.11E-2	6.66E+2
4.26E-1	3.36E+3	8.67E-2	5.99E+2
4.17E-1	3.38E+3	8.47E-2	6.23E+2
4.14E-1	3.38E+3	9.11E-2	6.34E+2
4.20E-1	3.38E+3	8.30E-2	5.73E+2
4.39E-1	3.56E+3	9.89E-2	6.87E+2
4.33E-1	3.53E+3	8.72E-2	6.51E+2
4.49E-1	3.57E+3	8.33E-2	6.33E+2
4.36E-1	3.54E+3	9.23E-2	6.98E+2
4.37E-1	3.47E+3	8.96E-2	6.72E+2
4.15E-1	3.40E+3	8.28E-2	6.45E+2
4.16E-1	3.38E+3	8.57E-2	6.59E+2
4.12E-1	3.39E+3	8.18E-2	6.44E+2
4.43E-1	3.46E+3	8.84E-2	6.44E+2
6.84E-3	-2.44E-1	2.36E-1	1.69E+3
4.31E-1	3.41E+3	8.59E-2	6.35E+2
4.22E-1	3.40E+3	8.84E-2	6.18E+2
4.33E-1	3.43E+3	8.84E-2	6.30E+2
4.26E-1	3.46E+3	9.45E-2	6.56E+2
4.18E-1	3.36E+3	8.59E-2	5.71E+2
4.21E-1	3.43E+3	8.52E-2	6.39E+2
4.30E-1	3.39E+3	8.86E-2	6.54E+2
4.33E-1	3.46E+3	8.37E-2	5.95E+2
4.29E-1	3.51E+3	7.64E-2	5.55E+2
4.14E-1	3.26E+3	9.06E-2	6.79E+2
4.33E-1	3.33E+3	8.50E-2	6.09E+2
4.27E-1	3.47E+3	8.62E-2	6.20E+2
4.44E-1	3.41E+3	8.94E-2	6.42E+2
4.27E-1	3.49E+3	9.13E-2	6.29E+2
4.14E-1	3.32E+3	9.28E-2	6.77E+2
4.14E-1	3.32E+3	8.33E-2	5.86E+2
4.26E-1	3.52E+3	9.37E-2	6.44E+2
4.38E-1	3.44E+3	9.37E-2	6.38E+2
4.28E-1	3.34E+3	9.18E-2	6.61E+2
4.28E-1	3.56E+3	8.67E-2	6.25E+2
4.26E-1	3.48E+3	9.11E-2	7.12E+2
4.43E-1	3.45E+3	9.01E-2	6.16E+2
4.23E-1	3.51E+3	8.42E-2	6.26E+2
4.48E-1	3.47E+3	8.33E-2	5.61E+2
4.26E-1	3.39E+3	8.62E-2	6.10E+2
4.41E-1	3.48E+3	9.01E-2	6.45E+2
4.29E-1	3.41E+3	8.28E-2	5.86E+2
4.26E-1	3.40E+3	7.32E-2	5.83E+2
4.31E-1	3.44E+3	9.57E-2	6.97E+2
4.08E-1	3.33E+3	9.08E-2	6.12E+2
4.37E-1	3.49E+3	9.25E-2	6.60E+2
4.46E-1	3.57E+3	8.59E-2	6.17E+2
4.32E-1	3.42E+3	8.89E-2	6.37E+2
4.34E-1	3.47E+3	8.67E-2	6.61E+2
4.17E-1	3.39E+3	8.47E-2	6.07E+2
4.13E-1	3.38E+3	8.76E-2	6.32E+2
4.24E-1	3.48E+3	9.64E-2	6.44E+2
4.52E-1	3.55E+3	8.76E-2	6.49E+2
4.14E-1	3.40E+3	8.01E-2	6.19E+2
4.34E-1	3.49E+3	7.93E-2	6.19E+2
4.17E-1	3.36E+3	8.91E-2	5.93E+2
4.19E-1	3.39E+3	9.50E-2	6.42E+2
4.21E-1	3.39E+3	9.45E-2	6.45E+2
4.32E-1	3.54E+3	8.54E-2	6.18E+2
4.29E-1	3.52E+3	8.25E-2	5.66E+2
4.35E-1	3.37E+3	8.89E-2	5.91E+2
4.31E-1	3.39E+3	8.76E-2	6.23E+2
4.45E-1	3.48E+3	8.84E-2	6.34E+2
4.33E-1	3.43E+3	7.64E-2	5.60E+2
4.39E-1	3.47E+3	8.76E-2	6.66E+2
4.37E-1	3.34E+3	8.67E-2	6.48E+2
4.46E-1	3.47E+3	9.45E-2	6.75E+2
4.31E-1	3.39E+3	8.54E-2	6.33E+2
4.27E-1	3.53E+3	8.33E-2	6.07E+2
4.54E-1	3.63E+3	8.47E-2	6.37E+2
4.41E-1	3.50E+3	8.23E-2	5.94E+2
4.25E-1	3.37E+3	8.01E-2	5.96E+2
4.22E-1	3.45E+3	9.20E-2	6.64E+2
4.14E-1	3.33E+3	8.98E-2	6.34E+2
4.20E-1	3.40E+3	8.98E-2	6.28E+2
4.51E-1	3.52E+3	8.96E-2	6.51E+2
4.54E-1	3.50E+3	8.03E-2	6.06E+2
4.47E-1	3.50E+3	8.72E-2	6.53E+2
4.31E-1	3.37E+3	9.01E-2	6.71E+2
4.33E-1	3.52E+3	8.37E-2	5.99E+2
6.10E-3	2.26E+1	2.30E-1	1.84E+3
4.37E-1	3.44E+3	9.67E-2	7.03E+2
4.12E-1	3.32E+3	8.59E-2	6.13E+2
4.17E-1	3.40E+3	8.72E-2	6.13E+2
4.27E-1	3.48E+3	8.33E-2	6.34E+2
4.31E-1	3.47E+3	8.84E-2	6.35E+2
4.39E-1	3.51E+3	8.72E-2	5.92E+2
4.22E-1	3.43E+3	8.33E-2	5.97E+2
4.12E-1	3.39E+3	8.50E-2	6.10E+2
4.39E-1	3.53E+3	8.45E-2	6.42E+2
4.27E-1	3.36E+3	8.69E-2	6.05E+2
4.26E-1	3.44E+3	9.55E-2	7.14E+2
4.33E-1	3.56E+3	8.03E-2	6.48E+2
4.17E-1	3.38E+3	8.91E-2	6.25E+2
4.21E-1	3.41E+3	8.81E-2	6.14E+2
4.22E-1	3.34E+3	8.67E-2	6.14E+2
4.26E-1	3.47E+3	8.40E-2	6.26E+2
4.22E-1	3.42E+3	9.42E-2	6.45E+2
4.15E-1	3.35E+3	8.67E-2	5.95E+2
4.24E-1	3.41E+3	8.81E-2	5.84E+2
4.25E-1	3.42E+3	8.50E-2	6.25E+2
4.27E-1	3.47E+3	9.13E-2	6.72E+2
4.13E-1	3.38E+3	9.01E-2	6.32E+2
4.24E-1	3.36E+3	8.25E-2	5.80E+2
4.44E-1	3.52E+3	8.98E-2	6.52E+2
4.41E-1	3.54E+3	8.25E-2	6.15E+2
4.38E-1	3.45E+3	8.89E-2	7.03E+2
4.26E-1	3.39E+3	9.45E-2	6.89E+2
4.28E-1	3.52E+3	9.16E-2	6.75E+2
4.35E-1	3.48E+3	9.03E-2	6.17E+2
4.30E-1	3.49E+3	8.15E-2	6.15E+2
4.04E-1	3.30E+3	8.89E-2	6.43E+2
4.12E-1	3.35E+3	9.18E-2	6.40E+2
4.40E-1	3.52E+3	8.69E-2	6.10E+2
4.44E-1	3.43E+3	7.79E-2	5.57E+2
4.35E-1	3.43E+3	8.69E-2	6.50E+2
4.38E-1	3.49E+3	9.40E-2	6.35E+2
4.47E-1	3.46E+3	8.62E-2	6.05E+2
4.42E-1	3.57E+3	8.59E-2	6.43E+2
4.07E-1	3.27E+3	8.40E-2	6.37E+2
4.16E-1	3.37E+3	9.11E-2	6.89E+2
4.49E-1	3.59E+3	7.89E-2	5.83E+2
4.17E-1	3.36E+3	9.23E-2	6.06E+2
4.09E-1	3.29E+3	9.03E-2	6.28E+2
4.19E-1	3.45E+3	8.52E-2	6.20E+2
4.32E-1	3.34E+3	8.98E-2	6.46E+2
4.16E-1	3.39E+3	9.74E-2	6.89E+2
4.20E-1	3.44E+3	8.45E-2	5.96E+2
4.33E-1	3.43E+3	8.86E-2	6.19E+2
4.42E-1	3.62E+3	8.81E-2	6.39E+2
4.26E-1	3.44E+3	8.79E-2	5.82E+2
4.52E-1	3.41E+3	9.13E-2	6.63E+2
4.48E-1	3.53E+3	9.13E-2	6.66E+2
4.43E-1	3.44E+3	8.69E-2	6.67E+2
4.39E-1	3.57E+3	8.86E-2	6.36E+2
4.44E-1	3.46E+3	8.81E-2	6.36E+2
4.40E-1	3.39E+3	8.30E-2	6.29E+2
4.22E-1	3.40E+3	7.96E-2	5.93E+2
4.40E-1	3.56E+3	7.91E-2	6.14E+2
4.36E-1	3.47E+3	8.64E-2	5.97E+2
4.37E-1	3.42E+3	9.08E-2	6.39E+2
4.24E-1	3.45E+3	8.52E-2	5.83E+2
7.08E-3	2.29E+0	2.26E-1	1.71E+3
4.21E-1	3.45E+3	8.81E-2	6.37E+2
4.28E-1	3.35E+3	8.89E-2	6.19E+2
4.46E-1	3.48E+3	9.18E-2	6.40E+2
4.35E-1	3.46E+3	9.74E-2	7.25E+2
4.54E-1	3.53E+3	8.33E-2	6.26E+2
4.32E-1	3.49E+3	7.79E-2	5.92E+2
4.20E-1	3.31E+3	7.91E-2	6.31E+2
4.18E-1	3.43E+3	8.50E-2	6.14E+2
4.28E-1	3.45E+3	8.79E-2	6.02E+2
4.28E-1	3.48E+3	8.84E-2	6.29E+2
4.22E-1	3.44E+3	8.57E-2	6.16E+2
4.12E-1	3.42E+3	8.11E-2	6.05E+2
4.29E-1	3.39E+3	8.79E-2	6.21E+2
4.12E-1	3.37E+3	9.25E-2	6.23E+2
4.41E-1	3.44E+3	8.18E-2	5.81E+2
4.28E-1	3.41E+3	8.76E-2	6.50E+2
4.44E-1	3.51E+3	8.91E-2	6.53E+2
4.26E-1	3.36E+3	8.15E-2	6.26E+2
4.27E-1	3.35E+3	8.52E-2	6.41E+2
4.37E-1	3.41E+3	9.18E-2	6.64E+2
4.28E-1	3.51E+3	9.28E-2	6.89E+2
4.35E-1	3.33E+3	8.18E-2	5.74E+2
4.24E-1	3.47E+3	8.54E-2	6.04E+2
4.27E-1	3.36E+3	9.23E-2	6.44E+2
4.33E-1	3.47E+3	8.25E-2	6.27E+2
4.18E-1	3.47E+3	9.23E-2	6.27E+2
4.15E-1	3.40E+3	7.89E-2	6.07E+2
4.37E-1	3.47E+3	8.67E-2	6.30E+2
4.24E-1	3.54E+3	8.42E-2	6.30E+2
4.33E-1	3.43E+3	9.50E-2	7.06E+2
4.36E-1	3.51E+3	8.86E-2	6.69E+2
4.20E-1	3.46E+3	9.74E-2	6.92E+2
4.31E-1	3.51E+3	9.08E-2	6.56E+2
4.31E-1	3.45E+3	8.72E-2	7.00E+2
4.29E-1	3.33E+3	8.50E-2	6.13E+2
4.09E-1	3.29E+3	9.11E-2	6.20E+2
4.24E-1	3.41E+3	8.89E-2	5.92E+2
4.32E-1	3.38E+3	9.11E-2	6.32E+2
4.25E-1	3.43E+3	8.15E-2	5.54E+2
4.48E-1	3.41E+3	8.52E-2	5.74E+2
4.12E-1	3.33E+3	8.91E-2	6.69E+2
4.54E-1	3.53E+3	7.93E-2	5.89E+2
4.41E-1	3.49E+3	8.37E-2	6.29E+2
4.35E-1	3.45E+3	9.23E-2	6.62E+2
4.48E-1	3.40E+3	9.13E-2	6.94E+2
4.12E-1	3.41E+3	9.20E-2	6.73E+2
4.12E-1	3.41E+3	8.86E-2	6.64E+2
4.35E-1	3.45E+3	8.89E-2	6.63E+2
4.48E-1	3.47E+3	9.25E-2	6.22E+2
4.22E-1	3.45E+3	8.30E-2	5.96E+2
4.15E-1	3.34E+3	9.64E-2	6.46E+2
4.19E-1	3.45E+3	8.94E-2	6.49E+2
4.38E-1	3.46E+3	8.94E-2	6.59E+2
4.27E-1	3.42E+3	7.98E-2	5.95E+2
4.36E-1	3.43E+3	8.59E-2	6.09E+2
4.30E-1	3.33E+3	8.47E-2	6.21E+2
4.30E-1	3.57E+3	8.37E-2	6.18E+2
4.29E-1	3.50E+3	8.33E-2	6.16E+2
4.40E-1	3.48E+3	9.67E-2	7.16E+2
4.54E-1	3.57E+3	9.40E-2	6.84E+2
4.30E-1	3.48E+3	8.76E-2	6.10E+2
4.20E-1	3.41E+3	9.25E-2	6.50E+2
4.35E-1	3.43E+3	8.72E-2	6.77E+2
4.42E-1	3.49E+3	8.98E-2	6.21E+2
4.28E-1	3.42E+3	8.89E-2	6.69E+2
4.24E-1	3.53E+3	8.08E-2	5.74E+2
4.38E-1	3.46E+3	8.69E-2	6.83E+2
4.38E-1	3.55E+3	8.86E-2	6.48E+2
4.45E-1	3.38E+3	9.30E-2	6.85E+2
4.37E-1	3.42E+3	8.33E-2	6.50E+2
4.46E-1	3.49E+3	8.89E-2	6.86E+2
4.25E-1	3.39E+3	8.79E-2	6.35E+2
6.35E-3	5.18E+0	2.16E-1	1.72E+3
4.31E-1	3.34E+3	7.84E-2	5.99E+2
4.26E-1	3.44E+3	8.18E-2	5.93E+2
4.20E-1	3.37E+3	8.23E-2	6.24E+2
4.35E-1	3.48E+3	9.16E-2	6.43E+2
4.27E-1	3.33E+3	8.50E-2	5.85E+2
4.29E-1	3.42E+3	9.03E-2	6.69E+2
3.96E-1	3.18E+3	1.02E-1	6.45E+2
4.12E-1	3.41E+3	8.52E-2	6.11E+2
4.39E-1	3.38E+3	9.37E-2	6.15E+2
4.22E-1	3.49E+3	9.06E-2	6.78E+2
4.38E-1	3.47E+3	8.98E-2	6.41E+2
4.26E-1	3.46E+3	8.15E-2	6.27E+2
4.34E-1	3.45E+3	8.45E-2	6.72E+2
4.27E-1	3.46E+3	9.06E-2	6.66E+2
4.22E-1	3.46E+3	8.96E-2	6.24E+2
4.17E-1	3.37E+3	8.81E-2	6.51E+2
4.25E-1	3.43E+3	9.25E-2	6.84E+2
4.21E-1	3.44E+3	8.94E-2	6.07E+2
4.41E-1	3.38E+3	8.30E-2	6.07E+2
4.19E-1	3.43E+3	9.06E-2	6.55E+2
4.07E-1	3.29E+3	8.72E-2	6.44E+2
4.37E-1	3.50E+3	9.35E-2	6.49E+2
4.26E-1	3.47E+3	8.86E-2	6.51E+2
4.42E-1	3.44E+3	7.86E-2	6.09E+2
4.34E-1	3.40E+3	9.18E-2	6.46E+2
4.35E-1	3.38E+3	8.72E-2	6.08E+2
4.32E-1	3.40E+3	8.20E-2	6.44E+2
4.27E-1	3.43E+3	8.72E-2	6.57E+2
4.19E-1	3.46E+3	9.08E-2	6.92E+2
4.27E-1	3.44E+3	8.86E-2	6.88E+2
4.27E-1	3.39E+3	9.16E-2	6.74E+2
4.34E-1	3.42E+3	9.18E-2	6.21E+2
4.23E-1	3.46E+3	8.79E-2	6.56E+2
4.40E-1	3.49E+3	8.76E-2	6.44E+2
4.39E-1	3.49E+3	8.45E-2	6.33E+2
4.35E-1	3.39E+3	8.86E-2	6.14E+2
4.37E-1	3.51E+3	8.91E-2	6.37E+2
4.46E-1	3.46E+3	8.96E-2	6.28E+2
4.13E-1	3.38E+3	8.52E-2	6.59E+2
4.28E-1	3.44E+3	9.62E-2	6.88E+2
4.41E-1	3.52E+3	8.81E-2	6.51E+2
4.16E-1	3.38E+3	8.57E-2	6.65E+2
4.38E-1	3.39E+3	9.42E-2	6.57E+2
4.43E-1	3.50E+3	7.93E-2	5.22E+2
4.20E-1	3.42E+3	8.40E-2	6.23E+2
4.25E-1	3.48E+3	9.37E-2	6.99E+2
4.16E-1	3.30E+3	8.28E-2	5.98E+2
4.23E-1	3.42E+3	8.45E-2	5.70E+2
4.15E-1	3.35E+3	8.69E-2	6.53E+2
4.30E-1	3.44E+3	8.18E-2	5.68E+2
4.37E-1	3.43E+3	8.37E-2	6.08E+2
4.44E-1	3.55E+3	8.64E-2	6.43E+2
4.34E-1	3.43E+3	9.11E-2	6.54E+2
4.22E-1	3.35E+3	8.86E-2	6.73E+2
4.30E-1	3.37E+3	8.47E-2	6.34E+2
4.29E-1	3.41E+3	8.64E-2	6.30E+2
4.32E-1	3.41E+3	8.74E-2	6.52E+2
4.31E-1	3.42E+3	7.84E-2	6.12E+2
4.23E-1	3.37E+3	8.98E-2	6.28E+2
4.29E-1	3.45E+3	9.20E-2	6.29E+2
4.13E-1	3.38E+3	9.40E-2	6.72E+2
4.31E-1	3.46E+3	9.18E-2	6.29E+2
4.23E-1	3.38E+3	8.59E-2	6.12E+2
4.47E-1	3.54E+3	8.91E-2	6.78E+2
4.54E-1	3.58E+3	9.33E-2	7.42E+2
4.35E-1	3.56E+3	9.08E-2	7.05E+2
4.37E-1	3.42E+3	8.84E-2	6.41E+2
4.29E-1	3.38E+3	9.08E-2	6.69E+2
4.43E-1	3.51E+3	1.02E-1	7.00E+2
4.17E-1	3.40E+3	9.18E-2	6.03E+2
4.24E-1	3.37E+3	8.18E-2	6.39E+2
4.45E-1	3.48E+3	9.08E-2	6.65E+2
4.24E-1	3.50E+3	8.64E-2	6.27E+2
4.21E-1	3.41E+3	8.94E-2	6.55E+2
4.12E-1	3.38E+3	8.76E-2	5.88E+2
4.18E-1	3.48E+3	8.11E-2	5.77E+2
4.06E-1	3.29E+3	8.81E-2	6.39E+2
4.12E-1	3.37E+3	9.25E-2	6.30E+2
4.34E-1	3.41E+3	8.67E-2	5.81E+2
4.30E-1	3.41E+3	8.96E-2	6.25E+2
4.43E-1	3.49E+3	9.08E-2	6.59E+2
4.22E-1	3.42E+3	8.33E-2	5.93E+2
4.30E-1	3.46E+3	9.18E-2	6.63E+2
4.49E-1	3.50E+3	8.89E-2	5.99E+2
4.26E-1	3.40E+3	9.13E-2	6.83E+2
4.19E-1	3.33E+3	8.74E-2	6.45E+2
4.38E-1	3.36E+3	8.23E-2	5.91E+2
4.20E-1	3.41E+3	8.86E-2	6.26E+2
4.31E-1	3.45E+3	9.33E-2	6.48E+2
4.25E-1	3.43E+3	7.86E-2	5.90E+2
4.26E-1	3.46E+3	8.25E-2	6.25E+2
4.52E-1	3.46E+3	8.50E-2	6.02E+2
4.39E-1	3.47E+3	8.76E-2	6.32E+2
4.42E-1	3.53E+3	8.74E-2	6.48E+2
4.47E-1	3.58E+3	8.86E-2	6.78E+2
4.50E-1	3.48E+3	9.99E-2	6.98E+2
4.53E-1	3.55E+3	8.42E-2	6.19E+2
4.43E-1	3.50E+3	9.16E-2	6.85E+2
4.17E-1	3.36E+3	1.01E-1	7.20E+2
4.17E-1	3.44E+3	8.69E-2	6.23E+2
4.36E-1	3.44E+3	8.54E-2	6.12E+2
4.46E-1	3.58E+3	8.01E-2	5.96E+2
4.37E-1	3.43E+3	9.06E-2	6.62E+2
4.54E-1	3.50E+3	8.67E-2	6.28E+2
4.13E-1	3.39E+3	8.40E-2	6.30E+2
4.41E-1	3.51E+3	8.64E-2	6.47E+2
4.56E-1	3.48E+3	9.16E-2	6.23E+2
4.16E-1	3.35E+3	9.16E-2	6.84E+2
4.35E-1	3.34E+3	8.42E-2	5.96E+2
4.30E-1	3.37E+3	8.94E-2	6.62E+2
4.23E-1	3.45E+3	8.62E-2	5.53E+2
4.18E-1	3.43E+3	8.42E-2	5.49E+2
4.26E-1	3.40E+3	9.13E-2	6.38E+2
4.17E-1	3.39E+3	9.18E-2	6.66E+2
4.16E-1	3.37E+3	9.50E-2	7.13E+2
4.33E-1	3.42E+3	8.76E-2	6.65E+2
4.20E-1	3.44E+3	8.28E-2	5.38E+2
4.35E-1	3.44E+3	8.81E-2	5.97E+2
4.07E-1	3.28E+3	8.69E-2	5.79E+2
4.22E-1	3.33E+3	8.74E-2	6.42E+2
4.38E-1	3.44E+3	8.30E-2	6.02E+2
4.45E-1	3.53E+3	9.06E-2	6.23E+2
4.38E-1	3.53E+3	8.74E-2	6.85E+2
4.35E-1	3.51E+3	9.25E-2	7.01E+2
4.31E-1	3.46E+3	8.25E-2	6.28E+2
4.24E-1	3.35E+3	9.08E-2	6.74E+2
4.16E-1	3.39E+3	8.94E-2	6.36E+2
4.36E-1	3.47E+3	8.45E-2	6.51E+2
4.63E-1	3.54E+3	9.23E-2	6.30E+2
4.13E-1	3.31E+3	8.62E-2	6.29E+2
4.27E-1	3.39E+3	8.52E-2	6.14E+2
4.33E-1	3.56E+3	8.74E-2	6.34E+2
4.31E-1	3.54E+3	7.45E-2	5.60E+2
4.48E-1	3.43E+3	8.64E-2	5.83E+2
4.13E-1	3.42E+3	8.45E-2	5.66E+2
4.38E-1	3.42E+3	1.03E-1	7.36E+2
4.41E-1	3.41E+3	8.89E-2	6.29E+2
4.22E-1	3.42E+3	8.18E-2	5.83E+2
4.18E-1	3.34E+3	9.06E-2	6.68E+2
4.27E-1	3.46E+3	9.84E-2	6.51E+2
4.29E-1	3.32E+3	8.79E-2	6.20E+2
4.15E-1	3.38E+3	8.08E-2	5.98E+2
4.19E-1	3.38E+3	9.16E-2	6.35E+2
4.29E-1	3.48E+3	8.35E-2	5.50E+2
4.25E-1	3.40E+3	8.72E-2	6.35E+2
4.11E-1	3.40E+3	9.11E-2	6.07E+2
4.14E-1	3.40E+3	8.37E-2	5.70E+2
4.30E-1	3.42E+3	7.98E-2	5.31E+2
4.40E-1	3.40E+3	9.35E-2	6.95E+2
4.35E-1	3.41E+3	9.57E-2	7.45E+2
4.22E-1	3.33E+3	9.52E-2	7.16E+2
4.46E-1	3.44E+3	8.81E-2	6.95E+2
4.15E-1	3.42E+3	8.50E-2	5.98E+2
4.36E-1	3.45E+3	9.37E-2	7.25E+2
4.27E-1	3.48E+3	8.64E-2	6.25E+2
4.37E-1	3.46E+3	9.25E-2	6.44E+2
4.18E-1	3.44E+3	8.20E-2	5.32E+2
4.27E-1	3.44E+3	8.57E-2	5.95E+2
4.23E-1	3.37E+3	9.20E-2	6.64E+2
4.19E-1	3.41E+3	8.54E-2	6.27E+2
4.40E-1	3.49E+3	8.08E-2	6.02E+2
4.49E-1	3.40E+3	8.30E-2	6.26E+2
4.39E-1	3.50E+3	8.47E-2	6.30E+2
4.34E-1	3.49E+3	8.40E-2	6.15E+2
4.31E-1	3.55E+3	9.30E-2	6.40E+2
4.33E-1	3.49E+3	9.08E-2	6.90E+2
4.49E-1	3.60E+3	8.69E-2	6.77E+2
4.10E-1	3.36E+3	8.72E-2	6.20E+2
4.21E-1	3.43E+3	8.67E-2	6.42E+2
4.23E-1	3.47E+3	8.23E-2	5.80E+2
4.28E-1	3.37E+3	8.35E-2	5.52E+2
4.16E-1	3.44E+3	9.62E-2	6.75E+2
4.24E-1	3.47E+3	9.37E-2	6.57E+2
4.35E-1	3.46E+3	8.94E-2	6.12E+2
4.41E-1	3.55E+3	8.81E-2	6.29E+2
4.27E-1	3.33E+3	7.64E-2	5.61E+2
4.23E-1	3.32E+3	9.03E-2	6.24E+2
4.41E-1	3.39E+3	9.37E-2	7.09E+2
4.36E-1	3.42E+3	8.74E-2	6.38E+2
4.34E-1	3.42E+3	8.06E-2	6.47E+2
4.26E-1	3.51E+3	8.03E-2	5.86E+2
4.34E-1	3.39E+3	9.89E-2	6.99E+2
4.37E-1	3.50E+3	8.84E-2	6.78E+2
4.41E-1	3.44E+3	8.84E-2	6.22E+2
4.28E-1	3.49E+3	9.57E-2	6.91E+2
4.57E-1	3.51E+3	9.28E-2	6.35E+2
4.33E-1	3.44E+3	9.01E-2	6.35E+2
4.39E-1	3.50E+3	8.84E-2	6.04E+2
4.35E-1	3.38E+3	8.13E-2	5.85E+2
4.24E-1	3.52E+3	9.47E-2	7.05E+2
4.21E-1	3.42E+3	9.11E-2	6.27E+2
4.35E-1	3.42E+3	8.37E-2	6.10E+2
4.16E-1	3.38E+3	9.16E-2	6.69E+2
4.37E-1	3.44E+3	7.96E-2	5.98E+2
4.29E-1	3.32E+3	8.94E-2	6.77E+2
4.36E-1	3.55E+3	8.50E-2	6.34E+2
4.22E-1	3.37E+3	8.40E-2	5.95E+2
4.31E-1	3.36E+3	8.08E-2	5.86E+2
4.18E-1	3.44E+3	8.69E-2	6.52E+2
4.18E-1	3.42E+3	8.01E-2	5.98E+2
4.14E-1	3.28E+3	8.74E-2	5.81E+2
4.16E-1	3.39E+3	8.89E-2	6.17E+2
4.42E-1	3.49E+3	9.52E-2	7.04E+2
4.30E-1	3.50E+3	8.96E-2	6.10E+2
4.26E-1	3.45E+3	9.08E-2	6.67E+2
4.39E-1	3.47E+3	8.47E-2	6.76E+2
4.21E-1	3.47E+3	8.69E-2	6.67E+2
4.20E-1	3.40E+3	9.77E-2	6.97E+2
4.19E-1	3.48E+3	9.30E-2	6.69E+2
4.26E-1	3.46E+3	9.33E-2	6.50E+2
4.26E-1	3.48E+3	8.30E-2	6.16E+2
4.24E-1	3.43E+3	8.98E-2	6.38E+2
4.09E-1	3.34E+3	8.47E-2	6.73E+2
4.38E-1	3.38E+3	8.50E-2	5.92E+2
4.17E-1	3.34E+3	8.28E-2	5.81E+2
4.28E-1	3.39E+3	7.47E-2	5.33E+2
4.27E-1	3.40E+3	8.64E-2	6.28E+2
4.26E-1	3.48E+3	9.03E-2	6.94E+2
4.31E-1	3.47E+3	8.69E-2	6.21E+2
4.29E-1	3.42E+3	7.76E-2	5.68E+2
4.18E-1	3.41E+3	8.91E-2	6.54E+2
4.44E-1	3.42E+3	8.11E-2	6.04E+2
4.31E-1	3.46E+3	8.30E-2	6.58E+2
4.34E-1	3.44E+3	7.89E-2	6.44E+2
4.07E-1	3.30E+3	8.40E-2	5.60E+2
4.20E-1	3.31E+3	9.77E-2	6.39E+2
4.27E-1	3.47E+3	8.18E-2	6.15E+2
4.22E-1	3.49E+3	9.11E-2	6.11E+2
4.21E-1	3.29E+3	8.89E-2	6.06E+2
4.17E-1	3.37E+3	8.11E-2	5.97E+2
4.41E-1	3.40E+3	9.01E-2	6.43E+2
4.26E-1	3.44E+3	9.11E-2	6.03E+2
4.21E-1	3.50E+3	9.30E-2	7.44E+2
4.22E-1	3.40E+3	8.62E-2	6.65E+2
4.30E-1	3.46E+3	8.64E-2	6.46E+2
4.41E-1	3.51E+3	8.98E-2	6.67E+2
4.42E-1	3.48E+3	8.64E-2	6.30E+2
4.31E-1	3.51E+3	9.74E-2	6.57E+2
4.28E-1	3.38E+3	9.45E-2	6.99E+2
4.16E-1	3.29E+3	8.28E-2	5.83E+2
4.24E-1	3.37E+3	8.50E-2	6.71E+2
4.32E-1	3.50E+3	8.67E-2	6.56E+2
4.37E-1	3.43E+3	8.50E-2	6.25E+2
4.44E-1	3.49E+3	8.52E-2	6.30E+2
4.22E-1	3.45E+3	7.98E-2	5.95E+2
4.15E-1	3.37E+3	9.69E-2	7.39E+2
4.52E-1	3.50E+3	9.62E-2	6.62E+2
4.21E-1	3.34E+3	8.35E-2	6.48E+2
4.31E-1	3.43E+3	8.37E-2	6.22E+2
4.25E-1	3.41E+3	8.40E-2	6.38E+2
4.38E-1	3.52E+3	9.16E-2	6.55E+2
4.19E-1	3.31E+3	8.28E-2	6.57E+2
4.31E-1	3.44E+3	9.11E-2	6.24E+2
4.25E-1	3.41E+3	9.11E-2	6.16E+2
4.33E-1	3.35E+3	8.72E-2	6.04E+2
4.20E-1	3.39E+3	9.25E-2	7.30E+2
4.30E-1	3.46E+3	8.94E-2	6.47E+2
4.43E-1	3.44E+3	8.28E-2	5.95E+2
4.48E-1	3.39E+3	7.98E-2	5.81E+2
4.13E-1	3.36E+3	8.33E-2	5.88E+2
4.43E-1	3.49E+3	9.11E-2	6.70E+2
4.13E-1	3.38E+3	8.42E-2	6.71E+2
4.42E-1	3.42E+3	9.08E-2	6.45E+2
4.44E-1	3.40E+3	9.37E-2	6.44E+2
4.42E-1	3.49E+3	8.40E-2	6.39E+2
4.25E-1	3.47E+3	9.64E-2	6.78E+2
4.52E-1	3.53E+3	9.28E-2	6.06E+2
4.43E-1	3.40E+3	8.91E-2	6.56E+2
4.13E-1	3.34E+3	9.94E-2	6.76E+2
4.15E-1	3.40E+3	9.08E-2	6.69E+2
4.22E-1	3.37E+3	9.84E-2	6.86E+2
4.34E-1	3.39E+3	8.52E-2	5.71E+2
4.27E-1	3.45E+3	8.72E-2	6.06E+2
4.17E-1	3.42E+3	8.89E-2	6.72E+2
4.34E-1	3.57E+3	9.20E-2	6.95E+2
4.28E-1	3.37E+3	8.57E-2	6.85E+2
4.14E-1	3.32E+3	9.35E-2	6.39E+2
4.14E-1	3.32E+3	8.37E-2	6.49E+2
4.34E-1	3.36E+3	8.94E-2	6.34E+2
4.40E-1	3.57E+3	8.57E-2	6.62E+2
4.48E-1	3.53E+3	9.11E-2	6.35E+2
4.26E-1	3.40E+3	8.35E-2	6.25E+2
4.37E-1	3.43E+3	9.03E-2	6.30E+2
4.27E-1	3.49E+3	9.40E-2	6.82E+2
4.18E-1	3.41E+3	7.96E-2	5.64E+2
4.29E-1	3.45E+3	9.40E-2	6.76E+2
4.51E-1	3.54E+3	8.20E-2	6.33E+2
4.21E-1	3.41E+3	8.79E-2	6.96E+2
4.38E-1	3.51E+3	8.52E-2	6.34E+2
4.19E-1	3.42E+3	9.33E-2	7.09E+2
4.18E-1	3.38E+3	8.28E-2	5.92E+2
4.37E-1	3.44E+3	9.16E-2	6.61E+2
4.42E-1	3.52E+3	9.59E-2	7.25E+2
4.21E-1	3.29E+3	8.40E-2	5.78E+2
4.25E-1	3.40E+3	8.98E-2	6.42E+2
4.30E-1	3.44E+3	8.81E-2	6.25E+2
4.20E-1	3.34E+3	8.42E-2	6.01E+2
4.33E-1	3.39E+3	9.40E-2	6.56E+2
4.34E-1	3.43E+3	9.06E-2	6.71E+2
4.34E-1	3.38E+3	9.74E-2	7.16E+2
4.24E-1	3.32E+3	8.67E-2	6.10E+2
4.39E-1	3.50E+3	7.93E-2	5.75E+2
7.32E-3	2.01E+1	2.37E-1	1.86E+3
4.11E-1	3.37E+3	8.35E-2	6.10E+2
4.32E-1	3.47E+3	9.23E-2	6.54E+2
4.40E-1	3.51E+3	8.74E-2	6.49E+2
4.19E-1	3.43E+3	8.91E-2	6.67E+2
4.17E-1	3.36E+3	8.13E-2	5.31E+2
4.19E-1	3.37E+3	8.42E-2	5.88E+2
4.31E-1	3.41E+3	8.54E-2	6.28E+2
4.23E-1	3.48E+3	8.64E-2	6.07E+2
4.16E-1	3.42E+3	8.81E-2	6.17E+2
4.31E-1	3.56E+3	9.47E-2	6.69E+2
4.28E-1	3.46E+3	8.23E-2	5.63E+2
4.46E-1	3.58E+3	8.76E-2	6.31E+2
4.35E-1	3.40E+3	9.79E-2	7.27E+2
4.41E-1	3.59E+3	8.86E-2	6.60E+2
4.19E-1	3.35E+3	9.01E-2	6.00E+2
4.35E-1	3.43E+3	9.03E-2	6.93E+2
4.20E-1	3.47E+3	8.86E-2	6.75E+2
4.32E-1	3.58E+3	9.33E-2	7.10E+2
4.27E-1	3.48E+3	8.45E-2	6.38E+2
4.20E-1	3.32E+3	8.96E-2	6.32E+2
4.31E-1	3.49E+3	7.30E-2	5.27E+2
4.29E-1	3.48E+3	8.81E-2	6.02E+2
4.20E-1	3.38E+3	8.30E-2	5.77E+2
4.39E-1	3.44E+3	8.94E-2	6.61E+2
4.37E-1	3.50E+3	9.11E-2	6.62E+2
4.26E-1	3.41E+3	8.37E-2	5.93E+2
4.23E-1	3.48E+3	8.47E-2	6.27E+2
4.29E-1	3.38E+3	9.28E-2	7.08E+2
4.22E-1	3.48E+3	9.47E-2	6.69E+2
4.42E-1	3.52E+3	8.86E-2	6.27E+2
4.20E-1	3.36E+3	8.40E-2	6.00E+2
4.20E-1	3.39E+3	8.37E-2	6.28E+2
4.24E-1	3.40E+3	9.20E-2	6.32E+2
4.31E-1	3.51E+3	8.08E-2	5.82E+2
4.15E-1	3.33E+3	8.59E-2	6.19E+2
4.25E-1	3.36E+3	9.25E-2	6.23E+2
4.22E-1	3.46E+3	8.84E-2	6.34E+2
4.25E-1	3.44E+3	8.62E-2	6.19E+2
4.23E-1	3.47E+3	7.67E-2	5.19E+2
4.25E-1	3.44E+3	8.69E-2	6.39E+2
4.27E-1	3.48E+3	9.69E-2	7.16E+2
4.34E-1	3.46E+3	8.96E-2	6.90E+2
4.23E-1	3.37E+3	8.28E-2	6.41E+2
4.34E-1	3.41E+3	8.40E-2	6.23E+2
4.16E-1	3.37E+3	8.52E-2	6.65E+2
4.32E-1	3.34E+3	8.86E-2	6.38E+2
4.29E-1	3.43E+3	8.89E-2	6.62E+2
4.33E-1	3.50E+3	8.42E-2	6.34E+2
4.17E-1	3.41E+3	8.64E-2	6.64E+2
4.18E-1	3.41E+3	8.84E-2	5.94E+2
4.16E-1	3.36E+3	8.11E-2	5.99E+2
4.20E-1	3.35E+3	8.54E-2	6.57E+2
4.35E-1	3.39E+3	8.01E-2	6.12E+2
4.33E-1	3.39E+3	7.93E-2	5.97E+2
4.15E-1	3.36E+3	8.59E-2	6.40E+2
4.23E-1	3.46E+3	8.37E-2	6.25E+2
4.16E-1	3.35E+3	8.25E-2	5.99E+2
4.50E-1	3.43E+3	9.11E-2	6.92E+2
4.42E-1	3.45E+3	9.59E-2	6.98E+2
4.21E-1	3.42E+3	8.33E-2	6.23E+2
4.17E-1	3.38E+3	9.03E-2	6.55E+2
4.34E-1	3.58E+3	8.40E-2	6.14E+2
4.21E-1	3.39E+3	8.76E-2	5.73E+2
4.28E-1	3.48E+3	8.08E-2	5.96E+2
4.18E-1	3.45E+3	8.37E-2	6.10E+2
4.05E-1	3.26E+3	9.01E-2	6.62E+2
4.16E-1	3.39E+3	8.35E-2	6.20E+2
4.19E-1	3.38E+3	8.62E-2	6.13E+2
4.28E-1	3.43E+3	7.98E-2	5.66E+2
4.28E-1	3.41E+3	8.81E-2	6.42E+2
4.31E-1	3.53E+3	8.84E-2	6.77E+2
4.19E-1	3.41E+3	8.57E-2	6.41E+2
4.27E-1	3.47E+3	9.16E-2	7.13E+2
4.28E-1	3.37E+3	8.96E-2	6.54E+2
4.13E-1	3.25E+3	9.67E-2	6.50E+2
4.47E-1	3.53E+3	8.76E-2	5.60E+2
4.13E-1	3.32E+3	8.35E-2	6.29E+2
4.16E-1	3.42E+3	8.13E-2	5.92E+2
4.21E-1	3.44E+3	9.06E-2	6.26E+2
4.36E-1	3.52E+3	9.13E-2	6.28E+2
4.26E-1	3.44E+3	8.15E-2	5.95E+2
4.35E-1	3.45E+3	7.57E-2	5.59E+2
4.21E-1	3.38E+3	8.30E-2	5.79E+2
4.41E-1	3.51E+3	8.81E-2	6.43E+2
4.40E-1	3.43E+3	9.16E-2	6.57E+2
4.27E-1	3.48E+3	8.64E-2	5.79E+2
4.47E-1	3.47E+3	8.42E-2	6.11E+2
4.45E-1	3.38E+3	9.03E-2	6.50E+2
4.49E-1	3.53E+3	8.42E-2	5.80E+2
4.07E-1	3.35E+3	8.11E-2	6.20E+2
4.34E-1	3.48E+3	9.01E-2	6.56E+2
4.23E-1	3.39E+3	7.91E-2	5.58E+2
4.43E-1	3.39E+3	8.72E-2	6.59E+2
7.32E-3	1.88E+1	2.29E-1	1.82E+3
4.28E-1	3.52E+3	7.86E-2	5.72E+2
4.34E-1	3.61E+3	8.69E-2	6.52E+2
4.34E-1	3.51E+3	8.11E-2	6.11E+2
4.08E-1	3.38E+3	8.52E-2	6.32E+2
4.19E-1	3.42E+3	9.16E-2	6.51E+2
4.17E-1	3.28E+3	8.37E-2	5.85E+2
4.21E-1	3.43E+3	8.28E-2	6.04E+2
4.05E-1	3.26E+3	9.11E-2	6.52E+2
4.21E-1	3.50E+3	8.33E-2	6.15E+2
4.19E-1	3.41E+3	8.79E-2	6.58E+2
4.12E-1	3.38E+3	8.11E-2	6.11E+2
4.16E-1	3.35E+3	8.47E-2	5.58E+2
4.26E-1	3.46E+3	9.08E-2	6.55E+2
4.30E-1	3.45E+3	7.98E-2	5.50E+2
4.29E-1	3.40E+3	8.91E-2	6.57E+2
4.32E-1	3.44E+3	8.64E-2	6.75E+2
4.27E-1	3.39E+3	1.00E-1	6.89E+2
4.18E-1	3.39E+3	9.28E-2	6.73E+2
4.23E-1	3.47E+3	9.74E-2	6.95E+2
4.21E-1	3.37E+3	8.57E-2	6.13E+2
4.34E-1	3.50E+3	8.59E-2	6.30E+2
4.13E-1	3.33E+3	8.67E-2	5.97E+2
4.20E-1	3.37E+3	8.45E-2	5.95E+2
4.24E-1	3.33E+3	9.06E-2	6.22E+2
4.17E-1	3.37E+3	8.98E-2	6.29E+2
4.34E-1	3.47E+3	8.20E-2	5.89E+2
4.33E-1	3.51E+3	8.28E-2	6.04E+2
4.42E-1	3.53E+3	8.64E-2	6.25E+2
4.25E-1	3.43E+3	9.33E-2	6.86E+2
4.17E-1	3.40E+3	8.42E-2	5.77E+2
4.25E-1	3.46E+3	9.47E-2	6.49E+2
4.35E-1	3.29E+3	8.98E-2	6.67E+2
4.24E-1	3.50E+3	9.01E-2	6.50E+2
4.41E-1	3.57E+3	8.72E-2	6.82E+2
4.18E-1	3.41E+3	8.98E-2	6.86E+2
4.29E-1	3.48E+3	7.93E-2	5.69E+2
4.24E-1	3.44E+3	8.50E-2	6.36E+2
4.43E-1	3.49E+3	8.98E-2	6.36E+2
4.34E-1	3.41E+3	9.59E-2	7.16E+2
4.23E-1	3.42E+3	1.01E-1	7.09E+2
4.25E-1	3.43E+3	8.86E-2	5.98E+2
4.48E-1	3.53E+3	9.45E-2	6.48E+2
4.17E-1	3.38E+3	8.42E-2	5.46E+2
4.16E-1	3.40E+3	8.74E-2	6.22E+2
4.37E-1	3.46E+3	8.96E-2	6.59E+2
4.21E-1	3.37E+3	8.81E-2	6.64E+2
4.06E-1	3.34E+3	9.25E-2	6.81E+2
4.30E-1	3.52E+3	8.59E-2	5.94E+2
4.34E-1	3.54E+3	8.50E-2	6.77E+2
4.18E-1	3.41E+3	9.18E-2	6.45E+2
4.19E-1	3.23E+3	9.03E-2	6.08E+2
4.48E-1	3.53E+3	8.81E-2	6.59E+2
4.17E-1	3.37E+3	9.06E-2	6.11E+2
4.25E-1	3.48E+3	8.76E-2	5.76E+2
4.46E-1	3.43E+3	8.74E-2	5.54E+2
4.23E-1	3.46E+3	9.35E-2	6.63E+2
4.37E-1	3.40E+3	8.69E-2	6.58E+2
4.29E-1	3.35E+3	9.28E-2	6.54E+2
4.40E-1	3.43E+3	8.86E-2	6.78E+2
4.49E-1	3.48E+3	9.08E-2	6.85E+2
4.36E-1	3.50E+3	7.98E-2	6.10E+2
4.51E-1	3.55E+3	9.50E-2	7.02E+2
4.17E-1	3.41E+3	8.96E-2	6.17E+2
4.27E-1	3.45E+3	8.81E-2	6.70E+2
4.27E-1	3.49E+3	8.84E-2	6.17E+2
4.19E-1	3.40E+3	8.30E-2	5.56E+2
4.18E-1	3.37E+3	9.11E-2	6.07E+2
4.27E-1	3.47E+3	8.08E-2	5.75E+2
4.29E-1	3.30E+3	8.64E-2	6.42E+2
4.43E-1	3.35E+3	8.62E-2	5.96E+2
4.24E-1	3.35E+3	8.74E-2	5.96E+2
4.19E-1	3.40E+3	8.59E-2	5.90E+2
4.23E-1	3.39E+3	8.86E-2	6.52E+2
4.31E-1	3.51E+3	8.64E-2	6.55E+2
4.28E-1	3.47E+3	9.64E-2	6.72E+2
4.20E-1	3.38E+3	9.06E-2	6.71E+2
4.28E-1	3.42E+3	8.45E-2	5.95E+2
4.37E-1	3.42E+3	8.91E-2	6.40E+2
4.33E-1	3.40E+3	7.98E-2	5.90E+2
4.26E-1	3.43E+3	8.11E-2	5.96E+2
4.11E-1	3.35E+3	8.98E-2	6.44E+2
4.56E-1	3.55E+3	8.50E-2	6.20E+2
4.24E-1	3.39E+3	8.72E-2	6.57E+2
4.32E-1	3.40E+3	8.50E-2	6.10E+2
4.24E-1	3.38E+3	8.57E-2	6.10E+2
4.34E-1	3.48E+3	8.52E-2	6.25E+2
