6.03E-1	4.74E+3	1.49E-1	1.01E+3
6.43E-1	4.97E+3	1.62E-1	9.54E+2
6.09E-1	4.77E+3	1.38E-1	9.42E+2
6.36E-1	4.73E+3	1.46E-1	9.42E+2
6.30E-1	4.94E+3	1.44E-1	9.85E+2
6.25E-1	4.82E+3	1.38E-1	9.14E+2
6.16E-1	4.81E+3	1.35E-1	8.66E+2
6.21E-1	4.75E+3	1.50E-1	9.23E+2
6.52E-1	4.76E+3	1.37E-1	8.51E+2
6.43E-1	4.88E+3	1.43E-1	9.45E+2
6.15E-1	4.85E+3	1.41E-1	9.53E+2
6.61E-1	4.84E+3	1.33E-1	8.46E+2
6.46E-1	4.95E+3	1.45E-1	8.87E+2
6.24E-1	4.87E+3	1.37E-1	9.00E+2
6.44E-1	4.91E+3	1.51E-1	1.02E+3
6.50E-1	4.94E+3	1.49E-1	9.88E+2
6.18E-1	4.79E+3	1.47E-1	1.02E+3
6.37E-1	4.84E+3	1.45E-1	9.62E+2
6.23E-1	4.81E+3	1.47E-1	1.02E+3
6.17E-1	4.93E+3	1.37E-1	9.60E+2
6.13E-1	4.72E+3	1.28E-1	8.93E+2
6.25E-1	4.94E+3	1.42E-1	9.46E+2
6.07E-1	4.70E+3	1.40E-1	9.30E+2
6.30E-1	4.80E+3	1.44E-1	9.41E+2
6.19E-1	4.79E+3	1.48E-1	9.31E+2
6.14E-1	4.76E+3	1.50E-1	1.01E+3
6.07E-1	4.78E+3	1.36E-1	9.01E+2
6.46E-1	4.89E+3	1.41E-1	9.16E+2
6.23E-1	4.72E+3	1.33E-1	9.04E+2
6.17E-1	4.84E+3	1.52E-1	9.91E+2
6.24E-1	4.83E+3	1.41E-1	9.28E+2
6.30E-1	4.98E+3	1.28E-1	8.82E+2
6.20E-1	4.82E+3	1.51E-1	1.00E+3
6.20E-1	4.98E+3	1.42E-1	9.74E+2
6.14E-1	4.80E+3	1.38E-1	9.38E+2
6.29E-1	4.83E+3	1.35E-1	9.28E+2
6.36E-1	4.72E+3	1.48E-1	9.59E+2
6.57E-1	4.78E+3	1.42E-1	9.34E+2
6.23E-1	4.95E+3	1.49E-1	9.43E+2
6.24E-1	4.80E+3	1.59E-1	9.67E+2
6.37E-1	4.87E+3	1.57E-1	1.03E+3
6.27E-1	4.83E+3	1.45E-1	9.39E+2
6.59E-1	4.85E+3	1.35E-1	8.39E+2
6.29E-1	4.74E+3	1.45E-1	9.63E+2
6.45E-1	4.83E+3	1.44E-1	9.27E+2
6.44E-1	4.95E+3	1.39E-1	9.40E+2
6.27E-1	4.71E+3	1.42E-1	9.22E+2
6.50E-1	4.84E+3	1.46E-1	9.13E+2
6.08E-1	4.87E+3	1.50E-1	9.59E+2
6.43E-1	4.87E+3	1.57E-1	1.01E+3
6.21E-1	4.69E+3	1.38E-1	8.48E+2
6.46E-1	4.87E+3	1.34E-1	8.41E+2
6.28E-1	4.87E+3	1.56E-1	9.50E+2
6.14E-1	4.80E+3	1.52E-1	9.47E+2
6.31E-1	4.82E+3	1.44E-1	9.27E+2
6.27E-1	4.83E+3	1.41E-1	9.55E+2
6.36E-1	4.81E+3	1.52E-1	9.73E+2
6.32E-1	4.96E+3	1.42E-1	9.14E+2
6.35E-1	4.88E+3	1.40E-1	9.68E+2
6.39E-1	4.89E+3	1.45E-1	9.03E+2
6.15E-1	4.77E+3	1.34E-1	8.86E+2
6.56E-1	4.96E+3	1.43E-1	9.10E+2
6.07E-1	4.66E+3	1.40E-1	9.36E+2
6.45E-1	4.85E+3	1.46E-1	9.70E+2
6.23E-1	4.81E+3	1.41E-1	8.43E+2
6.36E-1	4.86E+3	1.44E-1	9.26E+2
6.45E-1	4.84E+3	1.43E-1	9.22E+2
6.45E-1	4.81E+3	1.54E-1	9.95E+2
6.57E-1	4.88E+3	1.45E-1	9.40E+2
6.25E-1	4.88E+3	1.37E-1	8.75E+2
6.12E-1	4.81E+3	1.41E-1	8.88E+2
6.27E-1	4.88E+3	1.38E-1	9.33E+2
6.23E-1	4.82E+3	1.46E-1	9.34E+2
6.29E-1	4.88E+3	1.37E-1	8.74E+2
6.26E-1	4.83E+3	1.45E-1	9.52E+2
6.61E-1	4.93E+3	1.49E-1	9.88E+2
6.44E-1	4.87E+3	1.43E-1	9.35E+2
6.48E-1	4.78E+3	1.34E-1	8.34E+2
6.49E-1	4.81E+3	1.56E-1	9.99E+2
6.57E-1	4.78E+3	1.39E-1	8.69E+2
6.60E-1	4.95E+3	1.44E-1	9.23E+2
6.42E-1	4.77E+3	1.44E-1	8.84E+2
6.36E-1	4.85E+3	1.49E-1	1.01E+3
6.29E-1	4.93E+3	1.40E-1	9.34E+2
6.44E-1	4.84E+3	1.48E-1	9.58E+2
6.00E-1	4.73E+3	1.52E-1	9.54E+2
6.08E-1	4.71E+3	1.54E-1	1.05E+3
6.18E-1	4.84E+3	1.50E-1	9.61E+2
6.41E-1	4.75E+3	1.34E-1	8.99E+2
6.25E-1	4.85E+3	1.36E-1	9.18E+2
6.08E-1	4.81E+3	1.36E-1	9.42E+2
6.56E-1	4.91E+3	1.39E-1	8.63E+2
6.06E-1	4.68E+3	1.45E-1	8.68E+2
6.37E-1	4.76E+3	1.39E-1	8.83E+2
6.21E-1	4.87E+3	1.50E-1	9.83E+2
6.28E-1	4.86E+3	1.52E-1	9.80E+2
6.18E-1	4.67E+3	1.44E-1	9.24E+2
6.40E-1	4.96E+3	1.43E-1	9.68E+2
6.58E-1	5.04E+3	1.38E-1	9.07E+2
6.50E-1	4.81E+3	1.42E-1	9.76E+2
6.50E-1	4.84E+3	1.50E-1	1.05E+3
6.49E-1	4.95E+3	1.37E-1	9.43E+2
6.46E-1	4.75E+3	1.48E-1	9.43E+2
6.18E-1	4.91E+3	1.36E-1	8.88E+2
6.12E-1	4.91E+3	1.44E-1	9.27E+2
6.47E-1	4.77E+3	1.42E-1	9.44E+2
6.19E-1	4.74E+3	1.39E-1	8.98E+2
6.54E-1	4.78E+3	1.41E-1	9.30E+2
6.46E-1	4.89E+3	1.43E-1	9.26E+2
6.11E-1	4.78E+3	1.39E-1	9.14E+2
6.37E-1	4.96E+3	1.42E-1	9.53E+2
6.14E-1	4.76E+3	1.38E-1	9.00E+2
6.25E-1	4.83E+3	1.44E-1	9.70E+2
6.63E-1	4.87E+3	1.46E-1	9.14E+2
6.34E-1	4.81E+3	1.38E-1	9.09E+2
6.16E-1	4.75E+3	1.37E-1	9.26E+2
6.19E-1	4.71E+3	1.50E-1	1.06E+3
6.23E-1	4.76E+3	1.46E-1	9.74E+2
6.40E-1	4.84E+3	1.43E-1	9.30E+2
6.33E-1	4.66E+3	1.55E-1	9.70E+2
6.13E-1	4.85E+3	1.51E-1	9.15E+2
6.31E-1	4.90E+3	1.37E-1	9.24E+2
6.15E-1	4.70E+3	1.46E-1	9.26E+2
6.32E-1	4.94E+3	1.40E-1	9.09E+2
6.34E-1	4.77E+3	1.45E-1	9.06E+2
6.56E-1	4.85E+3	1.61E-1	1.04E+3
6.52E-1	4.82E+3	1.30E-1	8.74E+2
6.27E-1	4.87E+3	1.41E-1	9.50E+2
6.45E-1	4.93E+3	1.43E-1	9.70E+2
6.16E-1	4.85E+3	1.47E-1	9.37E+2
5.37E-3	5.52E+0	3.89E-1	2.47E+3
6.32E-1	4.87E+3	1.38E-1	8.75E+2
6.51E-1	4.83E+3	1.47E-1	9.51E+2
6.20E-1	4.95E+3	1.40E-1	8.88E+2
6.40E-1	4.76E+3	1.51E-1	9.13E+2
6.51E-1	4.82E+3	1.51E-1	9.66E+2
6.21E-1	4.86E+3	1.29E-1	8.36E+2
6.40E-1	4.89E+3	1.47E-1	9.69E+2
6.18E-1	4.92E+3	1.41E-1	9.18E+2
6.17E-1	4.84E+3	1.53E-1	9.68E+2
6.34E-1	4.79E+3	1.45E-1	9.91E+2
6.10E-1	4.88E+3	1.58E-1	1.05E+3
6.40E-1	4.79E+3	1.51E-1	9.86E+2
6.29E-1	4.87E+3	1.56E-1	9.57E+2
6.32E-1	4.77E+3	1.42E-1	8.84E+2
6.65E-1	4.92E+3	1.40E-1	9.79E+2
6.10E-1	4.72E+3	1.43E-1	9.76E+2
6.37E-1	4.74E+3	1.53E-1	9.73E+2
6.45E-1	4.84E+3	1.42E-1	9.08E+2
6.09E-1	4.74E+3	1.56E-1	9.62E+2
6.49E-1	4.87E+3	1.48E-1	9.71E+2
6.39E-1	4.84E+3	1.47E-1	9.45E+2
6.38E-1	4.87E+3	1.49E-1	9.49E+2
6.35E-1	4.88E+3	1.43E-1	9.61E+2
6.18E-1	4.85E+3	1.39E-1	8.89E+2
6.26E-1	4.77E+3	1.47E-1	9.02E+2
6.17E-1	4.73E+3	1.38E-1	9.27E+2
6.34E-1	4.74E+3	1.52E-1	9.39E+2
6.47E-1	4.73E+3	1.49E-1	9.61E+2
6.42E-1	4.90E+3	1.58E-1	9.98E+2
3.37E-2	2.59E+1	3.90E-1	2.50E+3
6.55E-1	4.91E+3	1.36E-1	8.95E+2
6.37E-1	4.84E+3	1.43E-1	8.89E+2
6.18E-1	4.84E+3	1.41E-1	9.07E+2
6.12E-1	4.69E+3	1.34E-1	9.05E+2
6.19E-1	4.69E+3	1.45E-1	8.98E+2
6.39E-1	5.01E+3	1.53E-1	9.24E+2
6.32E-1	4.86E+3	1.47E-1	1.03E+3
6.33E-1	4.81E+3	1.49E-1	9.74E+2
6.32E-1	4.90E+3	1.49E-1	9.87E+2
6.04E-1	4.69E+3	1.42E-1	9.86E+2
6.20E-1	4.87E+3	1.43E-1	9.60E+2
6.27E-1	4.81E+3	1.43E-1	9.39E+2
6.35E-1	4.94E+3	1.41E-1	9.82E+2
6.47E-1	4.92E+3	1.46E-1	9.34E+2
6.56E-1	4.82E+3	1.41E-1	9.21E+2
6.23E-1	4.93E+3	1.54E-1	9.79E+2
6.35E-1	4.90E+3	1.38E-1	9.02E+2
6.14E-1	4.89E+3	1.48E-1	9.47E+2
6.46E-1	4.75E+3	1.46E-1	9.03E+2
6.12E-1	4.73E+3	1.46E-1	9.12E+2
6.17E-1	4.83E+3	1.48E-1	9.95E+2
6.32E-1	4.83E+3	1.45E-1	9.69E+2
6.11E-1	4.71E+3	1.37E-1	9.21E+2
6.12E-1	4.68E+3	1.45E-1	9.78E+2
6.45E-1	4.83E+3	1.53E-1	1.00E+3
6.10E-1	4.77E+3	1.45E-1	9.28E+2
6.26E-1	4.85E+3	1.50E-1	9.55E+2
6.34E-1	4.88E+3	1.43E-1	9.16E+2
6.22E-1	4.85E+3	1.57E-1	9.84E+2
6.15E-1	4.86E+3	1.53E-1	9.73E+2
6.21E-1	4.82E+3	1.41E-1	8.97E+2
6.29E-1	4.75E+3	1.52E-1	9.73E+2
6.32E-1	4.80E+3	1.38E-1	8.53E+2
6.34E-1	4.84E+3	1.37E-1	8.78E+2
6.46E-1	4.92E+3	1.43E-1	9.56E+2
6.25E-1	4.94E+3	1.41E-1	9.05E+2
6.11E-1	4.85E+3	1.48E-1	9.83E+2
6.09E-1	4.87E+3	1.45E-1	9.48E+2
6.14E-1	4.80E+3	1.44E-1	9.96E+2
6.15E-1	4.78E+3	1.35E-1	9.17E+2
6.36E-1	4.82E+3	1.53E-1	1.03E+3
6.43E-1	4.89E+3	1.52E-1	9.99E+2
6.26E-1	4.96E+3	1.54E-1	1.03E+3
6.23E-1	4.78E+3	1.35E-1	8.41E+2
6.47E-1	4.82E+3	1.43E-1	9.17E+2
6.27E-1	4.81E+3	1.47E-1	9.12E+2
6.33E-1	4.91E+3	1.46E-1	1.02E+3
6.53E-1	4.77E+3	1.36E-1	9.39E+2
6.41E-1	4.70E+3	1.46E-1	8.95E+2
6.21E-1	4.79E+3	1.55E-1	1.00E+3
6.14E-1	4.75E+3	1.29E-1	8.69E+2
6.25E-1	4.78E+3	1.48E-1	9.43E+2
6.39E-1	4.83E+3	1.42E-1	9.46E+2
6.27E-1	4.82E+3	1.40E-1	9.02E+2
6.32E-1	4.75E+3	1.45E-1	9.24E+2
6.56E-1	4.83E+3	1.43E-1	9.87E+2
6.25E-1	4.90E+3	1.46E-1	1.01E+3
6.60E-1	4.74E+3	1.43E-1	8.99E+2
6.44E-1	4.92E+3	1.42E-1	9.34E+2
6.48E-1	4.96E+3	1.49E-1	9.91E+2
6.15E-1	4.73E+3	1.49E-1	9.40E+2
6.16E-1	4.80E+3	1.45E-1	9.50E+2
6.36E-1	5.02E+3	1.45E-1	9.47E+2
6.15E-1	4.75E+3	1.33E-1	9.17E+2
6.35E-1	4.82E+3	1.47E-1	9.42E+2
6.05E-1	4.73E+3	1.44E-1	9.72E+2
6.13E-1	4.76E+3	1.54E-1	9.48E+2
6.41E-1	4.85E+3	1.33E-1	8.96E+2
6.45E-1	4.87E+3	1.32E-1	8.65E+2
6.49E-1	4.89E+3	1.42E-1	9.21E+2
6.29E-1	4.86E+3	1.34E-1	9.02E+2
6.40E-1	4.86E+3	1.53E-1	9.95E+2
6.12E-1	4.65E+3	1.43E-1	9.25E+2
6.17E-1	4.82E+3	1.43E-1	9.65E+2
6.38E-1	4.93E+3	1.47E-1	9.52E+2
6.26E-1	4.81E+3	1.36E-1	9.36E+2
6.39E-1	4.76E+3	1.45E-1	9.50E+2
6.43E-1	4.87E+3	1.36E-1	9.07E+2
6.39E-1	4.87E+3	1.45E-1	9.15E+2
6.44E-1	4.87E+3	1.40E-1	1.01E+3
6.16E-1	4.65E+3	1.41E-1	8.67E+2
6.60E-1	4.76E+3	1.37E-1	9.08E+2
6.25E-1	4.74E+3	1.46E-1	9.03E+2
6.53E-1	4.91E+3	1.56E-1	9.41E+2
6.32E-1	4.86E+3	1.41E-1	9.08E+2
6.15E-1	4.70E+3	1.48E-1	9.16E+2
6.24E-1	4.85E+3	1.40E-1	9.09E+2
6.21E-1	4.72E+3	1.52E-1	9.45E+2
6.25E-1	4.83E+3	1.40E-1	9.60E+2
6.12E-1	4.81E+3	1.51E-1	9.51E+2
6.25E-1	4.77E+3	1.47E-1	9.67E+2
6.20E-1	4.83E+3	1.45E-1	9.27E+2
6.23E-1	4.80E+3	1.38E-1	9.05E+2
6.34E-1	4.84E+3	1.50E-1	1.04E+3
6.35E-1	4.79E+3	1.45E-1	9.76E+2
6.20E-1	4.70E+3	1.51E-1	9.74E+2
6.44E-1	4.83E+3	1.50E-1	9.80E+2
6.45E-1	4.83E+3	1.50E-1	9.00E+2
6.30E-1	4.72E+3	1.47E-1	9.53E+2
6.22E-1	4.72E+3	1.39E-1	8.55E+2
6.39E-1	4.96E+3	1.61E-1	1.00E+3
6.10E-1	4.74E+3	1.58E-1	9.85E+2
6.20E-1	4.78E+3	1.50E-1	9.68E+2
6.34E-1	4.88E+3	1.38E-1	9.65E+2
6.52E-1	4.90E+3	1.54E-1	1.00E+3
6.40E-1	4.81E+3	1.41E-1	9.42E+2
6.41E-1	4.80E+3	1.41E-1	9.14E+2
6.54E-1	4.86E+3	1.46E-1	9.58E+2
6.14E-1	4.78E+3	1.45E-1	9.27E+2
6.17E-1	4.76E+3	1.39E-1	9.50E+2
6.55E-1	4.87E+3	1.37E-1	8.99E+2
6.35E-1	4.69E+3	1.47E-1	9.05E+2
6.40E-1	4.83E+3	1.47E-1	9.27E+2
6.09E-1	4.73E+3	1.36E-1	9.18E+2
6.62E-1	4.92E+3	1.40E-1	9.45E+2
6.44E-1	4.88E+3	1.50E-1	9.54E+2
6.15E-1	4.81E+3	1.42E-1	9.68E+2
6.38E-1	4.83E+3	1.45E-1	9.85E+2
6.48E-1	4.73E+3	1.37E-1	9.14E+2
6.14E-1	4.85E+3	1.40E-1	9.82E+2
6.15E-1	4.69E+3	1.33E-1	9.08E+2
6.30E-1	4.74E+3	1.41E-1	8.91E+2
6.34E-1	4.86E+3	1.36E-1	8.91E+2
6.60E-1	4.88E+3	1.49E-1	9.81E+2
6.29E-1	4.78E+3	1.35E-1	9.08E+2
6.25E-1	4.94E+3	1.44E-1	8.72E+2
6.43E-1	4.83E+3	1.46E-1	9.34E+2
6.57E-1	4.77E+3	1.46E-1	9.50E+2
6.52E-1	4.88E+3	1.48E-1	9.89E+2
6.05E-1	4.69E+3	1.44E-1	8.61E+2
6.30E-1	4.81E+3	1.43E-1	9.31E+2
6.12E-1	4.82E+3	1.33E-1	8.82E+2
6.14E-1	4.80E+3	1.44E-1	9.86E+2
6.04E-1	4.72E+3	1.38E-1	9.33E+2
6.32E-1	4.93E+3	1.47E-1	8.57E+2
6.31E-1	4.72E+3	1.44E-1	9.34E+2
6.40E-1	4.71E+3	1.37E-1	9.07E+2
6.41E-1	4.85E+3	1.39E-1	8.99E+2
6.45E-1	4.80E+3	1.46E-1	9.98E+2
6.61E-1	4.81E+3	1.41E-1	9.11E+2
6.52E-1	4.88E+3	1.62E-1	1.00E+3
6.41E-1	4.89E+3	1.30E-1	8.59E+2
6.47E-1	4.87E+3	1.30E-1	8.58E+2
6.34E-1	4.90E+3	1.46E-1	9.50E+2
6.67E-1	5.01E+3	1.54E-1	9.33E+2
6.26E-1	4.74E+3	1.39E-1	9.56E+2
6.46E-1	4.83E+3	1.52E-1	9.75E+2
6.33E-1	4.92E+3	1.41E-1	9.86E+2
6.65E-1	4.85E+3	1.46E-1	9.61E+2
6.42E-1	4.85E+3	1.50E-1	9.65E+2
6.14E-1	4.79E+3	1.40E-1	9.46E+2
6.32E-1	4.79E+3	1.44E-1	9.38E+2
6.21E-1	4.90E+3	1.52E-1	9.45E+2
6.04E-1	4.70E+3	1.51E-1	9.02E+2
6.56E-1	4.89E+3	1.46E-1	9.30E+2
6.13E-1	4.77E+3	1.56E-1	1.01E+3
6.37E-1	4.80E+3	1.41E-1	8.98E+2
6.48E-1	4.83E+3	1.30E-1	8.07E+2
6.18E-1	4.74E+3	1.43E-1	8.91E+2
6.17E-1	4.81E+3	1.45E-1	9.66E+2
6.59E-1	4.79E+3	1.45E-1	1.01E+3
6.40E-1	4.92E+3	1.43E-1	9.76E+2
6.51E-1	4.76E+3	1.43E-1	9.98E+2
6.62E-1	5.06E+3	1.40E-1	9.70E+2
6.17E-1	4.74E+3	1.47E-1	9.80E+2
6.28E-1	4.87E+3	1.51E-1	9.63E+2
6.36E-1	4.83E+3	1.43E-1	9.59E+2
6.08E-1	4.73E+3	1.30E-1	8.36E+2
6.36E-1	4.89E+3	1.50E-1	9.18E+2
6.26E-1	4.83E+3	1.42E-1	8.82E+2
6.34E-1	4.76E+3	1.44E-1	9.40E+2
6.25E-1	4.94E+3	1.40E-1	9.28E+2
6.48E-1	4.88E+3	1.48E-1	9.67E+2
6.28E-1	4.70E+3	1.40E-1	9.23E+2
6.27E-1	4.70E+3	1.45E-1	9.46E+2
6.51E-1	4.80E+3	1.49E-1	9.81E+2
6.30E-1	4.76E+3	1.39E-1	9.41E+2
6.25E-1	4.72E+3	1.44E-1	9.80E+2
6.44E-1	4.91E+3	1.47E-1	9.49E+2
6.29E-1	4.88E+3	1.44E-1	9.21E+2
6.29E-1	4.84E+3	1.31E-1	9.09E+2
6.50E-1	4.90E+3	1.49E-1	1.01E+3
6.30E-1	4.80E+3	1.46E-1	1.00E+3
6.16E-1	4.74E+3	1.38E-1	9.23E+2
6.20E-1	4.77E+3	1.45E-1	9.90E+2
6.12E-1	4.82E+3	1.47E-1	1.00E+3
6.18E-1	4.80E+3	1.45E-1	9.60E+2
6.38E-1	4.98E+3	1.37E-1	9.09E+2
6.13E-1	4.78E+3	1.63E-1	9.98E+2
6.05E-1	4.68E+3	1.53E-1	9.80E+2
6.44E-1	4.82E+3	1.56E-1	1.01E+3
6.27E-1	4.92E+3	1.39E-1	9.21E+2
6.25E-1	4.89E+3	1.43E-1	8.52E+2
6.48E-1	4.86E+3	1.36E-1	8.73E+2
6.23E-1	4.83E+3	1.49E-1	9.51E+2
6.22E-1	4.83E+3	1.44E-1	1.04E+3
6.47E-1	4.81E+3	1.46E-1	9.33E+2
6.00E-1	4.75E+3	1.49E-1	9.87E+2
6.20E-1	4.86E+3	1.44E-1	8.97E+2
6.43E-1	4.89E+3	1.53E-1	9.74E+2
6.56E-1	4.85E+3	1.50E-1	9.90E+2
6.34E-1	4.75E+3	1.33E-1	8.96E+2
6.32E-1	4.85E+3	1.53E-1	9.94E+2
6.32E-1	4.79E+3	1.44E-1	9.28E+2
6.37E-1	4.79E+3	1.42E-1	9.12E+2
6.33E-1	4.77E+3	1.52E-1	9.30E+2
6.00E-1	4.73E+3	1.41E-1	9.19E+2
6.52E-1	4.88E+3	1.42E-1	9.26E+2
6.52E-1	4.80E+3	1.50E-1	9.51E+2
6.18E-1	4.63E+3	1.56E-1	1.00E+3
6.18E-1	4.80E+3	1.57E-1	9.77E+2
6.32E-1	4.80E+3	1.43E-1	9.37E+2
6.44E-1	4.92E+3	1.42E-1	9.51E+2
6.13E-1	4.78E+3	1.38E-1	8.88E+2
6.21E-1	4.82E+3	1.35E-1	9.39E+2
6.53E-1	4.82E+3	1.33E-1	9.21E+2
6.48E-1	5.05E+3	1.38E-1	9.21E+2
6.28E-1	4.89E+3	1.44E-1	9.59E+2
6.09E-1	4.73E+3	1.29E-1	8.82E+2
6.37E-1	4.84E+3	1.53E-1	9.94E+2
6.46E-1	4.83E+3	1.39E-1	9.09E+2
6.44E-1	4.87E+3	1.49E-1	9.56E+2
6.26E-1	4.90E+3	1.38E-1	8.98E+2
6.37E-1	4.75E+3	1.38E-1	9.51E+2
6.41E-1	4.79E+3	1.44E-1	9.31E+2
6.00E-1	4.70E+3	1.49E-1	9.68E+2
6.17E-1	4.79E+3	1.41E-1	9.80E+2
6.11E-1	4.86E+3	1.50E-1	9.51E+2
6.51E-1	4.90E+3	1.39E-1	9.63E+2
6.59E-1	4.89E+3	1.43E-1	1.00E+3
6.04E-1	4.73E+3	1.34E-1	8.95E+2
6.21E-1	4.82E+3	1.45E-1	9.73E+2
6.58E-1	4.96E+3	1.43E-1	9.47E+2
6.25E-1	4.73E+3	1.38E-1	9.38E+2
6.50E-1	4.82E+3	1.39E-1	9.44E+2
6.45E-1	4.89E+3	1.40E-1	9.17E+2
6.49E-1	4.87E+3	1.45E-1	9.27E+2
6.31E-1	4.80E+3	1.31E-1	8.31E+2
6.55E-1	4.86E+3	1.51E-1	9.32E+2
6.15E-1	4.80E+3	1.38E-1	9.48E+2
6.19E-1	4.77E+3	1.41E-1	9.90E+2
6.48E-1	4.73E+3	1.43E-1	9.33E+2
6.27E-1	4.83E+3	1.48E-1	9.62E+2
6.41E-1	5.02E+3	1.40E-1	9.47E+2
6.21E-1	4.85E+3	1.40E-1	9.38E+2
6.59E-3	6.59E+0	3.99E-1	2.53E+3
6.38E-1	4.85E+3	1.39E-1	8.96E+2
6.22E-1	4.92E+3	1.41E-1	9.48E+2
6.29E-1	4.71E+3	1.48E-1	9.52E+2
6.47E-1	4.92E+3	1.50E-1	1.02E+3
6.09E-1	4.75E+3	1.46E-1	9.15E+2
6.26E-1	4.77E+3	1.44E-1	9.17E+2
6.13E-1	4.79E+3	1.50E-1	9.46E+2
6.15E-1	4.71E+3	1.40E-1	8.98E+2
6.18E-1	4.87E+3	1.46E-1	9.34E+2
6.26E-1	4.77E+3	1.40E-1	1.01E+3
6.49E-1	4.82E+3	1.48E-1	9.68E+2
6.14E-1	4.80E+3	1.33E-1	8.90E+2
6.34E-1	4.79E+3	1.41E-1	8.86E+2
6.45E-1	4.72E+3	1.46E-1	8.83E+2
6.53E-1	4.83E+3	1.53E-1	9.88E+2
6.26E-1	4.76E+3	1.38E-1	8.65E+2
6.21E-1	4.81E+3	1.51E-1	9.40E+2
6.08E-1	4.79E+3	1.52E-1	9.88E+2
6.26E-1	4.62E+3	1.50E-1	9.32E+2
6.33E-1	4.80E+3	1.50E-1	9.34E+2
5.37E-3	1.01E+1	3.93E-1	2.43E+3
6.28E-1	4.93E+3	1.56E-1	1.00E+3
6.60E-1	4.75E+3	1.41E-1	9.46E+2
6.17E-1	4.79E+3	1.42E-1	9.53E+2
6.40E-1	4.85E+3	1.39E-1	8.54E+2
6.16E-1	4.79E+3	1.44E-1	9.94E+2
6.60E-1	4.82E+3	1.32E-1	8.74E+2
6.50E-1	4.83E+3	1.46E-1	9.99E+2
6.46E-1	4.90E+3	1.53E-1	1.03E+3
6.41E-1	4.91E+3	1.46E-1	9.86E+2
6.25E-1	4.81E+3	1.40E-1	9.31E+2
6.33E-1	4.81E+3	1.49E-1	9.12E+2
6.21E-1	4.83E+3	1.51E-1	9.62E+2
6.56E-1	4.86E+3	1.41E-1	9.06E+2
6.56E-1	4.95E+3	1.57E-1	9.89E+2
6.26E-1	4.78E+3	1.52E-1	9.78E+2
6.52E-1	4.78E+3	1.51E-1	9.42E+2
6.30E-1	4.88E+3	1.52E-1	9.67E+2
6.23E-1	4.84E+3	1.35E-1	9.10E+2
6.52E-1	4.92E+3	1.40E-1	9.62E+2
6.28E-1	4.89E+3	1.44E-1	9.25E+2
6.65E-1	4.96E+3	1.46E-1	9.13E+2
6.39E-1	4.83E+3	1.51E-1	9.94E+2
6.13E-1	4.80E+3	1.40E-1	9.13E+2
6.56E-1	4.83E+3	1.43E-1	8.64E+2
6.26E-1	4.91E+3	1.56E-1	9.08E+2
6.21E-1	4.73E+3	1.43E-1	9.27E+2
6.23E-1	4.86E+3	1.35E-1	8.70E+2
6.29E-1	4.79E+3	1.37E-1	9.05E+2
6.40E-1	4.83E+3	1.49E-1	9.59E+2
6.02E-1	4.77E+3	1.44E-1	9.68E+2
6.35E-1	4.79E+3	1.33E-1	9.19E+2
6.45E-1	4.87E+3	1.31E-1	8.49E+2
6.43E-1	4.81E+3	1.51E-1	9.23E+2
6.44E-1	4.86E+3	1.36E-1	8.99E+2
6.58E-1	4.86E+3	1.51E-1	9.84E+2
6.12E-1	4.89E+3	1.51E-1	1.00E+3
6.36E-1	4.90E+3	1.47E-1	9.32E+2
6.49E-1	4.85E+3	1.48E-1	9.19E+2
6.49E-1	4.81E+3	1.36E-1	9.21E+2
6.45E-1	4.81E+3	1.53E-1	9.54E+2
6.37E-1	4.95E+3	1.45E-1	9.90E+2
6.31E-1	4.83E+3	1.43E-1	9.75E+2
6.17E-1	4.85E+3	1.40E-1	9.69E+2
6.22E-1	4.84E+3	1.54E-1	1.01E+3
6.24E-1	4.83E+3	1.38E-1	9.57E+2
6.33E-1	4.86E+3	1.50E-1	9.58E+2
6.11E-1	4.80E+3	1.34E-1	9.39E+2
6.31E-1	4.86E+3	1.50E-1	9.71E+2
6.38E-1	4.85E+3	1.35E-1	9.14E+2
6.18E-1	4.77E+3	1.54E-1	1.01E+3
6.51E-1	4.91E+3	1.51E-1	9.66E+2
6.39E-1	4.84E+3	1.43E-1	8.90E+2
6.21E-1	4.96E+3	1.52E-1	9.75E+2
6.14E-1	4.79E+3	1.47E-1	8.70E+2
6.41E-1	4.84E+3	1.36E-1	9.38E+2
6.21E-1	4.91E+3	1.39E-1	8.75E+2
6.23E-1	4.84E+3	1.49E-1	1.02E+3
6.40E-1	4.87E+3	1.49E-1	1.04E+3
6.14E-1	4.77E+3	1.39E-1	9.31E+2
6.45E-1	4.88E+3	1.47E-1	9.73E+2
6.46E-1	4.79E+3	1.36E-1	9.08E+2
6.56E-1	4.84E+3	1.53E-1	9.03E+2
6.38E-1	4.77E+3	1.38E-1	9.08E+2
6.09E-1	4.79E+3	1.53E-1	9.92E+2
6.52E-1	4.82E+3	1.54E-1	9.45E+2
6.32E-1	4.88E+3	1.46E-1	9.78E+2
6.20E-1	4.76E+3	1.45E-1	9.32E+2
6.23E-1	4.90E+3	1.46E-1	1.01E+3
6.35E-1	4.89E+3	1.41E-1	9.35E+2
6.12E-1	4.79E+3	1.44E-1	1.01E+3
6.27E-1	4.75E+3	1.40E-1	9.00E+2
6.43E-1	4.94E+3	1.48E-1	9.81E+2
6.12E-1	4.85E+3	1.41E-1	9.75E+2
6.49E-1	4.98E+3	1.37E-1	8.82E+2
6.42E-1	4.96E+3	1.51E-1	9.91E+2
6.46E-1	4.87E+3	1.38E-1	9.16E+2
6.48E-1	4.89E+3	1.55E-1	9.77E+2
6.01E-1	4.67E+3	1.46E-1	9.87E+2
6.48E-1	4.81E+3	1.41E-1	9.12E+2
6.31E-1	4.87E+3	1.40E-1	9.23E+2
6.41E-1	4.87E+3	1.37E-1	8.67E+2
6.47E-1	4.89E+3	1.40E-1	9.54E+2
6.27E-1	4.85E+3	1.48E-1	9.06E+2
6.41E-1	4.84E+3	1.37E-1	9.28E+2
6.05E-1	4.75E+3	1.36E-1	9.47E+2
6.37E-1	4.78E+3	1.44E-1	9.33E+2
6.33E-1	4.93E+3	1.43E-1	9.61E+2
6.47E-1	4.89E+3	1.42E-1	9.17E+2
7.81E-3	6.64E+0	3.75E-1	2.54E+3
6.44E-1	4.85E+3	1.43E-1	8.69E+2
6.62E-1	4.84E+3	1.43E-1	9.73E+2
6.43E-1	4.79E+3	1.42E-1	9.43E+2
6.17E-1	4.74E+3	1.45E-1	9.05E+2
6.41E-1	4.97E+3	1.60E-1	1.01E+3
6.37E-1	4.77E+3	1.50E-1	9.21E+2
6.33E-1	4.95E+3	1.44E-1	1.00E+3
6.30E-1	4.70E+3	1.37E-1	9.09E+2
6.35E-1	4.79E+3	1.48E-1	1.00E+3
6.46E-1	4.79E+3	1.39E-1	9.50E+2
6.16E-1	4.88E+3	1.34E-1	8.90E+2
6.28E-1	4.79E+3	1.42E-1	1.02E+3
6.40E-1	4.90E+3	1.50E-1	9.37E+2
6.41E-1	4.91E+3	1.49E-1	9.59E+2
6.25E-1	4.79E+3	1.45E-1	9.36E+2
6.20E-1	4.70E+3	1.36E-1	8.91E+2
6.59E-1	4.90E+3	1.62E-1	1.01E+3
6.42E-1	4.89E+3	1.37E-1	9.09E+2
6.42E-1	4.82E+3	1.54E-1	9.95E+2
6.19E-1	4.77E+3	1.50E-1	9.28E+2
6.32E-1	4.75E+3	1.39E-1	9.90E+2
6.56E-1	4.93E+3	1.62E-1	9.67E+2
6.28E-1	4.89E+3	1.36E-1	9.15E+2
6.24E-1	4.83E+3	1.43E-1	8.98E+2
6.16E-1	4.90E+3	1.41E-1	9.18E+2
6.56E-1	4.78E+3	1.43E-1	9.15E+2
6.17E-1	4.78E+3	1.49E-1	9.02E+2
6.24E-1	4.84E+3	1.55E-1	9.42E+2
6.13E-1	4.90E+3	1.32E-1	8.82E+2
6.48E-1	4.78E+3	1.38E-1	9.70E+2
6.30E-1	4.91E+3	1.45E-1	9.50E+2
6.35E-1	4.79E+3	1.38E-1	8.78E+2
6.13E-1	4.75E+3	1.42E-1	8.96E+2
6.11E-1	4.82E+3	1.53E-1	1.02E+3
6.41E-1	4.87E+3	1.46E-1	9.46E+2
6.33E-1	4.93E+3	1.49E-1	9.46E+2
6.48E-1	4.92E+3	1.42E-1	9.29E+2
6.35E-1	4.94E+3	1.49E-1	9.97E+2
6.45E-1	4.74E+3	1.39E-1	9.25E+2
6.26E-1	4.90E+3	1.45E-1	9.26E+2
6.19E-1	4.72E+3	1.42E-1	9.42E+2
6.35E-1	4.94E+3	1.54E-1	1.01E+3
6.43E-1	4.80E+3	1.42E-1	9.18E+2
6.36E-1	4.67E+3	1.43E-1	8.73E+2
6.26E-1	4.84E+3	1.46E-1	9.29E+2
6.24E-1	4.83E+3	1.48E-1	9.19E+2
6.15E-1	4.85E+3	1.45E-1	8.75E+2
6.18E-1	4.84E+3	1.48E-1	9.01E+2
6.44E-1	4.88E+3	1.53E-1	9.77E+2
6.09E-1	4.78E+3	1.60E-1	1.00E+3
6.15E-1	4.81E+3	1.50E-1	9.48E+2
6.43E-1	5.01E+3	1.40E-1	8.98E+2
6.38E-1	4.82E+3	1.49E-1	9.62E+2
6.40E-1	4.76E+3	1.49E-1	9.27E+2
6.24E-1	4.74E+3	1.49E-1	9.41E+2
6.59E-1	4.90E+3	1.56E-1	9.28E+2
6.12E-1	4.82E+3	1.40E-1	9.27E+2
6.42E-1	4.90E+3	1.46E-1	9.21E+2
6.12E-1	4.80E+3	1.40E-1	9.39E+2
6.28E-1	4.81E+3	1.42E-1	8.72E+2
6.27E-1	4.91E+3	1.47E-1	8.67E+2
6.25E-1	4.80E+3	1.52E-1	9.99E+2
6.26E-1	4.90E+3	1.47E-1	9.43E+2
6.10E-1	4.76E+3	1.36E-1	9.13E+2
6.16E-1	4.80E+3	1.42E-1	9.53E+2
6.07E-1	4.78E+3	1.55E-1	1.00E+3
6.30E-1	5.00E+3	1.47E-1	9.97E+2
6.64E-1	4.91E+3	1.43E-1	9.86E+2
6.13E-1	4.81E+3	1.35E-1	9.14E+2
6.39E-1	4.87E+3	1.37E-1	9.15E+2
6.57E-1	4.89E+3	1.45E-1	9.18E+2
6.26E-1	4.90E+3	1.40E-1	8.72E+2
6.34E-1	4.88E+3	1.30E-1	8.74E+2
6.45E-1	4.78E+3	1.52E-1	9.12E+2
6.15E-1	4.87E+3	1.41E-1	9.38E+2
6.25E-1	5.01E+3	1.42E-1	9.23E+2
6.21E-1	4.91E+3	1.46E-1	1.00E+3
6.28E-1	4.92E+3	1.40E-1	8.81E+2
8.54E-3	1.56E+1	3.92E-1	2.46E+3
6.28E-1	4.77E+3	1.37E-1	9.30E+2
6.12E-1	4.77E+3	1.43E-1	9.25E+2
6.65E-1	4.84E+3	1.42E-1	9.29E+2
6.37E-1	4.87E+3	1.46E-1	9.56E+2
6.44E-1	4.77E+3	1.36E-1	8.68E+2
6.56E-1	4.98E+3	1.42E-1	9.48E+2
6.36E-1	4.82E+3	1.47E-1	9.35E+2
6.27E-1	4.80E+3	1.38E-1	8.81E+2
6.39E-1	4.80E+3	1.49E-1	9.96E+2
6.29E-1	4.87E+3	1.35E-1	8.80E+2
6.49E-1	4.78E+3	1.54E-1	9.71E+2
6.05E-1	4.78E+3	1.36E-1	9.53E+2
7.32E-3	-7.91E+0	3.96E-1	2.43E+3
6.15E-1	4.89E+3	1.40E-1	9.79E+2
6.25E-1	4.91E+3	1.33E-1	8.98E+2
6.40E-1	4.87E+3	1.37E-1	9.36E+2
6.27E-1	4.84E+3	1.46E-1	9.55E+2
6.48E-1	4.87E+3	1.49E-1	9.97E+2
6.16E-1	4.69E+3	1.48E-1	9.92E+2
6.39E-1	4.80E+3	1.49E-1	9.19E+2
6.35E-1	4.79E+3	1.45E-1	9.06E+2
6.39E-1	4.83E+3	1.35E-1	8.56E+2
6.11E-1	4.89E+3	1.53E-1	9.87E+2
6.02E-1	4.61E+3	1.47E-1	8.74E+2
6.28E-1	4.63E+3	1.59E-1	9.38E+2
6.66E-1	4.88E+3	1.41E-1	9.09E+2
6.22E-1	4.86E+3	1.35E-1	9.55E+2
6.18E-1	4.79E+3	1.46E-1	9.75E+2
6.22E-1	4.91E+3	1.44E-1	9.27E+2
6.36E-1	4.70E+3	1.41E-1	9.14E+2
6.06E-1	4.80E+3	1.38E-1	9.00E+2
6.15E-1	4.77E+3	1.57E-1	9.63E+2
6.43E-1	4.87E+3	1.45E-1	9.37E+2
6.00E-1	4.67E+3	1.47E-1	9.65E+2
6.41E-1	4.91E+3	1.39E-1	8.20E+2
6.21E-1	4.83E+3	1.54E-1	1.02E+3
6.25E-1	4.75E+3	1.43E-1	9.09E+2
6.56E-1	4.89E+3	1.39E-1	9.60E+2
6.34E-1	4.80E+3	1.45E-1	9.40E+2
6.26E-1	4.91E+3	1.44E-1	1.01E+3
6.53E-1	4.84E+3	1.40E-1	9.48E+2
6.35E-1	4.83E+3	1.47E-1	9.63E+2
6.25E-1	4.83E+3	1.47E-1	9.25E+2
6.27E-1	4.94E+3	1.42E-1	9.56E+2
6.58E-1	4.90E+3	1.40E-1	9.47E+2
6.16E-1	4.75E+3	1.46E-1	1.02E+3
6.49E-1	4.90E+3	1.50E-1	9.40E+2
6.46E-1	4.88E+3	1.39E-1	8.86E+2
6.19E-1	4.89E+3	1.48E-1	9.40E+2
6.25E-1	4.80E+3	1.50E-1	9.31E+2
6.50E-1	4.88E+3	1.51E-1	9.63E+2
6.54E-1	4.86E+3	1.31E-1	8.79E+2
8.79E-3	3.03E+1	3.86E-1	2.50E+3
6.17E-1	4.84E+3	1.49E-1	9.33E+2
6.23E-1	4.92E+3	1.47E-1	9.70E+2
6.45E-1	4.86E+3	1.44E-1	9.27E+2
6.47E-1	4.79E+3	1.39E-1	9.51E+2
6.14E-1	4.89E+3	1.37E-1	9.44E+2
6.54E-1	4.95E+3	1.27E-1	8.77E+2
6.22E-1	4.69E+3	1.46E-1	9.73E+2
6.30E-1	4.74E+3	1.47E-1	9.52E+2
6.35E-1	4.89E+3	1.54E-1	1.01E+3
6.46E-1	4.86E+3	1.45E-1	9.58E+2
2.83E-2	2.12E+1	3.85E-1	2.39E+3
6.53E-1	4.90E+3	1.37E-1	8.83E+2
6.31E-1	4.59E+3	1.43E-1	9.01E+2
6.28E-1	5.01E+3	1.37E-1	8.72E+2
6.25E-1	4.79E+3	1.41E-1	9.64E+2
6.37E-1	4.92E+3	1.47E-1	9.62E+2
6.53E-1	4.94E+3	1.31E-1	9.04E+2
6.24E-1	4.92E+3	1.55E-1	1.03E+3
6.24E-1	4.88E+3	1.51E-1	1.02E+3
6.21E-1	4.91E+3	1.49E-1	9.74E+2
6.12E-1	4.85E+3	1.41E-1	9.93E+2
6.11E-1	4.79E+3	1.45E-1	9.32E+2
6.59E-1	4.86E+3	1.43E-1	9.34E+2
6.65E-1	4.84E+3	1.30E-1	8.85E+2
6.59E-1	4.95E+3	1.39E-1	9.00E+2
6.48E-1	4.72E+3	1.35E-1	8.85E+2
6.42E-1	4.87E+3	1.46E-1	9.87E+2
6.18E-1	4.80E+3	1.47E-1	9.42E+2
6.39E-1	4.97E+3	1.41E-1	9.31E+2
6.19E-1	4.81E+3	1.47E-1	9.42E+2
6.33E-1	4.83E+3	1.48E-1	9.58E+2
6.19E-1	4.95E+3	1.29E-1	9.17E+2
6.34E-1	4.73E+3	1.39E-1	8.99E+2
6.12E-1	4.82E+3	1.46E-1	9.04E+2
5.97E-1	4.65E+3	1.32E-1	9.01E+2
6.20E-1	4.84E+3	1.48E-1	9.63E+2
6.35E-1	4.94E+3	1.36E-1	9.12E+2
6.51E-1	4.88E+3	1.48E-1	9.59E+2
6.35E-1	4.88E+3	1.54E-1	9.67E+2
6.27E-1	4.79E+3	1.50E-1	9.13E+2
6.44E-1	4.80E+3	1.51E-1	9.34E+2
6.19E-1	4.66E+3	1.51E-1	9.67E+2
6.21E-1	4.87E+3	1.51E-1	1.01E+3
6.13E-1	4.86E+3	1.47E-1	9.22E+2
6.18E-1	4.85E+3	1.35E-1	9.23E+2
6.39E-1	4.80E+3	1.44E-1	8.92E+2
6.36E-1	4.92E+3	1.52E-1	9.76E+2
6.17E-1	4.93E+3	1.43E-1	9.43E+2
6.37E-1	4.92E+3	1.45E-1	9.97E+2
6.08E-1	4.90E+3	1.34E-1	9.45E+2
6.42E-1	4.81E+3	1.43E-1	9.51E+2
6.35E-1	4.79E+3	1.39E-1	9.08E+2
6.06E-1	4.74E+3	1.45E-1	9.56E+2
6.19E-1	4.80E+3	1.55E-1	9.34E+2
6.15E-1	4.82E+3	1.32E-1	8.61E+2
6.49E-1	4.97E+3	1.45E-1	9.54E+2
6.11E-1	4.91E+3	1.52E-1	9.18E+2
6.46E-1	4.81E+3	1.43E-1	8.89E+2
6.17E-1	4.90E+3	1.45E-1	9.33E+2
6.32E-1	4.83E+3	1.43E-1	9.01E+2
6.20E-1	4.87E+3	1.41E-1	9.16E+2
6.32E-1	4.81E+3	1.36E-1	8.91E+2
6.45E-1	4.78E+3	1.42E-1	9.26E+2
6.51E-1	4.86E+3	1.37E-1	8.99E+2
6.15E-1	4.88E+3	1.54E-1	9.81E+2
6.52E-1	4.84E+3	1.58E-1	9.75E+2
6.46E-1	4.77E+3	1.29E-1	8.75E+2
6.10E-1	4.78E+3	1.46E-1	9.40E+2
6.49E-1	4.78E+3	1.48E-1	9.18E+2
6.63E-1	4.90E+3	1.44E-1	8.87E+2
6.04E-1	4.75E+3	1.36E-1	9.46E+2
6.14E-1	4.78E+3	1.53E-1	9.96E+2
6.13E-1	4.75E+3	1.55E-1	9.89E+2
6.04E-1	4.67E+3	1.53E-1	9.00E+2
6.25E-1	4.73E+3	1.55E-1	9.98E+2
6.18E-1	4.72E+3	1.50E-1	9.74E+2
6.51E-1	4.80E+3	1.48E-1	1.01E+3
6.28E-1	4.80E+3	1.43E-1	9.94E+2
6.57E-1	4.94E+3	1.47E-1	9.19E+2
6.47E-1	4.80E+3	1.48E-1	9.12E+2
6.46E-1	4.76E+3	1.42E-1	9.25E+2
6.41E-1	4.85E+3	1.42E-1	9.33E+2
6.39E-1	4.84E+3	1.52E-1	9.19E+2
6.36E-1	4.82E+3	1.51E-1	9.82E+2
6.52E-1	4.92E+3	1.37E-1	9.16E+2
6.50E-1	4.80E+3	1.40E-1	9.41E+2
6.12E-1	4.80E+3	1.44E-1	8.71E+2
6.29E-1	4.93E+3	1.42E-1	9.95E+2
6.36E-1	4.81E+3	1.45E-1	9.50E+2
6.34E-1	4.79E+3	1.45E-1	9.56E+2
6.57E-1	4.95E+3	1.45E-1	9.82E+2
6.44E-1	4.83E+3	1.57E-1	1.04E+3
6.27E-1	4.81E+3	1.50E-1	1.00E+3
6.08E-1	4.79E+3	1.52E-1	9.83E+2
6.27E-1	4.84E+3	1.35E-1	8.93E+2
6.27E-1	4.86E+3	1.41E-1	9.10E+2
6.59E-1	4.78E+3	1.51E-1	9.73E+2
6.26E-1	4.70E+3	1.50E-1	9.11E+2
6.11E-1	4.70E+3	1.49E-1	9.58E+2
6.07E-1	4.79E+3	1.49E-1	9.19E+2
6.05E-1	4.77E+3	1.53E-1	9.66E+2
6.26E-1	4.89E+3	1.46E-1	9.69E+2
6.05E-1	4.82E+3	1.44E-1	9.45E+2
6.63E-1	4.81E+3	1.45E-1	8.90E+2
6.18E-1	4.86E+3	1.44E-1	9.75E+2
6.46E-1	4.86E+3	1.55E-1	1.01E+3
6.57E-1	4.79E+3	1.50E-1	9.29E+2
6.37E-1	4.85E+3	1.48E-1	9.71E+2
6.42E-1	4.80E+3	1.40E-1	8.91E+2
6.27E-1	4.92E+3	1.46E-1	9.08E+2
6.38E-1	4.71E+3	1.50E-1	9.93E+2
6.18E-1	4.68E+3	1.39E-1	9.13E+2
6.07E-1	4.74E+3	1.39E-1	9.77E+2
6.30E-1	4.87E+3	1.52E-1	9.25E+2
6.32E-1	4.77E+3	1.47E-1	9.32E+2
6.46E-1	4.91E+3	1.47E-1	9.29E+2
6.07E-1	4.75E+3	1.24E-1	8.56E+2
6.15E-1	4.84E+3	1.40E-1	9.34E+2
6.35E-1	4.74E+3	1.46E-1	1.00E+3
6.47E-1	4.94E+3	1.38E-1	9.56E+2
6.40E-1	4.85E+3	1.37E-1	9.19E+2
6.24E-1	4.76E+3	1.41E-1	9.76E+2
6.20E-1	4.65E+3	1.48E-1	9.44E+2
6.38E-1	4.92E+3	1.35E-1	8.83E+2
6.49E-1	4.94E+3	1.66E-1	1.00E+3
6.32E-1	4.90E+3	1.41E-1	8.78E+2
6.09E-1	4.84E+3	1.44E-1	9.53E+2
6.24E-1	4.81E+3	1.50E-1	9.36E+2
6.31E-1	4.90E+3	1.43E-1	9.41E+2
6.22E-1	4.86E+3	1.49E-1	8.97E+2
6.51E-1	4.75E+3	1.38E-1	9.43E+2
6.63E-1	4.79E+3	1.31E-1	8.90E+2
6.25E-1	4.90E+3	1.44E-1	9.75E+2
6.04E-1	4.81E+3	1.36E-1	9.17E+2
6.46E-1	4.85E+3	1.45E-1	9.09E+2
6.27E-1	4.68E+3	1.54E-1	9.73E+2
6.19E-1	4.83E+3	1.46E-1	8.94E+2
6.60E-1	4.92E+3	1.43E-1	9.48E+2
6.43E-1	4.87E+3	1.43E-1	9.07E+2
6.23E-1	4.76E+3	1.37E-1	8.83E+2
6.39E-1	4.73E+3	1.32E-1	8.71E+2
6.13E-1	4.78E+3	1.45E-1	9.44E+2
6.25E-1	4.82E+3	1.38E-1	9.49E+2
6.01E-1	4.73E+3	1.42E-1	9.72E+2
6.45E-1	4.88E+3	1.43E-1	9.54E+2
6.33E-1	4.82E+3	1.45E-1	9.61E+2
6.10E-1	4.85E+3	1.35E-1	9.43E+2
6.19E-1	4.92E+3	1.40E-1	9.19E+2
6.19E-1	4.96E+3	1.29E-1	9.00E+2
6.24E-1	4.77E+3	1.44E-1	9.44E+2
6.28E-1	4.82E+3	1.46E-1	9.26E+2
6.51E-1	4.92E+3	1.50E-1	9.38E+2
6.05E-1	4.73E+3	1.46E-1	9.06E+2
6.19E-1	4.88E+3	1.49E-1	9.76E+2
6.08E-1	4.72E+3	1.48E-1	9.58E+2
6.15E-1	4.84E+3	1.52E-1	9.99E+2
6.39E-1	4.84E+3	1.51E-1	9.54E+2
6.48E-1	4.74E+3	1.45E-1	9.41E+2
6.27E-1	4.92E+3	1.42E-1	9.28E+2
6.38E-1	4.95E+3	1.43E-1	9.48E+2
6.67E-1	4.89E+3	1.39E-1	9.29E+2
6.24E-1	4.87E+3	1.33E-1	8.33E+2
6.41E-1	4.85E+3	1.46E-1	9.20E+2
6.04E-1	4.74E+3	1.46E-1	9.78E+2
6.05E-1	4.71E+3	1.48E-1	9.69E+2
6.49E-1	5.02E+3	1.36E-1	9.08E+2
6.23E-1	4.87E+3	1.42E-1	9.60E+2
6.43E-1	4.74E+3	1.48E-1	9.17E+2
6.28E-1	4.77E+3	1.51E-1	9.51E+2
6.27E-1	4.78E+3	1.44E-1	9.58E+2
6.00E-1	4.72E+3	1.44E-1	9.97E+2
6.15E-1	4.73E+3	1.37E-1	9.29E+2
6.24E-1	4.84E+3	1.31E-1	8.92E+2
6.10E-1	4.84E+3	1.38E-1	9.19E+2
6.25E-1	4.87E+3	1.42E-1	1.01E+3
6.30E-1	4.81E+3	1.45E-1	9.32E+2
6.20E-1	4.79E+3	1.47E-1	1.00E+3
6.35E-1	4.83E+3	1.43E-1	9.19E+2
6.47E-1	4.83E+3	1.41E-1	9.45E+2
6.10E-1	4.80E+3	1.46E-1	9.91E+2
6.39E-1	4.86E+3	1.44E-1	9.19E+2
6.45E-1	4.81E+3	1.51E-1	9.47E+2
6.18E-1	4.80E+3	1.54E-1	9.20E+2
6.42E-1	4.93E+3	1.28E-1	8.71E+2
6.67E-1	5.03E+3	1.38E-1	9.53E+2
6.56E-1	4.86E+3	1.42E-1	9.49E+2
6.30E-1	4.93E+3	1.46E-1	9.97E+2
6.23E-1	4.68E+3	1.38E-1	9.09E+2
6.34E-1	4.76E+3	1.45E-1	9.52E+2
6.03E-1	4.74E+3	1.43E-1	9.16E+2
6.37E-1	4.92E+3	1.40E-1	9.00E+2
6.11E-1	4.84E+3	1.47E-1	9.33E+2
6.29E-1	4.82E+3	1.32E-1	8.77E+2
6.18E-1	4.92E+3	1.41E-1	9.61E+2
6.23E-1	4.88E+3	1.46E-1	9.42E+2
6.32E-1	4.80E+3	1.41E-1	8.62E+2
6.56E-1	4.81E+3	1.36E-1	8.99E+2
6.19E-1	4.93E+3	1.39E-1	9.63E+2
6.26E-1	4.92E+3	1.52E-1	1.02E+3
6.27E-1	4.91E+3	1.43E-1	9.54E+2
6.16E-1	4.91E+3	1.39E-1	9.69E+2
6.23E-1	4.81E+3	1.46E-1	9.43E+2
6.17E-1	4.81E+3	1.33E-1	9.03E+2
6.07E-1	4.81E+3	1.36E-1	9.21E+2
6.21E-1	4.85E+3	1.43E-1	8.96E+2
3.34E-2	3.13E+1	3.89E-1	2.46E+3
6.30E-1	4.69E+3	1.38E-1	8.68E+2
6.18E-1	4.70E+3	1.57E-1	9.67E+2
6.53E-1	4.91E+3	1.53E-1	1.01E+3
6.54E-1	4.94E+3	1.36E-1	9.25E+2
6.33E-1	4.80E+3	1.43E-1	9.00E+2
6.33E-1	4.93E+3	1.57E-1	1.02E+3
6.15E-1	4.78E+3	1.47E-1	9.34E+2
6.34E-1	4.75E+3	1.46E-1	9.56E+2
6.23E-1	4.91E+3	1.51E-1	1.01E+3
6.27E-1	4.79E+3	1.34E-1	9.38E+2
6.12E-1	4.72E+3	1.40E-1	9.12E+2
6.42E-1	4.87E+3	1.38E-1	9.24E+2
6.30E-1	4.78E+3	1.46E-1	9.08E+2
6.35E-1	4.87E+3	1.30E-1	8.49E+2
6.48E-1	4.72E+3	1.36E-1	8.96E+2
6.37E-1	4.88E+3	1.50E-1	9.58E+2
6.19E-1	4.83E+3	1.54E-1	9.45E+2
6.57E-1	4.99E+3	1.46E-1	9.07E+2
6.28E-1	4.81E+3	1.57E-1	9.76E+2
6.21E-1	4.84E+3	1.47E-1	9.57E+2
5.86E-3	-7.76E+0	3.94E-1	2.60E+3
6.16E-1	4.79E+3	1.40E-1	9.18E+2
6.51E-1	4.86E+3	1.41E-1	8.76E+2
6.13E-1	4.80E+3	1.40E-1	9.17E+2
6.05E-1	4.76E+3	1.53E-1	1.02E+3
6.34E-1	4.97E+3	1.39E-1	9.14E+2
6.50E-1	4.81E+3	1.47E-1	9.37E+2
6.33E-1	4.75E+3	1.45E-1	9.48E+2
6.34E-1	4.79E+3	1.46E-1	9.36E+2
6.32E-1	4.77E+3	1.48E-1	9.16E+2
6.35E-1	4.80E+3	1.42E-1	9.37E+2
6.08E-1	4.94E+3	1.71E-1	1.03E+3
6.21E-1	4.81E+3	1.42E-1	8.81E+2
6.22E-1	4.88E+3	1.41E-1	9.27E+2
6.35E-1	4.86E+3	1.37E-1	9.13E+2
6.15E-1	4.80E+3	1.45E-1	9.35E+2
6.22E-1	4.83E+3	1.46E-1	9.53E+2
6.21E-1	4.65E+3	1.46E-1	9.47E+2
6.16E-1	4.85E+3	1.32E-1	8.75E+2
6.17E-1	4.88E+3	1.33E-1	9.35E+2
6.09E-1	4.74E+3	1.48E-1	9.67E+2
6.41E-1	4.81E+3	1.50E-1	9.24E+2
6.12E-1	4.74E+3	1.41E-1	8.99E+2
6.15E-1	4.72E+3	1.43E-1	8.77E+2
6.33E-1	4.97E+3	1.43E-1	8.80E+2
6.22E-1	4.67E+3	1.33E-1	8.84E+2
6.18E-1	4.65E+3	1.40E-1	8.81E+2
6.49E-1	4.82E+3	1.60E-1	1.00E+3
6.18E-1	4.83E+3	1.44E-1	1.00E+3
6.56E-1	4.89E+3	1.36E-1	9.28E+2
6.11E-1	4.82E+3	1.42E-1	9.39E+2
6.21E-1	4.79E+3	1.54E-1	9.53E+2
6.22E-1	4.84E+3	1.36E-1	9.43E+2
6.52E-1	4.75E+3	1.41E-1	9.32E+2
6.32E-1	4.84E+3	1.37E-1	9.18E+2
6.34E-1	4.81E+3	1.51E-1	9.53E+2
6.22E-1	4.82E+3	1.35E-1	8.43E+2
6.18E-1	4.80E+3	1.39E-1	8.85E+2
6.34E-1	4.79E+3	1.38E-1	8.35E+2
6.30E-1	4.92E+3	1.34E-1	9.01E+2
6.29E-1	4.85E+3	1.56E-1	9.77E+2
6.70E-1	4.90E+3	1.36E-1	9.23E+2
6.21E-1	4.79E+3	1.40E-1	9.42E+2
6.32E-1	4.84E+3	1.49E-1	9.48E+2
6.23E-1	4.78E+3	1.39E-1	9.05E+2
6.67E-1	4.96E+3	1.39E-1	8.99E+2
6.51E-1	4.75E+3	1.53E-1	9.10E+2
8.79E-3	2.65E+1	3.75E-1	2.46E+3
6.07E-1	4.72E+3	1.37E-1	8.85E+2
6.41E-1	4.84E+3	1.30E-1	8.98E+2
6.26E-1	4.77E+3	1.48E-1	9.05E+2
6.64E-1	4.88E+3	1.45E-1	9.85E+2
6.20E-1	4.81E+3	1.56E-1	9.34E+2
6.27E-1	4.94E+3	1.56E-1	9.52E+2
6.32E-1	4.86E+3	1.49E-1	9.39E+2
6.26E-1	4.89E+3	1.35E-1	9.40E+2
6.30E-1	4.87E+3	1.39E-1	9.08E+2
6.50E-1	4.80E+3	1.39E-1	8.53E+2
6.27E-1	4.95E+3	1.45E-1	9.08E+2
6.43E-1	4.82E+3	1.41E-1	9.00E+2
6.45E-1	4.85E+3	1.44E-1	9.31E+2
6.34E-1	4.70E+3	1.50E-1	9.53E+2
6.28E-1	4.75E+3	1.46E-1	9.71E+2
6.38E-1	4.73E+3	1.39E-1	8.71E+2
6.27E-1	4.90E+3	1.55E-1	9.41E+2
6.21E-1	4.80E+3	1.56E-1	9.32E+2
6.34E-1	4.83E+3	1.36E-1	9.65E+2
6.20E-1	4.88E+3	1.61E-1	9.96E+2
6.34E-1	4.93E+3	1.57E-1	1.02E+3
6.24E-1	4.67E+3	1.49E-1	9.38E+2
6.31E-1	4.98E+3	1.49E-1	9.94E+2
6.25E-1	4.81E+3	1.38E-1	8.73E+2
6.34E-1	4.77E+3	1.58E-1	1.01E+3
6.74E-1	4.91E+3	1.36E-1	8.88E+2
6.34E-1	4.90E+3	1.55E-1	9.73E+2
6.29E-1	4.80E+3	1.50E-1	9.66E+2
6.52E-1	4.82E+3	1.43E-1	9.30E+2
6.28E-1	4.84E+3	1.54E-1	9.60E+2
6.56E-1	4.99E+3	1.49E-1	1.01E+3
6.15E-1	4.93E+3	1.44E-1	9.83E+2
6.33E-1	4.82E+3	1.51E-1	9.17E+2
6.58E-1	4.85E+3	1.41E-1	9.32E+2
6.25E-1	4.77E+3	1.46E-1	9.71E+2
6.19E-1	4.88E+3	1.44E-1	1.01E+3
6.32E-1	4.91E+3	1.46E-1	9.52E+2
6.20E-1	4.71E+3	1.47E-1	9.35E+2
6.06E-1	4.71E+3	1.41E-1	9.02E+2
6.39E-1	4.85E+3	1.36E-1	9.02E+2
6.45E-1	4.86E+3	1.52E-1	9.28E+2
6.44E-1	4.69E+3	1.42E-1	9.07E+2
6.40E-1	4.87E+3	1.45E-1	9.45E+2
8.30E-3	1.61E+1	3.78E-1	2.47E+3
1.37E-2	1.62E+1	3.77E-1	2.47E+3
6.48E-1	4.97E+3	1.45E-1	9.57E+2
6.54E-1	4.89E+3	1.41E-1	9.71E+2
6.53E-1	4.78E+3	1.41E-1	9.61E+2
6.35E-1	4.81E+3	1.51E-1	9.30E+2
6.09E-1	4.83E+3	1.45E-1	9.60E+2
6.40E-1	4.78E+3	1.47E-1	9.67E+2
6.12E-1	4.76E+3	1.36E-1	9.49E+2
6.09E-1	4.71E+3	1.62E-1	1.01E+3
6.31E-1	4.78E+3	1.40E-1	9.13E+2
6.17E-1	4.81E+3	1.52E-1	9.24E+2
6.43E-1	4.88E+3	1.35E-1	8.48E+2
6.11E-1	4.86E+3	1.40E-1	8.82E+2
6.27E-1	4.86E+3	1.42E-1	9.62E+2
6.19E-1	4.73E+3	1.56E-1	1.01E+3
6.07E-1	4.79E+3	1.53E-1	9.34E+2
6.24E-1	4.76E+3	1.44E-1	9.66E+2
6.46E-1	4.85E+3	1.46E-1	1.00E+3
6.35E-1	4.80E+3	1.46E-1	9.62E+2
6.32E-1	4.78E+3	1.43E-1	9.45E+2
6.47E-1	4.80E+3	1.37E-1	8.77E+2
6.28E-1	4.77E+3	1.49E-1	1.00E+3
6.12E-1	4.67E+3	1.44E-1	9.05E+2
6.19E-1	4.79E+3	1.50E-1	9.70E+2
6.36E-1	4.83E+3	1.47E-1	9.40E+2
6.20E-1	4.81E+3	1.47E-1	9.37E+2
6.06E-1	4.74E+3	1.63E-1	1.00E+3
6.03E-1	4.67E+3	1.48E-1	9.20E+2
6.15E-1	4.79E+3	1.39E-1	9.17E+2
6.28E-1	4.77E+3	1.45E-1	9.36E+2
6.48E-1	4.89E+3	1.41E-1	9.15E+2
6.31E-1	4.96E+3	1.48E-1	9.77E+2
6.31E-1	4.87E+3	1.50E-1	9.54E+2
6.52E-1	4.81E+3	1.35E-1	8.53E+2
