7.29E-1	6.80E+3	2.43E-1	1.51E+3
7.33E-1	6.84E+3	2.36E-1	1.48E+3
7.29E-1	6.76E+3	2.42E-1	1.44E+3
7.37E-1	6.77E+3	2.55E-1	1.57E+3
7.17E-1	6.80E+3	2.46E-1	1.53E+3
7.13E-1	6.81E+3	2.56E-1	1.52E+3
7.26E-1	6.92E+3	2.34E-1	1.47E+3
7.08E-1	6.77E+3	2.25E-1	1.39E+3
7.10E-1	6.72E+3	2.47E-1	1.49E+3
7.36E-1	6.69E+3	2.30E-1	1.50E+3
7.46E-1	6.78E+3	2.53E-1	1.56E+3
7.35E-1	6.71E+3	2.48E-1	1.54E+3
7.40E-1	6.89E+3	2.53E-1	1.54E+3
7.23E-1	6.77E+3	2.63E-1	1.59E+3
7.36E-1	6.81E+3	2.54E-1	1.54E+3
7.03E-1	6.73E+3	2.39E-1	1.48E+3
7.32E-1	6.82E+3	2.29E-1	1.45E+3
7.45E-1	6.84E+3	2.57E-1	1.55E+3
7.21E-1	6.99E+3	2.53E-1	1.52E+3
7.12E-1	6.75E+3	2.42E-1	1.43E+3
7.13E-1	6.71E+3	2.45E-1	1.54E+3
7.14E-1	6.82E+3	2.40E-1	1.47E+3
7.11E-1	6.67E+3	2.52E-1	1.55E+3
7.13E-1	6.70E+3	2.53E-1	1.46E+3
7.19E-1	6.79E+3	2.31E-1	1.44E+3
7.23E-1	6.79E+3	2.33E-1	1.48E+3
7.10E-1	6.78E+3	2.49E-1	1.54E+3
7.08E-1	6.76E+3	2.50E-1	1.50E+3
7.35E-1	6.79E+3	2.60E-1	1.64E+3
7.15E-1	6.82E+3	2.61E-1	1.56E+3
7.13E-1	6.70E+3	2.43E-1	1.45E+3
7.06E-1	6.77E+3	2.63E-1	1.52E+3
7.02E-1	6.75E+3	2.45E-1	1.50E+3
7.31E-1	6.76E+3	2.50E-1	1.48E+3
7.31E-1	6.69E+3	2.60E-1	1.55E+3
1.64E-2	6.48E+1	5.86E-1	3.56E+3
7.32E-1	6.75E+3	2.50E-1	1.59E+3
7.41E-1	6.77E+3	2.40E-1	1.52E+3
7.43E-1	6.86E+3	2.49E-1	1.53E+3
7.21E-1	6.67E+3	2.48E-1	1.55E+3
7.47E-1	6.83E+3	2.38E-1	1.51E+3
7.23E-1	6.79E+3	2.63E-1	1.61E+3
7.41E-1	6.89E+3	2.60E-1	1.54E+3
7.09E-1	6.76E+3	2.44E-1	1.55E+3
7.15E-1	6.73E+3	2.48E-1	1.49E+3
7.10E-1	6.72E+3	2.38E-1	1.51E+3
7.06E-1	6.74E+3	2.33E-1	1.48E+3
7.38E-1	6.74E+3	2.53E-1	1.55E+3
7.10E-1	6.75E+3	2.53E-1	1.53E+3
7.25E-1	6.77E+3	2.50E-1	1.49E+3
7.44E-1	6.75E+3	2.41E-1	1.51E+3
7.31E-1	6.64E+3	2.35E-1	1.47E+3
7.12E-1	6.75E+3	2.45E-1	1.52E+3
7.42E-1	6.75E+3	2.60E-1	1.51E+3
7.12E-1	6.72E+3	2.48E-1	1.57E+3
7.10E-1	6.75E+3	2.46E-1	1.54E+3
7.06E-1	6.82E+3	2.70E-1	1.58E+3
7.17E-1	6.67E+3	2.63E-1	1.54E+3
7.27E-1	6.74E+3	2.55E-1	1.52E+3
7.20E-1	6.60E+3	2.57E-1	1.52E+3
7.21E-1	6.83E+3	2.36E-1	1.48E+3
7.13E-1	6.95E+3	2.51E-1	1.50E+3
7.07E-1	6.78E+3	2.56E-1	1.61E+3
7.32E-1	6.80E+3	2.33E-1	1.49E+3
7.04E-1	6.72E+3	2.52E-1	1.61E+3
7.08E-1	6.77E+3	2.43E-1	1.49E+3
7.19E-1	6.69E+3	2.54E-1	1.55E+3
7.46E-1	6.86E+3	2.48E-1	1.49E+3
7.34E-1	6.77E+3	2.45E-1	1.55E+3
7.02E-1	6.76E+3	2.43E-1	1.54E+3
7.45E-1	6.81E+3	2.53E-1	1.50E+3
7.49E-1	6.83E+3	2.59E-1	1.53E+3
7.21E-1	6.62E+3	2.58E-1	1.53E+3
7.29E-1	6.64E+3	2.50E-1	1.56E+3
7.05E-1	6.80E+3	2.45E-1	1.50E+3
7.12E-1	6.79E+3	2.39E-1	1.47E+3
7.11E-1	6.62E+3	2.51E-1	1.55E+3
7.18E-1	6.75E+3	2.52E-1	1.53E+3
7.02E-1	6.71E+3	2.48E-1	1.54E+3
7.37E-1	6.57E+3	2.45E-1	1.54E+3
7.14E-1	6.81E+3	2.47E-1	1.54E+3
7.34E-1	6.81E+3	2.59E-1	1.56E+3
7.05E-1	6.79E+3	2.63E-1	1.53E+3
7.26E-1	6.76E+3	2.39E-1	1.44E+3
7.11E-1	6.76E+3	2.41E-1	1.51E+3
7.24E-1	6.87E+3	2.35E-1	1.47E+3
7.08E-1	6.68E+3	2.65E-1	1.54E+3
7.16E-1	6.71E+3	2.55E-1	1.57E+3
6.98E-1	6.74E+3	2.35E-1	1.49E+3
7.35E-1	6.82E+3	2.43E-1	1.49E+3
7.32E-1	6.92E+3	2.60E-1	1.59E+3
7.16E-1	6.87E+3	2.39E-1	1.48E+3
7.27E-1	6.79E+3	2.72E-1	1.60E+3
7.13E-1	6.82E+3	2.47E-1	1.53E+3
7.23E-1	6.78E+3	2.27E-1	1.41E+3
7.09E-1	6.83E+3	2.43E-1	1.50E+3
7.23E-1	6.66E+3	2.44E-1	1.49E+3
7.34E-1	6.87E+3	2.46E-1	1.61E+3
7.05E-1	6.69E+3	2.56E-1	1.53E+3
7.19E-1	6.71E+3	2.45E-1	1.49E+3
7.35E-1	6.68E+3	2.59E-1	1.51E+3
7.31E-1	6.79E+3	2.51E-1	1.58E+3
6.99E-1	6.63E+3	2.56E-1	1.53E+3
7.13E-1	6.97E+3	2.39E-1	1.48E+3
7.37E-1	6.75E+3	2.68E-1	1.53E+3
7.24E-1	6.82E+3	2.25E-1	1.46E+3
7.26E-1	6.70E+3	2.61E-1	1.57E+3
7.26E-1	6.69E+3	2.60E-1	1.58E+3
7.36E-1	6.72E+3	2.54E-1	1.54E+3
7.40E-1	6.71E+3	2.58E-1	1.47E+3
7.35E-1	6.67E+3	2.57E-1	1.52E+3
7.31E-1	6.81E+3	2.41E-1	1.50E+3
7.34E-1	6.78E+3	2.70E-1	1.59E+3
7.45E-1	6.77E+3	2.59E-1	1.54E+3
7.26E-1	6.75E+3	2.56E-1	1.59E+3
7.26E-1	6.73E+3	2.48E-1	1.52E+3
7.18E-1	6.83E+3	2.46E-1	1.49E+3
7.36E-1	6.81E+3	2.42E-1	1.46E+3
7.28E-1	6.75E+3	2.44E-1	1.55E+3
7.45E-1	6.84E+3	2.26E-1	1.46E+3
7.49E-1	6.79E+3	2.63E-1	1.57E+3
7.33E-1	6.66E+3	2.34E-1	1.44E+3
7.07E-1	6.70E+3	2.44E-1	1.54E+3
7.29E-1	6.67E+3	2.59E-1	1.55E+3
7.42E-1	6.72E+3	2.68E-1	1.64E+3
7.31E-1	6.74E+3	2.43E-1	1.52E+3
7.08E-1	6.89E+3	2.65E-1	1.62E+3
7.13E-1	6.76E+3	2.59E-1	1.59E+3
7.27E-1	6.80E+3	2.59E-1	1.57E+3
7.13E-1	6.72E+3	2.57E-1	1.58E+3
7.10E-1	6.82E+3	2.63E-1	1.55E+3
7.25E-1	6.75E+3	2.42E-1	1.50E+3
7.15E-1	6.74E+3	2.58E-1	1.55E+3
7.30E-1	6.70E+3	2.53E-1	1.56E+3
7.43E-1	6.81E+3	2.58E-1	1.56E+3
7.26E-1	6.78E+3	2.24E-1	1.47E+3
7.34E-1	6.84E+3	2.54E-1	1.68E+3
7.24E-1	6.69E+3	2.68E-1	1.53E+3
7.07E-1	6.80E+3	2.21E-1	1.42E+3
7.11E-1	6.85E+3	2.50E-1	1.58E+3
7.38E-1	6.68E+3	2.59E-1	1.62E+3
7.17E-1	6.79E+3	2.49E-1	1.55E+3
7.21E-1	6.65E+3	2.47E-1	1.47E+3
7.35E-1	6.71E+3	2.51E-1	1.58E+3
7.32E-1	6.79E+3	2.39E-1	1.47E+3
7.29E-1	6.76E+3	2.59E-1	1.61E+3
7.09E-1	6.79E+3	2.61E-1	1.64E+3
7.18E-1	6.84E+3	2.37E-1	1.43E+3
7.18E-1	6.81E+3	2.42E-1	1.55E+3
7.07E-1	6.72E+3	2.47E-1	1.57E+3
7.36E-1	6.64E+3	2.42E-1	1.50E+3
7.31E-1	6.82E+3	2.34E-1	1.50E+3
7.37E-1	6.84E+3	2.56E-1	1.48E+3
7.26E-1	6.67E+3	2.63E-1	1.59E+3
7.20E-1	6.88E+3	2.55E-1	1.52E+3
7.40E-1	6.73E+3	2.51E-1	1.50E+3
7.11E-1	6.81E+3	2.42E-1	1.42E+3
7.19E-1	6.76E+3	2.37E-1	1.45E+3
7.22E-1	6.70E+3	2.53E-1	1.57E+3
7.13E-1	6.77E+3	2.30E-1	1.42E+3
7.28E-1	6.71E+3	2.41E-1	1.47E+3
7.22E-1	6.69E+3	2.38E-1	1.48E+3
7.56E-1	6.74E+3	2.44E-1	1.52E+3
7.27E-1	6.76E+3	2.51E-1	1.58E+3
7.25E-1	6.64E+3	2.50E-1	1.46E+3
7.25E-1	6.78E+3	2.51E-1	1.55E+3
7.41E-1	6.80E+3	2.60E-1	1.56E+3
7.20E-1	6.81E+3	2.52E-1	1.53E+3
7.34E-1	6.74E+3	2.52E-1	1.50E+3
7.12E-1	6.73E+3	2.58E-1	1.52E+3
7.18E-1	6.69E+3	2.44E-1	1.58E+3
7.27E-1	6.67E+3	2.30E-1	1.41E+3
7.33E-1	6.77E+3	2.48E-1	1.61E+3
7.17E-1	6.70E+3	2.49E-1	1.52E+3
7.06E-1	6.87E+3	2.34E-1	1.41E+3
7.13E-1	6.69E+3	2.35E-1	1.43E+3
7.09E-1	6.70E+3	2.45E-1	1.55E+3
7.38E-1	6.89E+3	2.31E-1	1.45E+3
7.33E-1	6.67E+3	2.50E-1	1.55E+3
7.12E-1	6.79E+3	2.50E-1	1.56E+3
7.41E-1	6.76E+3	2.40E-1	1.51E+3
7.29E-1	6.79E+3	2.42E-1	1.52E+3
7.06E-1	6.72E+3	2.42E-1	1.42E+3
7.11E-1	6.82E+3	2.39E-1	1.52E+3
7.24E-1	6.76E+3	2.55E-1	1.51E+3
7.15E-1	6.81E+3	2.47E-1	1.52E+3
7.34E-1	6.73E+3	2.39E-1	1.50E+3
7.08E-1	6.80E+3	2.38E-1	1.48E+3
7.29E-1	6.80E+3	2.71E-1	1.67E+3
7.14E-1	6.69E+3	2.51E-1	1.56E+3
7.33E-1	6.72E+3	2.62E-1	1.51E+3
7.35E-1	6.70E+3	2.45E-1	1.49E+3
7.13E-1	6.70E+3	2.46E-1	1.56E+3
7.09E-1	6.69E+3	2.49E-1	1.49E+3
7.21E-1	6.84E+3	2.42E-1	1.46E+3
7.40E-1	6.72E+3	2.52E-1	1.47E+3
7.12E-1	6.74E+3	2.50E-1	1.48E+3
7.38E-1	6.65E+3	2.59E-1	1.57E+3
6.99E-1	6.59E+3	2.59E-1	1.54E+3
7.41E-1	6.66E+3	2.36E-1	1.45E+3
7.49E-1	6.76E+3	2.33E-1	1.43E+3
7.13E-1	6.81E+3	2.43E-1	1.48E+3
7.36E-1	6.79E+3	2.56E-1	1.59E+3
7.35E-1	6.81E+3	2.32E-1	1.46E+3
7.42E-1	6.73E+3	2.77E-1	1.55E+3
7.10E-1	6.76E+3	2.49E-1	1.44E+3
7.14E-1	6.78E+3	2.33E-1	1.48E+3
7.15E-1	6.92E+3	2.61E-1	1.56E+3
7.11E-1	6.82E+3	2.54E-1	1.53E+3
7.41E-1	6.81E+3	2.40E-1	1.43E+3
7.19E-1	6.81E+3	2.30E-1	1.38E+3
7.13E-1	6.72E+3	2.45E-1	1.52E+3
7.13E-1	6.82E+3	2.59E-1	1.53E+3
7.40E-1	6.82E+3	2.48E-1	1.50E+3
7.14E-1	6.69E+3	2.46E-1	1.49E+3
7.15E-1	6.78E+3	2.47E-1	1.54E+3
7.36E-1	6.74E+3	2.45E-1	1.59E+3
7.47E-1	6.76E+3	2.61E-1	1.57E+3
7.01E-1	6.72E+3	2.63E-1	1.55E+3
7.23E-1	6.75E+3	2.42E-1	1.51E+3
7.30E-1	6.85E+3	2.38E-1	1.49E+3
7.08E-1	6.84E+3	2.49E-1	1.48E+3
7.18E-1	6.82E+3	2.60E-1	1.52E+3
7.15E-1	6.80E+3	2.49E-1	1.65E+3
7.24E-1	6.76E+3	2.50E-1	1.55E+3
7.07E-1	6.64E+3	2.44E-1	1.58E+3
7.37E-1	6.86E+3	2.36E-1	1.49E+3
7.21E-1	6.79E+3	2.35E-1	1.47E+3
7.23E-1	6.87E+3	2.47E-1	1.58E+3
7.19E-1	6.76E+3	2.38E-1	1.47E+3
7.28E-1	6.78E+3	2.36E-1	1.51E+3
7.17E-1	6.63E+3	2.41E-1	1.51E+3
7.55E-1	6.87E+3	2.43E-1	1.51E+3
7.42E-1	6.82E+3	2.56E-1	1.50E+3
7.26E-1	6.74E+3	2.56E-1	1.56E+3
7.17E-1	6.73E+3	2.37E-1	1.48E+3
7.14E-1	6.84E+3	2.52E-1	1.52E+3
7.29E-1	6.77E+3	2.48E-1	1.56E+3
7.17E-1	6.80E+3	2.37E-1	1.46E+3
7.11E-1	6.70E+3	2.62E-1	1.53E+3
7.23E-1	6.63E+3	2.53E-1	1.56E+3
7.13E-1	6.76E+3	2.54E-1	1.50E+3
7.38E-1	6.88E+3	2.64E-1	1.63E+3
7.08E-1	6.71E+3	2.29E-1	1.40E+3
7.40E-1	6.82E+3	2.46E-1	1.54E+3
7.40E-1	6.84E+3	2.73E-1	1.60E+3
7.11E-1	6.89E+3	2.48E-1	1.57E+3
7.08E-1	6.83E+3	2.49E-1	1.53E+3
7.07E-1	6.69E+3	2.67E-1	1.59E+3
7.41E-1	6.78E+3	2.61E-1	1.67E+3
7.37E-1	6.77E+3	2.43E-1	1.48E+3
7.34E-1	6.85E+3	2.45E-1	1.56E+3
7.12E-1	6.77E+3	2.68E-1	1.50E+3
7.12E-1	6.86E+3	2.43E-1	1.52E+3
7.32E-1	6.72E+3	2.33E-1	1.44E+3
7.44E-1	6.83E+3	2.41E-1	1.53E+3
7.50E-1	6.80E+3	2.55E-1	1.58E+3
7.33E-1	6.71E+3	2.45E-1	1.53E+3
7.10E-1	6.73E+3	2.40E-1	1.47E+3
7.24E-1	6.95E+3	2.40E-1	1.53E+3
7.11E-1	6.76E+3	2.52E-1	1.56E+3
7.08E-1	6.85E+3	2.61E-1	1.62E+3
7.07E-1	6.67E+3	2.59E-1	1.50E+3
7.53E-1	6.92E+3	2.32E-1	1.47E+3
7.03E-1	6.78E+3	2.34E-1	1.43E+3
7.16E-1	6.74E+3	2.51E-1	1.56E+3
3.42E-2	8.23E+1	5.72E-1	3.56E+3
7.13E-1	6.95E+3	2.70E-1	1.60E+3
7.13E-1	6.69E+3	2.41E-1	1.49E+3
7.14E-1	6.75E+3	2.64E-1	1.67E+3
7.07E-1	6.85E+3	2.42E-1	1.52E+3
7.31E-1	6.63E+3	2.46E-1	1.55E+3
7.36E-1	6.82E+3	2.60E-1	1.55E+3
7.35E-1	6.80E+3	2.37E-1	1.48E+3
7.44E-1	6.78E+3	2.71E-1	1.64E+3
7.46E-1	6.83E+3	2.56E-1	1.47E+3
7.34E-1	6.79E+3	2.41E-1	1.49E+3
7.45E-1	6.80E+3	2.68E-1	1.54E+3
7.27E-1	6.70E+3	2.54E-1	1.59E+3
7.46E-1	6.81E+3	2.55E-1	1.50E+3
7.38E-1	6.71E+3	2.51E-1	1.53E+3
7.10E-1	6.75E+3	2.45E-1	1.49E+3
7.14E-1	6.63E+3	2.51E-1	1.52E+3
7.32E-1	6.80E+3	2.39E-1	1.49E+3
7.20E-1	6.74E+3	2.58E-1	1.52E+3
7.15E-1	6.68E+3	2.50E-1	1.51E+3
7.37E-1	6.77E+3	2.50E-1	1.55E+3
1.73E-2	4.77E+1	5.82E-1	3.52E+3
7.39E-1	6.73E+3	2.46E-1	1.51E+3
7.40E-1	6.87E+3	2.54E-1	1.58E+3
7.46E-1	6.78E+3	2.67E-1	1.55E+3
7.10E-1	6.84E+3	2.44E-1	1.46E+3
7.36E-1	6.74E+3	2.58E-1	1.55E+3
7.01E-1	6.68E+3	2.47E-1	1.50E+3
7.04E-1	6.71E+3	2.43E-1	1.46E+3
7.27E-1	6.76E+3	2.65E-1	1.53E+3
7.48E-1	6.80E+3	2.52E-1	1.52E+3
7.12E-1	6.84E+3	2.56E-1	1.46E+3
7.36E-1	6.79E+3	2.42E-1	1.52E+3
7.25E-1	6.85E+3	2.38E-1	1.56E+3
7.39E-1	6.84E+3	2.46E-1	1.48E+3
7.24E-1	6.77E+3	2.45E-1	1.48E+3
7.39E-1	6.79E+3	2.33E-1	1.46E+3
7.21E-1	6.76E+3	2.54E-1	1.56E+3
7.32E-1	6.81E+3	2.54E-1	1.52E+3
7.36E-1	6.86E+3	2.38E-1	1.43E+3
7.43E-1	6.82E+3	2.60E-1	1.47E+3
7.04E-1	6.72E+3	2.48E-1	1.50E+3
7.07E-1	6.74E+3	2.63E-1	1.52E+3
7.30E-1	6.75E+3	2.35E-1	1.48E+3
7.26E-1	6.66E+3	2.51E-1	1.54E+3
7.30E-1	6.74E+3	2.45E-1	1.58E+3
7.15E-1	6.81E+3	2.52E-1	1.52E+3
7.37E-1	6.61E+3	2.45E-1	1.59E+3
7.19E-1	6.77E+3	2.43E-1	1.55E+3
7.13E-1	6.72E+3	2.38E-1	1.43E+3
7.11E-1	6.77E+3	2.43E-1	1.47E+3
7.37E-1	6.80E+3	2.73E-1	1.61E+3
7.08E-1	6.75E+3	2.55E-1	1.57E+3
7.48E-1	6.72E+3	2.50E-1	1.47E+3
7.03E-1	6.70E+3	2.46E-1	1.49E+3
7.08E-1	6.78E+3	2.55E-1	1.50E+3
7.27E-1	6.69E+3	2.57E-1	1.55E+3
7.35E-1	6.78E+3	2.63E-1	1.59E+3
7.11E-1	6.73E+3	2.49E-1	1.51E+3
7.49E-1	6.72E+3	2.61E-1	1.63E+3
7.20E-1	6.78E+3	2.48E-1	1.57E+3
7.17E-1	6.81E+3	2.59E-1	1.62E+3
7.38E-1	6.75E+3	2.33E-1	1.50E+3
7.13E-1	6.72E+3	2.44E-1	1.52E+3
7.23E-1	6.76E+3	2.39E-1	1.52E+3
7.40E-1	6.67E+3	2.45E-1	1.47E+3
7.45E-1	6.86E+3	2.59E-1	1.62E+3
7.39E-1	6.86E+3	2.56E-1	1.48E+3
7.10E-1	6.75E+3	2.56E-1	1.55E+3
7.14E-1	6.71E+3	2.42E-1	1.52E+3
7.08E-1	6.77E+3	2.41E-1	1.56E+3
7.15E-1	6.82E+3	2.42E-1	1.55E+3
7.31E-1	6.76E+3	2.63E-1	1.55E+3
7.26E-1	6.71E+3	2.44E-1	1.58E+3
7.31E-1	6.73E+3	2.41E-1	1.53E+3
7.25E-1	6.81E+3	2.47E-1	1.48E+3
7.31E-1	6.69E+3	2.55E-1	1.53E+3
7.28E-1	6.79E+3	2.46E-1	1.47E+3
7.19E-1	6.76E+3	2.58E-1	1.50E+3
7.06E-1	6.76E+3	2.65E-1	1.52E+3
7.15E-1	6.84E+3	2.64E-1	1.54E+3
7.38E-1	6.82E+3	2.43E-1	1.50E+3
7.06E-1	6.79E+3	2.33E-1	1.48E+3
7.03E-1	6.66E+3	2.57E-1	1.49E+3
7.10E-1	6.77E+3	2.53E-1	1.56E+3
7.05E-1	6.77E+3	2.47E-1	1.50E+3
7.33E-1	6.67E+3	2.58E-1	1.62E+3
7.31E-1	6.70E+3	2.35E-1	1.47E+3
7.43E-1	6.70E+3	2.38E-1	1.45E+3
7.31E-1	6.69E+3	2.54E-1	1.54E+3
7.37E-1	6.86E+3	2.44E-1	1.56E+3
7.15E-1	6.90E+3	2.47E-1	1.55E+3
7.39E-1	6.64E+3	2.59E-1	1.56E+3
7.35E-1	6.74E+3	2.44E-1	1.55E+3
7.19E-1	6.70E+3	2.41E-1	1.55E+3
7.29E-1	6.84E+3	2.39E-1	1.57E+3
7.12E-1	6.85E+3	2.67E-1	1.60E+3
7.08E-1	6.79E+3	2.57E-1	1.52E+3
7.21E-1	6.74E+3	2.47E-1	1.50E+3
7.61E-1	6.78E+3	2.47E-1	1.51E+3
7.71E-1	6.79E+3	2.28E-1	1.47E+3
7.19E-1	6.76E+3	2.33E-1	1.46E+3
7.19E-1	6.81E+3	2.47E-1	1.48E+3
7.03E-1	6.80E+3	2.40E-1	1.44E+3
7.42E-1	6.78E+3	2.54E-1	1.49E+3
7.50E-1	6.73E+3	2.65E-1	1.69E+3
7.45E-1	6.76E+3	2.55E-1	1.49E+3
7.28E-1	6.79E+3	2.37E-1	1.51E+3
7.27E-1	6.86E+3	2.52E-1	1.55E+3
7.42E-1	6.80E+3	2.63E-1	1.59E+3
7.14E-1	6.82E+3	2.39E-1	1.48E+3
7.13E-1	6.68E+3	2.50E-1	1.50E+3
7.21E-1	6.68E+3	2.37E-1	1.48E+3
7.12E-1	6.66E+3	2.46E-1	1.51E+3
7.17E-1	6.70E+3	2.54E-1	1.56E+3
7.27E-1	6.80E+3	2.54E-1	1.57E+3
7.24E-1	6.74E+3	2.44E-1	1.56E+3
7.11E-1	6.82E+3	2.54E-1	1.50E+3
7.14E-1	6.76E+3	2.36E-1	1.43E+3
7.33E-1	6.94E+3	2.54E-1	1.49E+3
7.12E-1	6.73E+3	2.50E-1	1.52E+3
7.39E-1	6.87E+3	2.45E-1	1.58E+3
7.29E-1	6.83E+3	2.48E-1	1.60E+3
7.33E-1	6.74E+3	2.43E-1	1.51E+3
7.04E-1	6.74E+3	2.30E-1	1.46E+3
7.40E-1	6.68E+3	2.41E-1	1.51E+3
7.30E-1	6.79E+3	2.56E-1	1.58E+3
7.26E-1	6.78E+3	2.48E-1	1.57E+3
7.34E-1	6.69E+3	2.22E-1	1.42E+3
7.21E-1	6.85E+3	2.41E-1	1.48E+3
7.36E-1	6.76E+3	2.36E-1	1.42E+3
7.06E-1	6.78E+3	2.46E-1	1.53E+3
7.35E-1	6.70E+3	2.70E-1	1.59E+3
7.21E-1	6.82E+3	2.35E-1	1.51E+3
7.24E-1	6.89E+3	2.35E-1	1.50E+3
7.14E-1	6.76E+3	2.64E-1	1.53E+3
7.13E-1	6.76E+3	2.34E-1	1.46E+3
7.17E-1	6.83E+3	2.29E-1	1.42E+3
7.24E-1	6.69E+3	2.58E-1	1.56E+3
7.15E-1	6.85E+3	2.36E-1	1.41E+3
7.05E-1	6.66E+3	2.28E-1	1.39E+3
7.27E-1	6.67E+3	2.44E-1	1.52E+3
7.13E-1	6.70E+3	2.44E-1	1.47E+3
7.52E-1	6.81E+3	2.81E-1	1.67E+3
7.17E-1	6.86E+3	2.45E-1	1.51E+3
7.14E-1	6.79E+3	2.51E-1	1.52E+3
7.26E-1	6.63E+3	2.43E-1	1.49E+3
7.32E-1	6.76E+3	2.33E-1	1.53E+3
7.41E-1	6.66E+3	2.43E-1	1.54E+3
7.12E-1	6.78E+3	2.50E-1	1.52E+3
7.20E-1	6.74E+3	2.45E-1	1.54E+3
7.17E-1	6.76E+3	2.64E-1	1.65E+3
7.42E-1	6.66E+3	2.28E-1	1.46E+3
7.22E-1	6.76E+3	2.44E-1	1.52E+3
7.36E-1	6.84E+3	2.44E-1	1.49E+3
7.08E-1	6.75E+3	2.37E-1	1.46E+3
7.06E-1	6.74E+3	2.43E-1	1.51E+3
7.42E-1	6.97E+3	2.46E-1	1.46E+3
7.23E-1	6.82E+3	2.42E-1	1.48E+3
7.31E-1	6.76E+3	2.56E-1	1.58E+3
7.09E-1	6.76E+3	2.46E-1	1.49E+3
7.14E-1	6.82E+3	2.41E-1	1.45E+3
7.24E-1	6.80E+3	2.30E-1	1.42E+3
7.29E-1	6.74E+3	2.64E-1	1.55E+3
7.35E-1	6.78E+3	2.45E-1	1.50E+3
7.34E-1	6.81E+3	2.30E-1	1.46E+3
7.20E-1	6.78E+3	2.54E-1	1.52E+3
7.03E-1	6.60E+3	2.45E-1	1.49E+3
7.38E-1	6.85E+3	2.47E-1	1.50E+3
7.11E-1	6.72E+3	2.37E-1	1.47E+3
7.15E-1	6.84E+3	2.46E-1	1.49E+3
7.08E-1	6.67E+3	2.48E-1	1.56E+3
7.27E-1	6.69E+3	2.53E-1	1.52E+3
7.49E-1	6.68E+3	2.53E-1	1.50E+3
7.18E-1	6.79E+3	2.48E-1	1.47E+3
7.20E-1	6.86E+3	2.38E-1	1.47E+3
7.23E-1	6.72E+3	2.51E-1	1.52E+3
7.30E-1	6.81E+3	2.42E-1	1.46E+3
7.27E-1	6.69E+3	2.53E-1	1.52E+3
7.20E-1	6.75E+3	2.32E-1	1.36E+3
7.07E-1	6.71E+3	2.52E-1	1.50E+3
7.34E-1	6.89E+3	2.41E-1	1.45E+3
7.11E-1	6.70E+3	2.48E-1	1.57E+3
7.36E-1	6.76E+3	2.48E-1	1.55E+3
7.45E-1	6.81E+3	2.52E-1	1.58E+3
7.39E-1	6.94E+3	2.59E-1	1.53E+3
7.16E-1	6.74E+3	2.56E-1	1.59E+3
7.29E-1	6.80E+3	2.45E-1	1.45E+3
7.28E-1	6.79E+3	2.56E-1	1.55E+3
7.14E-1	6.86E+3	2.49E-1	1.59E+3
7.29E-1	6.81E+3	2.55E-1	1.55E+3
7.19E-1	6.76E+3	2.39E-1	1.50E+3
7.29E-1	6.80E+3	2.54E-1	1.56E+3
7.41E-1	6.83E+3	2.50E-1	1.63E+3
7.15E-1	6.78E+3	2.57E-1	1.62E+3
7.43E-1	6.83E+3	2.45E-1	1.41E+3
7.19E-1	6.76E+3	2.62E-1	1.57E+3
7.15E-1	6.72E+3	2.49E-1	1.50E+3
7.20E-1	6.85E+3	2.48E-1	1.58E+3
7.16E-1	6.77E+3	2.43E-1	1.47E+3
7.48E-1	6.72E+3	2.44E-1	1.45E+3
7.12E-1	6.73E+3	2.38E-1	1.50E+3
7.30E-1	6.65E+3	2.48E-1	1.51E+3
7.01E-1	6.68E+3	2.40E-1	1.50E+3
7.11E-1	6.65E+3	2.51E-1	1.51E+3
7.71E-1	6.64E+3	2.47E-1	1.54E+3
7.28E-1	6.77E+3	2.64E-1	1.60E+3
7.09E-1	6.80E+3	2.41E-1	1.46E+3
7.29E-1	6.83E+3	2.65E-1	1.58E+3
7.18E-1	6.70E+3	2.53E-1	1.51E+3
7.30E-1	6.85E+3	2.51E-1	1.59E+3
7.10E-1	6.60E+3	2.58E-1	1.56E+3
7.24E-1	6.78E+3	2.40E-1	1.49E+3
7.33E-1	6.86E+3	2.49E-1	1.52E+3
7.26E-1	6.81E+3	2.37E-1	1.48E+3
7.05E-1	6.77E+3	2.42E-1	1.49E+3
7.17E-1	6.74E+3	2.46E-1	1.50E+3
7.45E-1	6.85E+3	2.47E-1	1.54E+3
7.19E-1	6.79E+3	2.36E-1	1.50E+3
7.30E-1	6.73E+3	2.53E-1	1.48E+3
7.11E-1	6.90E+3	2.51E-1	1.57E+3
7.14E-1	6.77E+3	2.36E-1	1.44E+3
1.68E-2	3.04E+1	5.80E-1	3.59E+3
7.44E-1	6.75E+3	2.46E-1	1.59E+3
7.29E-1	6.79E+3	2.48E-1	1.55E+3
7.32E-1	6.76E+3	2.49E-1	1.54E+3
7.14E-1	6.79E+3	2.47E-1	1.54E+3
7.03E-1	6.73E+3	2.47E-1	1.45E+3
7.32E-1	6.66E+3	2.46E-1	1.54E+3
7.11E-1	6.71E+3	2.31E-1	1.44E+3
7.28E-1	6.77E+3	2.36E-1	1.45E+3
7.27E-1	6.78E+3	2.43E-1	1.48E+3
7.45E-1	6.86E+3	2.51E-1	1.55E+3
7.30E-1	6.76E+3	2.83E-1	1.58E+3
7.30E-1	6.84E+3	2.41E-1	1.54E+3
7.14E-1	6.77E+3	2.42E-1	1.48E+3
7.27E-1	6.74E+3	2.42E-1	1.46E+3
7.26E-1	6.72E+3	2.46E-1	1.52E+3
7.33E-1	6.76E+3	2.43E-1	1.51E+3
7.50E-1	6.72E+3	2.70E-1	1.63E+3
7.18E-1	6.73E+3	2.48E-1	1.47E+3
7.11E-1	6.81E+3	2.47E-1	1.49E+3
7.06E-1	6.87E+3	2.63E-1	1.50E+3
7.13E-1	6.74E+3	2.49E-1	1.43E+3
7.24E-1	6.65E+3	2.57E-1	1.56E+3
7.06E-1	6.78E+3	2.53E-1	1.57E+3
7.10E-1	6.71E+3	2.57E-1	1.54E+3
7.27E-1	6.74E+3	2.43E-1	1.51E+3
7.13E-1	6.69E+3	2.46E-1	1.51E+3
7.29E-1	6.78E+3	2.38E-1	1.55E+3
7.32E-1	6.78E+3	2.70E-1	1.56E+3
7.31E-1	6.75E+3	2.41E-1	1.44E+3
7.23E-1	6.78E+3	2.50E-1	1.54E+3
6.97E-1	6.75E+3	2.42E-1	1.50E+3
7.12E-1	6.63E+3	2.45E-1	1.45E+3
7.32E-1	6.79E+3	2.56E-1	1.55E+3
7.06E-1	6.75E+3	2.48E-1	1.50E+3
7.10E-1	6.84E+3	2.38E-1	1.50E+3
7.33E-1	6.70E+3	2.49E-1	1.52E+3
7.20E-1	6.65E+3	2.43E-1	1.53E+3
7.08E-1	6.80E+3	2.47E-1	1.53E+3
7.15E-1	6.82E+3	2.31E-1	1.49E+3
7.39E-1	6.91E+3	2.55E-1	1.51E+3
7.31E-1	6.92E+3	2.51E-1	1.58E+3
7.06E-1	6.68E+3	2.39E-1	1.47E+3
7.36E-1	6.75E+3	2.61E-1	1.61E+3
7.47E-1	6.80E+3	2.62E-1	1.58E+3
6.96E-1	6.73E+3	2.59E-1	1.50E+3
7.48E-1	6.75E+3	2.48E-1	1.52E+3
7.35E-1	6.79E+3	2.53E-1	1.57E+3
7.16E-1	6.71E+3	2.57E-1	1.52E+3
7.10E-1	6.76E+3	2.46E-1	1.61E+3
7.35E-1	6.93E+3	2.49E-1	1.55E+3
7.26E-1	6.76E+3	2.45E-1	1.46E+3
7.21E-1	6.80E+3	2.27E-1	1.45E+3
7.26E-1	6.84E+3	2.32E-1	1.52E+3
7.47E-1	6.75E+3	2.36E-1	1.48E+3
7.13E-1	6.84E+3	2.44E-1	1.51E+3
7.20E-1	6.76E+3	2.65E-1	1.66E+3
7.13E-1	6.76E+3	2.51E-1	1.49E+3
7.37E-1	6.82E+3	2.73E-1	1.59E+3
7.11E-1	6.69E+3	2.47E-1	1.58E+3
7.27E-1	6.73E+3	2.58E-1	1.56E+3
7.44E-1	6.77E+3	2.62E-1	1.49E+3
7.07E-1	6.74E+3	2.38E-1	1.49E+3
7.32E-1	6.78E+3	2.58E-1	1.53E+3
7.10E-1	6.74E+3	2.50E-1	1.61E+3
7.23E-1	6.84E+3	2.28E-1	1.42E+3
7.12E-1	6.74E+3	2.45E-1	1.52E+3
7.35E-1	6.77E+3	2.41E-1	1.52E+3
7.11E-1	6.81E+3	2.46E-1	1.52E+3
7.10E-1	6.71E+3	2.42E-1	1.47E+3
7.08E-1	6.72E+3	2.58E-1	1.56E+3
7.07E-1	6.71E+3	2.50E-1	1.48E+3
7.29E-1	6.80E+3	2.53E-1	1.59E+3
7.10E-1	6.70E+3	2.60E-1	1.51E+3
7.08E-1	6.70E+3	2.35E-1	1.46E+3
7.12E-1	6.81E+3	2.42E-1	1.48E+3
7.39E-1	6.77E+3	2.53E-1	1.50E+3
7.10E-1	6.73E+3	2.41E-1	1.50E+3
7.17E-1	6.71E+3	2.59E-1	1.56E+3
7.05E-1	6.70E+3	2.41E-1	1.52E+3
7.03E-1	6.77E+3	2.52E-1	1.53E+3
7.11E-1	6.74E+3	2.27E-1	1.41E+3
7.36E-1	6.70E+3	2.48E-1	1.47E+3
7.28E-1	6.63E+3	2.76E-1	1.55E+3
7.44E-1	6.86E+3	2.66E-1	1.57E+3
7.07E-1	6.72E+3	2.65E-1	1.63E+3
7.14E-1	6.84E+3	2.42E-1	1.55E+3
7.37E-1	6.83E+3	2.61E-1	1.54E+3
7.19E-1	6.86E+3	2.52E-1	1.53E+3
7.08E-1	6.77E+3	2.50E-1	1.50E+3
7.24E-1	6.73E+3	2.53E-1	1.53E+3
7.18E-1	6.73E+3	2.57E-1	1.61E+3
7.11E-1	6.78E+3	2.38E-1	1.50E+3
7.40E-1	6.77E+3	2.31E-1	1.47E+3
7.40E-1	6.79E+3	2.74E-1	1.66E+3
7.12E-1	6.68E+3	2.49E-1	1.54E+3
7.29E-1	6.66E+3	2.40E-1	1.47E+3
7.19E-1	6.69E+3	2.60E-1	1.58E+3
7.29E-1	6.68E+3	2.28E-1	1.40E+3
7.28E-1	6.76E+3	2.51E-1	1.48E+3
7.20E-1	6.79E+3	2.44E-1	1.49E+3
7.31E-1	6.79E+3	2.42E-1	1.56E+3
7.32E-1	6.74E+3	2.46E-1	1.55E+3
7.13E-1	6.79E+3	2.47E-1	1.50E+3
7.11E-1	6.80E+3	2.56E-1	1.58E+3
7.24E-1	6.77E+3	2.56E-1	1.58E+3
7.24E-1	6.80E+3	2.43E-1	1.46E+3
7.11E-1	6.81E+3	2.46E-1	1.44E+3
7.34E-1	6.87E+3	2.60E-1	1.61E+3
7.17E-1	6.83E+3	2.42E-1	1.53E+3
7.06E-1	6.72E+3	2.43E-1	1.50E+3
7.46E-1	6.81E+3	2.59E-1	1.55E+3
7.38E-1	6.74E+3	2.43E-1	1.46E+3
7.08E-1	6.68E+3	2.59E-1	1.55E+3
7.11E-1	6.81E+3	2.54E-1	1.47E+3
7.07E-1	6.76E+3	2.40E-1	1.50E+3
7.07E-1	6.77E+3	2.45E-1	1.53E+3
7.12E-1	6.69E+3	2.51E-1	1.52E+3
7.23E-1	6.79E+3	2.50E-1	1.50E+3
7.14E-1	6.66E+3	2.49E-1	1.54E+3
7.15E-1	6.72E+3	2.46E-1	1.54E+3
7.42E-1	6.77E+3	2.56E-1	1.56E+3
7.22E-1	6.80E+3	2.36E-1	1.47E+3
7.21E-1	6.70E+3	2.50E-1	1.49E+3
7.12E-1	6.71E+3	2.38E-1	1.54E+3
7.13E-1	6.85E+3	2.32E-1	1.38E+3
7.42E-1	6.77E+3	2.59E-1	1.56E+3
7.35E-1	6.76E+3	2.44E-1	1.51E+3
7.07E-1	6.87E+3	2.64E-1	1.56E+3
7.36E-1	6.70E+3	2.48E-1	1.47E+3
1.68E-2	4.90E+1	5.82E-1	3.55E+3
7.19E-1	6.83E+3	2.53E-1	1.59E+3
7.23E-1	6.70E+3	2.38E-1	1.50E+3
7.12E-1	6.82E+3	2.52E-1	1.55E+3
7.58E-1	6.77E+3	2.33E-1	1.48E+3
7.17E-1	6.75E+3	2.51E-1	1.55E+3
7.14E-1	6.77E+3	2.48E-1	1.56E+3
7.27E-1	6.79E+3	2.48E-1	1.61E+3
7.40E-1	6.74E+3	2.31E-1	1.42E+3
7.05E-1	6.72E+3	2.76E-1	1.65E+3
7.20E-1	6.67E+3	2.30E-1	1.49E+3
7.45E-1	6.87E+3	2.47E-1	1.44E+3
7.23E-1	6.72E+3	2.46E-1	1.49E+3
7.35E-1	6.82E+3	2.47E-1	1.55E+3
7.17E-1	6.65E+3	2.52E-1	1.45E+3
7.42E-1	6.77E+3	2.43E-1	1.51E+3
7.12E-1	6.86E+3	2.49E-1	1.47E+3
7.15E-1	6.67E+3	2.47E-1	1.57E+3
7.49E-1	6.84E+3	2.67E-1	1.59E+3
7.38E-1	6.68E+3	2.50E-1	1.48E+3
6.99E-1	6.69E+3	2.52E-1	1.48E+3
7.29E-1	6.69E+3	2.50E-1	1.49E+3
7.10E-1	6.83E+3	2.72E-1	1.65E+3
7.07E-1	6.71E+3	2.66E-1	1.51E+3
7.24E-1	6.75E+3	2.54E-1	1.57E+3
7.15E-1	6.73E+3	2.33E-1	1.52E+3
7.16E-1	6.71E+3	2.51E-1	1.50E+3
7.15E-1	6.72E+3	2.47E-1	1.52E+3
7.49E-1	6.86E+3	2.45E-1	1.54E+3
7.27E-1	6.82E+3	2.44E-1	1.54E+3
7.60E-1	6.87E+3	2.71E-1	1.59E+3
7.60E-1	6.82E+3	2.44E-1	1.57E+3
7.08E-1	6.80E+3	2.50E-1	1.50E+3
7.36E-1	6.64E+3	2.63E-1	1.58E+3
7.50E-1	6.76E+3	2.47E-1	1.54E+3
7.12E-1	6.81E+3	2.54E-1	1.38E+3
7.03E-1	6.74E+3	2.53E-1	1.56E+3
7.14E-1	6.91E+3	2.40E-1	1.49E+3
7.35E-1	6.63E+3	2.64E-1	1.54E+3
7.06E-1	6.71E+3	2.47E-1	1.56E+3
7.06E-1	6.70E+3	2.53E-1	1.53E+3
7.13E-1	6.65E+3	2.55E-1	1.52E+3
7.13E-1	6.73E+3	2.47E-1	1.46E+3
7.21E-1	6.77E+3	2.49E-1	1.49E+3
7.63E-1	6.81E+3	2.45E-1	1.57E+3
7.29E-1	6.86E+3	2.47E-1	1.49E+3
7.31E-1	6.90E+3	2.57E-1	1.52E+3
7.50E-1	6.74E+3	2.48E-1	1.44E+3
7.33E-1	6.73E+3	2.40E-1	1.46E+3
7.24E-1	6.75E+3	2.34E-1	1.46E+3
7.08E-1	6.76E+3	2.75E-1	1.61E+3
7.35E-1	6.82E+3	2.52E-1	1.57E+3
7.38E-1	6.78E+3	2.66E-1	1.53E+3
7.13E-1	6.80E+3	2.50E-1	1.48E+3
7.39E-1	6.79E+3	2.32E-1	1.49E+3
7.10E-1	6.84E+3	2.45E-1	1.45E+3
7.23E-1	6.68E+3	2.42E-1	1.51E+3
7.35E-1	6.71E+3	2.44E-1	1.57E+3
7.61E-1	6.71E+3	2.44E-1	1.56E+3
7.29E-1	6.82E+3	2.50E-1	1.53E+3
7.39E-1	6.73E+3	2.47E-1	1.54E+3
7.18E-1	6.68E+3	2.48E-1	1.45E+3
7.04E-1	6.79E+3	2.49E-1	1.55E+3
7.10E-1	6.73E+3	2.61E-1	1.54E+3
7.28E-1	6.81E+3	2.55E-1	1.57E+3
7.31E-1	6.77E+3	2.51E-1	1.53E+3
7.10E-1	6.71E+3	2.55E-1	1.49E+3
7.27E-1	6.57E+3	2.44E-1	1.43E+3
7.09E-1	6.79E+3	2.54E-1	1.57E+3
7.09E-1	6.77E+3	2.50E-1	1.55E+3
7.08E-1	6.75E+3	2.37E-1	1.48E+3
7.26E-1	6.72E+3	2.49E-1	1.50E+3
7.31E-1	6.80E+3	2.42E-1	1.55E+3
7.07E-1	6.74E+3	2.68E-1	1.57E+3
7.14E-1	6.73E+3	2.34E-1	1.44E+3
7.12E-1	6.72E+3	2.49E-1	1.53E+3
7.27E-1	6.82E+3	2.53E-1	1.65E+3
7.28E-1	6.71E+3	2.47E-1	1.50E+3
7.27E-1	6.82E+3	2.53E-1	1.50E+3
7.19E-1	6.77E+3	2.46E-1	1.56E+3
7.07E-1	6.70E+3	2.44E-1	1.50E+3
7.22E-1	6.71E+3	2.47E-1	1.49E+3
7.12E-1	6.79E+3	2.46E-1	1.49E+3
7.39E-1	6.68E+3	2.67E-1	1.61E+3
7.46E-1	6.64E+3	2.60E-1	1.54E+3
7.43E-1	6.78E+3	2.57E-1	1.54E+3
7.50E-1	6.84E+3	2.73E-1	1.61E+3
7.37E-1	6.75E+3	2.36E-1	1.45E+3
7.39E-1	6.78E+3	2.48E-1	1.51E+3
7.36E-1	6.83E+3	2.56E-1	1.56E+3
7.22E-1	6.88E+3	2.64E-1	1.65E+3
7.10E-1	6.71E+3	2.37E-1	1.51E+3
7.14E-1	6.71E+3	2.46E-1	1.53E+3
7.02E-1	6.63E+3	2.54E-1	1.57E+3
7.13E-1	6.72E+3	2.41E-1	1.50E+3
7.44E-1	6.78E+3	2.59E-1	1.58E+3
7.19E-1	6.75E+3	2.63E-1	1.54E+3
7.16E-1	6.74E+3	2.32E-1	1.43E+3
7.24E-1	6.74E+3	2.41E-1	1.50E+3
7.42E-1	6.87E+3	2.35E-1	1.39E+3
7.41E-1	6.80E+3	2.67E-1	1.53E+3
7.34E-1	6.72E+3	2.54E-1	1.58E+3
7.22E-1	6.82E+3	2.41E-1	1.45E+3
7.56E-1	6.68E+3	2.59E-1	1.57E+3
7.33E-1	6.75E+3	2.42E-1	1.48E+3
7.21E-1	6.74E+3	2.67E-1	1.60E+3
7.20E-1	6.79E+3	2.50E-1	1.52E+3
7.19E-1	6.66E+3	2.34E-1	1.49E+3
7.07E-1	6.74E+3	2.39E-1	1.48E+3
7.25E-1	6.73E+3	2.48E-1	1.54E+3
7.15E-1	6.69E+3	2.47E-1	1.55E+3
7.51E-1	6.75E+3	2.47E-1	1.55E+3
7.37E-1	6.77E+3	2.41E-1	1.53E+3
7.30E-1	6.69E+3	2.54E-1	1.53E+3
7.25E-1	6.84E+3	2.35E-1	1.44E+3
7.13E-1	6.81E+3	2.32E-1	1.48E+3
7.30E-1	6.83E+3	2.50E-1	1.57E+3
7.08E-1	6.70E+3	2.52E-1	1.49E+3
7.07E-1	6.65E+3	2.47E-1	1.50E+3
7.25E-1	6.67E+3	2.43E-1	1.49E+3
7.21E-1	6.75E+3	2.36E-1	1.43E+3
7.22E-1	6.68E+3	2.45E-1	1.55E+3
7.18E-1	6.72E+3	2.42E-1	1.47E+3
7.26E-1	6.87E+3	2.21E-1	1.42E+3
7.46E-1	6.76E+3	2.43E-1	1.49E+3
7.18E-1	6.70E+3	2.55E-1	1.54E+3
7.48E-1	6.70E+3	2.72E-1	1.61E+3
7.38E-1	6.81E+3	2.41E-1	1.54E+3
7.16E-1	6.63E+3	2.48E-1	1.54E+3
7.36E-1	6.73E+3	2.54E-1	1.52E+3
7.26E-1	6.68E+3	2.54E-1	1.51E+3
7.35E-1	6.73E+3	2.34E-1	1.46E+3
7.21E-1	6.65E+3	2.55E-1	1.62E+3
7.33E-1	6.74E+3	2.56E-1	1.53E+3
7.60E-1	6.72E+3	2.49E-1	1.47E+3
7.12E-1	6.77E+3	2.39E-1	1.49E+3
7.55E-1	6.76E+3	2.44E-1	1.51E+3
7.10E-1	6.73E+3	2.33E-1	1.44E+3
7.31E-1	6.79E+3	2.62E-1	1.56E+3
7.19E-1	6.77E+3	2.55E-1	1.57E+3
7.32E-1	6.65E+3	2.47E-1	1.59E+3
7.45E-1	6.61E+3	2.68E-1	1.56E+3
7.36E-1	6.84E+3	2.70E-1	1.63E+3
7.24E-1	6.71E+3	2.40E-1	1.55E+3
7.05E-1	6.76E+3	2.39E-1	1.46E+3
7.10E-1	6.73E+3	2.44E-1	1.44E+3
7.17E-1	6.82E+3	2.39E-1	1.51E+3
7.09E-1	6.85E+3	2.53E-1	1.59E+3
7.37E-1	6.69E+3	2.58E-1	1.52E+3
7.39E-1	6.68E+3	2.31E-1	1.46E+3
7.33E-1	6.83E+3	2.39E-1	1.50E+3
7.27E-1	6.73E+3	2.37E-1	1.49E+3
7.40E-1	6.86E+3	2.47E-1	1.52E+3
7.19E-1	6.73E+3	2.47E-1	1.48E+3
7.24E-1	6.77E+3	2.42E-1	1.46E+3
7.15E-1	6.79E+3	2.37E-1	1.51E+3
7.33E-1	6.78E+3	2.50E-1	1.55E+3
7.13E-1	6.72E+3	2.65E-1	1.61E+3
7.09E-1	6.73E+3	2.49E-1	1.51E+3
7.11E-1	6.72E+3	2.51E-1	1.54E+3
7.17E-1	6.81E+3	2.39E-1	1.50E+3
7.11E-1	6.74E+3	2.29E-1	1.40E+3
7.15E-1	6.85E+3	2.62E-1	1.61E+3
7.25E-1	6.69E+3	2.47E-1	1.58E+3
7.51E-1	6.88E+3	2.41E-1	1.48E+3
7.42E-1	6.79E+3	2.37E-1	1.45E+3
7.33E-1	6.63E+3	2.58E-1	1.53E+3
7.35E-1	6.84E+3	2.54E-1	1.56E+3
7.17E-1	6.69E+3	2.47E-1	1.45E+3
7.16E-1	6.79E+3	2.47E-1	1.51E+3
7.14E-1	6.71E+3	2.61E-1	1.50E+3
7.08E-1	6.67E+3	2.58E-1	1.57E+3
7.16E-1	6.77E+3	2.51E-1	1.61E+3
7.12E-1	6.69E+3	2.46E-1	1.53E+3
7.27E-1	6.70E+3	2.40E-1	1.46E+3
7.40E-1	6.99E+3	2.54E-1	1.56E+3
7.12E-1	6.69E+3	2.50E-1	1.49E+3
7.12E-1	6.73E+3	2.52E-1	1.53E+3
7.37E-1	6.73E+3	2.47E-1	1.52E+3
7.52E-1	6.81E+3	2.38E-1	1.51E+3
7.14E-1	6.78E+3	2.48E-1	1.48E+3
7.12E-1	6.80E+3	2.67E-1	1.64E+3
7.44E-1	6.67E+3	2.27E-1	1.49E+3
7.20E-1	6.68E+3	2.52E-1	1.50E+3
7.25E-1	6.86E+3	2.58E-1	1.53E+3
7.12E-1	6.70E+3	2.46E-1	1.49E+3
7.35E-1	6.60E+3	2.50E-1	1.46E+3
7.30E-1	6.74E+3	2.39E-1	1.44E+3
7.12E-1	6.75E+3	2.43E-1	1.47E+3
7.28E-1	6.82E+3	2.38E-1	1.48E+3
7.62E-1	6.69E+3	2.39E-1	1.53E+3
7.30E-1	6.76E+3	2.35E-1	1.45E+3
7.27E-1	6.75E+3	2.53E-1	1.52E+3
7.27E-1	6.79E+3	2.54E-1	1.54E+3
7.44E-1	6.67E+3	2.53E-1	1.61E+3
7.05E-1	6.79E+3	2.49E-1	1.45E+3
7.42E-1	6.67E+3	2.62E-1	1.56E+3
7.11E-1	6.76E+3	2.36E-1	1.49E+3
7.30E-1	6.78E+3	2.39E-1	1.53E+3
7.21E-1	6.71E+3	2.71E-1	1.66E+3
7.44E-1	6.80E+3	2.53E-1	1.45E+3
7.00E-1	6.69E+3	2.56E-1	1.54E+3
7.32E-1	6.75E+3	2.41E-1	1.50E+3
7.17E-1	6.71E+3	2.51E-1	1.50E+3
7.48E-1	6.74E+3	2.57E-1	1.57E+3
7.10E-1	6.83E+3	2.44E-1	1.49E+3
7.28E-1	6.80E+3	2.50E-1	1.50E+3
7.24E-1	6.80E+3	2.59E-1	1.57E+3
7.09E-1	6.59E+3	2.66E-1	1.59E+3
7.07E-1	6.70E+3	2.55E-1	1.52E+3
7.50E-1	6.79E+3	2.52E-1	1.50E+3
7.50E-1	6.82E+3	2.66E-1	1.59E+3
7.11E-1	6.82E+3	2.49E-1	1.51E+3
7.12E-1	6.74E+3	2.61E-1	1.59E+3
7.19E-1	6.85E+3	2.54E-1	1.53E+3
7.10E-1	6.62E+3	2.31E-1	1.44E+3
7.11E-1	6.67E+3	2.33E-1	1.37E+3
7.20E-1	6.67E+3	2.34E-1	1.45E+3
7.45E-1	6.76E+3	2.34E-1	1.49E+3
7.20E-1	6.65E+3	2.49E-1	1.52E+3
7.18E-1	6.69E+3	2.62E-1	1.58E+3
7.16E-1	6.74E+3	2.46E-1	1.54E+3
7.14E-1	6.72E+3	2.43E-1	1.42E+3
7.35E-1	6.77E+3	2.54E-1	1.59E+3
7.35E-1	6.76E+3	2.36E-1	1.50E+3
7.11E-1	6.72E+3	2.47E-1	1.49E+3
7.29E-1	6.69E+3	2.34E-1	1.48E+3
7.08E-1	6.78E+3	2.34E-1	1.46E+3
7.03E-1	6.71E+3	2.58E-1	1.53E+3
7.11E-1	6.83E+3	2.46E-1	1.52E+3
7.36E-1	6.81E+3	2.37E-1	1.48E+3
7.37E-1	6.74E+3	2.49E-1	1.58E+3
7.07E-1	6.65E+3	2.34E-1	1.48E+3
7.18E-1	6.89E+3	2.43E-1	1.57E+3
7.45E-1	6.79E+3	2.79E-1	1.57E+3
7.16E-1	6.81E+3	2.79E-1	1.57E+3
7.15E-1	6.73E+3	2.62E-1	1.52E+3
7.08E-1	6.71E+3	2.62E-1	1.62E+3
7.47E-1	6.78E+3	2.39E-1	1.39E+3
7.54E-1	6.74E+3	2.49E-1	1.49E+3
7.06E-1	6.85E+3	2.23E-1	1.46E+3
7.38E-1	6.82E+3	2.60E-1	1.55E+3
7.33E-1	6.77E+3	2.41E-1	1.49E+3
7.17E-1	6.79E+3	2.47E-1	1.50E+3
7.32E-1	6.78E+3	2.56E-1	1.59E+3
7.47E-1	6.89E+3	2.66E-1	1.55E+3
7.35E-1	6.74E+3	2.40E-1	1.46E+3
7.37E-1	6.81E+3	2.29E-1	1.47E+3
7.35E-1	6.80E+3	2.67E-1	1.58E+3
7.23E-1	6.75E+3	2.61E-1	1.56E+3
7.02E-1	6.75E+3	2.51E-1	1.50E+3
7.36E-1	6.70E+3	2.53E-1	1.58E+3
7.13E-1	6.72E+3	2.38E-1	1.45E+3
7.08E-1	6.77E+3	2.50E-1	1.57E+3
7.20E-1	6.82E+3	2.64E-1	1.57E+3
7.33E-1	6.76E+3	2.65E-1	1.64E+3
7.06E-1	6.67E+3	2.42E-1	1.49E+3
7.21E-1	6.78E+3	2.53E-1	1.55E+3
7.39E-1	6.78E+3	2.35E-1	1.43E+3
7.18E-1	6.80E+3	2.48E-1	1.53E+3
7.36E-1	6.77E+3	2.46E-1	1.54E+3
7.36E-1	6.75E+3	2.55E-1	1.49E+3
7.28E-1	6.82E+3	2.58E-1	1.55E+3
7.38E-1	6.64E+3	2.48E-1	1.51E+3
7.40E-1	6.67E+3	2.62E-1	1.61E+3
7.06E-1	6.71E+3	2.40E-1	1.49E+3
7.09E-1	6.78E+3	2.60E-1	1.53E+3
7.11E-1	6.78E+3	2.48E-1	1.50E+3
7.06E-1	6.74E+3	2.57E-1	1.55E+3
7.09E-1	6.67E+3	2.44E-1	1.54E+3
7.35E-1	6.69E+3	2.56E-1	1.57E+3
7.27E-1	6.77E+3	2.40E-1	1.54E+3
7.14E-1	6.64E+3	2.41E-1	1.52E+3
7.05E-1	6.74E+3	2.48E-1	1.54E+3
7.27E-1	6.65E+3	2.47E-1	1.50E+3
7.18E-1	6.71E+3	2.41E-1	1.54E+3
7.06E-1	6.74E+3	2.60E-1	1.52E+3
7.38E-1	6.75E+3	2.60E-1	1.56E+3
7.11E-1	6.57E+3	2.43E-1	1.51E+3
7.44E-1	6.89E+3	2.53E-1	1.54E+3
7.29E-1	6.77E+3	2.62E-1	1.54E+3
7.34E-1	6.71E+3	2.47E-1	1.47E+3
7.19E-1	6.85E+3	2.37E-1	1.47E+3
7.15E-1	6.72E+3	2.53E-1	1.62E+3
7.16E-1	6.75E+3	2.48E-1	1.54E+3
7.25E-1	6.75E+3	2.41E-1	1.48E+3
7.34E-1	6.71E+3	2.32E-1	1.48E+3
7.27E-1	6.77E+3	2.32E-1	1.48E+3
7.37E-1	6.72E+3	2.49E-1	1.54E+3
7.41E-1	6.77E+3	2.42E-1	1.49E+3
7.23E-1	6.59E+3	2.44E-1	1.45E+3
1.54E-2	5.61E+1	5.61E-1	3.76E+3
7.10E-1	6.74E+3	2.55E-1	1.47E+3
7.16E-1	6.86E+3	2.57E-1	1.48E+3
7.16E-1	6.71E+3	2.44E-1	1.51E+3
7.11E-1	6.73E+3	2.31E-1	1.44E+3
7.09E-1	6.81E+3	2.50E-1	1.52E+3
7.11E-1	6.88E+3	2.53E-1	1.54E+3
7.17E-1	6.85E+3	2.39E-1	1.49E+3
7.48E-1	6.82E+3	2.56E-1	1.53E+3
7.31E-1	6.76E+3	2.63E-1	1.61E+3
7.30E-1	6.81E+3	2.61E-1	1.54E+3
7.17E-1	6.74E+3	2.58E-1	1.58E+3
7.30E-1	6.69E+3	2.54E-1	1.52E+3
7.55E-1	6.71E+3	2.65E-1	1.54E+3
7.49E-1	6.85E+3	2.43E-1	1.53E+3
7.38E-1	6.80E+3	2.37E-1	1.44E+3
7.10E-1	6.76E+3	2.35E-1	1.46E+3
7.36E-1	6.78E+3	2.37E-1	1.49E+3
7.13E-1	6.68E+3	2.54E-1	1.50E+3
7.13E-1	6.84E+3	2.50E-1	1.58E+3
7.06E-1	6.76E+3	2.45E-1	1.57E+3
7.08E-1	6.69E+3	2.58E-1	1.54E+3
7.37E-1	6.84E+3	2.38E-1	1.49E+3
7.48E-1	6.78E+3	2.61E-1	1.55E+3
7.31E-1	6.81E+3	2.38E-1	1.48E+3
7.38E-1	6.74E+3	2.57E-1	1.61E+3
7.31E-1	6.74E+3	2.61E-1	1.57E+3
7.10E-1	6.67E+3	2.70E-1	1.64E+3
7.06E-1	6.74E+3	2.46E-1	1.55E+3
7.07E-1	6.72E+3	2.55E-1	1.59E+3
7.42E-1	6.75E+3	2.48E-1	1.52E+3
7.35E-1	6.68E+3	2.47E-1	1.53E+3
7.17E-1	6.74E+3	2.53E-1	1.50E+3
7.06E-1	6.74E+3	2.58E-1	1.52E+3
7.09E-1	6.71E+3	2.58E-1	1.49E+3
7.35E-1	6.71E+3	2.76E-1	1.62E+3
7.39E-1	6.67E+3	2.65E-1	1.56E+3
7.16E-1	6.75E+3	2.39E-1	1.45E+3
7.57E-1	6.77E+3	2.46E-1	1.49E+3
7.18E-1	6.77E+3	2.43E-1	1.48E+3
7.20E-1	6.79E+3	2.74E-1	1.60E+3
7.48E-1	6.77E+3	2.55E-1	1.54E+3
7.07E-1	6.74E+3	2.52E-1	1.50E+3
7.21E-1	6.79E+3	2.59E-1	1.57E+3
7.09E-1	6.76E+3	2.36E-1	1.44E+3
7.11E-1	6.66E+3	2.64E-1	1.58E+3
7.11E-1	6.98E+3	2.48E-1	1.57E+3
7.45E-1	6.84E+3	2.58E-1	1.60E+3
7.33E-1	6.78E+3	2.46E-1	1.58E+3
7.41E-1	6.75E+3	2.59E-1	1.57E+3
7.13E-1	6.90E+3	2.50E-1	1.56E+3
7.42E-1	6.79E+3	2.68E-1	1.59E+3
7.23E-1	6.74E+3	2.67E-1	1.58E+3
7.10E-1	6.67E+3	2.40E-1	1.49E+3
7.16E-1	6.70E+3	2.36E-1	1.49E+3
7.09E-1	6.72E+3	2.51E-1	1.48E+3
7.07E-1	6.75E+3	2.44E-1	1.47E+3
7.27E-1	6.69E+3	2.47E-1	1.54E+3
7.12E-1	6.72E+3	2.49E-1	1.54E+3
7.11E-1	6.79E+3	2.34E-1	1.49E+3
7.17E-1	6.87E+3	2.56E-1	1.50E+3
7.19E-1	6.73E+3	2.49E-1	1.52E+3
7.13E-1	6.80E+3	2.35E-1	1.48E+3
7.35E-1	6.70E+3	2.35E-1	1.54E+3
7.02E-1	6.69E+3	2.51E-1	1.51E+3
7.07E-1	6.65E+3	2.39E-1	1.50E+3
7.45E-1	6.78E+3	2.58E-1	1.55E+3
7.34E-1	6.79E+3	2.41E-1	1.52E+3
7.07E-1	6.70E+3	2.63E-1	1.54E+3
7.08E-1	6.70E+3	2.63E-1	1.57E+3
7.05E-1	6.74E+3	2.49E-1	1.48E+3
7.02E-1	6.69E+3	2.38E-1	1.50E+3
7.05E-1	6.69E+3	2.41E-1	1.52E+3
7.12E-1	6.83E+3	2.46E-1	1.57E+3
7.32E-1	6.79E+3	2.60E-1	1.51E+3
7.38E-1	6.59E+3	2.59E-1	1.59E+3
7.20E-1	6.80E+3	2.41E-1	1.53E+3
7.34E-1	6.68E+3	2.38E-1	1.44E+3
7.28E-1	6.76E+3	2.54E-1	1.57E+3
7.17E-1	6.90E+3	2.54E-1	1.50E+3
7.06E-1	6.74E+3	2.43E-1	1.46E+3
7.00E-1	6.64E+3	2.51E-1	1.46E+3
7.12E-1	6.75E+3	2.45E-1	1.54E+3
7.08E-1	6.80E+3	2.44E-1	1.57E+3
7.30E-1	6.68E+3	2.52E-1	1.50E+3
7.17E-1	6.78E+3	2.57E-1	1.52E+3
7.31E-1	6.94E+3	2.76E-1	1.54E+3
7.19E-1	6.76E+3	2.34E-1	1.46E+3
7.35E-1	6.83E+3	2.28E-1	1.42E+3
7.30E-1	6.74E+3	2.22E-1	1.36E+3
7.35E-1	6.64E+3	2.45E-1	1.47E+3
