3.84E-1	2.55E+3	6.96E-2	4.30E+2
3.84E-1	2.56E+3	7.28E-2	4.37E+2
3.75E-1	2.56E+3	6.52E-2	4.24E+2
3.91E-1	2.55E+3	7.47E-2	5.01E+2
3.94E-1	2.52E+3	7.35E-2	4.34E+2
3.79E-1	2.51E+3	7.35E-2	4.64E+2
3.87E-1	2.50E+3	7.47E-2	4.40E+2
3.84E-1	2.68E+3	7.13E-2	4.79E+2
3.96E-1	2.51E+3	7.76E-2	4.93E+2
3.80E-1	2.53E+3	7.37E-2	4.84E+2
3.98E-1	2.59E+3	7.96E-2	5.06E+2
3.91E-1	2.46E+3	7.54E-2	4.97E+2
3.85E-1	2.61E+3	7.15E-2	4.41E+2
3.92E-1	2.57E+3	6.52E-2	4.18E+2
3.85E-1	2.53E+3	6.86E-2	3.89E+2
3.93E-1	2.61E+3	6.98E-2	4.87E+2
3.65E-1	2.52E+3	6.84E-2	4.82E+2
3.99E-1	2.65E+3	7.20E-2	4.90E+2
3.60E-1	2.45E+3	7.32E-2	4.53E+2
3.87E-1	2.52E+3	7.54E-2	5.16E+2
3.60E-1	2.40E+3	7.59E-2	4.67E+2
3.73E-1	2.54E+3	7.81E-2	4.64E+2
3.63E-1	2.44E+3	6.79E-2	4.81E+2
3.99E-1	2.48E+3	8.15E-2	5.37E+2
3.92E-1	2.52E+3	7.10E-2	4.55E+2
3.92E-1	2.44E+3	7.71E-2	4.95E+2
3.65E-1	2.51E+3	8.11E-2	5.32E+2
3.64E-1	2.46E+3	7.45E-2	4.78E+2
3.73E-1	2.51E+3	7.64E-2	4.79E+2
3.76E-1	2.58E+3	7.86E-2	5.51E+2
3.79E-1	2.55E+3	7.01E-2	4.75E+2
3.96E-1	2.61E+3	6.71E-2	4.86E+2
3.86E-1	2.60E+3	6.86E-2	4.77E+2
4.15E-1	2.68E+3	7.79E-2	5.10E+2
3.90E-1	2.55E+3	6.62E-2	4.60E+2
3.93E-1	2.54E+3	6.74E-2	4.66E+2
3.71E-1	2.53E+3	7.10E-2	5.18E+2
3.76E-1	2.48E+3	6.45E-2	4.14E+2
4.00E-1	2.54E+3	7.30E-2	4.50E+2
3.77E-1	2.47E+3	7.25E-2	4.78E+2
3.58E-1	2.49E+3	7.15E-2	4.33E+2
3.93E-1	2.56E+3	8.08E-2	5.14E+2
3.83E-1	2.53E+3	7.06E-2	4.43E+2
3.88E-1	2.61E+3	7.91E-2	5.02E+2
3.81E-1	2.48E+3	6.59E-2	4.21E+2
3.95E-1	2.55E+3	7.30E-2	4.58E+2
3.93E-1	2.50E+3	7.30E-2	4.84E+2
3.81E-1	2.53E+3	7.42E-2	4.84E+2
3.72E-1	2.56E+3	7.20E-2	4.88E+2
4.03E-1	2.63E+3	6.67E-2	4.66E+2
3.78E-1	2.52E+3	7.69E-2	5.28E+2
3.92E-1	2.63E+3	8.64E-2	4.83E+2
3.53E-1	2.40E+3	7.74E-2	4.70E+2
3.96E-1	2.57E+3	7.59E-2	4.65E+2
3.81E-1	2.62E+3	7.76E-2	4.22E+2
3.72E-1	2.45E+3	7.81E-2	4.99E+2
3.93E-1	2.61E+3	6.96E-2	4.28E+2
3.74E-1	2.54E+3	7.35E-2	5.02E+2
3.67E-1	2.55E+3	7.69E-2	5.12E+2
3.81E-1	2.55E+3	6.71E-2	4.19E+2
3.72E-1	2.59E+3	7.59E-2	4.91E+2
3.86E-1	2.59E+3	7.98E-2	5.14E+2
3.79E-1	2.59E+3	7.01E-2	5.12E+2
3.73E-1	2.52E+3	7.84E-2	4.81E+2
3.82E-1	2.48E+3	7.08E-2	4.47E+2
3.90E-1	2.48E+3	6.98E-2	4.85E+2
3.78E-1	2.44E+3	6.57E-2	4.47E+2
3.75E-1	2.51E+3	7.42E-2	4.81E+2
3.80E-1	2.59E+3	8.89E-2	5.04E+2
3.89E-1	2.55E+3	7.45E-2	4.72E+2
3.69E-1	2.56E+3	7.37E-2	5.17E+2
3.90E-1	2.65E+3	7.69E-2	5.46E+2
3.68E-1	2.50E+3	7.96E-2	4.74E+2
3.63E-1	2.48E+3	8.30E-2	5.36E+2
3.80E-1	2.50E+3	7.50E-2	4.99E+2
3.87E-1	2.54E+3	7.18E-2	4.73E+2
3.86E-1	2.39E+3	6.81E-2	4.48E+2
3.88E-1	2.46E+3	7.30E-2	4.41E+2
3.73E-1	2.45E+3	6.96E-2	4.53E+2
3.70E-1	2.55E+3	7.35E-2	4.89E+2
3.78E-1	2.61E+3	7.08E-2	4.30E+2
3.89E-1	2.61E+3	7.15E-2	5.12E+2
4.06E-1	2.59E+3	7.01E-2	4.16E+2
3.72E-1	2.51E+3	7.18E-2	4.73E+2
3.84E-1	2.55E+3	6.98E-2	4.57E+2
3.93E-1	2.51E+3	7.30E-2	4.23E+2
3.87E-1	2.56E+3	7.86E-2	5.16E+2
3.79E-1	2.60E+3	7.91E-2	5.33E+2
3.85E-1	2.63E+3	7.79E-2	5.04E+2
3.79E-1	2.57E+3	7.37E-2	4.72E+2
3.85E-1	2.50E+3	7.69E-2	5.11E+2
3.84E-1	2.60E+3	7.47E-2	5.29E+2
3.89E-1	2.53E+3	6.32E-2	3.96E+2
3.73E-1	2.46E+3	8.20E-2	4.94E+2
3.82E-1	2.44E+3	7.23E-2	4.30E+2
3.85E-1	2.56E+3	7.06E-2	4.73E+2
3.90E-1	2.67E+3	7.30E-2	4.73E+2
3.64E-1	2.44E+3	7.59E-2	5.29E+2
3.95E-1	2.56E+3	7.28E-2	4.43E+2
3.81E-1	2.46E+3	6.86E-2	4.44E+2
3.70E-1	2.56E+3	7.91E-2	4.98E+2
3.73E-1	2.54E+3	7.47E-2	4.45E+2
3.87E-1	2.68E+3	7.62E-2	5.22E+2
3.79E-1	2.54E+3	7.54E-2	4.96E+2
4.11E-1	2.59E+3	7.32E-2	5.07E+2
3.83E-1	2.50E+3	7.50E-2	4.80E+2
3.71E-1	2.57E+3	8.11E-2	5.25E+2
3.66E-1	2.52E+3	7.42E-2	4.84E+2
3.71E-1	2.52E+3	7.15E-2	5.42E+2
3.87E-1	2.62E+3	7.18E-2	5.03E+2
3.77E-1	2.45E+3	7.57E-2	4.85E+2
4.00E-1	2.60E+3	7.71E-2	4.90E+2
3.81E-1	2.51E+3	7.47E-2	4.84E+2
3.69E-1	2.38E+3	7.93E-2	5.23E+2
3.66E-1	2.54E+3	7.89E-2	5.29E+2
4.06E-1	2.63E+3	7.42E-2	5.00E+2
3.61E-1	2.48E+3	7.08E-2	4.62E+2
4.01E-1	2.66E+3	7.18E-2	4.86E+2
3.76E-1	2.61E+3	7.01E-2	4.85E+2
3.86E-1	2.51E+3	7.45E-2	5.17E+2
3.76E-1	2.59E+3	7.69E-2	5.49E+2
3.74E-1	2.55E+3	7.15E-2	4.65E+2
3.68E-1	2.56E+3	7.32E-2	5.11E+2
3.85E-1	2.44E+3	7.42E-2	5.15E+2
3.96E-1	2.59E+3	7.40E-2	4.93E+2
5.13E-3	-1.95E+0	2.28E-1	1.22E+3
3.83E-1	2.52E+3	7.67E-2	5.36E+2
3.72E-1	2.52E+3	8.47E-2	5.35E+2
3.74E-1	2.53E+3	7.30E-2	5.10E+2
3.87E-1	2.63E+3	6.91E-2	4.77E+2
3.72E-1	2.55E+3	7.47E-2	5.13E+2
3.74E-1	2.56E+3	7.57E-2	4.74E+2
3.75E-1	2.64E+3	7.64E-2	4.70E+2
3.85E-1	2.49E+3	6.79E-2	4.41E+2
3.61E-1	2.40E+3	6.35E-2	4.17E+2
3.56E-1	2.41E+3	6.59E-2	5.13E+2
3.92E-1	2.55E+3	6.62E-2	4.02E+2
4.03E-1	2.54E+3	7.28E-2	4.33E+2
3.69E-1	2.50E+3	7.54E-2	4.39E+2
3.83E-1	2.51E+3	7.13E-2	4.85E+2
3.70E-1	2.49E+3	7.35E-2	4.54E+2
3.94E-1	2.51E+3	8.25E-2	4.73E+2
3.79E-1	2.50E+3	7.42E-2	4.26E+2
3.77E-1	2.60E+3	7.74E-2	4.91E+2
3.79E-1	2.56E+3	7.03E-2	4.83E+2
3.84E-1	2.59E+3	7.03E-2	5.14E+2
3.65E-1	2.54E+3	7.84E-2	4.74E+2
3.88E-1	2.67E+3	6.93E-2	4.81E+2
3.96E-1	2.54E+3	6.93E-2	4.75E+2
3.74E-1	2.53E+3	7.03E-2	4.96E+2
3.82E-1	2.53E+3	8.08E-2	5.53E+2
3.71E-1	2.46E+3	6.71E-2	4.43E+2
3.84E-1	2.45E+3	8.37E-2	5.36E+2
4.03E-1	2.49E+3	7.13E-2	4.29E+2
6.10E-3	2.01E+1	2.24E-1	1.28E+3
3.89E-1	2.48E+3	7.15E-2	4.51E+2
3.72E-1	2.54E+3	7.54E-2	4.67E+2
3.87E-1	2.66E+3	6.84E-2	4.76E+2
3.80E-1	2.62E+3	7.25E-2	4.75E+2
3.72E-1	2.48E+3	7.32E-2	5.01E+2
3.56E-1	2.45E+3	7.10E-2	4.40E+2
3.85E-1	2.57E+3	7.20E-2	5.19E+2
3.65E-1	2.48E+3	7.25E-2	5.09E+2
3.76E-1	2.53E+3	7.84E-2	5.25E+2
3.65E-1	2.46E+3	7.52E-2	5.16E+2
3.71E-1	2.47E+3	7.81E-2	4.64E+2
3.96E-1	2.53E+3	7.64E-2	4.84E+2
3.87E-1	2.52E+3	7.50E-2	4.35E+2
3.97E-1	2.67E+3	7.67E-2	4.79E+2
3.82E-1	2.57E+3	8.18E-2	5.46E+2
4.00E-1	2.57E+3	7.54E-2	4.92E+2
4.04E-1	2.55E+3	7.03E-2	4.70E+2
3.96E-1	2.54E+3	7.76E-2	4.54E+2
3.92E-1	2.57E+3	8.18E-2	5.23E+2
6.10E-3	2.34E+0	2.29E-1	1.30E+3
3.90E-1	2.57E+3	8.25E-2	5.10E+2
3.73E-1	2.47E+3	6.84E-2	4.74E+2
3.68E-1	2.57E+3	7.37E-2	4.91E+2
3.68E-1	2.52E+3	7.64E-2	4.63E+2
3.96E-1	2.61E+3	7.74E-2	4.50E+2
4.07E-1	2.58E+3	7.06E-2	4.23E+2
3.89E-1	2.53E+3	7.13E-2	4.42E+2
3.78E-1	2.45E+3	8.15E-2	4.96E+2
3.83E-1	2.58E+3	7.57E-2	4.99E+2
3.79E-1	2.57E+3	7.89E-2	4.75E+2
3.86E-1	2.52E+3	7.25E-2	4.41E+2
3.74E-1	2.56E+3	8.08E-2	5.20E+2
4.03E-1	2.61E+3	7.30E-2	4.88E+2
3.79E-1	2.62E+3	6.91E-2	4.72E+2
3.87E-1	2.59E+3	7.20E-2	5.08E+2
3.53E-1	2.47E+3	7.15E-2	4.50E+2
3.68E-1	2.45E+3	8.13E-2	5.23E+2
3.87E-1	2.53E+3	8.59E-2	5.47E+2
3.88E-1	2.56E+3	7.91E-2	5.72E+2
3.98E-1	2.56E+3	7.54E-2	4.79E+2
3.53E-1	2.36E+3	8.11E-2	4.93E+2
3.94E-1	2.54E+3	7.64E-2	4.90E+2
4.05E-1	2.61E+3	8.06E-2	5.18E+2
4.02E-1	2.61E+3	7.15E-2	4.71E+2
3.91E-1	2.53E+3	7.79E-2	4.44E+2
3.74E-1	2.46E+3	7.30E-2	4.58E+2
3.79E-1	2.66E+3	6.93E-2	4.72E+2
3.98E-1	2.53E+3	7.64E-2	4.85E+2
3.75E-1	2.42E+3	8.40E-2	5.63E+2
3.75E-1	2.49E+3	8.25E-2	5.64E+2
3.97E-1	2.60E+3	6.79E-2	4.54E+2
3.73E-1	2.51E+3	7.93E-2	4.63E+2
3.94E-1	2.59E+3	7.08E-2	4.64E+2
3.77E-1	2.59E+3	7.67E-2	5.50E+2
3.76E-1	2.42E+3	6.37E-2	3.76E+2
3.61E-1	2.38E+3	7.03E-2	4.60E+2
3.65E-1	2.50E+3	7.76E-2	5.36E+2
3.82E-1	2.53E+3	7.79E-2	5.04E+2
3.72E-1	2.46E+3	7.54E-2	4.96E+2
4.04E-1	2.62E+3	7.03E-2	5.05E+2
3.78E-1	2.60E+3	7.25E-2	5.21E+2
3.65E-1	2.43E+3	7.15E-2	5.14E+2
3.84E-1	2.55E+3	7.30E-2	4.85E+2
3.75E-1	2.46E+3	7.54E-2	5.16E+2
3.82E-1	2.50E+3	7.67E-2	4.82E+2
3.88E-1	2.43E+3	7.59E-2	4.53E+2
3.75E-1	2.55E+3	7.10E-2	4.73E+2
3.78E-1	2.56E+3	6.96E-2	4.65E+2
3.94E-1	2.52E+3	7.10E-2	4.23E+2
3.67E-1	2.44E+3	7.86E-2	5.04E+2
3.91E-1	2.62E+3	7.18E-2	5.08E+2
3.82E-1	2.57E+3	7.45E-2	4.68E+2
3.73E-1	2.44E+3	7.69E-2	4.19E+2
3.71E-1	2.50E+3	7.59E-2	4.99E+2
3.82E-1	2.62E+3	7.86E-2	4.94E+2
3.80E-1	2.52E+3	7.42E-2	4.96E+2
3.78E-1	2.52E+3	7.57E-2	4.99E+2
3.61E-1	2.45E+3	7.52E-2	5.23E+2
3.86E-1	2.57E+3	6.79E-2	4.58E+2
3.86E-1	2.59E+3	7.71E-2	5.08E+2
3.71E-1	2.51E+3	7.67E-2	5.00E+2
3.79E-1	2.45E+3	7.64E-2	5.35E+2
3.94E-1	2.49E+3	7.06E-2	4.57E+2
3.85E-1	2.53E+3	7.57E-2	5.33E+2
3.88E-1	2.59E+3	8.01E-2	4.84E+2
4.05E-1	2.57E+3	7.50E-2	5.08E+2
3.96E-1	2.55E+3	7.59E-2	4.99E+2
3.64E-1	2.58E+3	7.69E-2	5.10E+2
3.80E-1	2.53E+3	7.89E-2	5.09E+2
3.96E-1	2.48E+3	8.30E-2	5.02E+2
3.69E-1	2.42E+3	7.28E-2	4.61E+2
3.78E-1	2.56E+3	7.23E-2	4.88E+2
3.79E-1	2.58E+3	7.03E-2	4.83E+2
3.84E-1	2.64E+3	7.52E-2	4.84E+2
3.68E-1	2.53E+3	7.52E-2	5.18E+2
3.83E-1	2.57E+3	7.37E-2	4.27E+2
3.75E-1	2.50E+3	7.79E-2	5.11E+2
3.84E-1	2.58E+3	7.62E-2	5.01E+2
3.97E-1	2.62E+3	7.37E-2	4.93E+2
3.82E-1	2.47E+3	7.62E-2	4.83E+2
4.05E-1	2.55E+3	7.50E-2	4.88E+2
3.85E-1	2.70E+3	6.23E-2	4.46E+2
4.10E-1	2.64E+3	8.06E-2	5.25E+2
3.75E-1	2.56E+3	6.96E-2	4.74E+2
3.72E-1	2.50E+3	6.69E-2	4.77E+2
3.85E-1	2.64E+3	6.62E-2	4.62E+2
3.96E-1	2.63E+3	7.08E-2	4.93E+2
4.01E-1	2.61E+3	7.03E-2	4.83E+2
3.72E-1	2.55E+3	6.67E-2	4.90E+2
3.80E-1	2.50E+3	7.15E-2	4.97E+2
3.86E-1	2.57E+3	6.98E-2	4.91E+2
3.88E-1	2.54E+3	7.62E-2	4.77E+2
3.78E-1	2.46E+3	7.08E-2	4.76E+2
3.81E-1	2.52E+3	7.74E-2	4.49E+2
3.82E-1	2.53E+3	7.23E-2	4.71E+2
3.82E-1	2.45E+3	8.30E-2	5.17E+2
3.76E-1	2.57E+3	7.35E-2	5.17E+2
6.10E-3	6.05E+0	2.27E-1	1.24E+3
3.70E-1	2.49E+3	6.62E-2	4.55E+2
3.74E-1	2.48E+3	8.62E-2	5.51E+2
3.72E-1	2.55E+3	7.96E-2	4.71E+2
3.84E-1	2.41E+3	7.98E-2	5.02E+2
3.87E-1	2.55E+3	7.20E-2	4.99E+2
3.72E-1	2.52E+3	8.67E-2	5.53E+2
4.09E-1	2.61E+3	7.03E-2	4.78E+2
4.08E-1	2.58E+3	7.15E-2	4.45E+2
3.89E-1	2.52E+3	7.76E-2	4.77E+2
3.72E-1	2.44E+3	6.93E-2	4.44E+2
3.97E-1	2.63E+3	7.47E-2	4.85E+2
3.84E-1	2.66E+3	7.54E-2	4.78E+2
3.99E-1	2.54E+3	7.23E-2	4.84E+2
3.92E-1	2.47E+3	7.23E-2	4.66E+2
3.75E-1	2.54E+3	7.64E-2	5.14E+2
3.69E-1	2.54E+3	7.59E-2	4.94E+2
3.94E-1	2.57E+3	7.64E-2	4.72E+2
3.83E-1	2.54E+3	7.76E-2	4.89E+2
3.59E-1	2.48E+3	7.28E-2	5.14E+2
3.87E-1	2.51E+3	7.67E-2	5.24E+2
3.99E-1	2.59E+3	7.47E-2	4.30E+2
3.72E-1	2.46E+3	7.42E-2	4.36E+2
4.25E-1	2.72E+3	7.54E-2	5.04E+2
4.04E-1	2.66E+3	7.20E-2	4.73E+2
3.93E-1	2.66E+3	7.50E-2	4.69E+2
3.71E-1	2.54E+3	7.13E-2	4.67E+2
3.76E-1	2.60E+3	7.79E-2	4.90E+2
3.79E-1	2.60E+3	7.79E-2	4.99E+2
3.59E-1	2.43E+3	8.20E-2	5.09E+2
3.68E-1	2.52E+3	7.28E-2	4.38E+2
3.89E-1	2.61E+3	7.32E-2	5.51E+2
3.88E-1	2.56E+3	6.88E-2	4.19E+2
3.81E-1	2.49E+3	7.01E-2	4.55E+2
3.74E-1	2.62E+3	7.52E-2	5.20E+2
3.69E-1	2.50E+3	7.71E-2	5.19E+2
4.04E-1	2.64E+3	7.59E-2	4.75E+2
3.88E-1	2.62E+3	7.18E-2	4.69E+2
3.85E-1	2.58E+3	7.71E-2	5.48E+2
3.94E-1	2.59E+3	6.76E-2	4.32E+2
3.63E-1	2.48E+3	7.30E-2	4.57E+2
3.86E-1	2.59E+3	7.28E-2	4.65E+2
6.10E-3	3.61E+0	2.34E-1	1.33E+3
3.71E-1	2.57E+3	7.79E-2	4.48E+2
3.95E-1	2.59E+3	8.40E-2	5.72E+2
3.86E-1	2.70E+3	7.28E-2	4.97E+2
3.74E-1	2.55E+3	7.91E-2	5.05E+2
3.91E-1	2.54E+3	7.47E-2	4.88E+2
3.66E-1	2.45E+3	7.69E-2	5.17E+2
3.69E-1	2.59E+3	7.69E-2	5.06E+2
3.65E-1	2.49E+3	8.08E-2	4.99E+2
3.93E-1	2.57E+3	7.40E-2	4.97E+2
3.90E-1	2.54E+3	7.03E-2	4.52E+2
3.61E-1	2.51E+3	6.88E-2	4.88E+2
4.00E-1	2.60E+3	8.28E-2	5.13E+2
3.88E-1	2.46E+3	7.32E-2	5.01E+2
3.82E-1	2.41E+3	8.20E-2	4.89E+2
4.05E-1	2.70E+3	7.23E-2	4.86E+2
3.86E-1	2.61E+3	8.03E-2	5.63E+2
3.86E-1	2.56E+3	7.59E-2	5.17E+2
3.89E-1	2.50E+3	7.62E-2	5.21E+2
3.81E-1	2.51E+3	7.08E-2	4.58E+2
3.91E-1	2.49E+3	7.42E-2	4.40E+2
3.66E-1	2.47E+3	7.50E-2	4.85E+2
3.83E-1	2.67E+3	6.93E-2	4.71E+2
3.89E-1	2.48E+3	7.35E-2	4.44E+2
3.73E-1	2.41E+3	6.81E-2	4.34E+2
3.86E-1	2.44E+3	7.71E-2	4.72E+2
3.89E-1	2.56E+3	8.01E-2	5.34E+2
3.93E-1	2.51E+3	7.93E-2	5.02E+2
3.90E-1	2.55E+3	7.03E-2	4.59E+2
3.71E-1	2.51E+3	7.69E-2	5.32E+2
3.63E-1	2.46E+3	7.79E-2	5.11E+2
3.70E-1	2.46E+3	6.81E-2	4.62E+2
3.74E-1	2.59E+3	7.30E-2	4.80E+2
3.80E-1	2.50E+3	7.47E-2	4.98E+2
3.71E-1	2.57E+3	7.98E-2	5.29E+2
4.07E-1	2.56E+3	7.74E-2	5.07E+2
3.59E-1	2.44E+3	7.42E-2	4.94E+2
3.83E-1	2.63E+3	7.30E-2	5.03E+2
3.63E-1	2.46E+3	7.03E-2	4.75E+2
4.00E-1	2.60E+3	7.13E-2	4.57E+2
3.60E-1	2.47E+3	7.98E-2	5.55E+2
3.81E-1	2.47E+3	8.35E-2	5.00E+2
3.77E-1	2.52E+3	7.84E-2	5.21E+2
3.87E-1	2.58E+3	8.28E-2	5.51E+2
3.87E-1	2.52E+3	6.88E-2	4.57E+2
3.96E-1	2.57E+3	7.30E-2	4.81E+2
3.84E-1	2.46E+3	7.59E-2	5.18E+2
3.71E-1	2.54E+3	7.42E-2	5.06E+2
3.71E-1	2.46E+3	7.03E-2	4.39E+2
4.06E-1	2.54E+3	7.32E-2	5.18E+2
3.96E-1	2.59E+3	7.79E-2	5.40E+2
3.73E-1	2.51E+3	7.06E-2	4.67E+2
4.03E-1	2.58E+3	7.32E-2	5.26E+2
3.88E-1	2.55E+3	7.93E-2	4.98E+2
3.69E-1	2.44E+3	7.40E-2	4.46E+2
3.65E-1	2.54E+3	7.57E-2	4.81E+2
3.84E-1	2.51E+3	7.28E-2	4.63E+2
3.67E-1	2.54E+3	6.76E-2	4.52E+2
3.86E-1	2.68E+3	6.47E-2	3.97E+2
3.63E-1	2.49E+3	7.74E-2	5.19E+2
3.87E-1	2.57E+3	6.88E-2	4.47E+2
3.76E-1	2.58E+3	8.57E-2	5.68E+2
3.81E-1	2.59E+3	7.52E-2	5.02E+2
3.94E-1	2.66E+3	7.84E-2	5.28E+2
3.67E-1	2.48E+3	7.71E-2	5.08E+2
3.73E-1	2.51E+3	7.08E-2	4.76E+2
3.82E-1	2.54E+3	7.13E-2	4.89E+2
4.21E-1	2.68E+3	6.42E-2	4.24E+2
3.90E-1	2.67E+3	7.59E-2	4.98E+2
4.13E-1	2.68E+3	6.84E-2	4.41E+2
3.86E-1	2.62E+3	6.71E-2	4.71E+2
3.75E-1	2.58E+3	7.86E-2	5.17E+2
3.73E-1	2.47E+3	7.71E-2	4.91E+2
3.72E-1	2.55E+3	7.28E-2	4.87E+2
3.82E-1	2.57E+3	7.64E-2	4.88E+2
3.84E-1	2.59E+3	7.89E-2	5.03E+2
3.83E-1	2.62E+3	7.40E-2	4.65E+2
3.71E-1	2.47E+3	7.64E-2	5.28E+2
3.69E-1	2.53E+3	7.23E-2	4.84E+2
3.83E-1	2.61E+3	7.42E-2	5.08E+2
3.79E-1	2.53E+3	7.45E-2	4.90E+2
3.61E-1	2.37E+3	7.50E-2	4.44E+2
3.96E-1	2.55E+3	7.59E-2	4.99E+2
3.80E-1	2.56E+3	6.91E-2	4.66E+2
3.61E-1	2.48E+3	7.91E-2	4.96E+2
3.83E-1	2.53E+3	6.88E-2	4.34E+2
3.89E-1	2.54E+3	7.96E-2	5.01E+2
3.96E-1	2.56E+3	6.98E-2	4.39E+2
3.70E-1	2.49E+3	7.45E-2	5.02E+2
3.86E-1	2.64E+3	6.54E-2	4.29E+2
3.76E-1	2.54E+3	7.52E-2	5.40E+2
4.13E-1	2.68E+3	7.30E-2	5.25E+2
3.75E-1	2.51E+3	7.64E-2	5.31E+2
3.60E-1	2.44E+3	7.76E-2	4.84E+2
3.90E-1	2.55E+3	7.84E-2	5.00E+2
4.00E-1	2.58E+3	7.89E-2	5.00E+2
4.00E-1	2.52E+3	8.08E-2	5.26E+2
3.94E-1	2.57E+3	6.71E-2	4.02E+2
3.87E-1	2.57E+3	7.50E-2	4.73E+2
3.89E-1	2.53E+3	8.13E-2	5.00E+2
3.66E-1	2.52E+3	7.69E-2	4.82E+2
4.01E-1	2.53E+3	7.03E-2	4.42E+2
3.92E-1	2.66E+3	7.03E-2	4.35E+2
3.87E-1	2.64E+3	7.57E-2	5.21E+2
3.78E-1	2.56E+3	7.50E-2	4.59E+2
3.83E-1	2.51E+3	6.96E-2	4.62E+2
4.05E-1	2.52E+3	7.71E-2	4.88E+2
3.98E-1	2.58E+3	7.32E-2	4.80E+2
4.04E-1	2.57E+3	7.93E-2	4.30E+2
3.93E-1	2.60E+3	7.67E-2	4.58E+2
3.93E-1	2.50E+3	7.37E-2	4.96E+2
3.76E-1	2.56E+3	6.49E-2	4.27E+2
3.85E-1	2.55E+3	7.67E-2	5.23E+2
4.03E-1	2.60E+3	8.23E-2	5.08E+2
3.82E-1	2.57E+3	8.06E-2	5.18E+2
3.77E-1	2.47E+3	8.11E-2	4.99E+2
3.96E-1	2.68E+3	7.47E-2	5.03E+2
3.83E-1	2.52E+3	7.57E-2	4.93E+2
3.73E-1	2.56E+3	7.32E-2	5.11E+2
4.00E-1	2.56E+3	6.40E-2	4.22E+2
3.98E-1	2.53E+3	7.37E-2	4.96E+2
3.75E-1	2.41E+3	6.84E-2	4.65E+2
3.63E-1	2.50E+3	7.57E-2	4.70E+2
3.79E-1	2.47E+3	7.35E-2	4.74E+2
3.98E-1	2.59E+3	7.59E-2	4.60E+2
3.99E-1	2.50E+3	7.20E-2	4.38E+2
3.73E-1	2.52E+3	7.40E-2	5.12E+2
3.97E-1	2.56E+3	7.67E-2	4.96E+2
3.62E-1	2.51E+3	8.06E-2	5.12E+2
3.72E-1	2.54E+3	7.91E-2	5.03E+2
3.52E-1	2.37E+3	7.06E-2	4.54E+2
3.88E-1	2.53E+3	7.54E-2	4.88E+2
3.88E-1	2.60E+3	7.13E-2	4.67E+2
3.60E-1	2.46E+3	7.25E-2	5.03E+2
3.89E-1	2.52E+3	7.15E-2	4.84E+2
3.71E-1	2.52E+3	7.64E-2	5.04E+2
3.98E-1	2.51E+3	7.18E-2	4.86E+2
3.80E-1	2.53E+3	7.86E-2	5.04E+2
3.68E-1	2.55E+3	7.67E-2	5.08E+2
3.92E-1	2.57E+3	7.18E-2	4.91E+2
3.75E-1	2.47E+3	7.40E-2	5.07E+2
3.78E-1	2.52E+3	7.98E-2	5.01E+2
3.66E-1	2.50E+3	7.57E-2	5.05E+2
3.86E-1	2.50E+3	8.15E-2	4.87E+2
3.73E-1	2.49E+3	7.69E-2	5.40E+2
3.56E-1	2.44E+3	7.10E-2	5.17E+2
3.75E-1	2.55E+3	7.59E-2	4.92E+2
3.90E-1	2.60E+3	6.69E-2	4.93E+2
3.96E-1	2.55E+3	7.69E-2	4.95E+2
4.10E-1	2.60E+3	8.20E-2	5.31E+2
3.82E-1	2.48E+3	7.35E-2	5.13E+2
3.88E-1	2.56E+3	6.64E-2	4.55E+2
3.80E-1	2.62E+3	7.15E-2	4.89E+2
3.74E-1	2.44E+3	7.69E-2	4.64E+2
3.79E-1	2.42E+3	7.30E-2	4.52E+2
3.93E-1	2.56E+3	7.25E-2	4.93E+2
3.77E-1	2.52E+3	7.84E-2	5.20E+2
3.71E-1	2.50E+3	7.32E-2	4.96E+2
3.78E-1	2.61E+3	7.64E-2	4.98E+2
3.67E-1	2.51E+3	6.49E-2	4.57E+2
3.70E-1	2.49E+3	7.40E-2	5.43E+2
3.64E-1	2.56E+3	7.08E-2	4.63E+2
3.82E-1	2.60E+3	7.67E-2	4.95E+2
3.92E-1	2.61E+3	6.96E-2	5.00E+2
3.79E-1	2.55E+3	7.93E-2	5.25E+2
4.19E-1	2.67E+3	7.40E-2	4.68E+2
3.83E-1	2.47E+3	7.35E-2	4.53E+2
3.95E-1	2.60E+3	7.74E-2	5.03E+2
3.78E-1	2.52E+3	7.13E-2	4.37E+2
3.89E-1	2.58E+3	7.45E-2	4.94E+2
3.69E-1	2.55E+3	7.18E-2	4.73E+2
3.68E-1	2.49E+3	6.96E-2	4.97E+2
3.71E-1	2.52E+3	7.03E-2	4.13E+2
3.73E-1	2.48E+3	6.47E-2	4.50E+2
3.73E-1	2.55E+3	8.06E-2	5.57E+2
3.75E-1	2.59E+3	7.86E-2	5.01E+2
3.97E-1	2.62E+3	7.20E-2	4.88E+2
3.66E-1	2.46E+3	7.15E-2	4.45E+2
3.66E-1	2.46E+3	7.10E-2	4.83E+2
3.82E-1	2.60E+3	7.45E-2	4.94E+2
3.90E-1	2.52E+3	8.06E-2	5.15E+2
3.83E-1	2.48E+3	7.57E-2	5.12E+2
4.04E-1	2.55E+3	6.84E-2	4.29E+2
3.87E-1	2.56E+3	6.64E-2	4.64E+2
3.95E-1	2.64E+3	7.32E-2	5.19E+2
3.93E-1	2.60E+3	7.01E-2	4.67E+2
3.68E-1	2.51E+3	7.93E-2	5.37E+2
3.78E-1	2.52E+3	7.81E-2	5.20E+2
3.78E-1	2.57E+3	8.03E-2	4.77E+2
3.85E-1	2.57E+3	6.59E-2	4.14E+2
3.93E-1	2.49E+3	7.13E-2	4.65E+2
3.78E-1	2.55E+3	7.37E-2	4.83E+2
3.80E-1	2.53E+3	8.15E-2	4.95E+2
3.96E-1	2.56E+3	7.06E-2	4.57E+2
4.04E-1	2.58E+3	7.03E-2	4.64E+2
3.85E-1	2.54E+3	7.96E-2	5.05E+2
3.76E-1	2.50E+3	6.88E-2	4.59E+2
3.92E-1	2.60E+3	7.42E-2	4.95E+2
4.05E-1	2.52E+3	7.40E-2	4.75E+2
3.70E-1	2.50E+3	7.30E-2	4.79E+2
3.86E-1	2.50E+3	7.23E-2	5.18E+2
3.78E-1	2.57E+3	6.88E-2	4.69E+2
3.66E-1	2.53E+3	7.06E-2	4.62E+2
3.97E-1	2.61E+3	7.79E-2	4.74E+2
3.78E-1	2.58E+3	7.23E-2	4.57E+2
3.67E-1	2.55E+3	7.86E-2	4.88E+2
3.84E-1	2.52E+3	7.03E-2	4.73E+2
3.83E-1	2.44E+3	7.62E-2	5.10E+2
3.78E-1	2.53E+3	6.67E-2	4.37E+2
3.85E-1	2.50E+3	7.30E-2	4.24E+2
3.71E-1	2.48E+3	7.10E-2	4.60E+2
3.98E-1	2.57E+3	7.52E-2	5.33E+2
3.94E-1	2.51E+3	7.59E-2	4.77E+2
3.92E-1	2.57E+3	7.52E-2	4.91E+2
3.61E-1	2.52E+3	8.01E-2	4.62E+2
3.81E-1	2.45E+3	7.74E-2	4.54E+2
3.73E-1	2.53E+3	7.01E-2	4.63E+2
3.85E-1	2.48E+3	7.20E-2	4.53E+2
3.75E-1	2.57E+3	6.79E-2	4.42E+2
3.70E-1	2.50E+3	6.84E-2	4.79E+2
4.11E-1	2.58E+3	6.59E-2	3.91E+2
3.87E-1	2.50E+3	7.30E-2	4.71E+2
3.95E-1	2.63E+3	7.28E-2	4.91E+2
3.84E-1	2.53E+3	7.91E-2	5.05E+2
3.81E-1	2.44E+3	6.88E-2	4.23E+2
3.83E-1	2.49E+3	7.23E-2	4.29E+2
3.65E-1	2.34E+3	8.11E-2	4.94E+2
3.70E-1	2.51E+3	7.13E-2	4.89E+2
3.88E-1	2.53E+3	7.47E-2	4.79E+2
3.85E-1	2.56E+3	7.42E-2	5.07E+2
3.98E-1	2.55E+3	8.06E-2	5.05E+2
3.85E-1	2.53E+3	6.91E-2	3.93E+2
3.65E-1	2.49E+3	7.67E-2	5.42E+2
3.76E-1	2.54E+3	8.13E-2	5.19E+2
3.92E-1	2.54E+3	6.93E-2	4.83E+2
3.80E-1	2.54E+3	7.50E-2	5.34E+2
3.87E-1	2.54E+3	7.57E-2	5.02E+2
3.71E-1	2.42E+3	7.59E-2	5.04E+2
3.80E-1	2.53E+3	7.79E-2	5.00E+2
3.95E-1	2.71E+3	7.03E-2	4.60E+2
3.88E-1	2.55E+3	7.52E-2	4.88E+2
3.74E-1	2.48E+3	8.01E-2	5.07E+2
4.01E-1	2.55E+3	7.67E-2	4.76E+2
3.82E-1	2.51E+3	7.47E-2	4.43E+2
3.67E-1	2.50E+3	7.08E-2	4.57E+2
3.69E-1	2.52E+3	7.67E-2	4.79E+2
3.92E-1	2.65E+3	7.08E-2	4.87E+2
3.86E-1	2.52E+3	8.40E-2	5.48E+2
3.66E-1	2.50E+3	8.28E-2	5.93E+2
3.58E-1	2.50E+3	7.15E-2	4.75E+2
3.84E-1	2.45E+3	7.89E-2	4.99E+2
3.93E-1	2.52E+3	7.50E-2	5.22E+2
3.80E-1	2.59E+3	7.01E-2	4.74E+2
3.67E-1	2.50E+3	7.10E-2	5.17E+2
3.74E-1	2.45E+3	7.86E-2	5.00E+2
3.95E-1	2.59E+3	7.64E-2	4.53E+2
3.63E-1	2.45E+3	7.71E-2	4.81E+2
3.76E-1	2.44E+3	7.50E-2	4.46E+2
3.90E-1	2.56E+3	7.03E-2	4.78E+2
3.66E-1	2.53E+3	8.18E-2	5.02E+2
3.83E-1	2.44E+3	6.79E-2	4.27E+2
3.97E-1	2.66E+3	7.42E-2	5.00E+2
3.66E-1	2.54E+3	7.59E-2	4.77E+2
4.10E-1	2.60E+3	7.79E-2	5.38E+2
4.06E-1	2.59E+3	7.50E-2	5.25E+2
3.74E-1	2.56E+3	7.25E-2	4.99E+2
3.66E-1	2.50E+3	7.15E-2	5.02E+2
4.01E-1	2.61E+3	7.30E-2	5.42E+2
3.86E-1	2.47E+3	7.76E-2	4.95E+2
3.92E-1	2.52E+3	7.23E-2	4.66E+2
3.67E-1	2.46E+3	7.10E-2	4.10E+2
3.78E-1	2.62E+3	7.67E-2	4.93E+2
3.74E-1	2.55E+3	8.30E-2	5.34E+2
3.81E-1	2.61E+3	7.37E-2	5.20E+2
3.85E-1	2.57E+3	6.81E-2	4.31E+2
3.89E-1	2.58E+3	6.67E-2	4.69E+2
3.94E-1	2.52E+3	8.35E-2	5.25E+2
3.78E-1	2.57E+3	8.50E-2	5.81E+2
3.64E-1	2.44E+3	7.45E-2	4.97E+2
3.80E-1	2.57E+3	7.35E-2	5.04E+2
3.78E-1	2.56E+3	7.76E-2	4.86E+2
3.79E-1	2.40E+3	7.25E-2	4.79E+2
3.95E-1	2.46E+3	6.42E-2	3.75E+2
3.90E-1	2.50E+3	7.40E-2	5.16E+2
4.05E-1	2.63E+3	7.79E-2	4.83E+2
3.79E-1	2.53E+3	7.15E-2	4.55E+2
3.80E-1	2.42E+3	7.42E-2	4.51E+2
3.67E-1	2.52E+3	7.98E-2	5.24E+2
3.77E-1	2.53E+3	7.91E-2	5.51E+2
3.81E-1	2.60E+3	7.01E-2	4.65E+2
3.92E-1	2.59E+3	7.69E-2	4.76E+2
3.94E-1	2.58E+3	8.45E-2	5.24E+2
3.84E-1	2.53E+3	7.54E-2	4.87E+2
3.53E-1	2.46E+3	5.98E-2	4.22E+2
4.00E-1	2.53E+3	6.84E-2	4.66E+2
3.88E-1	2.49E+3	8.30E-2	5.79E+2
3.90E-1	2.57E+3	7.67E-2	4.58E+2
3.89E-1	2.58E+3	7.40E-2	4.44E+2
3.72E-1	2.52E+3	8.13E-2	5.02E+2
3.88E-1	2.51E+3	6.91E-2	5.22E+2
3.68E-1	2.46E+3	6.64E-2	4.42E+2
3.91E-1	2.62E+3	7.89E-2	5.36E+2
3.65E-1	2.41E+3	7.28E-2	4.65E+2
3.89E-1	2.54E+3	7.18E-2	4.65E+2
3.89E-1	2.49E+3	6.96E-2	4.33E+2
3.94E-1	2.61E+3	6.81E-2	4.20E+2
3.96E-1	2.55E+3	7.69E-2	4.70E+2
3.97E-1	2.60E+3	7.18E-2	4.67E+2
3.81E-1	2.58E+3	7.67E-2	5.23E+2
3.54E-1	2.43E+3	7.32E-2	4.80E+2
3.54E-1	2.43E+3	8.01E-2	5.08E+2
3.76E-1	2.46E+3	7.25E-2	4.50E+2
3.81E-1	2.59E+3	8.06E-2	5.14E+2
3.94E-1	2.63E+3	7.32E-2	4.80E+2
3.84E-1	2.63E+3	7.10E-2	4.83E+2
3.71E-1	2.50E+3	7.32E-2	4.59E+2
3.75E-1	2.54E+3	7.37E-2	5.05E+2
3.97E-1	2.67E+3	8.40E-2	4.95E+2
3.67E-1	2.52E+3	7.23E-2	4.96E+2
3.85E-1	2.57E+3	7.03E-2	4.25E+2
4.17E-1	2.57E+3	6.86E-2	4.25E+2
4.05E-1	2.55E+3	7.18E-2	4.90E+2
3.82E-1	2.60E+3	7.35E-2	4.94E+2
3.67E-1	2.51E+3	6.93E-2	4.99E+2
5.62E-3	8.30E-1	2.34E-1	1.35E+3
3.68E-1	2.46E+3	7.69E-2	4.82E+2
1.51E-2	2.04E+1	2.28E-1	1.28E+3
3.87E-1	2.52E+3	7.08E-2	5.06E+2
3.98E-1	2.56E+3	7.32E-2	5.35E+2
3.67E-1	2.50E+3	7.67E-2	5.06E+2
3.83E-1	2.53E+3	7.93E-2	5.17E+2
3.72E-1	2.52E+3	6.69E-2	4.76E+2
3.54E-1	2.40E+3	7.32E-2	4.80E+2
3.71E-1	2.44E+3	7.62E-2	4.90E+2
3.99E-1	2.59E+3	7.47E-2	4.82E+2
3.97E-1	2.58E+3	6.81E-2	4.47E+2
3.75E-1	2.45E+3	7.25E-2	4.66E+2
3.80E-1	2.63E+3	7.74E-2	5.36E+2
3.73E-1	2.54E+3	7.37E-2	4.99E+2
4.13E-1	2.64E+3	6.71E-2	5.07E+2
3.73E-1	2.51E+3	7.28E-2	4.81E+2
3.67E-1	2.52E+3	7.50E-2	5.27E+2
4.01E-1	2.57E+3	6.91E-2	4.80E+2
3.73E-1	2.57E+3	7.45E-2	4.92E+2
3.93E-1	2.57E+3	7.30E-2	4.83E+2
3.83E-1	2.56E+3	8.06E-2	5.60E+2
3.98E-1	2.45E+3	7.71E-2	4.94E+2
3.90E-1	2.60E+3	7.42E-2	4.80E+2
3.72E-1	2.48E+3	7.06E-2	4.47E+2
3.61E-1	2.49E+3	7.84E-2	5.21E+2
3.80E-1	2.49E+3	7.74E-2	5.10E+2
3.73E-1	2.62E+3	8.98E-2	5.64E+2
3.87E-1	2.58E+3	8.15E-2	4.60E+2
3.93E-1	2.58E+3	7.45E-2	4.79E+2
3.81E-1	2.59E+3	7.62E-2	5.02E+2
3.99E-1	2.67E+3	6.81E-2	5.01E+2
3.69E-1	2.50E+3	7.57E-2	5.23E+2
3.73E-1	2.43E+3	8.15E-2	4.82E+2
3.79E-1	2.57E+3	7.37E-2	4.71E+2
3.75E-1	2.54E+3	6.74E-2	4.65E+2
3.84E-1	2.53E+3	7.08E-2	4.95E+2
3.84E-1	2.47E+3	7.45E-2	4.68E+2
3.92E-1	2.55E+3	7.06E-2	4.56E+2
3.69E-1	2.54E+3	7.57E-2	5.21E+2
3.78E-1	2.52E+3	7.86E-2	4.93E+2
3.87E-1	2.54E+3	7.50E-2	4.43E+2
3.85E-1	2.53E+3	7.71E-2	5.43E+2
3.85E-1	2.54E+3	7.69E-2	4.69E+2
4.00E-1	2.55E+3	7.45E-2	5.29E+2
3.79E-1	2.47E+3	7.84E-2	5.13E+2
4.01E-1	2.55E+3	6.88E-2	4.37E+2
3.87E-1	2.56E+3	7.01E-2	4.87E+2
3.87E-1	2.47E+3	6.81E-2	4.22E+2
3.80E-1	2.68E+3	7.40E-2	4.96E+2
3.77E-1	2.60E+3	7.06E-2	4.98E+2
3.81E-1	2.56E+3	8.15E-2	5.28E+2
3.82E-1	2.48E+3	7.28E-2	4.93E+2
3.63E-1	2.48E+3	7.69E-2	5.35E+2
3.90E-1	2.59E+3	7.47E-2	5.17E+2
3.83E-1	2.44E+3	7.74E-2	5.04E+2
3.81E-1	2.58E+3	8.69E-2	5.68E+2
4.00E-1	2.60E+3	8.06E-2	5.24E+2
3.92E-1	2.54E+3	8.13E-2	4.88E+2
3.84E-1	2.60E+3	7.69E-2	5.49E+2
3.98E-1	2.58E+3	7.08E-2	4.67E+2
3.78E-1	2.47E+3	7.67E-2	5.04E+2
3.82E-1	2.44E+3	7.57E-2	4.71E+2
6.59E-3	6.74E+0	2.46E-1	1.28E+3
3.74E-1	2.56E+3	7.20E-2	4.88E+2
4.02E-1	2.59E+3	7.08E-2	4.68E+2
3.84E-1	2.55E+3	7.30E-2	5.07E+2
3.73E-1	2.43E+3	7.42E-2	5.00E+2
3.69E-1	2.53E+3	7.50E-2	5.16E+2
3.84E-1	2.50E+3	7.47E-2	5.58E+2
4.06E-1	2.56E+3	7.15E-2	4.35E+2
3.89E-1	2.49E+3	6.84E-2	5.00E+2
3.96E-1	2.60E+3	7.54E-2	4.72E+2
3.69E-1	2.43E+3	7.15E-2	4.56E+2
3.95E-1	2.49E+3	7.15E-2	4.75E+2
3.64E-1	2.50E+3	7.89E-2	5.31E+2
3.80E-1	2.58E+3	7.47E-2	4.76E+2
3.88E-1	2.68E+3	7.23E-2	4.77E+2
3.68E-1	2.55E+3	8.23E-2	4.88E+2
3.90E-1	2.58E+3	7.06E-2	4.93E+2
3.62E-1	2.48E+3	7.35E-2	5.09E+2
3.79E-1	2.60E+3	7.62E-2	5.15E+2
3.62E-1	2.49E+3	7.62E-2	5.09E+2
3.83E-1	2.57E+3	8.40E-2	5.76E+2
3.84E-1	2.61E+3	7.67E-2	5.13E+2
3.64E-1	2.44E+3	7.25E-2	5.19E+2
3.73E-1	2.58E+3	7.30E-2	4.91E+2
3.83E-1	2.55E+3	7.57E-2	4.63E+2
3.98E-1	2.58E+3	7.20E-2	4.57E+2
3.68E-1	2.55E+3	6.93E-2	4.56E+2
3.66E-1	2.48E+3	7.32E-2	4.61E+2
3.67E-1	2.51E+3	7.79E-2	4.98E+2
3.76E-1	2.58E+3	7.28E-2	4.87E+2
3.69E-1	2.52E+3	7.32E-2	5.07E+2
4.07E-1	2.60E+3	7.64E-2	5.44E+2
3.82E-1	2.59E+3	6.98E-2	4.63E+2
3.85E-1	2.59E+3	7.74E-2	5.25E+2
3.77E-1	2.57E+3	7.37E-2	4.97E+2
3.86E-1	2.61E+3	6.88E-2	4.87E+2
3.66E-1	2.46E+3	7.13E-2	4.79E+2
3.89E-1	2.60E+3	7.42E-2	5.09E+2
3.60E-1	2.45E+3	7.15E-2	4.41E+2
3.73E-1	2.53E+3	7.37E-2	4.71E+2
3.70E-1	2.55E+3	7.32E-2	4.97E+2
3.74E-1	2.48E+3	8.06E-2	4.56E+2
3.91E-1	2.61E+3	7.86E-2	5.09E+2
3.85E-1	2.54E+3	7.01E-2	4.32E+2
3.71E-1	2.53E+3	7.89E-2	5.22E+2
3.90E-1	2.66E+3	7.32E-2	4.84E+2
3.92E-1	2.57E+3	8.20E-2	5.03E+2
3.70E-1	2.63E+3	8.45E-2	5.31E+2
3.71E-1	2.57E+3	7.79E-2	5.01E+2
3.65E-1	2.55E+3	6.98E-2	4.94E+2
3.84E-1	2.55E+3	7.37E-2	4.30E+2
3.85E-1	2.66E+3	7.47E-2	4.74E+2
3.91E-1	2.59E+3	7.06E-2	4.88E+2
4.04E-1	2.62E+3	6.71E-2	4.59E+2
3.87E-1	2.51E+3	7.91E-2	5.58E+2
3.97E-1	2.60E+3	6.84E-2	4.49E+2
3.85E-1	2.48E+3	7.69E-2	4.89E+2
3.83E-1	2.53E+3	6.98E-2	4.60E+2
3.78E-1	2.50E+3	7.35E-2	4.43E+2
3.96E-1	2.67E+3	7.91E-2	5.31E+2
3.84E-1	2.56E+3	7.57E-2	4.58E+2
3.83E-1	2.57E+3	7.93E-2	4.75E+2
3.83E-1	2.66E+3	6.76E-2	4.40E+2
3.68E-1	2.56E+3	7.32E-2	4.52E+2
4.01E-1	2.57E+3	8.08E-2	5.23E+2
3.97E-1	2.57E+3	7.59E-2	5.11E+2
3.89E-1	2.51E+3	7.45E-2	4.82E+2
3.90E-1	2.47E+3	7.10E-2	4.74E+2
3.83E-1	2.58E+3	6.86E-2	4.48E+2
3.80E-1	2.55E+3	7.15E-2	4.86E+2
3.94E-1	2.51E+3	6.69E-2	4.30E+2
3.61E-1	2.48E+3	7.01E-2	4.61E+2
3.85E-1	2.56E+3	7.45E-2	4.66E+2
3.87E-1	2.57E+3	7.03E-2	5.06E+2
3.65E-1	2.45E+3	7.96E-2	5.01E+2
3.68E-1	2.51E+3	7.54E-2	4.79E+2
3.68E-1	2.53E+3	8.18E-2	5.32E+2
3.82E-1	2.62E+3	6.93E-2	4.99E+2
3.64E-1	2.50E+3	7.59E-2	5.17E+2
3.98E-1	2.61E+3	7.64E-2	4.88E+2
3.92E-1	2.58E+3	7.57E-2	4.65E+2
3.92E-1	2.58E+3	7.52E-2	4.84E+2
3.71E-1	2.52E+3	6.49E-2	4.33E+2
3.78E-1	2.51E+3	6.76E-2	4.26E+2
3.73E-1	2.47E+3	7.81E-2	4.96E+2
3.86E-1	2.54E+3	6.71E-2	4.29E+2
3.93E-1	2.53E+3	6.74E-2	4.47E+2
3.91E-1	2.62E+3	7.42E-2	4.86E+2
3.87E-1	2.64E+3	7.47E-2	4.62E+2
3.73E-1	2.51E+3	7.69E-2	5.15E+2
3.87E-1	2.72E+3	7.28E-2	5.01E+2
3.85E-1	2.60E+3	6.93E-2	4.59E+2
4.01E-1	2.53E+3	7.20E-2	4.64E+2
3.74E-1	2.56E+3	7.23E-2	4.96E+2
3.67E-1	2.53E+3	7.67E-2	5.30E+2
3.83E-1	2.47E+3	6.96E-2	4.04E+2
3.72E-1	2.49E+3	6.71E-2	4.85E+2
3.92E-1	2.58E+3	7.62E-2	5.20E+2
3.63E-1	2.42E+3	7.01E-2	4.38E+2
3.68E-1	2.58E+3	7.74E-2	5.33E+2
3.73E-1	2.47E+3	6.88E-2	4.64E+2
3.85E-1	2.55E+3	8.15E-2	4.96E+2
3.76E-1	2.56E+3	7.35E-2	5.05E+2
3.77E-1	2.58E+3	7.30E-2	4.74E+2
3.78E-1	2.52E+3	8.25E-2	5.48E+2
3.86E-1	2.67E+3	7.81E-2	4.91E+2
3.73E-1	2.48E+3	7.42E-2	4.99E+2
3.77E-1	2.51E+3	7.45E-2	4.96E+2
3.78E-1	2.53E+3	7.98E-2	5.12E+2
3.66E-1	2.57E+3	7.32E-2	5.36E+2
3.80E-1	2.57E+3	6.62E-2	4.39E+2
3.63E-1	2.43E+3	6.74E-2	4.78E+2
3.69E-1	2.54E+3	7.74E-2	5.39E+2
4.09E-1	2.73E+3	7.06E-2	4.80E+2
3.93E-1	2.55E+3	6.79E-2	4.55E+2
3.84E-1	2.58E+3	7.25E-2	4.65E+2
3.97E-1	2.61E+3	7.50E-2	4.68E+2
4.15E-1	2.62E+3	7.71E-2	4.77E+2
3.82E-1	2.52E+3	6.91E-2	4.29E+2
3.89E-1	2.65E+3	6.98E-2	5.03E+2
4.00E-1	2.69E+3	7.79E-2	5.07E+2
3.71E-1	2.44E+3	8.06E-2	5.39E+2
3.73E-1	2.59E+3	7.62E-2	4.99E+2
3.67E-1	2.54E+3	8.23E-2	5.10E+2
3.73E-1	2.49E+3	8.74E-2	5.30E+2
3.75E-1	2.58E+3	7.20E-2	5.29E+2
3.90E-1	2.51E+3	7.28E-2	4.89E+2
3.79E-1	2.54E+3	7.62E-2	5.03E+2
3.88E-1	2.43E+3	7.96E-2	4.64E+2
3.86E-1	2.51E+3	7.89E-2	4.50E+2
3.95E-1	2.54E+3	7.69E-2	4.95E+2
3.59E-1	2.46E+3	7.76E-2	4.47E+2
3.62E-1	2.50E+3	8.11E-2	4.80E+2
3.88E-1	2.57E+3	7.54E-2	4.91E+2
3.87E-1	2.65E+3	7.71E-2	4.99E+2
3.91E-1	2.64E+3	8.06E-2	4.99E+2
3.70E-1	2.58E+3	7.45E-2	4.75E+2
3.87E-1	2.56E+3	7.91E-2	4.78E+2
3.68E-1	2.50E+3	7.89E-2	5.35E+2
3.99E-1	2.66E+3	6.76E-2	4.89E+2
3.72E-1	2.44E+3	6.93E-2	4.48E+2
3.74E-1	2.49E+3	7.28E-2	4.76E+2
3.75E-1	2.52E+3	6.98E-2	4.77E+2
3.93E-1	2.65E+3	8.20E-2	5.53E+2
4.02E-1	2.59E+3	6.96E-2	4.63E+2
3.96E-1	2.63E+3	7.42E-2	4.83E+2
3.93E-1	2.69E+3	7.37E-2	4.40E+2
3.92E-1	2.49E+3	7.08E-2	4.31E+2
3.99E-1	2.67E+3	7.50E-2	4.71E+2
3.63E-1	2.45E+3	8.25E-2	4.77E+2
4.13E-1	2.67E+3	7.28E-2	4.55E+2
3.90E-1	2.55E+3	7.62E-2	4.80E+2
3.66E-1	2.50E+3	7.62E-2	4.96E+2
3.84E-1	2.46E+3	7.91E-2	5.20E+2
3.78E-1	2.54E+3	6.84E-2	4.61E+2
3.81E-1	2.54E+3	7.98E-2	5.13E+2
3.80E-1	2.51E+3	7.13E-2	4.61E+2
3.83E-1	2.47E+3	7.06E-2	4.38E+2
3.68E-1	2.46E+3	7.71E-2	5.26E+2
3.91E-1	2.56E+3	7.67E-2	4.69E+2
3.81E-1	2.49E+3	7.86E-2	4.90E+2
4.00E-1	2.57E+3	7.69E-2	4.43E+2
4.02E-1	2.54E+3	7.71E-2	5.26E+2
3.90E-1	2.55E+3	7.54E-2	4.59E+2
4.02E-1	2.53E+3	7.52E-2	4.67E+2
3.64E-1	2.50E+3	6.67E-2	3.85E+2
3.71E-1	2.59E+3	8.45E-2	5.07E+2
3.87E-1	2.67E+3	8.01E-2	5.54E+2
3.79E-1	2.53E+3	7.15E-2	4.91E+2
3.91E-1	2.56E+3	8.18E-2	5.32E+2
3.91E-1	2.52E+3	7.59E-2	5.10E+2
4.00E-1	2.55E+3	8.25E-2	5.05E+2
3.85E-1	2.48E+3	7.96E-2	5.06E+2
3.87E-1	2.49E+3	7.74E-2	4.70E+2
3.82E-1	2.63E+3	7.57E-2	5.46E+2
3.80E-1	2.45E+3	7.45E-2	4.67E+2
3.96E-1	2.58E+3	7.30E-2	4.39E+2
3.65E-1	2.58E+3	7.40E-2	4.78E+2
3.82E-1	2.63E+3	8.37E-2	5.24E+2
3.83E-1	2.46E+3	7.42E-2	4.78E+2
3.81E-1	2.52E+3	7.50E-2	4.82E+2
3.69E-1	2.49E+3	7.84E-2	5.04E+2
3.96E-1	2.54E+3	7.47E-2	5.16E+2
3.89E-1	2.48E+3	7.47E-2	4.73E+2
3.75E-1	2.60E+3	6.71E-2	4.67E+2
3.81E-1	2.62E+3	7.47E-2	5.25E+2
4.01E-1	2.63E+3	7.01E-2	4.68E+2
3.78E-1	2.47E+3	7.20E-2	5.08E+2
3.92E-1	2.51E+3	7.62E-2	5.00E+2
3.90E-1	2.48E+3	6.76E-2	4.33E+2
4.03E-1	2.62E+3	7.42E-2	4.36E+2
3.99E-1	2.56E+3	7.64E-2	4.97E+2
3.97E-1	2.58E+3	7.69E-2	4.46E+2
3.63E-1	2.52E+3	6.96E-2	4.65E+2
3.74E-1	2.48E+3	9.96E-2	4.79E+2
3.60E-1	2.43E+3	7.25E-2	4.47E+2
3.64E-1	2.49E+3	9.06E-2	5.07E+2
3.74E-1	2.56E+3	7.10E-2	5.03E+2
3.74E-1	2.56E+3	7.10E-2	5.03E+2
3.74E-1	2.52E+3	6.47E-2	4.55E+2
3.89E-1	2.64E+3	8.01E-2	5.21E+2
3.84E-1	2.50E+3	8.40E-2	5.28E+2
3.87E-1	2.41E+3	7.30E-2	4.53E+2
3.89E-1	2.55E+3	7.69E-2	5.30E+2
3.76E-1	2.53E+3	7.96E-2	4.80E+2
3.96E-1	2.57E+3	8.11E-2	5.03E+2
3.97E-1	2.55E+3	7.64E-2	5.10E+2
3.85E-1	2.55E+3	7.62E-2	4.97E+2
3.81E-1	2.49E+3	8.03E-2	5.42E+2
3.58E-1	2.47E+3	6.98E-2	4.52E+2
3.89E-1	2.53E+3	7.45E-2	5.21E+2
3.67E-1	2.48E+3	7.76E-2	4.86E+2
4.10E-1	2.65E+3	7.06E-2	4.85E+2
3.80E-1	2.65E+3	7.71E-2	5.41E+2
3.56E-1	2.44E+3	7.32E-2	5.25E+2
3.92E-1	2.55E+3	7.37E-2	5.21E+2
3.92E-1	2.57E+3	7.62E-2	5.01E+2
3.72E-1	2.58E+3	7.47E-2	5.01E+2
3.85E-1	2.58E+3	7.54E-2	5.39E+2
3.96E-1	2.54E+3	6.93E-2	4.34E+2
3.72E-1	2.40E+3	7.89E-2	4.88E+2
3.88E-1	2.57E+3	7.25E-2	5.03E+2
3.74E-1	2.53E+3	7.20E-2	4.84E+2
3.84E-1	2.61E+3	7.59E-2	5.11E+2
3.77E-1	2.54E+3	7.93E-2	4.92E+2
3.73E-1	2.49E+3	7.57E-2	5.38E+2
3.76E-1	2.58E+3	7.74E-2	4.97E+2
3.88E-1	2.56E+3	7.52E-2	4.71E+2
3.81E-1	2.60E+3	7.54E-2	5.36E+2
4.09E-1	2.62E+3	7.15E-2	4.92E+2
3.71E-1	2.58E+3	7.89E-2	5.48E+2
3.75E-1	2.57E+3	7.86E-2	5.15E+2
3.80E-1	2.55E+3	7.62E-2	4.58E+2
3.96E-1	2.57E+3	7.86E-2	5.07E+2
3.88E-1	2.52E+3	7.10E-2	4.51E+2
3.54E-1	2.45E+3	7.62E-2	4.83E+2
3.76E-1	2.51E+3	7.18E-2	4.57E+2
3.76E-1	2.50E+3	7.15E-2	4.47E+2
3.91E-1	2.56E+3	6.76E-2	4.58E+2
3.83E-1	2.58E+3	7.32E-2	4.76E+2
3.66E-1	2.47E+3	7.93E-2	5.40E+2
3.76E-1	2.51E+3	7.62E-2	4.52E+2
4.02E-1	2.55E+3	7.93E-2	5.58E+2
3.72E-1	2.46E+3	6.86E-2	4.87E+2
3.79E-1	2.59E+3	7.42E-2	5.16E+2
3.64E-1	2.48E+3	7.03E-2	4.46E+2
3.76E-1	2.50E+3	8.03E-2	5.05E+2
3.61E-1	2.46E+3	7.64E-2	4.57E+2
3.87E-1	2.49E+3	7.64E-2	4.69E+2
3.93E-1	2.57E+3	7.62E-2	4.98E+2
3.76E-1	2.43E+3	7.74E-2	4.67E+2
3.94E-1	2.56E+3	8.11E-2	5.22E+2
3.81E-1	2.48E+3	8.15E-2	5.04E+2
3.68E-1	2.55E+3	7.67E-2	4.54E+2
4.03E-1	2.59E+3	7.93E-2	4.86E+2
3.68E-1	2.54E+3	7.50E-2	5.06E+2
4.26E-1	2.66E+3	6.71E-2	4.89E+2
3.89E-1	2.63E+3	6.93E-2	4.60E+2
3.89E-1	2.51E+3	7.20E-2	4.66E+2
3.67E-1	2.44E+3	7.20E-2	4.34E+2
3.82E-1	2.47E+3	7.06E-2	4.67E+2
3.82E-1	2.56E+3	7.52E-2	4.73E+2
4.09E-1	2.69E+3	7.54E-2	4.76E+2
4.17E-1	2.66E+3	7.67E-2	5.18E+2
3.73E-1	2.46E+3	6.88E-2	4.28E+2
3.67E-1	2.49E+3	7.42E-2	4.55E+2
3.86E-1	2.50E+3	7.23E-2	4.65E+2
3.90E-1	2.46E+3	7.23E-2	4.65E+2
3.97E-1	2.53E+3	7.40E-2	4.80E+2
3.88E-1	2.51E+3	7.69E-2	5.12E+2
3.68E-1	2.41E+3	8.33E-2	5.27E+2
3.79E-1	2.47E+3	7.03E-2	4.36E+2
4.00E-1	2.59E+3	6.59E-2	4.35E+2
3.91E-1	2.55E+3	8.59E-2	5.46E+2
3.78E-1	2.51E+3	7.67E-2	5.39E+2
3.87E-1	2.53E+3	7.35E-2	4.77E+2
3.96E-1	2.57E+3	7.13E-2	4.28E+2
3.96E-1	2.55E+3	7.50E-2	4.57E+2
3.76E-1	2.47E+3	7.64E-2	4.57E+2
3.90E-1	2.43E+3	7.84E-2	4.87E+2
3.71E-1	2.43E+3	7.93E-2	4.62E+2
3.88E-1	2.56E+3	7.57E-2	5.08E+2
4.05E-1	2.57E+3	7.32E-2	5.23E+2
3.79E-1	2.51E+3	6.96E-2	5.32E+2
3.69E-1	2.55E+3	7.28E-2	4.98E+2
3.80E-1	2.47E+3	7.35E-2	4.67E+2
3.61E-1	2.46E+3	6.86E-2	4.39E+2
3.74E-1	2.50E+3	7.28E-2	4.61E+2
3.81E-1	2.54E+3	7.84E-2	4.91E+2
3.89E-1	2.55E+3	6.37E-2	4.31E+2
3.85E-1	2.54E+3	7.13E-2	4.94E+2
3.87E-1	2.50E+3	7.50E-2	5.00E+2
3.65E-1	2.54E+3	7.86E-2	4.80E+2
3.87E-1	2.58E+3	6.67E-2	4.70E+2
4.07E-1	2.58E+3	7.42E-2	5.16E+2
3.83E-1	2.58E+3	7.47E-2	4.98E+2
3.81E-1	2.54E+3	8.30E-2	5.61E+2
3.63E-1	2.50E+3	7.23E-2	5.15E+2
3.74E-1	2.57E+3	6.54E-2	4.33E+2
