6.94E-1	6.06E+3	2.24E-1	1.41E+3
7.07E-1	6.05E+3	2.34E-1	1.40E+3
6.83E-1	6.01E+3	2.36E-1	1.46E+3
6.99E-1	5.96E+3	2.18E-1	1.22E+3
6.96E-1	5.98E+3	2.21E-1	1.35E+3
6.88E-1	6.07E+3	2.25E-1	1.35E+3
6.89E-1	6.02E+3	2.37E-1	1.49E+3
7.20E-1	6.04E+3	2.38E-1	1.41E+3
7.19E-1	6.01E+3	2.05E-1	1.23E+3
7.08E-1	6.09E+3	2.13E-1	1.28E+3
7.11E-1	6.05E+3	2.20E-1	1.38E+3
7.04E-1	6.09E+3	2.11E-1	1.30E+3
6.90E-1	5.95E+3	2.22E-1	1.36E+3
7.20E-1	6.19E+3	2.13E-1	1.25E+3
6.98E-1	6.06E+3	2.19E-1	1.35E+3
6.79E-1	6.03E+3	2.25E-1	1.33E+3
6.77E-1	5.95E+3	2.17E-1	1.25E+3
6.78E-1	5.88E+3	2.43E-1	1.37E+3
6.96E-1	6.07E+3	2.13E-1	1.31E+3
6.87E-1	6.05E+3	2.40E-1	1.33E+3
7.01E-1	6.02E+3	2.19E-1	1.37E+3
7.11E-1	5.89E+3	2.40E-1	1.40E+3
7.04E-1	6.03E+3	2.17E-1	1.33E+3
7.01E-1	6.11E+3	2.23E-1	1.31E+3
7.05E-1	6.06E+3	2.28E-1	1.42E+3
6.79E-1	5.86E+3	2.26E-1	1.33E+3
7.09E-1	6.02E+3	2.28E-1	1.37E+3
7.17E-1	6.01E+3	2.21E-1	1.34E+3
6.93E-1	5.99E+3	2.30E-1	1.41E+3
6.93E-1	6.06E+3	2.24E-1	1.25E+3
6.81E-1	6.00E+3	2.12E-1	1.25E+3
6.92E-1	5.98E+3	2.16E-1	1.33E+3
7.04E-1	5.93E+3	2.09E-1	1.25E+3
6.98E-1	6.01E+3	2.27E-1	1.30E+3
6.94E-1	6.05E+3	2.30E-1	1.42E+3
6.92E-1	6.05E+3	2.24E-1	1.34E+3
7.25E-1	6.21E+3	2.39E-1	1.38E+3
6.90E-1	6.03E+3	2.30E-1	1.42E+3
7.19E-1	6.10E+3	2.24E-1	1.39E+3
7.22E-1	6.08E+3	2.25E-1	1.24E+3
7.22E-1	6.07E+3	2.28E-1	1.28E+3
7.14E-1	6.08E+3	2.20E-1	1.27E+3
7.04E-1	6.04E+3	2.40E-1	1.36E+3
6.97E-1	5.94E+3	2.22E-1	1.36E+3
6.97E-1	6.02E+3	2.22E-1	1.27E+3
6.99E-1	6.03E+3	2.30E-1	1.27E+3
6.96E-1	5.96E+3	2.18E-1	1.31E+3
6.98E-1	6.03E+3	2.28E-1	1.36E+3
6.92E-1	5.94E+3	2.27E-1	1.41E+3
7.04E-1	6.08E+3	2.05E-1	1.25E+3
7.09E-1	6.15E+3	2.21E-1	1.33E+3
6.88E-1	6.09E+3	2.22E-1	1.26E+3
6.90E-1	6.01E+3	2.29E-1	1.34E+3
6.86E-1	6.10E+3	2.29E-1	1.28E+3
7.01E-1	6.03E+3	2.44E-1	1.40E+3
6.82E-1	5.99E+3	2.31E-1	1.37E+3
6.92E-1	6.12E+3	2.15E-1	1.21E+3
7.19E-1	6.00E+3	2.25E-1	1.34E+3
7.11E-1	6.09E+3	2.06E-1	1.28E+3
7.13E-1	6.13E+3	2.27E-1	1.25E+3
7.09E-1	6.10E+3	2.22E-1	1.25E+3
6.97E-1	6.06E+3	2.29E-1	1.36E+3
6.83E-1	5.97E+3	2.16E-1	1.28E+3
7.03E-1	5.86E+3	2.16E-1	1.29E+3
6.96E-1	6.12E+3	2.25E-1	1.32E+3
7.14E-1	5.99E+3	2.27E-1	1.35E+3
7.09E-1	6.08E+3	2.36E-1	1.36E+3
6.87E-1	6.04E+3	2.32E-1	1.33E+3
6.87E-1	6.01E+3	2.19E-1	1.33E+3
6.95E-1	5.99E+3	2.34E-1	1.33E+3
7.24E-1	6.09E+3	2.37E-1	1.34E+3
6.91E-1	6.04E+3	2.17E-1	1.30E+3
6.81E-1	5.92E+3	2.30E-1	1.37E+3
7.16E-1	6.00E+3	2.29E-1	1.42E+3
7.12E-1	5.98E+3	2.34E-1	1.33E+3
7.07E-1	6.01E+3	2.20E-1	1.34E+3
7.23E-1	5.99E+3	2.36E-1	1.35E+3
6.95E-1	6.06E+3	2.30E-1	1.29E+3
7.06E-1	6.02E+3	2.40E-1	1.37E+3
6.87E-1	6.03E+3	2.20E-1	1.30E+3
6.89E-1	5.98E+3	2.22E-1	1.34E+3
6.95E-1	6.14E+3	2.12E-1	1.31E+3
6.85E-1	6.05E+3	2.36E-1	1.37E+3
7.19E-1	6.16E+3	2.22E-1	1.31E+3
6.76E-1	5.99E+3	2.26E-1	1.32E+3
6.97E-1	6.09E+3	2.16E-1	1.26E+3
6.87E-1	6.02E+3	2.37E-1	1.35E+3
6.80E-1	6.05E+3	2.36E-1	1.34E+3
7.10E-1	6.11E+3	2.34E-1	1.41E+3
7.13E-1	6.08E+3	2.46E-1	1.39E+3
7.09E-1	6.02E+3	2.24E-1	1.41E+3
7.03E-1	5.95E+3	2.23E-1	1.29E+3
7.11E-1	6.04E+3	2.33E-1	1.32E+3
7.06E-1	6.03E+3	2.20E-1	1.28E+3
7.03E-1	6.06E+3	2.12E-1	1.29E+3
6.85E-1	5.97E+3	2.29E-1	1.30E+3
7.03E-1	6.20E+3	2.13E-1	1.35E+3
6.86E-1	6.05E+3	2.23E-1	1.31E+3
7.00E-1	6.02E+3	2.10E-1	1.28E+3
6.80E-1	5.95E+3	2.37E-1	1.39E+3
6.99E-1	6.09E+3	2.24E-1	1.36E+3
7.00E-1	6.06E+3	2.02E-1	1.21E+3
7.16E-1	5.99E+3	2.29E-1	1.36E+3
7.02E-1	6.03E+3	2.10E-1	1.24E+3
6.84E-1	6.03E+3	2.17E-1	1.34E+3
6.95E-1	5.99E+3	2.20E-1	1.33E+3
7.02E-1	6.05E+3	2.49E-1	1.41E+3
6.87E-1	6.06E+3	2.36E-1	1.34E+3
7.01E-1	5.99E+3	2.40E-1	1.38E+3
6.99E-1	6.07E+3	2.19E-1	1.29E+3
7.16E-1	5.94E+3	2.41E-1	1.40E+3
7.23E-1	6.04E+3	2.38E-1	1.34E+3
7.15E-1	6.06E+3	2.21E-1	1.33E+3
7.11E-1	6.04E+3	2.31E-1	1.36E+3
7.15E-1	6.10E+3	2.11E-1	1.32E+3
7.12E-1	6.06E+3	2.17E-1	1.29E+3
6.76E-1	5.96E+3	2.17E-1	1.27E+3
6.78E-1	5.96E+3	2.26E-1	1.31E+3
7.01E-1	5.97E+3	2.29E-1	1.39E+3
7.23E-1	6.06E+3	2.50E-1	1.48E+3
6.87E-1	5.94E+3	2.39E-1	1.38E+3
6.96E-1	5.98E+3	2.09E-1	1.21E+3
6.80E-1	5.99E+3	2.50E-1	1.40E+3
7.10E-1	6.09E+3	2.33E-1	1.36E+3
6.90E-1	6.14E+3	2.19E-1	1.34E+3
7.10E-1	6.12E+3	2.36E-1	1.35E+3
7.19E-1	5.94E+3	2.16E-1	1.31E+3
6.84E-1	5.96E+3	2.16E-1	1.32E+3
6.96E-1	5.99E+3	2.22E-1	1.28E+3
7.07E-1	6.06E+3	2.40E-1	1.44E+3
7.17E-1	6.08E+3	2.26E-1	1.40E+3
6.97E-1	6.08E+3	2.16E-1	1.29E+3
6.95E-1	6.12E+3	2.21E-1	1.25E+3
6.95E-1	5.95E+3	2.24E-1	1.34E+3
7.07E-1	6.01E+3	2.33E-1	1.34E+3
7.13E-1	6.04E+3	2.36E-1	1.38E+3
7.21E-1	6.06E+3	2.42E-1	1.38E+3
7.08E-1	6.03E+3	2.34E-1	1.30E+3
7.00E-1	5.94E+3	2.19E-1	1.30E+3
7.10E-1	5.95E+3	2.23E-1	1.31E+3
6.83E-1	6.03E+3	2.24E-1	1.36E+3
7.04E-1	5.95E+3	2.49E-1	1.42E+3
7.09E-1	5.96E+3	2.28E-1	1.29E+3
6.98E-1	6.17E+3	2.28E-1	1.36E+3
7.13E-1	6.11E+3	2.34E-1	1.37E+3
6.92E-1	5.96E+3	2.18E-1	1.32E+3
7.04E-1	6.19E+3	2.28E-1	1.47E+3
6.77E-1	5.98E+3	2.24E-1	1.31E+3
6.92E-1	6.18E+3	2.29E-1	1.40E+3
7.31E-1	6.01E+3	2.19E-1	1.25E+3
7.02E-1	6.07E+3	2.29E-1	1.34E+3
7.28E-1	6.16E+3	2.17E-1	1.34E+3
6.82E-1	6.03E+3	2.37E-1	1.35E+3
6.86E-1	6.02E+3	2.10E-1	1.28E+3
6.80E-1	5.99E+3	2.25E-1	1.35E+3
7.00E-1	6.07E+3	2.29E-1	1.39E+3
7.01E-1	6.05E+3	2.20E-1	1.31E+3
7.14E-1	6.00E+3	2.20E-1	1.35E+3
6.98E-1	6.11E+3	2.15E-1	1.29E+3
6.87E-1	6.10E+3	2.32E-1	1.35E+3
6.87E-1	6.01E+3	2.53E-1	1.39E+3
6.85E-1	5.98E+3	2.22E-1	1.37E+3
7.25E-1	6.02E+3	2.24E-1	1.27E+3
6.84E-1	6.02E+3	2.33E-1	1.39E+3
7.03E-1	6.07E+3	2.21E-1	1.26E+3
7.06E-1	6.06E+3	2.40E-1	1.45E+3
6.90E-1	6.09E+3	2.28E-1	1.32E+3
7.18E-1	6.01E+3	2.20E-1	1.28E+3
6.95E-1	6.09E+3	2.17E-1	1.30E+3
6.82E-1	6.05E+3	2.22E-1	1.31E+3
7.08E-1	5.90E+3	2.46E-1	1.42E+3
7.17E-1	5.98E+3	2.33E-1	1.35E+3
7.05E-1	6.11E+3	2.15E-1	1.34E+3
6.83E-1	6.00E+3	2.37E-1	1.37E+3
6.97E-1	5.95E+3	2.12E-1	1.33E+3
7.24E-1	6.09E+3	2.38E-1	1.30E+3
6.91E-1	6.05E+3	2.13E-1	1.23E+3
6.81E-1	5.99E+3	2.28E-1	1.38E+3
6.94E-1	5.97E+3	2.20E-1	1.38E+3
6.76E-1	5.89E+3	2.10E-1	1.30E+3
6.93E-1	6.15E+3	2.15E-1	1.24E+3
7.13E-1	6.09E+3	2.28E-1	1.38E+3
6.91E-1	5.92E+3	2.02E-1	1.27E+3
7.06E-1	6.06E+3	2.25E-1	1.32E+3
7.00E-1	6.04E+3	2.37E-1	1.40E+3
7.14E-1	6.13E+3	2.25E-1	1.38E+3
7.22E-1	6.24E+3	2.37E-1	1.39E+3
7.05E-1	6.09E+3	2.51E-1	1.42E+3
6.91E-1	6.00E+3	2.25E-1	1.37E+3
6.89E-1	6.09E+3	2.24E-1	1.28E+3
6.95E-1	6.07E+3	2.38E-1	1.36E+3
7.16E-1	6.16E+3	2.22E-1	1.26E+3
7.13E-1	6.16E+3	2.33E-1	1.37E+3
7.25E-1	6.08E+3	2.19E-1	1.33E+3
6.99E-1	6.07E+3	2.08E-1	1.28E+3
6.87E-1	6.06E+3	2.25E-1	1.31E+3
6.85E-1	6.01E+3	2.27E-1	1.39E+3
7.17E-1	6.01E+3	2.23E-1	1.40E+3
7.04E-1	6.02E+3	2.20E-1	1.27E+3
7.05E-1	5.98E+3	2.25E-1	1.39E+3
6.86E-1	5.97E+3	2.26E-1	1.33E+3
6.95E-1	5.86E+3	2.58E-1	1.44E+3
6.88E-1	6.09E+3	2.23E-1	1.36E+3
7.18E-1	6.12E+3	2.43E-1	1.35E+3
6.87E-1	5.96E+3	2.29E-1	1.33E+3
7.19E-1	6.04E+3	2.28E-1	1.34E+3
6.80E-1	6.00E+3	2.35E-1	1.31E+3
6.88E-1	6.07E+3	2.18E-1	1.30E+3
7.11E-1	6.04E+3	2.40E-1	1.41E+3
7.01E-1	5.92E+3	2.34E-1	1.31E+3
7.16E-1	6.12E+3	2.24E-1	1.38E+3
6.87E-1	6.01E+3	2.26E-1	1.36E+3
7.16E-1	6.11E+3	2.25E-1	1.30E+3
7.02E-1	6.03E+3	2.31E-1	1.45E+3
7.12E-1	6.02E+3	2.41E-1	1.43E+3
6.99E-1	6.01E+3	2.28E-1	1.40E+3
7.00E-1	6.01E+3	2.30E-1	1.34E+3
6.94E-1	5.96E+3	2.13E-1	1.27E+3
7.06E-1	5.97E+3	2.35E-1	1.36E+3
7.07E-1	6.15E+3	2.16E-1	1.31E+3
6.94E-1	5.97E+3	2.32E-1	1.40E+3
7.26E-1	6.09E+3	2.25E-1	1.26E+3
7.01E-1	6.04E+3	2.23E-1	1.36E+3
6.88E-1	5.93E+3	2.23E-1	1.42E+3
7.03E-1	6.01E+3	2.51E-1	1.43E+3
6.90E-1	5.99E+3	2.32E-1	1.39E+3
6.78E-1	6.03E+3	2.25E-1	1.35E+3
6.98E-1	6.08E+3	2.29E-1	1.39E+3
6.90E-1	6.16E+3	2.31E-1	1.45E+3
7.08E-1	5.95E+3	2.40E-1	1.40E+3
7.11E-1	6.03E+3	2.30E-1	1.35E+3
6.92E-1	5.94E+3	2.25E-1	1.34E+3
6.91E-1	6.09E+3	2.30E-1	1.34E+3
7.09E-1	5.89E+3	2.32E-1	1.40E+3
6.93E-1	6.09E+3	2.25E-1	1.30E+3
7.07E-1	5.98E+3	2.21E-1	1.35E+3
7.04E-1	6.11E+3	2.15E-1	1.28E+3
7.20E-1	6.13E+3	2.24E-1	1.29E+3
6.95E-1	5.99E+3	2.27E-1	1.39E+3
6.99E-1	5.91E+3	2.21E-1	1.36E+3
7.10E-1	5.95E+3	2.42E-1	1.39E+3
6.87E-1	6.04E+3	2.30E-1	1.27E+3
6.85E-1	6.04E+3	2.30E-1	1.41E+3
7.18E-1	6.01E+3	2.40E-1	1.32E+3
7.15E-1	6.01E+3	2.33E-1	1.35E+3
6.82E-1	6.03E+3	2.32E-1	1.33E+3
7.01E-1	6.03E+3	2.27E-1	1.34E+3
6.76E-1	5.92E+3	2.18E-1	1.29E+3
6.93E-1	6.02E+3	2.32E-1	1.35E+3
7.22E-1	6.22E+3	2.35E-1	1.38E+3
7.10E-1	6.16E+3	2.30E-1	1.34E+3
6.87E-1	6.06E+3	2.30E-1	1.36E+3
6.96E-1	5.96E+3	2.18E-1	1.33E+3
6.87E-1	5.95E+3	2.33E-1	1.32E+3
7.23E-1	5.99E+3	2.14E-1	1.32E+3
7.14E-1	6.05E+3	2.31E-1	1.36E+3
6.78E-1	6.08E+3	2.18E-1	1.34E+3
6.94E-1	6.08E+3	2.31E-1	1.33E+3
6.88E-1	6.04E+3	2.43E-1	1.46E+3
7.10E-1	6.07E+3	2.27E-1	1.33E+3
7.21E-1	5.97E+3	2.22E-1	1.33E+3
6.94E-1	5.92E+3	2.22E-1	1.34E+3
6.93E-1	6.07E+3	2.30E-1	1.42E+3
7.02E-1	6.11E+3	2.14E-1	1.30E+3
7.09E-1	6.00E+3	2.33E-1	1.39E+3
6.94E-1	6.03E+3	2.23E-1	1.31E+3
7.12E-1	6.02E+3	2.18E-1	1.26E+3
7.02E-1	6.06E+3	2.18E-1	1.34E+3
6.83E-1	6.09E+3	2.28E-1	1.36E+3
7.22E-1	6.01E+3	2.37E-1	1.48E+3
7.18E-1	6.15E+3	2.21E-1	1.25E+3
6.93E-1	6.01E+3	2.20E-1	1.38E+3
6.91E-1	5.99E+3	2.36E-1	1.29E+3
6.85E-1	5.96E+3	2.19E-1	1.31E+3
7.05E-1	6.02E+3	2.21E-1	1.32E+3
6.82E-1	5.99E+3	2.43E-1	1.42E+3
7.02E-1	6.07E+3	2.19E-1	1.31E+3
7.17E-1	6.05E+3	2.41E-1	1.37E+3
6.96E-1	6.04E+3	2.30E-1	1.36E+3
6.84E-1	6.02E+3	2.20E-1	1.32E+3
6.87E-1	6.04E+3	2.33E-1	1.40E+3
7.22E-1	6.09E+3	2.27E-1	1.35E+3
7.07E-1	6.13E+3	2.28E-1	1.35E+3
6.80E-1	5.84E+3	2.14E-1	1.29E+3
7.07E-1	6.00E+3	2.25E-1	1.31E+3
6.79E-1	5.99E+3	2.17E-1	1.33E+3
6.86E-1	6.06E+3	2.17E-1	1.32E+3
6.90E-1	6.01E+3	2.25E-1	1.27E+3
7.06E-1	6.06E+3	2.29E-1	1.31E+3
7.10E-1	6.07E+3	2.13E-1	1.29E+3
6.93E-1	5.96E+3	2.13E-1	1.26E+3
6.91E-1	6.04E+3	2.24E-1	1.28E+3
7.11E-1	6.15E+3	2.34E-1	1.34E+3
6.84E-1	5.93E+3	2.32E-1	1.31E+3
6.78E-1	5.89E+3	2.27E-1	1.35E+3
6.84E-1	5.98E+3	2.38E-1	1.35E+3
6.94E-1	6.02E+3	2.22E-1	1.34E+3
6.94E-1	6.06E+3	2.32E-1	1.43E+3
7.16E-1	6.04E+3	2.24E-1	1.28E+3
6.88E-1	6.01E+3	2.23E-1	1.28E+3
6.85E-1	5.97E+3	2.18E-1	1.26E+3
7.21E-1	6.09E+3	2.27E-1	1.37E+3
6.83E-1	5.99E+3	2.25E-1	1.36E+3
7.02E-1	6.12E+3	2.26E-1	1.37E+3
6.91E-1	6.09E+3	2.39E-1	1.44E+3
6.95E-1	6.03E+3	2.10E-1	1.29E+3
6.91E-1	6.12E+3	2.31E-1	1.41E+3
7.01E-1	5.96E+3	2.22E-1	1.29E+3
7.08E-1	6.11E+3	2.34E-1	1.35E+3
6.90E-1	5.97E+3	2.19E-1	1.37E+3
7.01E-1	6.08E+3	2.20E-1	1.32E+3
6.95E-1	5.95E+3	2.29E-1	1.37E+3
7.23E-1	6.10E+3	2.28E-1	1.31E+3
6.98E-1	6.15E+3	2.25E-1	1.34E+3
7.14E-1	6.00E+3	2.22E-1	1.19E+3
6.98E-1	6.11E+3	2.18E-1	1.31E+3
6.87E-1	6.03E+3	2.13E-1	1.26E+3
7.19E-1	6.06E+3	2.35E-1	1.40E+3
6.83E-1	6.06E+3	2.28E-1	1.38E+3
6.97E-1	6.08E+3	2.25E-1	1.39E+3
7.26E-1	6.06E+3	2.17E-1	1.40E+3
6.98E-1	6.13E+3	2.29E-1	1.43E+3
6.96E-1	5.94E+3	2.37E-1	1.39E+3
7.01E-1	6.03E+3	2.17E-1	1.32E+3
6.81E-1	5.97E+3	2.36E-1	1.36E+3
6.90E-1	5.99E+3	2.36E-1	1.26E+3
6.83E-1	5.93E+3	2.42E-1	1.32E+3
7.15E-1	5.98E+3	2.10E-1	1.30E+3
6.87E-1	5.96E+3	2.15E-1	1.32E+3
6.98E-1	5.99E+3	2.22E-1	1.35E+3
7.02E-1	6.08E+3	2.01E-1	1.20E+3
7.23E-1	6.01E+3	2.27E-1	1.39E+3
7.02E-1	6.00E+3	2.32E-1	1.33E+3
7.00E-1	5.95E+3	2.41E-1	1.44E+3
7.02E-1	6.01E+3	2.41E-1	1.35E+3
6.91E-1	6.13E+3	2.27E-1	1.30E+3
7.19E-1	5.97E+3	2.36E-1	1.37E+3
6.89E-1	6.04E+3	2.37E-1	1.41E+3
6.88E-1	6.05E+3	2.23E-1	1.31E+3
6.90E-1	6.03E+3	2.27E-1	1.32E+3
6.82E-1	5.95E+3	2.43E-1	1.39E+3
6.89E-1	6.10E+3	2.17E-1	1.33E+3
7.08E-1	5.96E+3	2.37E-1	1.38E+3
6.94E-1	6.08E+3	2.15E-1	1.37E+3
7.16E-1	6.20E+3	2.35E-1	1.37E+3
7.02E-1	5.90E+3	2.35E-1	1.35E+3
7.00E-1	6.08E+3	2.27E-1	1.36E+3
7.22E-1	6.04E+3	2.31E-1	1.35E+3
7.08E-1	6.00E+3	2.32E-1	1.30E+3
7.16E-1	6.04E+3	2.31E-1	1.41E+3
6.96E-1	6.12E+3	2.28E-1	1.45E+3
6.75E-1	6.06E+3	2.48E-1	1.46E+3
6.87E-1	5.96E+3	2.18E-1	1.27E+3
7.19E-1	6.17E+3	2.08E-1	1.26E+3
6.99E-1	6.03E+3	2.19E-1	1.35E+3
6.90E-1	6.07E+3	2.23E-1	1.35E+3
7.45E-1	6.03E+3	2.25E-1	1.35E+3
7.14E-1	6.07E+3	2.17E-1	1.35E+3
7.21E-1	6.20E+3	2.28E-1	1.40E+3
7.09E-1	6.02E+3	2.19E-1	1.37E+3
7.22E-1	6.03E+3	2.47E-1	1.39E+3
6.89E-1	6.04E+3	2.44E-1	1.34E+3
6.75E-1	5.89E+3	2.45E-1	1.38E+3
6.78E-1	5.96E+3	2.22E-1	1.22E+3
6.75E-1	5.88E+3	2.32E-1	1.33E+3
6.86E-1	5.97E+3	2.32E-1	1.24E+3
6.95E-1	6.15E+3	2.21E-1	1.25E+3
7.06E-1	6.00E+3	2.17E-1	1.23E+3
7.14E-1	6.07E+3	2.22E-1	1.31E+3
7.00E-1	6.03E+3	2.31E-1	1.44E+3
7.14E-1	6.04E+3	2.29E-1	1.35E+3
7.19E-1	6.18E+3	2.37E-1	1.30E+3
7.12E-1	6.03E+3	2.24E-1	1.39E+3
7.05E-1	6.08E+3	2.15E-1	1.33E+3
7.12E-1	6.09E+3	2.31E-1	1.32E+3
6.96E-1	6.09E+3	2.29E-1	1.41E+3
6.92E-1	6.13E+3	2.29E-1	1.36E+3
7.05E-1	6.12E+3	2.29E-1	1.38E+3
7.00E-1	5.98E+3	2.26E-1	1.26E+3
6.99E-1	6.13E+3	2.31E-1	1.34E+3
7.09E-1	5.93E+3	2.16E-1	1.34E+3
6.91E-1	6.12E+3	2.21E-1	1.29E+3
6.94E-1	6.02E+3	2.44E-1	1.34E+3
6.98E-1	5.90E+3	2.05E-1	1.24E+3
7.05E-1	6.09E+3	2.17E-1	1.29E+3
6.80E-1	5.96E+3	2.25E-1	1.35E+3
6.97E-1	5.87E+3	2.28E-1	1.30E+3
7.05E-1	5.94E+3	2.33E-1	1.41E+3
6.98E-1	6.10E+3	2.17E-1	1.31E+3
6.91E-1	6.05E+3	2.33E-1	1.29E+3
6.87E-1	6.03E+3	2.36E-1	1.32E+3
7.07E-1	5.96E+3	2.31E-1	1.30E+3
7.17E-1	6.07E+3	2.37E-1	1.33E+3
6.81E-1	5.97E+3	2.47E-1	1.35E+3
6.88E-1	6.06E+3	2.34E-1	1.35E+3
6.82E-1	5.97E+3	2.21E-1	1.28E+3
6.99E-1	5.97E+3	2.24E-1	1.35E+3
6.98E-1	6.08E+3	2.10E-1	1.26E+3
7.01E-1	6.09E+3	2.33E-1	1.35E+3
6.96E-1	5.90E+3	2.36E-1	1.38E+3
7.10E-1	6.18E+3	2.41E-1	1.39E+3
7.12E-1	5.97E+3	2.23E-1	1.32E+3
7.11E-1	6.04E+3	2.29E-1	1.35E+3
7.11E-1	6.09E+3	2.21E-1	1.30E+3
6.87E-1	6.03E+3	2.32E-1	1.42E+3
6.78E-1	5.96E+3	2.31E-1	1.37E+3
6.87E-1	6.03E+3	2.26E-1	1.31E+3
6.98E-1	6.03E+3	2.30E-1	1.32E+3
6.90E-1	6.09E+3	2.52E-1	1.42E+3
6.88E-1	6.03E+3	2.20E-1	1.25E+3
6.79E-1	5.90E+3	2.24E-1	1.34E+3
7.11E-1	6.06E+3	2.19E-1	1.35E+3
7.15E-1	6.05E+3	2.32E-1	1.33E+3
7.11E-1	6.02E+3	2.21E-1	1.39E+3
6.96E-1	6.04E+3	2.27E-1	1.28E+3
7.10E-1	6.03E+3	2.30E-1	1.32E+3
6.92E-1	5.95E+3	2.20E-1	1.34E+3
7.11E-1	5.99E+3	2.36E-1	1.37E+3
7.17E-1	6.05E+3	2.51E-1	1.41E+3
6.85E-1	5.98E+3	2.29E-1	1.35E+3
6.86E-1	6.11E+3	2.26E-1	1.41E+3
7.23E-1	6.04E+3	2.20E-1	1.36E+3
6.95E-1	6.12E+3	2.19E-1	1.30E+3
6.85E-1	6.01E+3	2.17E-1	1.30E+3
7.10E-1	6.08E+3	2.19E-1	1.32E+3
6.86E-1	6.04E+3	2.31E-1	1.36E+3
7.10E-1	6.03E+3	2.15E-1	1.27E+3
6.97E-1	6.14E+3	2.07E-1	1.26E+3
6.80E-1	5.85E+3	2.30E-1	1.36E+3
6.80E-1	6.05E+3	2.42E-1	1.37E+3
6.90E-1	6.04E+3	2.28E-1	1.38E+3
7.08E-1	6.00E+3	2.21E-1	1.30E+3
6.88E-1	6.10E+3	2.12E-1	1.34E+3
7.02E-1	6.12E+3	2.18E-1	1.32E+3
6.93E-1	6.11E+3	2.25E-1	1.34E+3
6.82E-1	6.06E+3	2.20E-1	1.21E+3
6.92E-1	6.09E+3	2.11E-1	1.27E+3
7.14E-1	6.12E+3	2.16E-1	1.29E+3
7.25E-1	6.07E+3	2.40E-1	1.42E+3
7.03E-1	5.97E+3	2.46E-1	1.46E+3
6.92E-1	6.09E+3	2.31E-1	1.38E+3
7.11E-1	6.00E+3	2.30E-1	1.37E+3
7.08E-1	6.17E+3	2.32E-1	1.38E+3
6.88E-1	5.84E+3	2.39E-1	1.38E+3
6.84E-1	6.05E+3	2.21E-1	1.31E+3
6.82E-1	6.06E+3	2.11E-1	1.27E+3
6.93E-1	5.98E+3	2.31E-1	1.31E+3
7.06E-1	6.02E+3	2.12E-1	1.28E+3
7.08E-1	6.02E+3	2.31E-1	1.37E+3
6.96E-1	6.12E+3	2.33E-1	1.35E+3
6.91E-1	6.10E+3	2.21E-1	1.32E+3
6.95E-1	5.99E+3	2.13E-1	1.30E+3
7.17E-1	6.07E+3	2.23E-1	1.35E+3
7.22E-1	6.05E+3	2.32E-1	1.36E+3
6.84E-1	6.06E+3	2.17E-1	1.31E+3
7.08E-1	6.02E+3	2.22E-1	1.33E+3
6.94E-1	6.13E+3	2.15E-1	1.36E+3
7.03E-1	6.10E+3	2.35E-1	1.30E+3
6.98E-1	6.03E+3	2.21E-1	1.32E+3
6.83E-1	6.04E+3	2.40E-1	1.40E+3
7.02E-1	6.00E+3	2.36E-1	1.27E+3
6.94E-1	6.16E+3	2.22E-1	1.36E+3
7.18E-1	6.14E+3	2.30E-1	1.38E+3
7.14E-1	6.08E+3	2.23E-1	1.35E+3
7.29E-1	6.08E+3	2.25E-1	1.35E+3
7.11E-1	6.17E+3	2.10E-1	1.34E+3
7.04E-1	6.02E+3	2.20E-1	1.36E+3
7.05E-1	5.99E+3	2.28E-1	1.42E+3
7.16E-1	6.02E+3	2.29E-1	1.42E+3
7.06E-1	6.08E+3	2.39E-1	1.43E+3
6.99E-1	6.10E+3	2.13E-1	1.31E+3
6.86E-1	6.03E+3	2.23E-1	1.37E+3
6.97E-1	6.04E+3	2.29E-1	1.37E+3
6.87E-1	6.08E+3	2.28E-1	1.34E+3
6.89E-1	6.08E+3	2.29E-1	1.35E+3
7.25E-1	6.16E+3	2.26E-1	1.37E+3
6.88E-1	6.06E+3	2.21E-1	1.35E+3
1.20E-2	3.43E+1	4.84E-1	2.96E+3
6.86E-1	6.02E+3	2.20E-1	1.33E+3
6.83E-1	6.08E+3	2.17E-1	1.32E+3
7.04E-1	5.98E+3	2.35E-1	1.43E+3
7.07E-1	6.00E+3	2.39E-1	1.35E+3
6.93E-1	5.82E+3	2.33E-1	1.33E+3
7.17E-1	5.94E+3	2.27E-1	1.35E+3
6.79E-1	5.96E+3	2.13E-1	1.31E+3
7.14E-1	6.01E+3	2.31E-1	1.35E+3
7.26E-1	6.18E+3	2.28E-1	1.29E+3
6.91E-1	5.95E+3	2.33E-1	1.43E+3
7.02E-1	6.15E+3	2.21E-1	1.36E+3
7.11E-1	5.96E+3	2.37E-1	1.43E+3
7.14E-1	6.00E+3	2.27E-1	1.32E+3
7.13E-1	6.09E+3	2.30E-1	1.39E+3
7.24E-1	6.15E+3	2.41E-1	1.42E+3
6.87E-1	6.10E+3	2.31E-1	1.34E+3
7.04E-1	5.99E+3	2.49E-1	1.50E+3
6.97E-1	6.00E+3	2.15E-1	1.31E+3
6.89E-1	6.07E+3	2.38E-1	1.35E+3
6.93E-1	6.05E+3	2.27E-1	1.34E+3
7.02E-1	5.96E+3	2.20E-1	1.35E+3
6.92E-1	6.05E+3	2.22E-1	1.37E+3
7.25E-1	6.16E+3	2.41E-1	1.40E+3
6.91E-1	6.08E+3	2.40E-1	1.40E+3
7.06E-1	6.15E+3	2.39E-1	1.47E+3
6.86E-1	5.93E+3	2.27E-1	1.33E+3
7.23E-1	5.99E+3	2.15E-1	1.30E+3
7.12E-1	6.05E+3	2.20E-1	1.32E+3
7.00E-1	6.11E+3	2.10E-1	1.26E+3
6.91E-1	5.92E+3	2.23E-1	1.39E+3
6.87E-1	6.05E+3	2.31E-1	1.31E+3
6.85E-1	6.06E+3	2.25E-1	1.31E+3
6.83E-1	6.03E+3	2.08E-1	1.28E+3
7.08E-1	6.05E+3	2.37E-1	1.30E+3
6.99E-1	5.85E+3	2.30E-1	1.39E+3
6.80E-1	5.94E+3	2.09E-1	1.26E+3
7.16E-1	6.05E+3	2.25E-1	1.30E+3
7.00E-1	6.00E+3	2.20E-1	1.28E+3
6.96E-1	6.13E+3	2.13E-1	1.22E+3
7.27E-1	6.18E+3	2.23E-1	1.28E+3
7.00E-1	6.15E+3	2.21E-1	1.35E+3
7.04E-1	5.91E+3	2.27E-1	1.36E+3
8.06E-3	-6.45E+0	5.07E-1	3.02E+3
7.21E-1	6.15E+3	2.38E-1	1.38E+3
7.22E-1	6.00E+3	2.35E-1	1.36E+3
6.75E-1	5.92E+3	2.43E-1	1.36E+3
7.08E-1	6.03E+3	2.19E-1	1.25E+3
6.93E-1	5.96E+3	2.11E-1	1.28E+3
6.91E-1	6.02E+3	2.38E-1	1.35E+3
6.87E-1	6.07E+3	2.22E-1	1.31E+3
6.99E-1	6.08E+3	2.22E-1	1.33E+3
6.98E-1	5.91E+3	2.09E-1	1.23E+3
7.07E-1	6.12E+3	2.14E-1	1.30E+3
6.89E-1	6.09E+3	2.14E-1	1.30E+3
7.01E-1	6.05E+3	2.30E-1	1.35E+3
6.89E-1	5.98E+3	2.36E-1	1.43E+3
6.87E-1	6.05E+3	2.40E-1	1.38E+3
7.19E-1	6.20E+3	2.36E-1	1.39E+3
7.16E-1	6.10E+3	2.09E-1	1.31E+3
7.11E-1	6.07E+3	2.37E-1	1.39E+3
7.09E-1	6.12E+3	2.16E-1	1.39E+3
7.19E-1	6.03E+3	2.22E-1	1.29E+3
7.03E-1	6.05E+3	2.14E-1	1.32E+3
7.01E-1	6.06E+3	2.09E-1	1.24E+3
6.80E-1	5.88E+3	2.29E-1	1.37E+3
7.30E-1	6.19E+3	2.17E-1	1.24E+3
7.10E-1	6.01E+3	2.31E-1	1.35E+3
7.06E-1	6.05E+3	2.17E-1	1.37E+3
6.95E-1	6.00E+3	2.25E-1	1.34E+3
7.05E-1	6.15E+3	2.35E-1	1.37E+3
6.76E-1	5.86E+3	2.15E-1	1.19E+3
7.00E-1	6.10E+3	2.23E-1	1.34E+3
7.02E-1	5.98E+3	2.23E-1	1.34E+3
6.96E-1	6.12E+3	2.31E-1	1.30E+3
6.80E-1	6.06E+3	2.22E-1	1.32E+3
6.87E-1	5.97E+3	2.14E-1	1.29E+3
6.89E-1	6.15E+3	2.21E-1	1.32E+3
6.97E-1	6.08E+3	2.24E-1	1.33E+3
7.08E-1	6.06E+3	2.28E-1	1.32E+3
7.04E-1	6.01E+3	2.30E-1	1.32E+3
6.83E-1	5.97E+3	2.34E-1	1.33E+3
7.18E-1	6.08E+3	2.26E-1	1.38E+3
6.80E-1	5.97E+3	2.14E-1	1.28E+3
6.90E-1	6.12E+3	2.31E-1	1.38E+3
7.17E-1	6.03E+3	2.44E-1	1.44E+3
6.88E-1	6.12E+3	2.34E-1	1.35E+3
6.82E-1	5.97E+3	2.15E-1	1.30E+3
6.83E-1	5.95E+3	2.19E-1	1.33E+3
7.14E-1	6.06E+3	2.24E-1	1.34E+3
6.99E-1	6.00E+3	2.30E-1	1.37E+3
7.05E-1	6.07E+3	2.22E-1	1.35E+3
7.10E-1	6.09E+3	2.22E-1	1.33E+3
7.00E-1	6.04E+3	2.17E-1	1.30E+3
6.82E-1	5.90E+3	2.35E-1	1.37E+3
6.69E-1	5.94E+3	2.24E-1	1.30E+3
7.04E-1	5.95E+3	2.45E-1	1.39E+3
6.96E-1	6.03E+3	2.17E-1	1.33E+3
7.04E-1	6.06E+3	2.20E-1	1.28E+3
7.11E-1	6.14E+3	2.17E-1	1.27E+3
6.87E-1	5.95E+3	2.22E-1	1.33E+3
6.91E-1	6.07E+3	2.38E-1	1.30E+3
7.03E-1	6.01E+3	2.40E-1	1.34E+3
6.96E-1	5.97E+3	2.25E-1	1.34E+3
7.00E-1	5.97E+3	2.31E-1	1.31E+3
7.03E-1	6.14E+3	2.36E-1	1.35E+3
7.11E-1	6.12E+3	2.27E-1	1.43E+3
6.98E-1	6.06E+3	2.39E-1	1.40E+3
7.00E-1	5.95E+3	2.40E-1	1.36E+3
7.16E-1	5.98E+3	2.13E-1	1.26E+3
7.01E-1	6.02E+3	2.20E-1	1.36E+3
6.90E-1	5.95E+3	2.20E-1	1.31E+3
7.16E-1	6.18E+3	2.26E-1	1.33E+3
6.78E-1	5.90E+3	2.34E-1	1.37E+3
6.84E-1	6.05E+3	2.34E-1	1.35E+3
7.20E-1	6.02E+3	2.16E-1	1.33E+3
7.26E-1	6.27E+3	2.25E-1	1.33E+3
7.04E-1	6.06E+3	2.32E-1	1.38E+3
6.79E-1	5.95E+3	2.34E-1	1.37E+3
7.07E-1	6.00E+3	2.24E-1	1.34E+3
6.85E-1	6.15E+3	2.28E-1	1.46E+3
7.05E-1	6.09E+3	2.35E-1	1.35E+3
7.08E-1	6.17E+3	2.37E-1	1.37E+3
6.83E-1	6.02E+3	2.53E-1	1.47E+3
7.11E-1	6.02E+3	2.24E-1	1.32E+3
7.19E-1	6.07E+3	2.38E-1	1.35E+3
6.82E-1	5.92E+3	2.32E-1	1.35E+3
7.16E-1	5.99E+3	2.32E-1	1.34E+3
6.87E-1	6.05E+3	2.39E-1	1.38E+3
6.95E-1	5.99E+3	2.40E-1	1.34E+3
6.95E-1	6.09E+3	2.18E-1	1.29E+3
7.20E-1	5.99E+3	2.17E-1	1.31E+3
6.90E-1	6.12E+3	2.26E-1	1.31E+3
7.05E-1	6.02E+3	2.29E-1	1.28E+3
7.16E-1	6.03E+3	2.29E-1	1.36E+3
7.24E-1	6.05E+3	2.37E-1	1.40E+3
6.97E-1	6.03E+3	2.33E-1	1.38E+3
7.14E-1	6.17E+3	2.33E-1	1.39E+3
7.08E-1	5.99E+3	2.40E-1	1.40E+3
6.90E-1	6.04E+3	2.06E-1	1.23E+3
7.12E-1	6.00E+3	2.20E-1	1.25E+3
7.04E-1	6.00E+3	2.24E-1	1.39E+3
6.87E-1	5.95E+3	2.13E-1	1.28E+3
6.97E-1	5.87E+3	2.21E-1	1.37E+3
6.93E-1	5.99E+3	2.20E-1	1.26E+3
7.03E-1	5.93E+3	2.23E-1	1.37E+3
7.02E-1	5.97E+3	2.28E-1	1.41E+3
6.86E-1	6.05E+3	2.26E-1	1.37E+3
6.95E-1	6.06E+3	2.19E-1	1.36E+3
1.78E-2	4.04E+1	5.03E-1	2.94E+3
7.18E-1	6.11E+3	2.13E-1	1.31E+3
6.89E-1	6.05E+3	2.09E-1	1.20E+3
6.98E-1	6.01E+3	2.42E-1	1.41E+3
7.24E-1	6.05E+3	2.31E-1	1.31E+3
6.87E-1	6.03E+3	2.35E-1	1.33E+3
7.21E-1	5.95E+3	2.39E-1	1.36E+3
6.99E-1	5.90E+3	2.52E-1	1.49E+3
6.90E-1	6.01E+3	2.19E-1	1.36E+3
7.06E-1	6.17E+3	2.15E-1	1.22E+3
7.17E-1	6.04E+3	2.08E-1	1.27E+3
7.12E-1	5.92E+3	2.43E-1	1.41E+3
7.04E-1	5.98E+3	2.26E-1	1.38E+3
7.17E-1	6.08E+3	2.39E-1	1.33E+3
7.16E-1	5.94E+3	2.24E-1	1.31E+3
6.96E-1	6.09E+3	2.34E-1	1.39E+3
7.13E-1	5.90E+3	2.34E-1	1.41E+3
7.01E-1	6.06E+3	2.38E-1	1.35E+3
6.78E-1	5.88E+3	2.31E-1	1.31E+3
7.04E-1	5.96E+3	2.23E-1	1.30E+3
6.86E-1	6.01E+3	2.09E-1	1.23E+3
6.80E-1	6.05E+3	2.25E-1	1.28E+3
6.83E-1	5.90E+3	2.26E-1	1.31E+3
7.19E-1	6.08E+3	2.09E-1	1.28E+3
7.16E-1	6.06E+3	2.25E-1	1.28E+3
7.06E-1	6.08E+3	2.35E-1	1.36E+3
7.26E-1	6.04E+3	2.21E-1	1.24E+3
7.00E-1	6.06E+3	2.24E-1	1.32E+3
7.09E-1	6.11E+3	2.32E-1	1.31E+3
7.07E-1	5.90E+3	2.26E-1	1.39E+3
6.98E-1	5.96E+3	2.24E-1	1.37E+3
6.84E-1	6.13E+3	2.11E-1	1.27E+3
6.98E-1	6.04E+3	2.30E-1	1.40E+3
7.00E-1	5.93E+3	2.26E-1	1.33E+3
7.10E-1	5.96E+3	2.14E-1	1.27E+3
6.87E-1	5.89E+3	2.20E-1	1.35E+3
7.07E-1	6.04E+3	2.42E-1	1.41E+3
7.18E-1	6.09E+3	2.25E-1	1.38E+3
7.04E-1	6.05E+3	2.27E-1	1.36E+3
7.07E-1	6.00E+3	2.39E-1	1.39E+3
7.08E-1	6.05E+3	2.23E-1	1.35E+3
7.16E-1	5.97E+3	2.57E-1	1.51E+3
6.85E-1	5.96E+3	2.38E-1	1.34E+3
6.94E-1	6.05E+3	2.16E-1	1.28E+3
7.23E-1	5.95E+3	2.41E-1	1.47E+3
6.91E-1	5.89E+3	2.10E-1	1.25E+3
7.24E-1	6.00E+3	2.14E-1	1.28E+3
7.06E-1	5.94E+3	2.41E-1	1.32E+3
6.79E-1	6.01E+3	2.33E-1	1.36E+3
7.00E-1	5.95E+3	2.29E-1	1.32E+3
7.10E-1	5.95E+3	2.42E-1	1.39E+3
6.98E-1	6.04E+3	2.32E-1	1.44E+3
7.11E-1	6.11E+3	2.14E-1	1.29E+3
6.98E-1	6.05E+3	2.21E-1	1.36E+3
7.09E-1	6.06E+3	2.23E-1	1.32E+3
7.01E-1	6.11E+3	2.20E-1	1.40E+3
6.85E-1	6.05E+3	2.27E-1	1.33E+3
7.02E-1	5.95E+3	2.13E-1	1.32E+3
6.91E-1	6.03E+3	2.19E-1	1.33E+3
6.75E-1	5.93E+3	2.26E-1	1.30E+3
6.97E-1	6.13E+3	2.40E-1	1.38E+3
7.24E-1	6.16E+3	2.41E-1	1.36E+3
7.06E-1	5.94E+3	2.26E-1	1.35E+3
7.12E-1	6.01E+3	2.19E-1	1.35E+3
7.19E-1	6.14E+3	2.26E-1	1.33E+3
6.89E-1	6.06E+3	2.41E-1	1.48E+3
7.26E-1	6.04E+3	2.29E-1	1.36E+3
7.08E-1	6.03E+3	2.38E-1	1.37E+3
7.08E-1	5.89E+3	2.10E-1	1.21E+3
6.74E-1	5.92E+3	2.30E-1	1.31E+3
7.06E-1	6.11E+3	2.29E-1	1.39E+3
6.85E-1	5.93E+3	2.20E-1	1.23E+3
6.86E-1	5.93E+3	2.34E-1	1.29E+3
7.16E-1	5.99E+3	2.48E-1	1.41E+3
6.79E-1	5.95E+3	2.20E-1	1.32E+3
6.90E-1	5.95E+3	2.31E-1	1.29E+3
7.07E-1	5.99E+3	2.10E-1	1.34E+3
7.27E-1	6.10E+3	2.29E-1	1.38E+3
6.77E-1	5.82E+3	2.41E-1	1.31E+3
6.93E-1	5.99E+3	2.38E-1	1.30E+3
6.90E-1	5.94E+3	2.32E-1	1.33E+3
6.98E-1	6.02E+3	2.24E-1	1.39E+3
7.11E-1	6.05E+3	2.37E-1	1.38E+3
7.08E-1	6.06E+3	2.28E-1	1.42E+3
7.24E-1	5.96E+3	2.29E-1	1.32E+3
6.88E-1	5.97E+3	2.38E-1	1.38E+3
6.96E-1	5.97E+3	2.35E-1	1.33E+3
6.98E-1	5.99E+3	2.20E-1	1.28E+3
6.98E-1	6.15E+3	2.19E-1	1.34E+3
6.84E-1	5.99E+3	2.22E-1	1.28E+3
7.02E-1	6.06E+3	2.27E-1	1.37E+3
7.11E-1	6.10E+3	2.08E-1	1.28E+3
6.92E-1	6.03E+3	2.25E-1	1.31E+3
7.06E-1	6.03E+3	2.41E-1	1.35E+3
6.85E-1	6.04E+3	2.54E-1	1.42E+3
7.12E-1	5.99E+3	2.24E-1	1.38E+3
6.97E-1	6.03E+3	2.23E-1	1.35E+3
6.96E-1	6.10E+3	2.06E-1	1.28E+3
6.80E-1	6.01E+3	2.28E-1	1.33E+3
6.81E-1	6.03E+3	2.28E-1	1.30E+3
7.06E-1	6.01E+3	2.30E-1	1.31E+3
6.98E-1	5.98E+3	2.27E-1	1.36E+3
6.95E-1	6.08E+3	2.21E-1	1.34E+3
7.23E-1	6.17E+3	2.17E-1	1.34E+3
7.19E-1	5.96E+3	2.22E-1	1.26E+3
7.16E-1	6.03E+3	2.29E-1	1.35E+3
7.06E-1	5.95E+3	2.45E-1	1.45E+3
6.87E-1	5.89E+3	2.36E-1	1.40E+3
7.07E-1	6.00E+3	2.14E-1	1.29E+3
7.06E-1	6.03E+3	2.17E-1	1.29E+3
7.13E-1	6.04E+3	2.20E-1	1.34E+3
6.92E-1	6.11E+3	2.34E-1	1.30E+3
6.99E-1	6.08E+3	2.25E-1	1.29E+3
7.14E-1	6.07E+3	2.08E-1	1.28E+3
6.91E-1	5.92E+3	2.17E-1	1.27E+3
6.96E-1	6.02E+3	2.08E-1	1.16E+3
7.06E-1	6.03E+3	2.24E-1	1.38E+3
7.17E-1	6.05E+3	2.11E-1	1.29E+3
7.08E-1	6.14E+3	2.20E-1	1.31E+3
7.13E-1	5.90E+3	2.33E-1	1.38E+3
7.20E-1	6.01E+3	2.18E-1	1.33E+3
7.13E-1	6.12E+3	2.31E-1	1.33E+3
6.79E-1	5.91E+3	2.16E-1	1.28E+3
6.87E-1	5.91E+3	2.39E-1	1.41E+3
6.87E-1	5.97E+3	2.16E-1	1.27E+3
6.84E-1	5.91E+3	2.35E-1	1.38E+3
7.01E-1	5.91E+3	2.33E-1	1.35E+3
6.92E-1	6.05E+3	2.32E-1	1.30E+3
6.78E-1	5.94E+3	2.27E-1	1.32E+3
6.83E-1	5.96E+3	2.24E-1	1.40E+3
7.03E-1	6.05E+3	2.44E-1	1.44E+3
7.11E-1	6.01E+3	2.45E-1	1.39E+3
7.03E-1	6.11E+3	2.22E-1	1.34E+3
6.74E-1	5.90E+3	2.27E-1	1.28E+3
7.21E-1	6.02E+3	2.29E-1	1.31E+3
6.87E-1	5.96E+3	2.33E-1	1.35E+3
7.23E-1	6.10E+3	2.23E-1	1.27E+3
7.16E-1	6.05E+3	2.28E-1	1.29E+3
6.77E-1	5.91E+3	2.20E-1	1.35E+3
6.99E-1	6.11E+3	2.20E-1	1.29E+3
6.99E-1	6.08E+3	2.31E-1	1.37E+3
6.86E-1	6.08E+3	2.15E-1	1.21E+3
6.99E-1	6.00E+3	2.25E-1	1.34E+3
7.09E-1	6.08E+3	2.12E-1	1.28E+3
1.20E-2	4.14E+1	4.96E-1	2.93E+3
7.10E-1	6.08E+3	2.13E-1	1.29E+3
7.02E-1	5.99E+3	2.43E-1	1.39E+3
6.98E-1	5.91E+3	2.16E-1	1.32E+3
6.84E-1	6.11E+3	2.47E-1	1.40E+3
6.77E-1	5.85E+3	2.24E-1	1.28E+3
6.98E-1	6.02E+3	2.29E-1	1.28E+3
7.06E-1	6.03E+3	2.22E-1	1.29E+3
6.81E-1	6.01E+3	2.40E-1	1.38E+3
6.78E-1	5.92E+3	2.40E-1	1.40E+3
7.10E-1	6.11E+3	2.24E-1	1.38E+3
6.76E-1	5.92E+3	2.17E-1	1.33E+3
6.91E-1	6.11E+3	2.29E-1	1.46E+3
7.01E-1	6.15E+3	2.20E-1	1.34E+3
7.09E-1	6.02E+3	2.13E-1	1.29E+3
7.18E-1	6.08E+3	2.26E-1	1.32E+3
7.19E-1	6.07E+3	2.25E-1	1.37E+3
7.01E-1	6.14E+3	2.18E-1	1.30E+3
7.23E-1	6.07E+3	2.45E-1	1.38E+3
6.82E-1	5.99E+3	2.33E-1	1.33E+3
6.96E-1	5.89E+3	2.19E-1	1.25E+3
6.75E-1	5.98E+3	2.20E-1	1.37E+3
7.08E-1	6.02E+3	2.30E-1	1.36E+3
7.20E-1	6.14E+3	2.24E-1	1.36E+3
7.02E-1	6.00E+3	2.28E-1	1.34E+3
7.11E-1	6.03E+3	2.25E-1	1.41E+3
7.00E-1	5.96E+3	2.22E-1	1.33E+3
7.04E-1	6.06E+3	2.33E-1	1.39E+3
7.19E-1	6.11E+3	2.41E-1	1.41E+3
7.30E-1	6.06E+3	2.40E-1	1.38E+3
7.06E-1	6.03E+3	2.17E-1	1.36E+3
6.88E-1	6.04E+3	2.32E-1	1.36E+3
6.82E-1	5.95E+3	2.26E-1	1.33E+3
6.98E-1	6.05E+3	2.31E-1	1.36E+3
7.28E-1	6.06E+3	2.19E-1	1.25E+3
6.85E-1	5.99E+3	2.30E-1	1.39E+3
6.93E-1	6.12E+3	2.45E-1	1.37E+3
7.17E-1	6.12E+3	2.12E-1	1.30E+3
7.24E-1	6.05E+3	2.22E-1	1.28E+3
7.07E-1	6.06E+3	2.40E-1	1.40E+3
7.01E-1	6.10E+3	2.21E-1	1.30E+3
6.92E-1	5.93E+3	2.36E-1	1.40E+3
7.15E-1	6.05E+3	2.35E-1	1.38E+3
7.01E-1	6.04E+3	2.25E-1	1.33E+3
7.23E-1	6.12E+3	2.50E-1	1.40E+3
7.02E-1	6.05E+3	2.22E-1	1.29E+3
7.17E-1	6.00E+3	2.38E-1	1.33E+3
7.16E-1	5.82E+3	2.27E-1	1.26E+3
7.33E-1	6.07E+3	2.17E-1	1.33E+3
6.86E-1	5.89E+3	2.22E-1	1.31E+3
6.91E-1	5.96E+3	2.23E-1	1.30E+3
7.13E-1	6.07E+3	2.23E-1	1.36E+3
7.05E-1	5.95E+3	2.17E-1	1.34E+3
7.07E-1	6.10E+3	2.30E-1	1.37E+3
7.04E-1	6.03E+3	2.32E-1	1.37E+3
7.14E-1	6.12E+3	2.36E-1	1.36E+3
6.97E-1	6.07E+3	2.15E-1	1.33E+3
6.84E-1	6.08E+3	2.23E-1	1.33E+3
6.85E-1	6.03E+3	2.38E-1	1.36E+3
6.94E-1	6.06E+3	2.24E-1	1.34E+3
6.81E-1	5.90E+3	2.29E-1	1.30E+3
7.26E-1	6.11E+3	2.37E-1	1.30E+3
6.86E-1	6.11E+3	2.31E-1	1.35E+3
6.91E-1	6.00E+3	2.24E-1	1.34E+3
6.95E-1	6.12E+3	2.34E-1	1.43E+3
6.77E-1	6.02E+3	2.18E-1	1.28E+3
7.16E-1	5.94E+3	2.30E-1	1.36E+3
7.04E-1	6.12E+3	2.37E-1	1.36E+3
7.14E-1	5.93E+3	2.07E-1	1.23E+3
7.13E-1	6.10E+3	2.31E-1	1.32E+3
7.00E-1	6.03E+3	2.53E-1	1.40E+3
6.98E-1	5.97E+3	2.40E-1	1.36E+3
6.96E-1	5.98E+3	2.17E-1	1.30E+3
6.88E-1	6.08E+3	2.25E-1	1.36E+3
7.06E-1	5.99E+3	2.17E-1	1.30E+3
7.00E-1	6.02E+3	2.20E-1	1.34E+3
7.02E-1	5.88E+3	2.25E-1	1.28E+3
7.12E-1	5.90E+3	2.29E-1	1.31E+3
6.84E-1	6.03E+3	2.06E-1	1.22E+3
7.01E-1	5.96E+3	2.23E-1	1.27E+3
7.20E-1	6.06E+3	2.17E-1	1.28E+3
7.07E-1	6.19E+3	2.27E-1	1.31E+3
6.81E-1	5.97E+3	2.32E-1	1.33E+3
6.87E-1	6.10E+3	2.32E-1	1.34E+3
6.96E-1	6.00E+3	2.17E-1	1.31E+3
7.21E-1	6.03E+3	2.38E-1	1.35E+3
7.06E-1	5.96E+3	2.23E-1	1.24E+3
6.90E-1	5.99E+3	2.23E-1	1.33E+3
7.08E-1	6.01E+3	2.11E-1	1.26E+3
6.85E-1	6.00E+3	2.30E-1	1.33E+3
7.04E-1	6.04E+3	2.20E-1	1.34E+3
7.02E-1	6.18E+3	2.32E-1	1.38E+3
6.87E-1	6.06E+3	2.28E-1	1.38E+3
6.88E-1	6.01E+3	2.12E-1	1.29E+3
7.01E-1	6.01E+3	2.33E-1	1.40E+3
6.98E-1	5.96E+3	2.31E-1	1.40E+3
7.13E-1	6.05E+3	2.15E-1	1.38E+3
7.16E-1	5.99E+3	2.17E-1	1.32E+3
7.13E-1	6.04E+3	2.21E-1	1.40E+3
7.05E-1	6.08E+3	2.30E-1	1.30E+3
6.87E-1	6.02E+3	2.23E-1	1.32E+3
7.10E-1	6.08E+3	2.30E-1	1.34E+3
7.06E-1	6.10E+3	2.30E-1	1.37E+3
6.85E-1	6.04E+3	2.41E-1	1.39E+3
7.02E-1	6.05E+3	2.36E-1	1.39E+3
6.88E-1	6.01E+3	2.30E-1	1.30E+3
6.92E-1	5.93E+3	2.22E-1	1.34E+3
7.08E-1	5.94E+3	2.34E-1	1.33E+3
7.19E-1	5.98E+3	2.28E-1	1.28E+3
6.81E-1	5.89E+3	2.24E-1	1.38E+3
6.80E-1	6.02E+3	2.36E-1	1.39E+3
6.91E-1	5.99E+3	2.15E-1	1.25E+3
7.05E-1	6.01E+3	2.18E-1	1.29E+3
6.79E-1	5.97E+3	2.23E-1	1.27E+3
7.21E-1	6.02E+3	2.35E-1	1.31E+3
6.96E-1	5.97E+3	2.27E-1	1.39E+3
6.98E-1	6.07E+3	2.24E-1	1.30E+3
7.00E-1	6.08E+3	2.32E-1	1.37E+3
7.08E-1	6.05E+3	2.35E-1	1.35E+3
7.07E-1	6.05E+3	2.15E-1	1.32E+3
7.35E-1	6.07E+3	2.46E-1	1.40E+3
7.16E-1	6.00E+3	2.20E-1	1.38E+3
6.79E-1	6.03E+3	2.13E-1	1.28E+3
6.93E-1	6.00E+3	2.27E-1	1.37E+3
6.97E-1	5.99E+3	2.22E-1	1.33E+3
7.32E-3	2.83E+0	5.03E-1	2.96E+3
7.19E-1	6.04E+3	2.22E-1	1.36E+3
6.99E-1	6.03E+3	2.13E-1	1.32E+3
6.89E-1	6.09E+3	2.24E-1	1.35E+3
7.00E-1	6.04E+3	2.25E-1	1.23E+3
6.87E-1	6.00E+3	2.17E-1	1.28E+3
7.11E-1	5.95E+3	2.28E-1	1.28E+3
7.19E-1	6.03E+3	2.16E-1	1.31E+3
6.90E-1	5.94E+3	2.08E-1	1.26E+3
7.11E-1	6.08E+3	2.29E-1	1.41E+3
6.93E-1	5.95E+3	2.23E-1	1.33E+3
6.99E-1	6.02E+3	2.30E-1	1.38E+3
6.92E-1	6.18E+3	2.40E-1	1.40E+3
6.98E-1	6.13E+3	2.22E-1	1.36E+3
7.08E-1	6.10E+3	2.13E-1	1.23E+3
7.16E-1	6.08E+3	2.27E-1	1.31E+3
7.00E-1	5.99E+3	2.42E-1	1.36E+3
6.87E-1	6.16E+3	2.29E-1	1.30E+3
7.06E-1	5.99E+3	2.30E-1	1.32E+3
7.30E-1	6.17E+3	2.32E-1	1.40E+3
7.02E-1	6.20E+3	2.10E-1	1.30E+3
7.08E-1	5.93E+3	2.15E-1	1.34E+3
7.10E-1	6.02E+3	2.48E-1	1.42E+3
7.06E-1	6.05E+3	2.16E-1	1.28E+3
7.02E-1	5.99E+3	2.24E-1	1.33E+3
6.79E-1	5.88E+3	2.23E-1	1.32E+3
6.83E-1	5.97E+3	2.32E-1	1.27E+3
7.21E-1	5.95E+3	2.27E-1	1.28E+3
7.03E-1	6.00E+3	2.05E-1	1.20E+3
6.93E-1	6.12E+3	2.22E-1	1.32E+3
6.88E-1	6.06E+3	2.22E-1	1.35E+3
7.25E-1	6.01E+3	2.15E-1	1.33E+3
6.99E-1	6.05E+3	2.30E-1	1.27E+3
6.90E-1	6.09E+3	2.38E-1	1.38E+3
6.96E-1	6.02E+3	2.30E-1	1.44E+3
7.10E-1	6.04E+3	2.15E-1	1.36E+3
7.01E-1	6.10E+3	2.14E-1	1.34E+3
7.08E-1	5.92E+3	2.23E-1	1.32E+3
7.00E-1	6.11E+3	2.44E-1	1.39E+3
7.17E-1	6.13E+3	2.26E-1	1.31E+3
6.97E-1	6.08E+3	2.18E-1	1.26E+3
6.81E-1	5.92E+3	2.22E-1	1.27E+3
7.17E-1	6.08E+3	2.47E-1	1.36E+3
6.91E-1	5.89E+3	2.16E-1	1.29E+3
7.08E-1	6.08E+3	2.37E-1	1.41E+3
7.02E-1	5.86E+3	2.30E-1	1.34E+3
7.08E-1	6.15E+3	2.34E-1	1.28E+3
6.92E-1	5.95E+3	2.42E-1	1.41E+3
7.01E-1	5.95E+3	2.20E-1	1.31E+3
6.96E-1	6.00E+3	2.23E-1	1.34E+3
7.04E-1	6.10E+3	2.29E-1	1.45E+3
7.11E-1	6.16E+3	2.36E-1	1.36E+3
7.01E-1	5.99E+3	2.10E-1	1.25E+3
6.99E-1	5.94E+3	2.24E-1	1.29E+3
6.90E-1	5.96E+3	2.13E-1	1.28E+3
7.20E-1	6.15E+3	2.20E-1	1.36E+3
7.10E-1	5.88E+3	2.31E-1	1.34E+3
7.13E-1	6.08E+3	2.23E-1	1.31E+3
7.07E-1	6.06E+3	2.16E-1	1.30E+3
7.40E-1	6.08E+3	2.21E-1	1.36E+3
6.90E-1	6.03E+3	2.32E-1	1.34E+3
7.09E-1	6.04E+3	2.31E-1	1.33E+3
6.81E-1	5.94E+3	2.30E-1	1.31E+3
6.88E-1	5.98E+3	2.33E-1	1.37E+3
6.91E-1	6.17E+3	2.20E-1	1.30E+3
7.18E-1	6.02E+3	2.36E-1	1.32E+3
7.09E-1	6.08E+3	2.30E-1	1.38E+3
6.99E-1	6.03E+3	2.23E-1	1.25E+3
6.86E-1	5.93E+3	2.16E-1	1.29E+3
7.13E-1	5.97E+3	2.33E-1	1.36E+3
6.81E-1	6.00E+3	2.31E-1	1.34E+3
7.03E-1	6.04E+3	2.20E-1	1.30E+3
7.08E-1	6.02E+3	2.27E-1	1.42E+3
7.04E-1	5.99E+3	2.28E-1	1.43E+3
6.88E-1	6.07E+3	2.17E-1	1.30E+3
6.83E-1	6.01E+3	2.37E-1	1.27E+3
7.10E-1	5.91E+3	2.13E-1	1.30E+3
6.98E-1	6.01E+3	2.23E-1	1.38E+3
6.99E-1	6.04E+3	2.31E-1	1.37E+3
7.22E-1	6.03E+3	2.18E-1	1.28E+3
7.16E-1	5.97E+3	2.24E-1	1.30E+3
7.07E-1	6.13E+3	2.09E-1	1.23E+3
7.24E-1	6.14E+3	2.30E-1	1.31E+3
7.11E-1	6.09E+3	2.14E-1	1.30E+3
6.97E-1	6.05E+3	2.28E-1	1.38E+3
7.14E-1	6.07E+3	2.26E-1	1.42E+3
7.04E-1	5.99E+3	2.19E-1	1.30E+3
7.23E-1	6.14E+3	2.47E-1	1.36E+3
6.94E-1	6.06E+3	2.23E-1	1.39E+3
7.11E-1	6.01E+3	2.27E-1	1.26E+3
7.05E-1	6.03E+3	2.39E-1	1.39E+3
7.14E-1	6.06E+3	2.34E-1	1.28E+3
7.16E-1	5.96E+3	2.44E-1	1.39E+3
7.07E-1	6.03E+3	2.32E-1	1.35E+3
6.81E-1	6.02E+3	2.06E-1	1.27E+3
7.09E-1	6.02E+3	2.24E-1	1.40E+3
6.91E-1	6.00E+3	2.38E-1	1.32E+3
6.94E-1	6.17E+3	2.21E-1	1.29E+3
7.08E-1	5.95E+3	2.35E-1	1.37E+3
7.08E-1	6.07E+3	2.30E-1	1.33E+3
7.07E-1	6.00E+3	2.09E-1	1.31E+3
7.22E-1	6.04E+3	2.21E-1	1.29E+3
7.11E-1	6.07E+3	2.36E-1	1.39E+3
7.11E-1	6.07E+3	2.40E-1	1.42E+3
6.91E-1	6.11E+3	2.28E-1	1.39E+3
