5.12E-1	3.96E+3	1.14E-1	7.78E+2
5.17E-1	3.92E+3	9.64E-2	6.90E+2
5.20E-1	4.13E+3	1.04E-1	7.56E+2
5.23E-1	4.01E+3	1.06E-1	7.35E+2
5.15E-1	4.06E+3	1.22E-1	8.13E+2
5.22E-1	4.03E+3	1.07E-1	8.01E+2
5.34E-1	4.14E+3	1.03E-1	7.39E+2
5.34E-1	4.08E+3	1.01E-1	7.76E+2
5.46E-1	3.97E+3	1.07E-1	7.78E+2
5.32E-1	4.00E+3	1.06E-1	7.21E+2
5.13E-1	4.10E+3	1.18E-1	8.22E+2
5.17E-1	3.84E+3	1.12E-1	7.75E+2
5.08E-1	3.95E+3	1.06E-1	7.76E+2
5.32E-1	4.01E+3	1.14E-1	7.50E+2
5.31E-1	4.10E+3	1.08E-1	7.13E+2
5.22E-1	3.98E+3	1.09E-1	7.64E+2
5.15E-1	4.06E+3	1.08E-1	7.28E+2
5.09E-1	4.01E+3	1.11E-1	7.34E+2
5.05E-1	3.96E+3	1.16E-1	7.76E+2
5.11E-1	4.09E+3	1.13E-1	7.66E+2
5.18E-1	3.85E+3	1.08E-1	6.79E+2
5.10E-1	3.92E+3	1.03E-1	6.86E+2
5.32E-1	3.90E+3	1.20E-1	7.96E+2
5.20E-1	4.09E+3	9.86E-2	7.52E+2
5.28E-1	3.99E+3	1.09E-1	7.82E+2
5.06E-1	3.97E+3	1.05E-1	7.64E+2
5.31E-1	3.98E+3	1.06E-1	7.08E+2
4.93E-1	3.92E+3	1.03E-1	6.57E+2
5.13E-1	3.96E+3	1.09E-1	7.54E+2
5.31E-1	3.96E+3	1.04E-1	7.39E+2
5.23E-1	3.84E+3	1.18E-1	7.92E+2
5.04E-1	3.99E+3	1.22E-1	7.88E+2
5.30E-1	4.09E+3	1.07E-1	7.12E+2
5.06E-1	3.98E+3	1.12E-1	7.83E+2
5.10E-1	4.01E+3	1.03E-1	7.22E+2
4.95E-1	3.86E+3	1.06E-1	7.88E+2
5.17E-1	4.00E+3	1.06E-1	7.83E+2
4.95E-1	3.91E+3	1.06E-1	7.93E+2
5.17E-1	3.95E+3	1.08E-1	7.53E+2
5.10E-1	4.06E+3	1.16E-1	8.47E+2
5.00E-1	3.90E+3	1.11E-1	7.88E+2
5.37E-1	4.08E+3	1.15E-1	7.88E+2
5.28E-1	3.96E+3	1.05E-1	7.36E+2
5.04E-1	3.92E+3	1.06E-1	6.91E+2
5.25E-1	3.99E+3	1.14E-1	7.15E+2
5.06E-1	3.96E+3	1.08E-1	7.44E+2
5.10E-1	3.93E+3	1.11E-1	7.99E+2
5.24E-1	4.02E+3	1.35E-1	8.08E+2
5.55E-1	4.15E+3	1.17E-1	7.44E+2
5.24E-1	4.13E+3	1.11E-1	7.92E+2
4.99E-1	3.92E+3	1.02E-1	7.13E+2
5.06E-1	3.97E+3	1.05E-1	7.91E+2
5.12E-1	3.97E+3	1.23E-1	8.74E+2
5.29E-1	3.96E+3	1.14E-1	8.10E+2
5.13E-1	4.06E+3	1.06E-1	6.87E+2
4.92E-1	3.84E+3	1.15E-1	7.21E+2
5.29E-1	4.01E+3	1.03E-1	7.29E+2
5.03E-1	3.85E+3	1.21E-1	7.68E+2
5.14E-1	3.94E+3	1.14E-1	7.70E+2
5.16E-1	3.87E+3	1.15E-1	7.69E+2
5.42E-1	3.96E+3	1.11E-1	7.60E+2
5.15E-1	3.99E+3	9.47E-2	6.75E+2
5.28E-1	4.00E+3	1.03E-1	6.33E+2
5.03E-1	3.98E+3	1.06E-1	7.36E+2
5.31E-1	3.99E+3	1.08E-1	7.80E+2
5.03E-1	3.90E+3	1.00E-1	6.99E+2
5.21E-1	3.88E+3	1.07E-1	7.21E+2
5.15E-1	3.92E+3	1.11E-1	7.10E+2
4.96E-1	3.93E+3	1.05E-1	7.41E+2
5.15E-1	3.99E+3	1.04E-1	7.45E+2
4.99E-1	3.84E+3	1.10E-1	7.96E+2
5.24E-1	4.07E+3	1.08E-1	7.96E+2
5.21E-1	3.95E+3	1.05E-1	7.26E+2
5.12E-1	4.09E+3	1.09E-1	7.06E+2
5.01E-1	3.96E+3	1.10E-1	7.89E+2
5.35E-1	4.08E+3	1.15E-1	7.47E+2
5.17E-1	3.91E+3	1.04E-1	7.62E+2
5.10E-1	4.01E+3	1.24E-1	8.18E+2
5.25E-1	4.15E+3	1.16E-1	7.57E+2
5.06E-1	3.96E+3	1.05E-1	7.29E+2
5.08E-1	3.98E+3	1.10E-1	8.14E+2
5.33E-1	4.10E+3	1.10E-1	7.94E+2
5.37E-1	4.12E+3	1.14E-1	7.95E+2
5.21E-1	3.97E+3	1.09E-1	7.36E+2
5.21E-1	4.01E+3	1.15E-1	7.56E+2
5.20E-1	3.96E+3	1.06E-1	7.10E+2
5.11E-1	3.93E+3	1.15E-1	8.21E+2
5.25E-1	4.14E+3	1.09E-1	7.11E+2
4.96E-1	3.92E+3	1.13E-1	7.87E+2
5.27E-1	4.01E+3	1.01E-1	6.95E+2
5.31E-1	4.19E+3	1.01E-1	7.42E+2
5.25E-1	3.96E+3	1.09E-1	7.34E+2
5.14E-1	4.04E+3	1.18E-1	8.51E+2
5.05E-1	4.02E+3	1.07E-1	8.20E+2
5.04E-1	4.00E+3	1.15E-1	8.46E+2
5.08E-1	3.96E+3	1.11E-1	7.99E+2
5.26E-1	4.07E+3	1.06E-1	7.63E+2
5.01E-1	3.96E+3	1.06E-1	7.47E+2
5.14E-1	3.98E+3	1.05E-1	7.77E+2
5.16E-1	3.99E+3	1.07E-1	7.41E+2
5.34E-1	3.94E+3	1.09E-1	7.72E+2
5.00E-1	3.96E+3	1.18E-1	8.05E+2
4.86E-1	3.87E+3	1.15E-1	7.52E+2
5.35E-1	3.96E+3	1.06E-1	7.14E+2
5.20E-1	4.00E+3	1.08E-1	7.80E+2
5.24E-1	4.13E+3	1.04E-1	7.96E+2
5.26E-1	4.15E+3	9.96E-2	7.63E+2
5.00E-1	3.94E+3	1.12E-1	7.86E+2
5.18E-1	3.99E+3	1.10E-1	7.69E+2
5.06E-1	3.96E+3	1.04E-1	7.47E+2
5.10E-1	4.00E+3	1.07E-1	7.40E+2
5.11E-1	3.97E+3	1.15E-1	7.76E+2
5.11E-1	3.98E+3	1.09E-1	7.98E+2
5.16E-1	3.92E+3	1.14E-1	7.76E+2
5.06E-1	4.00E+3	1.04E-1	8.02E+2
5.35E-1	4.08E+3	1.09E-1	7.87E+2
5.30E-1	3.93E+3	1.03E-1	6.85E+2
5.32E-1	4.08E+3	1.02E-1	7.15E+2
5.23E-1	4.07E+3	1.11E-1	8.15E+2
5.44E-1	4.10E+3	1.05E-1	6.84E+2
5.19E-1	3.95E+3	1.17E-1	8.14E+2
5.25E-1	4.01E+3	1.10E-1	7.80E+2
5.10E-1	3.92E+3	1.15E-1	8.02E+2
5.20E-1	3.86E+3	1.11E-1	7.80E+2
5.30E-1	4.01E+3	1.06E-1	7.95E+2
5.09E-1	3.98E+3	1.12E-1	7.50E+2
5.34E-1	4.03E+3	1.11E-1	7.57E+2
5.15E-1	4.03E+3	1.00E-1	7.25E+2
5.06E-1	3.99E+3	1.05E-1	7.87E+2
5.45E-1	4.07E+3	1.08E-1	7.11E+2
5.21E-1	3.91E+3	1.15E-1	7.42E+2
5.20E-1	3.95E+3	1.10E-1	7.33E+2
5.24E-1	4.10E+3	1.16E-1	7.94E+2
5.17E-1	3.94E+3	1.10E-1	7.35E+2
5.28E-1	4.05E+3	1.08E-1	7.64E+2
5.14E-1	4.07E+3	1.03E-1	7.31E+2
5.09E-1	4.03E+3	9.86E-2	6.89E+2
4.98E-1	3.88E+3	1.12E-1	7.61E+2
5.09E-1	3.96E+3	1.10E-1	7.65E+2
5.07E-1	4.03E+3	1.03E-1	7.65E+2
5.34E-1	3.95E+3	1.14E-1	8.09E+2
4.92E-1	3.80E+3	1.13E-1	7.19E+2
5.39E-1	3.97E+3	1.15E-1	8.02E+2
5.10E-1	3.99E+3	1.06E-1	7.79E+2
5.18E-1	4.15E+3	1.11E-1	7.30E+2
5.13E-1	3.89E+3	1.11E-1	7.58E+2
5.20E-1	4.00E+3	1.05E-1	6.96E+2
5.28E-1	4.02E+3	1.16E-1	7.75E+2
5.13E-1	4.00E+3	1.14E-1	8.42E+2
5.00E-1	4.01E+3	1.13E-1	7.56E+2
5.11E-1	3.92E+3	1.04E-1	7.22E+2
5.29E-1	4.00E+3	1.01E-1	7.45E+2
5.03E-1	4.04E+3	1.04E-1	7.75E+2
5.22E-1	4.11E+3	1.13E-1	8.28E+2
5.00E-1	3.89E+3	1.06E-1	7.89E+2
5.08E-1	3.94E+3	1.12E-1	7.43E+2
5.05E-1	3.95E+3	1.07E-1	7.50E+2
5.42E-1	4.07E+3	1.07E-1	7.63E+2
5.23E-1	3.94E+3	1.09E-1	7.73E+2
5.14E-1	4.05E+3	1.03E-1	7.22E+2
5.49E-1	3.99E+3	1.12E-1	7.55E+2
5.05E-1	3.91E+3	1.07E-1	7.29E+2
5.11E-1	4.06E+3	1.15E-1	8.44E+2
5.29E-1	3.95E+3	1.15E-1	7.52E+2
5.14E-1	4.05E+3	1.14E-1	7.48E+2
5.06E-1	3.90E+3	1.09E-1	6.91E+2
5.11E-1	4.10E+3	1.09E-1	7.49E+2
5.16E-1	4.04E+3	1.13E-1	8.12E+2
5.09E-1	3.93E+3	1.10E-1	7.83E+2
5.04E-1	3.97E+3	1.11E-1	7.75E+2
5.06E-1	4.02E+3	1.23E-1	8.49E+2
5.41E-1	4.09E+3	1.11E-1	7.52E+2
5.23E-1	4.04E+3	9.99E-2	6.97E+2
5.31E-1	3.93E+3	1.09E-1	7.50E+2
5.12E-1	3.89E+3	1.08E-1	7.66E+2
5.28E-1	4.11E+3	1.12E-1	7.29E+2
5.21E-1	4.16E+3	1.05E-1	6.83E+2
5.21E-1	4.09E+3	1.24E-1	8.26E+2
5.10E-1	3.99E+3	1.05E-1	7.83E+2
5.12E-1	4.04E+3	1.09E-1	6.95E+2
5.17E-1	4.05E+3	1.12E-1	8.03E+2
5.07E-1	4.05E+3	1.05E-1	7.59E+2
4.96E-1	3.97E+3	1.10E-1	8.19E+2
5.13E-1	3.99E+3	1.15E-1	8.48E+2
5.48E-1	4.02E+3	1.06E-1	7.41E+2
5.29E-1	4.08E+3	1.03E-1	7.70E+2
5.18E-1	4.09E+3	1.07E-1	7.76E+2
5.08E-1	3.91E+3	1.12E-1	7.55E+2
5.15E-1	4.15E+3	1.16E-1	8.06E+2
5.35E-1	4.09E+3	1.08E-1	7.75E+2
5.08E-1	3.87E+3	1.09E-1	7.44E+2
5.10E-1	4.01E+3	1.22E-1	7.96E+2
5.09E-1	4.05E+3	1.11E-1	7.75E+2
5.48E-1	4.07E+3	1.09E-1	7.30E+2
5.23E-1	4.15E+3	1.09E-1	7.54E+2
5.04E-1	3.99E+3	9.89E-2	7.48E+2
5.11E-1	4.03E+3	1.09E-1	7.14E+2
5.20E-1	3.87E+3	1.15E-1	8.03E+2
5.36E-1	3.96E+3	1.12E-1	7.87E+2
4.99E-1	3.86E+3	1.05E-1	7.76E+2
5.31E-1	4.07E+3	1.09E-1	7.15E+2
5.15E-1	3.91E+3	1.15E-1	7.35E+2
4.97E-1	3.90E+3	1.11E-1	7.39E+2
5.26E-1	4.02E+3	1.05E-1	7.56E+2
5.29E-1	3.97E+3	1.05E-1	7.19E+2
5.20E-1	4.09E+3	1.14E-1	7.82E+2
5.38E-1	3.97E+3	1.07E-1	7.44E+2
5.12E-1	4.06E+3	1.12E-1	7.36E+2
5.07E-1	3.92E+3	1.23E-1	8.56E+2
5.20E-1	4.08E+3	1.17E-1	7.69E+2
5.12E-1	4.04E+3	1.14E-1	7.88E+2
5.21E-1	4.10E+3	9.81E-2	7.47E+2
5.07E-1	4.00E+3	1.24E-1	9.51E+2
5.25E-1	4.00E+3	1.02E-1	7.11E+2
5.29E-1	4.03E+3	1.04E-1	7.29E+2
5.05E-1	3.99E+3	1.11E-1	7.42E+2
5.31E-1	3.98E+3	1.09E-1	7.58E+2
5.50E-1	4.00E+3	1.13E-1	7.62E+2
5.05E-1	4.08E+3	1.06E-1	7.20E+2
5.10E-1	3.98E+3	1.10E-1	7.87E+2
5.13E-1	4.14E+3	1.14E-1	7.88E+2
5.15E-1	4.03E+3	1.01E-1	7.19E+2
5.28E-1	4.06E+3	1.12E-1	7.88E+2
5.00E-1	3.93E+3	1.12E-1	7.83E+2
5.16E-1	4.04E+3	1.16E-1	8.25E+2
5.13E-1	3.94E+3	1.17E-1	8.23E+2
5.26E-1	3.96E+3	1.08E-1	7.89E+2
5.30E-1	3.92E+3	1.03E-1	7.32E+2
5.18E-1	3.99E+3	1.06E-1	7.10E+2
4.98E-1	3.97E+3	1.05E-1	7.82E+2
5.16E-1	3.84E+3	1.01E-1	6.95E+2
5.28E-1	3.93E+3	1.03E-1	6.94E+2
5.27E-1	4.07E+3	1.13E-1	7.59E+2
5.21E-1	3.99E+3	1.04E-1	6.75E+2
5.11E-1	3.92E+3	1.08E-1	7.16E+2
5.20E-1	3.94E+3	1.18E-1	7.70E+2
5.04E-1	3.97E+3	1.20E-1	7.75E+2
5.28E-1	4.06E+3	1.03E-1	7.52E+2
5.21E-1	4.15E+3	1.05E-1	7.24E+2
5.05E-1	3.93E+3	1.12E-1	7.64E+2
5.03E-1	4.03E+3	1.06E-1	7.76E+2
5.14E-1	4.01E+3	9.81E-2	7.28E+2
5.14E-1	4.03E+3	1.10E-1	8.01E+2
5.21E-1	4.04E+3	1.04E-1	7.67E+2
5.47E-1	4.08E+3	1.15E-1	8.39E+2
5.38E-1	4.09E+3	1.05E-1	7.43E+2
5.41E-1	4.00E+3	1.22E-1	7.94E+2
5.31E-1	3.98E+3	1.04E-1	7.38E+2
5.21E-1	4.03E+3	1.16E-1	7.98E+2
5.17E-1	4.13E+3	1.15E-1	7.94E+2
5.09E-1	4.01E+3	9.99E-2	6.89E+2
5.08E-1	4.03E+3	1.07E-1	7.50E+2
5.10E-1	3.92E+3	1.11E-1	7.12E+2
5.12E-1	4.04E+3	1.06E-1	7.73E+2
5.21E-1	4.01E+3	1.14E-1	7.30E+2
5.12E-1	4.05E+3	1.15E-1	8.51E+2
5.31E-1	3.94E+3	1.04E-1	7.10E+2
5.34E-1	4.03E+3	9.69E-2	7.05E+2
5.45E-1	4.08E+3	1.13E-1	8.05E+2
5.41E-1	4.03E+3	1.22E-1	7.53E+2
5.28E-1	3.97E+3	1.04E-1	6.56E+2
5.38E-1	4.08E+3	1.08E-1	7.09E+2
5.09E-1	4.03E+3	9.96E-2	7.38E+2
5.04E-1	3.90E+3	1.11E-1	7.99E+2
5.17E-1	3.94E+3	1.12E-1	7.16E+2
5.24E-1	3.97E+3	1.19E-1	7.37E+2
5.42E-1	4.10E+3	1.19E-1	7.37E+2
5.03E-1	3.95E+3	1.05E-1	6.99E+2
5.34E-1	4.00E+3	1.19E-1	8.24E+2
5.11E-1	4.04E+3	1.05E-1	7.51E+2
5.46E-1	3.96E+3	1.05E-1	7.57E+2
5.10E-1	3.97E+3	1.09E-1	7.42E+2
5.25E-1	4.07E+3	1.04E-1	7.35E+2
5.09E-1	4.04E+3	1.01E-1	7.17E+2
5.33E-1	4.15E+3	1.15E-1	7.81E+2
5.05E-1	3.95E+3	1.03E-1	7.28E+2
5.22E-1	3.98E+3	1.15E-1	8.02E+2
5.34E-1	4.22E+3	1.08E-1	7.99E+2
5.39E-1	4.06E+3	1.01E-1	7.05E+2
5.32E-1	4.09E+3	1.08E-1	7.49E+2
5.24E-1	4.19E+3	1.01E-1	7.50E+2
5.33E-1	4.01E+3	1.13E-1	7.60E+2
5.10E-1	4.12E+3	1.07E-1	7.76E+2
4.90E-1	3.87E+3	1.09E-1	8.18E+2
5.13E-1	4.12E+3	1.08E-1	7.70E+2
5.06E-1	3.97E+3	1.10E-1	7.94E+2
5.03E-1	3.98E+3	1.02E-1	7.08E+2
5.07E-1	3.98E+3	1.10E-1	7.43E+2
5.13E-1	4.03E+3	1.12E-1	7.47E+2
5.36E-1	4.02E+3	1.04E-1	7.09E+2
5.21E-1	3.99E+3	1.06E-1	6.83E+2
5.24E-1	4.01E+3	1.06E-1	7.25E+2
5.40E-1	4.02E+3	1.09E-1	7.57E+2
5.06E-1	4.04E+3	1.17E-1	7.63E+2
5.32E-1	4.03E+3	1.12E-1	7.17E+2
4.95E-1	3.90E+3	1.05E-1	7.50E+2
5.07E-1	3.98E+3	1.27E-1	8.86E+2
5.23E-1	3.97E+3	1.04E-1	7.41E+2
5.12E-1	4.06E+3	1.08E-1	7.72E+2
5.27E-1	4.07E+3	1.07E-1	7.51E+2
5.17E-1	3.95E+3	1.08E-1	7.60E+2
5.34E-1	4.10E+3	1.10E-1	7.79E+2
5.16E-1	3.99E+3	9.47E-2	7.15E+2
5.21E-1	3.94E+3	1.02E-1	7.28E+2
5.19E-1	4.15E+3	1.04E-1	7.42E+2
5.23E-1	3.95E+3	9.94E-2	6.96E+2
5.00E-1	3.98E+3	1.08E-1	7.22E+2
5.20E-1	3.96E+3	1.00E-1	7.65E+2
5.19E-1	3.98E+3	1.11E-1	7.52E+2
4.94E-1	3.87E+3	1.06E-1	7.67E+2
5.15E-1	4.00E+3	1.08E-1	7.79E+2
5.04E-1	3.94E+3	1.01E-1	7.08E+2
5.07E-1	3.97E+3	1.05E-1	7.17E+2
5.29E-1	3.98E+3	1.12E-1	7.46E+2
5.43E-1	4.03E+3	1.11E-1	7.61E+2
5.19E-1	3.92E+3	1.10E-1	7.81E+2
6.10E-3	9.77E-1	2.90E-1	1.99E+3
5.50E-1	4.11E+3	1.08E-1	7.49E+2
5.22E-1	3.95E+3	1.14E-1	7.57E+2
5.05E-1	3.81E+3	1.09E-1	7.05E+2
5.10E-1	4.05E+3	1.14E-1	7.40E+2
5.22E-1	4.05E+3	1.12E-1	7.17E+2
5.23E-1	4.00E+3	1.12E-1	7.35E+2
5.07E-1	3.84E+3	1.11E-1	7.57E+2
5.25E-1	3.97E+3	1.13E-1	8.05E+2
5.23E-1	4.09E+3	1.14E-1	7.54E+2
5.36E-1	4.02E+3	1.03E-1	7.53E+2
5.32E-1	3.92E+3	1.07E-1	7.40E+2
5.08E-1	3.94E+3	9.99E-2	7.14E+2
5.32E-1	3.96E+3	1.11E-1	7.54E+2
5.00E-1	3.96E+3	1.05E-1	7.36E+2
5.08E-1	3.85E+3	1.13E-1	7.82E+2
5.28E-1	4.12E+3	1.04E-1	7.06E+2
5.01E-1	3.95E+3	1.03E-1	6.99E+2
5.20E-1	3.92E+3	9.99E-2	7.18E+2
5.33E-1	3.98E+3	1.01E-1	7.39E+2
5.05E-1	3.97E+3	1.09E-1	7.79E+2
5.10E-1	4.02E+3	1.09E-1	7.13E+2
5.02E-1	3.99E+3	1.09E-1	7.48E+2
5.09E-1	4.06E+3	1.06E-1	7.43E+2
5.17E-1	3.90E+3	1.11E-1	7.65E+2
5.07E-1	4.05E+3	9.81E-2	7.61E+2
5.17E-1	3.95E+3	1.09E-1	7.76E+2
5.12E-1	4.08E+3	1.16E-1	8.51E+2
5.10E-1	3.88E+3	1.00E-1	7.15E+2
5.23E-1	3.97E+3	1.07E-1	8.08E+2
5.06E-1	3.95E+3	1.02E-1	6.57E+2
5.04E-1	3.93E+3	1.01E-1	6.89E+2
5.42E-1	4.11E+3	1.09E-1	7.63E+2
5.00E-1	3.94E+3	1.16E-1	7.24E+2
5.10E-1	4.00E+3	1.05E-1	6.90E+2
5.21E-1	3.94E+3	1.19E-1	7.88E+2
5.28E-1	3.99E+3	1.15E-1	7.87E+2
5.26E-1	3.99E+3	1.14E-1	6.90E+2
5.18E-1	3.97E+3	1.05E-1	7.79E+2
5.42E-1	4.09E+3	1.12E-1	7.68E+2
5.40E-1	3.98E+3	1.06E-1	7.32E+2
5.24E-1	3.98E+3	1.01E-1	6.83E+2
5.27E-1	4.02E+3	9.69E-2	6.46E+2
5.30E-1	3.99E+3	1.17E-1	7.75E+2
5.34E-1	4.14E+3	1.15E-1	8.26E+2
5.22E-1	4.01E+3	1.08E-1	7.09E+2
5.18E-1	3.94E+3	1.19E-1	8.03E+2
5.06E-1	3.99E+3	1.18E-1	8.16E+2
5.12E-1	4.07E+3	1.17E-1	7.73E+2
5.11E-1	4.03E+3	1.01E-1	6.96E+2
5.08E-1	3.99E+3	1.14E-1	7.81E+2
5.21E-1	3.88E+3	1.13E-1	7.61E+2
5.10E-1	4.00E+3	1.04E-1	7.55E+2
5.17E-1	3.88E+3	9.94E-2	7.04E+2
5.09E-1	4.09E+3	1.10E-1	7.78E+2
5.38E-1	3.99E+3	1.15E-1	8.01E+2
5.10E-1	3.96E+3	1.05E-1	7.61E+2
5.39E-1	4.03E+3	1.05E-1	7.93E+2
5.15E-1	4.12E+3	1.10E-1	7.36E+2
5.21E-1	4.00E+3	1.09E-1	7.16E+2
5.17E-1	3.93E+3	1.04E-1	7.04E+2
5.09E-1	4.01E+3	1.08E-1	7.91E+2
5.03E-1	4.00E+3	1.10E-1	7.45E+2
5.18E-1	4.10E+3	1.11E-1	7.72E+2
5.09E-1	3.95E+3	1.15E-1	7.66E+2
5.12E-1	4.00E+3	1.07E-1	7.93E+2
7.81E-3	2.24E+1	3.03E-1	2.04E+3
5.11E-1	3.98E+3	1.04E-1	7.97E+2
5.19E-1	4.00E+3	1.09E-1	7.71E+2
5.07E-1	3.95E+3	1.02E-1	7.44E+2
5.31E-1	4.09E+3	1.15E-1	7.77E+2
5.14E-1	3.94E+3	1.15E-1	7.36E+2
5.15E-1	4.01E+3	1.03E-1	7.35E+2
5.06E-1	4.03E+3	9.94E-2	6.73E+2
5.28E-1	3.90E+3	1.09E-1	7.05E+2
5.07E-1	3.97E+3	1.12E-1	7.75E+2
5.26E-1	3.91E+3	1.11E-1	7.38E+2
5.07E-1	4.05E+3	1.04E-1	7.48E+2
5.15E-1	4.02E+3	9.94E-2	6.67E+2
5.20E-1	3.93E+3	1.06E-1	7.83E+2
4.98E-1	3.90E+3	1.07E-1	7.70E+2
5.09E-1	3.91E+3	1.13E-1	7.96E+2
5.15E-1	3.93E+3	1.11E-1	7.61E+2
5.10E-1	4.02E+3	1.06E-1	7.70E+2
4.98E-1	3.95E+3	1.14E-1	7.25E+2
5.17E-1	4.09E+3	1.12E-1	7.59E+2
5.33E-1	4.02E+3	1.06E-1	7.29E+2
5.16E-1	3.91E+3	1.11E-1	7.27E+2
5.11E-1	3.98E+3	1.11E-1	6.90E+2
5.29E-1	4.15E+3	1.00E-1	7.04E+2
5.27E-1	3.97E+3	1.16E-1	7.83E+2
5.26E-1	4.07E+3	1.01E-1	7.18E+2
5.21E-1	4.05E+3	1.08E-1	7.56E+2
5.43E-1	4.24E+3	1.08E-1	8.19E+2
5.13E-1	4.09E+3	1.15E-1	8.14E+2
5.20E-1	4.04E+3	1.18E-1	8.54E+2
5.34E-1	4.10E+3	1.05E-1	7.48E+2
5.08E-1	4.02E+3	9.72E-2	7.52E+2
5.12E-1	3.83E+3	1.21E-1	7.63E+2
5.19E-1	4.03E+3	1.06E-1	7.38E+2
5.22E-1	4.00E+3	1.10E-1	7.73E+2
5.02E-1	3.97E+3	1.18E-1	7.74E+2
5.39E-1	4.12E+3	1.17E-1	7.99E+2
5.01E-1	3.93E+3	1.14E-1	7.64E+2
5.25E-1	4.01E+3	1.07E-1	7.66E+2
4.99E-1	3.94E+3	1.18E-1	8.24E+2
5.07E-1	4.06E+3	1.09E-1	7.11E+2
5.38E-1	4.05E+3	1.10E-1	7.42E+2
5.21E-1	4.07E+3	1.12E-1	7.40E+2
5.17E-1	4.05E+3	1.11E-1	7.72E+2
5.37E-1	4.11E+3	1.01E-1	7.18E+2
4.98E-1	3.89E+3	1.08E-1	7.00E+2
5.02E-1	3.98E+3	1.13E-1	7.17E+2
5.22E-1	3.94E+3	1.11E-1	6.93E+2
5.35E-1	4.08E+3	1.07E-1	7.48E+2
5.34E-1	4.06E+3	1.11E-1	7.64E+2
5.35E-1	4.11E+3	1.05E-1	6.80E+2
5.23E-1	4.13E+3	1.15E-1	7.89E+2
5.14E-1	3.96E+3	1.09E-1	7.55E+2
5.12E-1	4.04E+3	1.06E-1	7.91E+2
5.31E-1	4.06E+3	1.22E-1	8.75E+2
5.46E-1	4.04E+3	1.16E-1	8.37E+2
5.08E-1	3.96E+3	1.13E-1	7.64E+2
5.35E-1	3.95E+3	1.13E-1	7.84E+2
4.93E-1	3.90E+3	1.06E-1	7.72E+2
5.20E-1	3.98E+3	1.17E-1	7.70E+2
5.19E-1	3.93E+3	1.08E-1	7.01E+2
5.36E-1	4.02E+3	1.10E-1	7.38E+2
9.28E-3	9.67E+0	2.91E-1	2.04E+3
5.29E-1	3.98E+3	1.12E-1	7.94E+2
5.20E-1	4.07E+3	1.05E-1	7.23E+2
5.13E-1	4.04E+3	1.09E-1	8.28E+2
5.15E-1	3.89E+3	1.21E-1	8.27E+2
5.05E-1	3.93E+3	1.07E-1	7.47E+2
5.12E-1	4.04E+3	1.15E-1	7.56E+2
4.91E-1	3.88E+3	1.01E-1	7.31E+2
5.31E-1	3.91E+3	1.03E-1	7.28E+2
5.09E-1	4.02E+3	1.04E-1	7.18E+2
5.24E-1	4.08E+3	1.15E-1	7.67E+2
5.30E-1	4.06E+3	1.11E-1	7.52E+2
5.11E-1	3.92E+3	1.06E-1	7.49E+2
5.30E-1	4.03E+3	1.07E-1	7.35E+2
5.32E-1	4.09E+3	9.94E-2	6.82E+2
4.97E-1	3.96E+3	1.04E-1	7.40E+2
5.12E-1	3.96E+3	1.10E-1	7.70E+2
5.18E-1	4.13E+3	1.16E-1	7.46E+2
5.07E-1	4.00E+3	1.01E-1	7.66E+2
5.27E-1	3.99E+3	1.12E-1	7.69E+2
5.07E-1	3.98E+3	1.06E-1	7.47E+2
4.95E-1	3.86E+3	1.05E-1	7.23E+2
5.28E-1	3.93E+3	1.02E-1	7.27E+2
5.25E-1	4.02E+3	1.14E-1	7.96E+2
5.22E-1	4.01E+3	1.04E-1	7.46E+2
5.05E-1	3.98E+3	1.07E-1	7.47E+2
4.88E-1	3.90E+3	1.13E-1	7.32E+2
5.19E-1	4.02E+3	1.09E-1	7.21E+2
5.30E-1	3.94E+3	1.18E-1	8.24E+2
5.26E-1	4.07E+3	1.16E-1	8.02E+2
5.43E-1	4.04E+3	1.19E-1	8.07E+2
5.22E-1	3.95E+3	1.10E-1	7.97E+2
4.90E-1	3.83E+3	1.20E-1	8.80E+2
5.28E-1	4.09E+3	1.07E-1	7.84E+2
5.32E-1	3.98E+3	1.04E-1	7.74E+2
5.07E-1	3.97E+3	1.13E-1	8.34E+2
5.20E-1	3.94E+3	1.11E-1	7.69E+2
5.13E-1	3.95E+3	1.08E-1	7.13E+2
5.27E-1	4.04E+3	1.02E-1	6.95E+2
5.40E-1	3.94E+3	1.14E-1	7.68E+2
5.00E-1	3.92E+3	1.02E-1	6.95E+2
5.21E-1	4.01E+3	1.13E-1	7.67E+2
5.05E-1	4.00E+3	1.14E-1	7.69E+2
5.18E-1	4.16E+3	1.21E-1	8.00E+2
5.30E-1	3.95E+3	1.04E-1	6.92E+2
5.08E-1	4.05E+3	1.13E-1	7.40E+2
5.21E-1	4.15E+3	1.09E-1	7.58E+2
5.13E-1	4.04E+3	1.10E-1	7.86E+2
5.17E-1	3.98E+3	1.03E-1	7.54E+2
5.21E-1	4.07E+3	1.10E-1	7.48E+2
5.10E-1	4.00E+3	1.11E-1	7.05E+2
5.17E-1	3.88E+3	1.07E-1	7.08E+2
5.40E-1	4.04E+3	1.19E-1	7.75E+2
5.14E-1	3.99E+3	1.09E-1	7.79E+2
5.36E-1	4.09E+3	1.10E-1	7.63E+2
5.32E-1	4.03E+3	1.09E-1	7.72E+2
5.11E-1	4.01E+3	1.02E-1	7.03E+2
4.88E-1	3.81E+3	1.11E-1	8.11E+2
5.26E-1	3.99E+3	1.18E-1	7.91E+2
5.14E-1	4.03E+3	1.07E-1	8.13E+2
5.18E-1	4.02E+3	1.16E-1	7.84E+2
5.34E-1	3.96E+3	1.06E-1	7.64E+2
5.08E-1	4.04E+3	1.05E-1	7.21E+2
5.03E-1	3.96E+3	1.05E-1	7.62E+2
5.14E-1	3.89E+3	1.15E-1	7.57E+2
5.39E-1	4.13E+3	1.14E-1	7.90E+2
5.26E-1	4.03E+3	1.16E-1	7.88E+2
5.17E-1	3.91E+3	1.04E-1	7.46E+2
5.07E-1	3.92E+3	1.20E-1	8.16E+2
5.23E-1	4.09E+3	1.07E-1	7.79E+2
5.08E-1	3.96E+3	1.07E-1	7.24E+2
4.99E-1	3.94E+3	1.06E-1	8.19E+2
5.17E-1	4.13E+3	1.08E-1	7.84E+2
6.35E-3	9.42E+0	2.89E-1	2.00E+3
4.97E-1	3.90E+3	1.04E-1	7.75E+2
5.38E-1	4.07E+3	1.10E-1	7.74E+2
5.20E-1	3.96E+3	1.15E-1	7.92E+2
5.31E-1	4.04E+3	1.09E-1	7.54E+2
5.12E-1	4.04E+3	1.02E-1	7.16E+2
5.11E-1	4.14E+3	1.09E-1	7.82E+2
5.13E-1	4.08E+3	1.15E-1	7.61E+2
5.08E-1	3.89E+3	1.11E-1	7.47E+2
5.28E-1	3.93E+3	1.08E-1	7.48E+2
5.18E-1	4.00E+3	1.14E-1	7.48E+2
5.35E-1	4.03E+3	1.08E-1	7.77E+2
5.10E-1	3.96E+3	1.03E-1	7.30E+2
5.12E-1	4.01E+3	1.09E-1	8.38E+2
5.26E-1	3.96E+3	1.06E-1	7.19E+2
5.07E-1	3.89E+3	1.12E-1	7.51E+2
5.28E-1	3.93E+3	9.91E-2	7.06E+2
5.15E-1	3.95E+3	1.08E-1	6.83E+2
5.27E-1	4.21E+3	1.09E-1	7.08E+2
5.10E-1	3.91E+3	1.15E-1	7.67E+2
5.30E-1	3.96E+3	1.15E-1	7.57E+2
5.31E-1	3.98E+3	1.15E-1	7.17E+2
5.05E-1	3.90E+3	9.89E-2	6.92E+2
4.95E-1	3.93E+3	1.06E-1	7.68E+2
4.89E-1	3.81E+3	1.08E-1	7.65E+2
5.19E-1	4.07E+3	1.09E-1	7.58E+2
5.08E-1	3.91E+3	1.05E-1	7.72E+2
5.35E-1	4.05E+3	1.06E-1	7.70E+2
5.08E-1	3.99E+3	1.06E-1	7.93E+2
5.23E-1	4.09E+3	1.10E-1	7.62E+2
5.29E-1	3.93E+3	1.05E-1	7.45E+2
5.30E-1	3.96E+3	1.15E-1	7.86E+2
5.06E-1	3.87E+3	1.07E-1	7.56E+2
5.18E-1	4.00E+3	1.11E-1	7.27E+2
5.06E-1	4.00E+3	1.12E-1	7.91E+2
5.12E-1	4.05E+3	1.17E-1	8.01E+2
5.09E-1	3.90E+3	1.09E-1	7.81E+2
5.13E-1	4.05E+3	1.12E-1	7.71E+2
4.98E-1	3.90E+3	1.21E-1	7.85E+2
4.99E-1	3.92E+3	1.07E-1	7.46E+2
5.14E-1	4.04E+3	1.19E-1	7.73E+2
5.23E-1	4.08E+3	1.06E-1	7.85E+2
5.08E-1	4.00E+3	1.03E-1	7.29E+2
5.30E-1	3.99E+3	1.14E-1	7.21E+2
5.10E-1	3.98E+3	9.50E-2	6.60E+2
5.34E-1	4.00E+3	1.21E-1	8.82E+2
5.15E-1	3.97E+3	1.12E-1	8.18E+2
5.47E-1	4.17E+3	1.05E-1	7.36E+2
5.08E-1	3.98E+3	1.10E-1	7.64E+2
5.46E-1	4.06E+3	1.17E-1	7.58E+2
4.99E-1	3.98E+3	1.14E-1	7.95E+2
5.28E-1	4.11E+3	1.10E-1	7.27E+2
5.07E-1	3.99E+3	1.05E-1	8.14E+2
5.29E-1	4.03E+3	1.02E-1	7.59E+2
5.39E-1	4.02E+3	1.07E-1	7.26E+2
5.13E-1	4.00E+3	1.01E-1	7.27E+2
5.04E-1	3.95E+3	1.07E-1	7.95E+2
4.98E-1	3.88E+3	1.04E-1	7.54E+2
5.04E-1	3.98E+3	1.11E-1	8.17E+2
4.96E-1	3.94E+3	1.13E-1	7.38E+2
5.18E-1	4.08E+3	1.09E-1	7.41E+2
5.38E-1	3.99E+3	1.21E-1	8.01E+2
5.26E-1	4.07E+3	1.15E-1	7.61E+2
5.36E-1	3.95E+3	1.14E-1	7.69E+2
5.10E-1	4.01E+3	1.08E-1	7.57E+2
5.13E-1	4.15E+3	1.21E-1	8.22E+2
5.25E-1	3.85E+3	1.06E-1	7.53E+2
5.07E-1	4.08E+3	1.18E-1	8.05E+2
5.10E-1	4.11E+3	1.03E-1	7.65E+2
5.11E-1	3.96E+3	1.06E-1	7.55E+2
5.05E-1	3.99E+3	1.05E-1	7.19E+2
4.98E-1	3.90E+3	9.81E-2	7.18E+2
5.05E-1	4.03E+3	9.94E-2	7.01E+2
5.30E-1	3.99E+3	1.13E-1	7.15E+2
5.29E-1	4.00E+3	1.19E-1	7.92E+2
5.31E-1	3.96E+3	1.04E-1	6.92E+2
5.12E-1	3.98E+3	1.10E-1	7.38E+2
5.12E-1	3.90E+3	1.11E-1	7.60E+2
4.91E-1	3.94E+3	1.14E-1	7.57E+2
5.14E-1	3.98E+3	1.10E-1	7.81E+2
5.31E-1	3.97E+3	1.06E-1	7.45E+2
5.17E-1	4.05E+3	1.08E-1	7.97E+2
5.36E-1	4.01E+3	1.14E-1	7.93E+2
5.10E-1	3.88E+3	1.20E-1	7.90E+2
5.13E-1	4.04E+3	9.89E-2	6.96E+2
5.21E-1	4.02E+3	1.07E-1	7.38E+2
5.19E-1	3.98E+3	1.15E-1	8.13E+2
5.17E-1	3.90E+3	1.10E-1	7.31E+2
5.40E-1	4.12E+3	1.07E-1	7.35E+2
5.29E-1	4.09E+3	1.11E-1	7.81E+2
5.16E-1	4.06E+3	1.01E-1	6.79E+2
5.55E-1	4.00E+3	1.18E-1	7.73E+2
5.07E-1	4.02E+3	1.07E-1	6.86E+2
5.26E-1	3.95E+3	1.07E-1	7.75E+2
5.20E-1	3.92E+3	1.08E-1	7.40E+2
5.29E-1	4.19E+3	1.12E-1	8.26E+2
5.20E-1	4.10E+3	1.08E-1	7.77E+2
5.10E-1	4.02E+3	1.05E-1	7.54E+2
5.28E-1	4.02E+3	1.22E-1	8.40E+2
5.40E-1	4.07E+3	1.09E-1	7.70E+2
5.09E-1	4.06E+3	1.20E-1	7.88E+2
5.19E-1	3.95E+3	1.01E-1	6.98E+2
5.21E-1	4.05E+3	9.89E-2	7.06E+2
5.15E-1	4.00E+3	1.14E-1	7.78E+2
5.19E-1	3.91E+3	1.12E-1	7.58E+2
5.21E-1	3.95E+3	1.18E-1	7.59E+2
5.23E-1	3.98E+3	1.12E-1	7.82E+2
5.03E-1	3.93E+3	1.14E-1	7.59E+2
5.04E-1	3.96E+3	9.94E-2	7.36E+2
5.55E-1	4.11E+3	1.12E-1	7.77E+2
5.37E-1	4.06E+3	1.10E-1	7.74E+2
5.32E-1	3.93E+3	1.12E-1	7.53E+2
5.13E-1	3.91E+3	1.10E-1	7.01E+2
5.31E-1	4.04E+3	1.12E-1	8.34E+2
4.97E-1	3.95E+3	1.06E-1	7.63E+2
5.18E-1	3.96E+3	1.02E-1	7.32E+2
5.19E-1	3.97E+3	1.03E-1	7.73E+2
5.01E-1	3.95E+3	1.06E-1	6.84E+2
5.28E-1	4.02E+3	1.15E-1	7.64E+2
5.23E-1	4.00E+3	1.12E-1	7.64E+2
5.16E-1	4.02E+3	1.10E-1	8.02E+2
5.05E-1	4.07E+3	1.05E-1	7.86E+2
5.23E-1	4.04E+3	1.06E-1	7.53E+2
5.01E-1	3.84E+3	1.03E-1	7.44E+2
5.17E-1	3.96E+3	1.02E-1	7.31E+2
5.11E-1	4.04E+3	1.11E-1	8.19E+2
5.17E-1	4.04E+3	9.99E-2	7.26E+2
5.10E-1	4.03E+3	1.16E-1	8.21E+2
5.39E-1	4.01E+3	1.07E-1	7.72E+2
5.17E-1	3.85E+3	1.13E-1	7.62E+2
5.05E-1	3.98E+3	1.13E-1	7.37E+2
5.06E-1	3.99E+3	1.07E-1	7.48E+2
5.09E-1	4.08E+3	1.06E-1	7.21E+2
5.01E-1	3.82E+3	1.05E-1	7.01E+2
5.15E-1	3.88E+3	1.17E-1	8.13E+2
5.38E-1	4.01E+3	1.07E-1	7.15E+2
5.16E-1	3.95E+3	1.05E-1	7.21E+2
5.18E-1	4.06E+3	1.00E-1	7.56E+2
5.06E-1	4.01E+3	1.07E-1	7.67E+2
5.10E-1	3.96E+3	1.11E-1	7.80E+2
5.09E-1	3.87E+3	1.05E-1	6.96E+2
5.06E-1	3.95E+3	1.04E-1	7.73E+2
5.21E-1	3.98E+3	1.05E-1	6.89E+2
5.01E-1	3.84E+3	1.09E-1	7.77E+2
5.03E-1	3.85E+3	1.22E-1	8.30E+2
5.35E-1	4.02E+3	1.09E-1	7.53E+2
5.14E-1	4.01E+3	1.11E-1	7.40E+2
5.19E-1	3.91E+3	1.06E-1	7.12E+2
5.32E-1	4.05E+3	1.01E-1	7.36E+2
5.24E-1	4.00E+3	1.05E-1	7.71E+2
5.28E-1	4.01E+3	1.16E-1	8.10E+2
5.17E-1	4.03E+3	1.12E-1	7.73E+2
5.09E-1	3.99E+3	1.15E-1	7.86E+2
5.25E-1	3.88E+3	1.05E-1	7.19E+2
5.23E-1	4.11E+3	1.12E-1	7.92E+2
5.19E-1	4.00E+3	1.13E-1	7.59E+2
5.34E-1	4.03E+3	1.01E-1	6.85E+2
4.96E-1	3.92E+3	1.12E-1	7.55E+2
5.30E-1	4.00E+3	1.04E-1	7.14E+2
5.20E-1	3.96E+3	1.06E-1	7.91E+2
5.05E-1	3.92E+3	1.13E-1	7.62E+2
5.09E-1	3.99E+3	1.05E-1	7.06E+2
5.01E-1	3.97E+3	1.26E-1	8.39E+2
5.05E-1	3.94E+3	1.19E-1	8.15E+2
5.37E-1	4.10E+3	1.12E-1	7.65E+2
5.09E-1	4.00E+3	1.07E-1	7.71E+2
5.07E-1	3.99E+3	1.07E-1	7.04E+2
5.13E-1	4.05E+3	1.18E-1	8.40E+2
5.17E-1	3.96E+3	1.13E-1	8.09E+2
5.26E-1	4.01E+3	1.06E-1	6.86E+2
5.07E-1	3.97E+3	1.07E-1	7.02E+2
5.15E-1	3.97E+3	1.09E-1	7.01E+2
5.32E-1	4.02E+3	1.16E-1	8.06E+2
5.20E-1	3.97E+3	1.15E-1	7.56E+2
5.30E-1	3.94E+3	1.12E-1	7.57E+2
5.23E-1	3.92E+3	1.10E-1	7.42E+2
5.08E-1	4.02E+3	1.09E-1	6.92E+2
5.09E-1	3.97E+3	1.09E-1	7.06E+2
5.14E-1	3.93E+3	1.07E-1	7.71E+2
5.24E-1	4.09E+3	1.12E-1	7.81E+2
5.24E-1	4.09E+3	1.06E-1	7.88E+2
5.32E-1	3.93E+3	1.12E-1	7.19E+2
5.26E-1	4.07E+3	9.59E-2	7.16E+2
5.31E-1	4.01E+3	1.06E-1	7.54E+2
5.52E-1	4.06E+3	1.04E-1	7.46E+2
5.33E-1	3.94E+3	1.09E-1	7.89E+2
5.20E-1	4.05E+3	1.10E-1	7.22E+2
5.23E-1	3.92E+3	1.08E-1	6.98E+2
5.37E-1	4.09E+3	1.03E-1	7.49E+2
5.34E-1	4.03E+3	1.05E-1	6.97E+2
5.12E-1	4.00E+3	1.04E-1	7.03E+2
5.24E-1	4.00E+3	1.20E-1	7.93E+2
4.97E-1	3.89E+3	1.24E-1	7.95E+2
5.10E-1	4.02E+3	1.12E-1	7.62E+2
5.22E-1	4.07E+3	1.09E-1	8.18E+2
4.99E-1	3.88E+3	1.07E-1	7.60E+2
5.28E-1	4.12E+3	1.06E-1	7.89E+2
5.18E-1	4.01E+3	1.04E-1	7.14E+2
5.35E-1	4.10E+3	1.18E-1	7.77E+2
5.05E-1	3.86E+3	1.06E-1	7.04E+2
5.30E-1	3.99E+3	1.16E-1	7.43E+2
5.22E-1	3.83E+3	1.06E-1	7.33E+2
5.19E-1	4.12E+3	1.13E-1	7.58E+2
5.36E-1	4.04E+3	1.07E-1	7.45E+2
5.29E-1	3.97E+3	1.15E-1	7.89E+2
5.11E-1	3.87E+3	1.05E-1	6.83E+2
5.07E-1	3.93E+3	1.02E-1	7.64E+2
5.33E-1	4.07E+3	1.05E-1	7.36E+2
5.00E-1	3.91E+3	1.03E-1	7.39E+2
5.07E-1	3.96E+3	9.94E-2	6.90E+2
5.04E-1	3.91E+3	1.04E-1	7.26E+2
5.11E-1	4.00E+3	1.08E-1	7.68E+2
5.23E-1	4.01E+3	1.07E-1	7.71E+2
5.39E-1	3.99E+3	1.22E-1	8.39E+2
5.33E-1	4.00E+3	1.08E-1	7.47E+2
5.26E-1	4.00E+3	1.16E-1	7.85E+2
5.28E-1	3.97E+3	1.07E-1	7.06E+2
5.27E-1	4.07E+3	1.04E-1	7.52E+2
5.21E-1	4.07E+3	1.08E-1	7.17E+2
5.05E-1	3.99E+3	1.00E-1	7.00E+2
5.14E-1	4.07E+3	1.14E-1	7.28E+2
5.01E-1	3.89E+3	1.07E-1	7.14E+2
5.20E-1	4.10E+3	9.96E-2	7.35E+2
5.05E-1	3.94E+3	1.00E-1	7.07E+2
5.15E-1	3.98E+3	1.02E-1	7.35E+2
5.16E-1	4.10E+3	1.04E-1	7.29E+2
5.18E-1	3.92E+3	1.17E-1	8.40E+2
5.35E-1	4.00E+3	1.04E-1	7.18E+2
5.08E-1	4.01E+3	1.10E-1	6.79E+2
5.38E-1	4.03E+3	1.13E-1	7.35E+2
5.11E-1	3.94E+3	1.14E-1	8.08E+2
5.52E-1	4.14E+3	1.01E-1	7.00E+2
5.12E-1	4.02E+3	1.05E-1	7.56E+2
5.40E-1	4.06E+3	9.45E-2	6.55E+2
5.14E-1	3.99E+3	1.10E-1	7.79E+2
5.35E-1	4.12E+3	1.06E-1	7.99E+2
5.04E-1	3.97E+3	1.06E-1	7.75E+2
5.34E-1	3.93E+3	1.15E-1	7.55E+2
5.29E-1	3.91E+3	1.05E-1	7.27E+2
5.15E-1	3.99E+3	1.09E-1	8.03E+2
5.09E-1	4.00E+3	1.08E-1	7.54E+2
5.06E-1	3.99E+3	1.02E-1	7.33E+2
5.24E-1	3.98E+3	1.00E-1	7.50E+2
5.21E-1	4.12E+3	1.17E-1	7.75E+2
5.23E-1	4.00E+3	1.08E-1	7.36E+2
5.28E-1	4.04E+3	1.23E-1	7.82E+2
5.15E-1	4.18E+3	1.10E-1	7.32E+2
5.09E-1	4.02E+3	1.07E-1	8.11E+2
5.10E-1	4.17E+3	1.04E-1	7.72E+2
5.45E-1	4.01E+3	1.08E-1	8.12E+2
5.20E-1	4.05E+3	1.04E-1	6.99E+2
5.01E-1	3.99E+3	1.07E-1	7.73E+2
5.06E-1	3.95E+3	1.10E-1	7.90E+2
5.20E-1	3.91E+3	1.11E-1	7.56E+2
5.12E-1	3.96E+3	1.14E-1	7.36E+2
5.08E-1	3.94E+3	1.15E-1	7.87E+2
5.12E-1	4.03E+3	1.09E-1	7.12E+2
5.27E-1	4.02E+3	1.11E-1	7.34E+2
5.06E-1	3.99E+3	1.05E-1	6.99E+2
5.15E-1	4.07E+3	1.18E-1	8.22E+2
5.19E-1	3.94E+3	1.16E-1	7.69E+2
5.33E-1	4.05E+3	9.69E-2	7.31E+2
5.13E-1	3.96E+3	1.15E-1	8.31E+2
5.15E-1	4.03E+3	1.16E-1	7.84E+2
5.13E-1	3.89E+3	9.96E-2	7.82E+2
5.52E-1	4.16E+3	1.06E-1	7.83E+2
5.09E-1	3.90E+3	1.20E-1	8.34E+2
5.09E-1	3.95E+3	9.94E-2	6.69E+2
5.31E-1	4.08E+3	1.11E-1	7.63E+2
5.21E-1	3.97E+3	1.13E-1	8.01E+2
5.05E-1	3.98E+3	1.10E-1	7.79E+2
5.30E-1	3.98E+3	1.05E-1	7.21E+2
5.40E-1	4.03E+3	1.12E-1	7.43E+2
5.05E-1	4.03E+3	1.20E-1	7.71E+2
4.95E-1	3.98E+3	1.14E-1	8.05E+2
5.19E-1	3.87E+3	1.15E-1	7.51E+2
5.05E-1	3.98E+3	1.07E-1	7.95E+2
5.22E-1	4.03E+3	1.11E-1	7.48E+2
5.10E-1	3.97E+3	1.07E-1	7.93E+2
5.00E-1	3.96E+3	1.00E-1	7.33E+2
5.13E-1	4.02E+3	1.13E-1	7.59E+2
5.18E-1	4.05E+3	9.96E-2	7.59E+2
5.13E-1	4.03E+3	9.94E-2	7.19E+2
5.11E-1	3.91E+3	1.08E-1	7.28E+2
5.22E-1	3.99E+3	1.15E-1	7.74E+2
5.32E-1	4.04E+3	1.16E-1	7.63E+2
5.22E-1	4.13E+3	1.05E-1	7.47E+2
5.04E-1	3.99E+3	1.11E-1	8.29E+2
5.01E-1	3.89E+3	1.05E-1	7.52E+2
5.04E-1	3.96E+3	1.07E-1	7.64E+2
5.08E-1	4.15E+3	1.13E-1	8.14E+2
5.32E-1	4.02E+3	1.12E-1	7.35E+2
5.16E-1	3.89E+3	1.05E-1	7.89E+2
5.11E-1	4.05E+3	1.06E-1	7.82E+2
5.18E-1	4.01E+3	1.11E-1	7.30E+2
5.21E-1	4.01E+3	1.15E-1	7.76E+2
5.22E-1	3.97E+3	1.04E-1	7.17E+2
5.17E-1	4.14E+3	1.02E-1	7.21E+2
5.33E-1	3.97E+3	1.03E-1	7.03E+2
5.53E-1	4.11E+3	1.11E-1	7.58E+2
5.17E-1	3.99E+3	1.14E-1	7.75E+2
5.30E-1	4.05E+3	1.11E-1	7.30E+2
5.00E-1	3.97E+3	1.17E-1	7.92E+2
9.03E-3	1.48E+1	2.93E-1	2.08E+3
5.33E-1	4.01E+3	1.17E-1	8.12E+2
5.35E-1	4.05E+3	1.06E-1	7.45E+2
5.13E-1	4.02E+3	1.12E-1	8.05E+2
5.02E-1	3.95E+3	1.08E-1	7.73E+2
5.17E-1	3.91E+3	1.13E-1	7.41E+2
5.08E-1	4.04E+3	1.11E-1	8.01E+2
5.50E-1	4.00E+3	1.06E-1	7.51E+2
5.06E-1	3.97E+3	1.14E-1	7.38E+2
5.01E-1	3.93E+3	1.04E-1	7.33E+2
5.28E-1	4.09E+3	1.06E-1	7.70E+2
5.19E-1	4.02E+3	1.08E-1	7.70E+2
5.30E-1	3.97E+3	1.11E-1	8.31E+2
5.09E-1	4.00E+3	1.12E-1	7.88E+2
5.16E-1	4.07E+3	1.17E-1	8.11E+2
5.18E-1	4.03E+3	1.05E-1	7.76E+2
5.27E-1	4.00E+3	1.01E-1	7.35E+2
5.24E-1	3.92E+3	1.03E-1	6.99E+2
5.19E-1	4.05E+3	1.08E-1	7.41E+2
5.05E-1	3.97E+3	1.03E-1	7.22E+2
5.18E-1	3.95E+3	1.16E-1	7.23E+2
5.16E-1	4.01E+3	1.07E-1	7.33E+2
5.33E-1	4.10E+3	1.15E-1	7.57E+2
5.30E-1	4.06E+3	1.12E-1	7.41E+2
5.42E-1	4.00E+3	1.02E-1	7.13E+2
5.14E-1	3.91E+3	9.96E-2	6.99E+2
5.30E-1	3.96E+3	1.16E-1	8.08E+2
5.08E-1	4.01E+3	1.06E-1	7.51E+2
5.05E-1	3.99E+3	1.26E-1	8.39E+2
5.20E-1	4.14E+3	1.11E-1	7.81E+2
5.04E-1	3.93E+3	1.14E-1	8.32E+2
5.02E-1	3.96E+3	1.12E-1	7.46E+2
5.20E-1	4.02E+3	1.10E-1	6.87E+2
5.16E-1	4.08E+3	9.86E-2	7.01E+2
5.14E-1	4.04E+3	1.12E-1	6.96E+2
5.06E-1	4.05E+3	1.07E-1	7.34E+2
5.22E-1	3.93E+3	1.10E-1	7.77E+2
5.11E-1	3.95E+3	1.13E-1	7.57E+2
5.19E-1	3.93E+3	1.11E-1	7.44E+2
5.35E-1	4.00E+3	1.15E-1	7.49E+2
5.26E-1	3.93E+3	1.06E-1	7.08E+2
5.16E-1	4.08E+3	1.01E-1	7.45E+2
5.03E-1	4.00E+3	1.04E-1	7.16E+2
5.03E-1	3.94E+3	1.09E-1	7.54E+2
5.22E-1	4.04E+3	1.06E-1	7.89E+2
5.21E-1	3.96E+3	1.08E-1	7.50E+2
4.87E-1	3.81E+3	1.07E-1	7.55E+2
5.34E-1	4.01E+3	1.13E-1	7.69E+2
5.27E-1	3.99E+3	1.04E-1	7.17E+2
5.21E-1	3.97E+3	1.12E-1	8.03E+2
5.22E-1	4.00E+3	1.16E-1	7.66E+2
5.09E-1	3.91E+3	1.12E-1	7.10E+2
5.31E-1	4.15E+3	1.07E-1	7.32E+2
5.35E-1	4.03E+3	1.11E-1	7.56E+2
4.99E-1	3.92E+3	1.11E-1	7.66E+2
4.98E-1	3.93E+3	1.10E-1	7.76E+2
5.19E-1	4.08E+3	1.05E-1	7.02E+2
5.29E-1	3.95E+3	1.14E-1	7.83E+2
5.09E-1	3.99E+3	1.16E-1	8.04E+2
5.04E-1	3.97E+3	1.09E-1	8.16E+2
5.08E-1	4.00E+3	1.21E-1	7.99E+2
5.07E-1	4.03E+3	1.10E-1	7.62E+2
5.13E-1	3.83E+3	1.11E-1	7.35E+2
5.18E-1	3.94E+3	1.02E-1	6.76E+2
5.30E-1	4.03E+3	1.13E-1	7.27E+2
5.11E-1	3.93E+3	9.23E-2	6.59E+2
5.21E-1	4.02E+3	1.14E-1	7.50E+2
5.37E-1	4.06E+3	1.10E-1	7.39E+2
5.13E-1	3.87E+3	1.14E-1	7.66E+2
5.38E-1	4.08E+3	1.03E-1	7.24E+2
5.10E-1	4.02E+3	1.02E-1	7.39E+2
5.04E-1	3.97E+3	1.05E-1	7.26E+2
5.13E-1	4.01E+3	1.07E-1	8.04E+2
5.33E-1	4.03E+3	1.07E-1	7.54E+2
5.19E-1	3.96E+3	1.10E-1	7.38E+2
5.20E-1	3.93E+3	1.03E-1	6.92E+2
5.26E-1	3.99E+3	1.09E-1	7.66E+2
5.08E-1	3.92E+3	1.10E-1	7.67E+2
5.24E-1	3.98E+3	1.04E-1	7.44E+2
4.91E-1	3.93E+3	1.09E-1	7.36E+2
5.02E-1	4.06E+3	1.06E-1	7.77E+2
5.02E-1	3.95E+3	1.11E-1	7.44E+2
5.34E-1	4.00E+3	1.06E-1	7.21E+2
5.31E-1	3.95E+3	1.22E-1	7.95E+2
5.36E-1	4.09E+3	1.03E-1	7.47E+2
5.15E-1	4.07E+3	1.00E-1	7.90E+2
5.34E-1	4.08E+3	1.01E-1	6.76E+2
5.47E-1	4.03E+3	1.12E-1	8.01E+2
5.00E-1	3.87E+3	1.07E-1	7.31E+2
5.40E-1	4.02E+3	1.02E-1	6.93E+2
5.23E-1	4.00E+3	1.03E-1	7.04E+2
5.31E-1	3.97E+3	1.13E-1	7.54E+2
5.16E-1	4.09E+3	9.99E-2	7.10E+2
5.00E-1	3.92E+3	1.06E-1	7.03E+2
6.59E-3	1.84E+1	3.02E-1	2.14E+3
5.17E-1	3.92E+3	1.08E-1	7.46E+2
5.43E-1	4.00E+3	1.10E-1	7.35E+2
5.33E-1	4.06E+3	1.12E-1	7.55E+2
5.11E-1	3.95E+3	1.08E-1	7.40E+2
5.37E-1	3.97E+3	1.14E-1	7.77E+2
5.07E-1	3.98E+3	1.08E-1	7.65E+2
5.32E-1	4.02E+3	1.04E-1	7.65E+2
5.20E-1	3.89E+3	1.08E-1	7.15E+2
5.21E-1	3.90E+3	1.18E-1	7.59E+2
5.33E-1	4.12E+3	1.10E-1	7.29E+2
5.37E-1	3.94E+3	1.09E-1	7.03E+2
5.17E-1	3.94E+3	1.09E-1	7.19E+2
5.45E-1	3.92E+3	1.03E-1	6.82E+2
5.24E-1	3.93E+3	1.16E-1	7.85E+2
5.31E-1	3.97E+3	9.84E-2	6.88E+2
5.16E-1	4.04E+3	1.12E-1	8.20E+2
5.10E-1	4.01E+3	1.07E-1	7.77E+2
5.11E-1	3.96E+3	1.06E-1	7.31E+2
5.16E-1	3.95E+3	1.15E-1	7.91E+2
5.27E-1	3.92E+3	1.06E-1	7.63E+2
5.15E-1	4.01E+3	1.12E-1	7.19E+2
4.93E-1	3.93E+3	1.12E-1	8.25E+2
5.18E-1	4.13E+3	1.08E-1	7.76E+2
5.10E-1	3.99E+3	1.09E-1	7.64E+2
5.44E-1	4.07E+3	1.15E-1	7.46E+2
5.19E-1	4.09E+3	1.23E-1	8.17E+2
4.96E-1	3.88E+3	1.08E-1	7.15E+2
5.11E-1	4.06E+3	1.05E-1	7.94E+2
5.09E-1	4.00E+3	1.07E-1	8.10E+2
5.33E-1	3.98E+3	1.08E-1	7.37E+2
5.39E-1	4.03E+3	1.04E-1	7.37E+2
5.16E-1	4.09E+3	1.17E-1	8.61E+2
5.30E-1	4.00E+3	1.22E-1	8.33E+2
5.22E-1	4.06E+3	1.08E-1	8.04E+2
5.34E-1	4.07E+3	1.12E-1	7.93E+2
5.15E-1	3.99E+3	1.22E-1	7.99E+2
5.08E-1	3.98E+3	1.07E-1	7.16E+2
5.32E-1	3.96E+3	1.06E-1	7.50E+2
5.10E-1	3.92E+3	1.09E-1	7.51E+2
5.32E-1	4.07E+3	1.08E-1	7.33E+2
5.29E-1	4.11E+3	1.16E-1	7.74E+2
5.21E-1	3.99E+3	1.02E-1	6.73E+2
5.16E-1	4.06E+3	1.16E-1	7.09E+2
5.19E-1	4.06E+3	1.21E-1	8.07E+2
5.16E-1	4.05E+3	1.08E-1	7.66E+2
5.26E-1	3.90E+3	1.03E-1	7.39E+2
5.06E-1	3.94E+3	1.08E-1	7.48E+2
5.33E-1	3.93E+3	1.10E-1	7.35E+2
5.20E-1	4.00E+3	1.05E-1	7.57E+2
5.51E-1	4.13E+3	1.15E-1	7.65E+2
5.23E-1	3.97E+3	1.05E-1	7.11E+2
4.95E-1	3.82E+3	1.03E-1	7.50E+2
5.10E-1	4.03E+3	1.08E-1	7.53E+2
5.05E-1	3.94E+3	1.18E-1	8.13E+2
5.35E-1	3.98E+3	1.15E-1	7.69E+2
5.05E-1	4.00E+3	1.09E-1	7.13E+2
5.08E-1	3.99E+3	1.01E-1	7.64E+2
5.17E-1	3.97E+3	1.11E-1	7.63E+2
4.97E-1	3.91E+3	1.14E-1	8.12E+2
5.14E-1	4.02E+3	1.03E-1	6.86E+2
5.01E-1	3.97E+3	1.12E-1	7.51E+2
5.24E-1	4.06E+3	1.08E-1	7.27E+2
5.17E-1	4.04E+3	1.14E-1	7.90E+2
5.02E-1	3.95E+3	1.09E-1	7.56E+2
5.17E-1	3.98E+3	1.14E-1	6.81E+2
5.35E-1	3.94E+3	1.03E-1	6.73E+2
5.05E-1	4.02E+3	1.26E-1	8.14E+2
5.16E-1	4.00E+3	1.12E-1	7.41E+2
4.90E-1	3.88E+3	1.15E-1	7.68E+2
5.26E-1	4.01E+3	1.11E-1	7.42E+2
5.29E-1	4.13E+3	1.02E-1	7.01E+2
5.38E-1	4.11E+3	9.96E-2	7.22E+2
5.06E-1	3.98E+3	1.06E-1	7.76E+2
5.20E-1	4.01E+3	1.08E-1	7.42E+2
5.08E-1	3.88E+3	1.13E-1	7.96E+2
5.38E-1	4.07E+3	1.07E-1	7.41E+2
5.27E-1	4.00E+3	1.04E-1	7.27E+2
5.21E-1	3.98E+3	1.10E-1	7.85E+2
5.14E-1	3.95E+3	1.08E-1	7.29E+2
5.15E-1	3.90E+3	1.15E-1	8.36E+2
5.11E-1	4.02E+3	1.10E-1	7.73E+2
5.24E-1	3.95E+3	1.12E-1	7.32E+2
5.13E-1	3.94E+3	1.07E-1	7.16E+2
5.21E-1	3.97E+3	1.08E-1	7.46E+2
5.10E-1	4.07E+3	1.16E-1	7.96E+2
5.13E-1	3.98E+3	1.04E-1	7.15E+2
