6.82E-1	6.29E+3	1.81E-1	1.34E+3
7.05E-1	6.37E+3	1.76E-1	1.24E+3
7.03E-1	6.43E+3	1.97E-1	1.38E+3
7.07E-1	6.33E+3	1.89E-1	1.25E+3
6.98E-1	6.36E+3	1.80E-1	1.31E+3
6.83E-1	6.26E+3	1.84E-1	1.30E+3
7.04E-1	6.36E+3	1.89E-1	1.33E+3
7.08E-1	6.38E+3	1.93E-1	1.31E+3
7.17E-1	6.44E+3	1.92E-1	1.29E+3
7.02E-1	6.28E+3	1.91E-1	1.32E+3
7.08E-1	6.44E+3	1.87E-1	1.32E+3
7.01E-1	6.46E+3	1.99E-1	1.39E+3
6.85E-1	6.23E+3	1.92E-1	1.35E+3
6.94E-1	6.31E+3	1.90E-1	1.37E+3
7.08E-1	6.40E+3	1.94E-1	1.36E+3
6.89E-1	6.31E+3	2.09E-1	1.42E+3
6.99E-1	6.27E+3	1.81E-1	1.27E+3
6.90E-1	6.22E+3	1.91E-1	1.29E+3
6.95E-1	6.44E+3	2.01E-1	1.36E+3
7.09E-1	6.43E+3	2.07E-1	1.34E+3
6.83E-1	6.29E+3	1.89E-1	1.34E+3
7.04E-1	6.39E+3	1.76E-1	1.26E+3
7.02E-1	6.37E+3	1.83E-1	1.31E+3
7.16E-1	6.47E+3	1.84E-1	1.28E+3
6.89E-1	6.38E+3	2.00E-1	1.38E+3
7.11E-1	6.46E+3	1.99E-1	1.40E+3
7.12E-1	6.38E+3	1.81E-1	1.24E+3
6.95E-1	6.39E+3	1.91E-1	1.37E+3
6.93E-1	6.41E+3	1.92E-1	1.38E+3
6.96E-1	6.41E+3	1.86E-1	1.28E+3
7.19E-1	6.26E+3	1.96E-1	1.37E+3
7.06E-1	6.37E+3	2.05E-1	1.38E+3
6.86E-1	6.31E+3	1.80E-1	1.27E+3
6.81E-1	6.27E+3	1.84E-1	1.30E+3
7.06E-1	6.26E+3	1.95E-1	1.40E+3
9.52E-3	3.21E+1	4.27E-1	3.33E+3
7.07E-1	6.37E+3	1.76E-1	1.24E+3
6.84E-1	6.24E+3	2.00E-1	1.41E+3
6.95E-1	6.42E+3	2.06E-1	1.39E+3
6.96E-1	6.44E+3	1.96E-1	1.37E+3
6.96E-1	6.33E+3	1.81E-1	1.30E+3
7.08E-1	6.55E+3	1.89E-1	1.33E+3
6.85E-1	6.28E+3	1.88E-1	1.36E+3
6.80E-1	6.27E+3	1.86E-1	1.33E+3
6.94E-1	6.24E+3	1.88E-1	1.32E+3
6.81E-1	6.22E+3	1.88E-1	1.26E+3
7.18E-1	6.45E+3	1.90E-1	1.25E+3
6.96E-1	6.38E+3	1.78E-1	1.25E+3
6.96E-1	6.23E+3	1.87E-1	1.19E+3
7.10E-1	6.49E+3	1.89E-1	1.24E+3
6.95E-1	6.36E+3	1.84E-1	1.21E+3
6.90E-1	6.36E+3	1.85E-1	1.30E+3
6.91E-1	6.19E+3	1.87E-1	1.30E+3
6.93E-1	6.41E+3	1.90E-1	1.34E+3
6.81E-1	6.20E+3	1.92E-1	1.32E+3
6.95E-1	6.31E+3	1.99E-1	1.39E+3
6.77E-1	6.31E+3	1.89E-1	1.28E+3
6.86E-1	6.28E+3	1.83E-1	1.32E+3
6.93E-1	6.35E+3	1.85E-1	1.31E+3
7.02E-1	6.26E+3	1.76E-1	1.21E+3
7.00E-1	6.34E+3	1.98E-1	1.38E+3
6.98E-1	6.35E+3	1.80E-1	1.30E+3
7.00E-1	6.32E+3	1.97E-1	1.35E+3
6.81E-1	6.27E+3	1.77E-1	1.23E+3
7.11E-1	6.27E+3	1.80E-1	1.21E+3
6.91E-1	6.37E+3	2.00E-1	1.37E+3
6.82E-1	6.24E+3	1.95E-1	1.35E+3
7.08E-1	6.34E+3	2.07E-1	1.40E+3
7.09E-1	6.35E+3	1.92E-1	1.34E+3
6.91E-1	6.41E+3	1.99E-1	1.35E+3
6.91E-1	6.22E+3	1.76E-1	1.30E+3
6.93E-1	6.43E+3	1.85E-1	1.34E+3
7.02E-1	6.28E+3	1.74E-1	1.23E+3
6.98E-1	6.48E+3	1.86E-1	1.32E+3
7.05E-1	6.36E+3	1.89E-1	1.32E+3
7.05E-1	6.35E+3	1.86E-1	1.25E+3
7.03E-1	6.40E+3	1.93E-1	1.30E+3
6.88E-1	6.37E+3	1.84E-1	1.28E+3
6.91E-1	6.29E+3	1.91E-1	1.26E+3
6.87E-1	6.33E+3	1.80E-1	1.24E+3
6.87E-1	6.26E+3	1.77E-1	1.26E+3
7.06E-1	6.29E+3	1.83E-1	1.33E+3
6.91E-1	6.38E+3	1.94E-1	1.40E+3
7.04E-1	6.36E+3	1.89E-1	1.32E+3
7.01E-1	6.34E+3	1.84E-1	1.27E+3
6.94E-1	6.31E+3	1.94E-1	1.34E+3
6.82E-1	6.27E+3	1.92E-1	1.30E+3
6.97E-1	6.34E+3	1.85E-1	1.33E+3
7.06E-1	6.30E+3	1.93E-1	1.28E+3
6.98E-1	6.34E+3	1.91E-1	1.28E+3
6.96E-1	6.37E+3	1.95E-1	1.33E+3
6.83E-1	6.17E+3	1.89E-1	1.32E+3
7.11E-1	6.38E+3	1.93E-1	1.26E+3
6.98E-1	6.44E+3	1.87E-1	1.31E+3
6.84E-1	6.33E+3	1.72E-1	1.28E+3
6.84E-1	6.31E+3	1.87E-1	1.19E+3
6.94E-1	6.37E+3	2.04E-1	1.45E+3
6.96E-1	6.37E+3	1.82E-1	1.26E+3
6.86E-1	6.35E+3	1.83E-1	1.32E+3
7.10E-1	6.24E+3	1.82E-1	1.21E+3
7.10E-1	6.30E+3	1.81E-1	1.33E+3
6.86E-1	6.30E+3	1.89E-1	1.33E+3
6.84E-1	6.38E+3	1.92E-1	1.30E+3
6.85E-1	6.29E+3	1.92E-1	1.31E+3
6.97E-1	6.28E+3	1.97E-1	1.34E+3
7.02E-1	6.46E+3	1.91E-1	1.34E+3
6.90E-1	6.32E+3	1.87E-1	1.33E+3
6.99E-1	6.34E+3	1.85E-1	1.29E+3
6.98E-1	6.37E+3	1.87E-1	1.29E+3
7.02E-1	6.33E+3	1.74E-1	1.25E+3
6.98E-1	6.25E+3	1.86E-1	1.35E+3
6.87E-1	6.34E+3	1.92E-1	1.36E+3
7.14E-1	6.39E+3	1.90E-1	1.37E+3
6.92E-1	6.31E+3	1.82E-1	1.30E+3
6.98E-1	6.36E+3	1.71E-1	1.24E+3
6.94E-1	6.38E+3	1.96E-1	1.35E+3
6.89E-1	6.27E+3	1.81E-1	1.24E+3
7.03E-1	6.35E+3	1.83E-1	1.26E+3
6.88E-1	6.35E+3	2.04E-1	1.40E+3
6.97E-1	6.37E+3	1.92E-1	1.34E+3
7.09E-1	6.35E+3	1.86E-1	1.34E+3
6.95E-1	6.38E+3	1.94E-1	1.27E+3
6.86E-1	6.40E+3	1.95E-1	1.40E+3
6.83E-1	6.37E+3	1.93E-1	1.37E+3
6.94E-1	6.39E+3	1.93E-1	1.34E+3
6.93E-1	6.46E+3	1.85E-1	1.33E+3
6.92E-1	6.45E+3	1.93E-1	1.35E+3
7.04E-1	6.34E+3	1.92E-1	1.27E+3
7.17E-1	6.43E+3	1.92E-1	1.38E+3
7.04E-1	6.29E+3	1.94E-1	1.35E+3
7.07E-1	6.33E+3	1.88E-1	1.32E+3
6.96E-1	6.36E+3	1.88E-1	1.31E+3
7.07E-1	6.27E+3	1.90E-1	1.38E+3
6.98E-1	6.22E+3	1.90E-1	1.25E+3
6.98E-1	6.35E+3	2.03E-1	1.39E+3
7.08E-1	6.30E+3	1.78E-1	1.29E+3
6.82E-1	6.28E+3	1.90E-1	1.38E+3
7.10E-1	6.31E+3	1.84E-1	1.31E+3
7.12E-1	6.49E+3	1.89E-1	1.27E+3
7.07E-1	6.39E+3	2.00E-1	1.36E+3
6.98E-1	6.27E+3	1.98E-1	1.42E+3
6.87E-1	6.26E+3	1.96E-1	1.33E+3
7.18E-1	6.48E+3	1.86E-1	1.35E+3
7.01E-1	6.33E+3	1.87E-1	1.32E+3
7.09E-1	6.45E+3	1.88E-1	1.33E+3
6.92E-1	6.36E+3	1.96E-1	1.30E+3
6.94E-1	6.46E+3	1.82E-1	1.31E+3
6.94E-1	6.33E+3	1.89E-1	1.30E+3
7.06E-1	6.47E+3	1.83E-1	1.30E+3
6.93E-1	6.39E+3	1.81E-1	1.29E+3
6.92E-1	6.39E+3	2.00E-1	1.31E+3
6.94E-1	6.41E+3	1.99E-1	1.35E+3
6.98E-1	6.31E+3	1.93E-1	1.42E+3
7.02E-1	6.31E+3	1.92E-1	1.34E+3
7.05E-1	6.41E+3	1.83E-1	1.28E+3
7.13E-1	6.40E+3	1.70E-1	1.21E+3
6.98E-1	6.36E+3	1.95E-1	1.36E+3
7.05E-1	6.29E+3	1.89E-1	1.24E+3
7.06E-1	6.22E+3	1.90E-1	1.34E+3
6.91E-1	6.20E+3	1.80E-1	1.21E+3
6.98E-1	6.36E+3	1.89E-1	1.27E+3
6.84E-1	6.34E+3	1.85E-1	1.35E+3
6.90E-1	6.35E+3	2.02E-1	1.36E+3
7.16E-1	6.46E+3	1.93E-1	1.37E+3
7.16E-1	6.35E+3	1.87E-1	1.32E+3
6.87E-1	6.26E+3	1.89E-1	1.36E+3
6.83E-1	6.26E+3	1.86E-1	1.31E+3
6.99E-1	6.39E+3	1.91E-1	1.28E+3
7.13E-1	6.45E+3	1.79E-1	1.24E+3
6.88E-1	6.36E+3	1.94E-1	1.30E+3
6.92E-1	6.31E+3	1.88E-1	1.31E+3
7.07E-1	6.27E+3	1.81E-1	1.27E+3
6.95E-1	6.35E+3	1.97E-1	1.34E+3
6.80E-1	6.24E+3	1.96E-1	1.37E+3
6.76E-1	6.44E+3	1.87E-1	1.28E+3
6.86E-1	6.34E+3	1.83E-1	1.26E+3
7.12E-1	6.46E+3	2.00E-1	1.43E+3
6.86E-1	6.40E+3	1.80E-1	1.28E+3
6.98E-1	6.40E+3	1.91E-1	1.30E+3
7.07E-1	6.27E+3	1.83E-1	1.29E+3
6.98E-1	6.41E+3	1.92E-1	1.36E+3
7.18E-1	6.36E+3	1.92E-1	1.27E+3
6.93E-1	6.36E+3	2.00E-1	1.36E+3
7.11E-1	6.34E+3	2.00E-1	1.35E+3
6.89E-1	6.33E+3	2.05E-1	1.36E+3
7.05E-1	6.37E+3	1.94E-1	1.30E+3
7.16E-1	6.50E+3	1.80E-1	1.26E+3
7.01E-1	6.33E+3	1.97E-1	1.35E+3
6.90E-1	6.21E+3	1.93E-1	1.38E+3
6.95E-1	6.48E+3	2.00E-1	1.32E+3
6.86E-1	6.33E+3	1.87E-1	1.35E+3
6.80E-1	6.29E+3	1.87E-1	1.29E+3
6.95E-1	6.48E+3	1.98E-1	1.39E+3
6.78E-1	6.22E+3	2.01E-1	1.39E+3
7.08E-1	6.24E+3	1.89E-1	1.32E+3
6.91E-1	6.38E+3	1.92E-1	1.38E+3
7.02E-1	6.42E+3	2.00E-1	1.37E+3
7.10E-1	6.41E+3	1.77E-1	1.24E+3
6.86E-1	6.35E+3	2.06E-1	1.39E+3
6.98E-1	6.30E+3	1.88E-1	1.33E+3
7.12E-1	6.41E+3	1.92E-1	1.33E+3
7.04E-1	6.42E+3	1.88E-1	1.25E+3
6.97E-1	6.42E+3	1.93E-1	1.34E+3
6.87E-1	6.41E+3	1.95E-1	1.35E+3
6.76E-1	6.23E+3	1.83E-1	1.30E+3
6.76E-1	6.19E+3	1.97E-1	1.33E+3
6.96E-1	6.42E+3	2.25E-1	1.51E+3
6.92E-1	6.30E+3	1.92E-1	1.33E+3
6.92E-1	6.32E+3	2.00E-1	1.42E+3
6.91E-1	6.39E+3	1.78E-1	1.23E+3
7.00E-1	6.28E+3	1.94E-1	1.32E+3
6.98E-1	6.21E+3	1.87E-1	1.32E+3
6.95E-1	6.40E+3	1.85E-1	1.32E+3
7.14E-1	6.39E+3	1.87E-1	1.29E+3
6.94E-1	6.29E+3	1.97E-1	1.36E+3
7.06E-1	6.25E+3	1.95E-1	1.26E+3
6.89E-1	6.42E+3	1.82E-1	1.28E+3
6.95E-1	6.36E+3	1.84E-1	1.31E+3
7.12E-1	6.35E+3	1.79E-1	1.28E+3
6.98E-1	6.41E+3	1.84E-1	1.32E+3
7.08E-1	6.40E+3	1.85E-1	1.36E+3
6.89E-1	6.36E+3	1.94E-1	1.36E+3
7.03E-1	6.52E+3	1.92E-1	1.31E+3
7.04E-1	6.36E+3	1.84E-1	1.29E+3
6.92E-1	6.44E+3	1.99E-1	1.32E+3
7.13E-1	6.40E+3	1.98E-1	1.34E+3
7.14E-1	6.36E+3	1.84E-1	1.29E+3
7.05E-1	6.35E+3	1.90E-1	1.37E+3
6.90E-1	6.24E+3	1.83E-1	1.34E+3
6.94E-1	6.39E+3	1.97E-1	1.37E+3
6.87E-1	6.27E+3	1.87E-1	1.26E+3
6.93E-1	6.33E+3	1.88E-1	1.29E+3
6.84E-1	6.33E+3	2.10E-1	1.37E+3
7.03E-1	6.47E+3	1.77E-1	1.31E+3
6.99E-1	6.56E+3	1.98E-1	1.40E+3
6.97E-1	6.42E+3	1.98E-1	1.38E+3
6.74E-1	6.42E+3	1.85E-1	1.27E+3
6.94E-1	6.22E+3	1.87E-1	1.32E+3
6.90E-1	6.34E+3	1.90E-1	1.27E+3
7.08E-1	6.35E+3	1.85E-1	1.31E+3
6.91E-1	6.40E+3	1.82E-1	1.30E+3
6.82E-1	6.27E+3	1.76E-1	1.30E+3
7.07E-1	6.38E+3	1.87E-1	1.30E+3
7.12E-1	6.49E+3	1.88E-1	1.30E+3
7.09E-1	6.33E+3	1.84E-1	1.27E+3
6.93E-1	6.37E+3	1.81E-1	1.33E+3
6.94E-1	6.36E+3	1.80E-1	1.29E+3
6.87E-1	6.45E+3	1.93E-1	1.34E+3
6.92E-1	6.47E+3	1.90E-1	1.31E+3
6.80E-1	6.26E+3	1.80E-1	1.28E+3
7.01E-1	6.39E+3	1.90E-1	1.38E+3
6.98E-1	6.34E+3	1.80E-1	1.28E+3
7.13E-1	6.46E+3	1.82E-1	1.32E+3
6.99E-1	6.47E+3	1.92E-1	1.38E+3
6.87E-1	6.30E+3	1.83E-1	1.27E+3
6.98E-1	6.33E+3	1.88E-1	1.35E+3
6.90E-1	6.37E+3	1.97E-1	1.41E+3
6.97E-1	6.47E+3	1.79E-1	1.31E+3
6.79E-1	6.19E+3	1.85E-1	1.32E+3
6.87E-1	6.33E+3	1.90E-1	1.30E+3
6.90E-1	6.39E+3	1.96E-1	1.30E+3
7.00E-1	6.51E+3	1.92E-1	1.30E+3
6.87E-1	6.34E+3	1.83E-1	1.32E+3
6.88E-1	6.40E+3	1.87E-1	1.25E+3
6.92E-1	6.26E+3	1.95E-1	1.33E+3
6.85E-1	6.32E+3	1.90E-1	1.24E+3
3.42E-2	4.70E+1	4.42E-1	3.40E+3
6.87E-1	6.22E+3	1.93E-1	1.36E+3
6.99E-1	6.27E+3	1.78E-1	1.19E+3
6.97E-1	6.26E+3	1.90E-1	1.29E+3
7.02E-1	6.35E+3	1.84E-1	1.20E+3
6.86E-1	6.37E+3	2.15E-1	1.46E+3
7.07E-1	6.28E+3	1.88E-1	1.29E+3
6.98E-1	6.35E+3	1.83E-1	1.27E+3
6.86E-1	6.24E+3	1.77E-1	1.29E+3
7.07E-1	6.36E+3	2.02E-1	1.30E+3
6.88E-1	6.39E+3	1.78E-1	1.32E+3
7.09E-1	6.33E+3	1.83E-1	1.29E+3
7.02E-1	6.49E+3	1.97E-1	1.40E+3
6.95E-1	6.43E+3	1.90E-1	1.28E+3
7.03E-1	6.31E+3	1.90E-1	1.28E+3
7.01E-1	6.43E+3	1.80E-1	1.21E+3
6.81E-1	6.22E+3	1.89E-1	1.34E+3
6.97E-1	6.42E+3	2.04E-1	1.43E+3
6.93E-1	6.31E+3	1.91E-1	1.34E+3
7.00E-1	6.29E+3	1.75E-1	1.19E+3
6.83E-1	6.35E+3	1.93E-1	1.34E+3
1.17E-2	3.17E+1	4.32E-1	3.33E+3
6.83E-1	6.26E+3	1.87E-1	1.25E+3
6.90E-1	6.36E+3	1.84E-1	1.35E+3
6.90E-1	6.32E+3	1.80E-1	1.33E+3
6.87E-1	6.33E+3	1.86E-1	1.29E+3
7.06E-1	6.37E+3	1.87E-1	1.36E+3
6.79E-1	6.26E+3	1.86E-1	1.31E+3
6.98E-1	6.43E+3	1.81E-1	1.25E+3
7.03E-1	6.42E+3	1.96E-1	1.37E+3
7.04E-1	6.38E+3	1.81E-1	1.26E+3
6.91E-1	6.33E+3	1.95E-1	1.31E+3
6.95E-1	6.34E+3	1.84E-1	1.30E+3
6.79E-1	6.31E+3	1.89E-1	1.32E+3
7.21E-1	6.46E+3	2.08E-1	1.45E+3
6.91E-1	6.38E+3	1.91E-1	1.40E+3
6.90E-1	6.43E+3	1.85E-1	1.33E+3
7.04E-1	6.37E+3	1.86E-1	1.37E+3
7.21E-1	6.43E+3	1.85E-1	1.39E+3
6.86E-1	6.30E+3	2.01E-1	1.43E+3
6.99E-1	6.36E+3	1.95E-1	1.36E+3
6.92E-1	6.41E+3	1.79E-1	1.29E+3
7.03E-1	6.33E+3	1.89E-1	1.32E+3
7.19E-1	6.40E+3	1.95E-1	1.35E+3
7.01E-1	6.46E+3	2.09E-1	1.46E+3
6.91E-1	6.24E+3	2.05E-1	1.35E+3
6.96E-1	6.49E+3	1.89E-1	1.38E+3
6.86E-1	6.29E+3	1.82E-1	1.25E+3
6.92E-1	6.39E+3	2.04E-1	1.32E+3
6.82E-1	6.28E+3	1.88E-1	1.32E+3
6.87E-1	6.35E+3	1.92E-1	1.32E+3
7.00E-1	6.39E+3	1.80E-1	1.31E+3
6.80E-1	6.28E+3	1.96E-1	1.30E+3
6.98E-1	6.40E+3	1.84E-1	1.30E+3
6.84E-1	6.31E+3	1.77E-1	1.23E+3
6.93E-1	6.31E+3	1.89E-1	1.31E+3
7.01E-1	6.28E+3	1.85E-1	1.31E+3
6.97E-1	6.35E+3	1.85E-1	1.28E+3
7.04E-1	6.47E+3	1.88E-1	1.35E+3
6.99E-1	6.36E+3	1.93E-1	1.28E+3
6.86E-1	6.34E+3	1.99E-1	1.38E+3
6.97E-1	6.30E+3	1.88E-1	1.31E+3
6.90E-1	6.27E+3	1.81E-1	1.23E+3
7.24E-1	6.35E+3	1.85E-1	1.36E+3
6.89E-1	6.32E+3	1.79E-1	1.31E+3
6.90E-1	6.35E+3	1.76E-1	1.30E+3
6.80E-1	6.33E+3	1.66E-1	1.23E+3
7.22E-1	6.49E+3	1.93E-1	1.29E+3
7.04E-1	6.33E+3	1.96E-1	1.32E+3
6.81E-1	6.43E+3	1.84E-1	1.29E+3
7.03E-1	6.25E+3	2.07E-1	1.36E+3
6.79E-1	6.31E+3	1.82E-1	1.30E+3
6.93E-1	6.29E+3	1.87E-1	1.36E+3
6.87E-1	6.28E+3	1.98E-1	1.32E+3
6.97E-1	6.44E+3	2.04E-1	1.33E+3
6.89E-1	6.33E+3	1.74E-1	1.25E+3
7.05E-1	6.29E+3	1.85E-1	1.30E+3
7.14E-1	6.38E+3	1.71E-1	1.24E+3
6.87E-1	6.22E+3	1.85E-1	1.30E+3
6.95E-1	6.35E+3	1.98E-1	1.45E+3
6.93E-1	6.36E+3	1.87E-1	1.25E+3
6.84E-1	6.35E+3	2.04E-1	1.32E+3
7.13E-1	6.33E+3	2.08E-1	1.34E+3
7.16E-1	6.44E+3	1.75E-1	1.28E+3
6.73E-1	6.32E+3	2.09E-1	1.44E+3
6.86E-1	6.23E+3	2.07E-1	1.38E+3
7.04E-1	6.35E+3	1.82E-1	1.25E+3
6.92E-1	6.28E+3	1.76E-1	1.22E+3
6.93E-1	6.43E+3	1.88E-1	1.27E+3
6.88E-1	6.23E+3	1.82E-1	1.30E+3
6.83E-1	6.25E+3	1.84E-1	1.36E+3
6.99E-1	6.26E+3	1.83E-1	1.31E+3
6.84E-1	6.34E+3	1.84E-1	1.32E+3
7.09E-1	6.41E+3	1.82E-1	1.30E+3
6.89E-1	6.35E+3	1.79E-1	1.31E+3
6.86E-1	6.29E+3	1.83E-1	1.35E+3
6.97E-1	6.35E+3	1.84E-1	1.31E+3
6.81E-1	6.24E+3	1.95E-1	1.27E+3
7.09E-1	6.39E+3	1.85E-1	1.22E+3
6.97E-1	6.41E+3	1.96E-1	1.31E+3
6.96E-1	6.37E+3	1.95E-1	1.35E+3
7.00E-1	6.44E+3	1.86E-1	1.32E+3
7.04E-1	6.41E+3	1.85E-1	1.30E+3
6.86E-1	6.30E+3	1.90E-1	1.29E+3
6.89E-1	6.30E+3	1.94E-1	1.36E+3
6.96E-1	6.40E+3	1.70E-1	1.25E+3
6.96E-1	6.33E+3	1.70E-1	1.21E+3
6.87E-1	6.35E+3	1.85E-1	1.31E+3
7.15E-1	6.36E+3	1.98E-1	1.37E+3
6.88E-1	6.26E+3	1.86E-1	1.27E+3
7.16E-1	6.31E+3	1.89E-1	1.28E+3
7.24E-1	6.38E+3	1.91E-1	1.36E+3
6.95E-1	6.45E+3	1.73E-1	1.22E+3
6.80E-1	6.35E+3	1.94E-1	1.29E+3
6.86E-1	6.40E+3	1.94E-1	1.36E+3
6.97E-1	6.44E+3	1.80E-1	1.30E+3
6.93E-1	6.27E+3	1.89E-1	1.33E+3
7.10E-1	6.39E+3	1.92E-1	1.35E+3
6.81E-1	6.29E+3	1.89E-1	1.37E+3
7.06E-1	6.19E+3	1.86E-1	1.32E+3
7.00E-1	6.44E+3	2.11E-1	1.44E+3
6.85E-1	6.39E+3	1.90E-1	1.36E+3
6.89E-1	6.36E+3	1.81E-1	1.32E+3
7.02E-1	6.23E+3	1.98E-1	1.33E+3
6.94E-1	6.32E+3	2.02E-1	1.36E+3
6.81E-1	6.27E+3	1.81E-1	1.27E+3
7.17E-1	6.32E+3	1.71E-1	1.16E+3
6.93E-1	6.25E+3	1.89E-1	1.37E+3
6.92E-1	6.46E+3	1.86E-1	1.28E+3
7.08E-1	6.44E+3	1.82E-1	1.31E+3
6.94E-1	6.35E+3	2.06E-1	1.35E+3
6.85E-1	6.32E+3	1.93E-1	1.32E+3
7.11E-1	6.35E+3	1.96E-1	1.42E+3
6.81E-1	6.23E+3	1.86E-1	1.33E+3
6.88E-1	6.32E+3	1.82E-1	1.31E+3
6.88E-1	6.33E+3	2.04E-1	1.29E+3
7.07E-1	6.34E+3	2.09E-1	1.38E+3
7.02E-1	6.34E+3	1.80E-1	1.27E+3
6.92E-1	6.38E+3	1.95E-1	1.29E+3
7.07E-1	6.37E+3	1.88E-1	1.32E+3
6.87E-1	6.42E+3	1.83E-1	1.22E+3
7.01E-1	6.43E+3	1.85E-1	1.32E+3
6.85E-1	6.39E+3	1.76E-1	1.24E+3
6.90E-1	6.31E+3	1.89E-1	1.37E+3
7.00E-1	6.36E+3	1.93E-1	1.30E+3
6.93E-1	6.46E+3	1.78E-1	1.29E+3
7.03E-1	6.27E+3	1.94E-1	1.36E+3
6.78E-1	6.25E+3	1.87E-1	1.33E+3
6.94E-1	6.43E+3	1.90E-1	1.38E+3
6.99E-1	6.39E+3	1.96E-1	1.31E+3
7.10E-1	6.36E+3	1.80E-1	1.32E+3
6.85E-1	6.34E+3	1.82E-1	1.31E+3
7.02E-1	6.53E+3	1.98E-1	1.33E+3
7.00E-1	6.41E+3	1.88E-1	1.32E+3
6.96E-1	6.35E+3	1.96E-1	1.36E+3
6.96E-1	6.28E+3	1.73E-1	1.27E+3
6.87E-1	6.36E+3	1.97E-1	1.37E+3
6.91E-1	6.38E+3	1.89E-1	1.39E+3
7.03E-1	6.44E+3	1.88E-1	1.26E+3
7.09E-1	6.36E+3	1.83E-1	1.30E+3
6.98E-1	6.39E+3	1.98E-1	1.38E+3
7.18E-1	6.40E+3	1.97E-1	1.30E+3
6.87E-1	6.49E+3	1.92E-1	1.36E+3
6.95E-1	6.48E+3	1.74E-1	1.22E+3
6.91E-1	6.40E+3	1.98E-1	1.32E+3
6.81E-1	6.25E+3	1.84E-1	1.19E+3
7.16E-1	6.44E+3	1.93E-1	1.29E+3
6.94E-1	6.45E+3	1.90E-1	1.33E+3
7.11E-1	6.43E+3	1.85E-1	1.30E+3
6.97E-1	6.48E+3	1.99E-1	1.37E+3
6.88E-1	6.27E+3	1.90E-1	1.38E+3
6.98E-1	6.30E+3	2.01E-1	1.34E+3
6.98E-1	6.42E+3	1.78E-1	1.27E+3
6.99E-1	6.49E+3	1.80E-1	1.39E+3
6.91E-1	6.36E+3	1.91E-1	1.32E+3
7.00E-1	6.34E+3	1.99E-1	1.38E+3
7.03E-1	6.29E+3	1.89E-1	1.33E+3
7.11E-1	6.37E+3	1.85E-1	1.29E+3
7.03E-1	6.44E+3	1.91E-1	1.31E+3
6.88E-1	6.42E+3	1.99E-1	1.35E+3
6.91E-1	6.35E+3	1.89E-1	1.35E+3
7.02E-1	6.39E+3	1.80E-1	1.32E+3
6.99E-1	6.34E+3	1.90E-1	1.29E+3
6.88E-1	6.33E+3	1.85E-1	1.33E+3
6.86E-1	6.36E+3	1.87E-1	1.32E+3
6.94E-1	6.44E+3	2.08E-1	1.45E+3
7.03E-1	6.30E+3	1.94E-1	1.38E+3
6.93E-1	6.30E+3	1.92E-1	1.32E+3
7.04E-1	6.45E+3	1.92E-1	1.22E+3
6.89E-1	6.23E+3	2.00E-1	1.34E+3
7.00E-1	6.25E+3	1.84E-1	1.24E+3
6.98E-1	6.34E+3	1.93E-1	1.33E+3
7.04E-1	6.33E+3	1.79E-1	1.23E+3
6.89E-1	6.36E+3	1.92E-1	1.31E+3
6.89E-1	6.33E+3	1.98E-1	1.34E+3
6.83E-1	6.32E+3	1.92E-1	1.40E+3
7.00E-1	6.44E+3	1.86E-1	1.32E+3
6.86E-1	6.37E+3	1.85E-1	1.31E+3
7.19E-1	6.47E+3	1.91E-1	1.38E+3
6.99E-1	6.37E+3	1.93E-1	1.29E+3
7.03E-1	6.35E+3	1.88E-1	1.31E+3
7.01E-1	6.35E+3	1.85E-1	1.20E+3
6.95E-1	6.32E+3	1.71E-1	1.16E+3
7.04E-1	6.36E+3	1.83E-1	1.21E+3
6.99E-1	6.31E+3	1.95E-1	1.29E+3
6.87E-1	6.31E+3	2.04E-1	1.37E+3
7.01E-1	6.46E+3	1.77E-1	1.27E+3
6.89E-1	6.45E+3	1.86E-1	1.29E+3
6.94E-1	6.33E+3	1.83E-1	1.26E+3
6.97E-1	6.24E+3	1.80E-1	1.32E+3
7.00E-1	6.38E+3	1.92E-1	1.39E+3
6.90E-1	6.40E+3	1.88E-1	1.34E+3
6.94E-1	6.43E+3	1.93E-1	1.34E+3
7.07E-1	6.33E+3	1.88E-1	1.39E+3
7.17E-1	6.41E+3	1.74E-1	1.28E+3
6.94E-1	6.30E+3	1.86E-1	1.25E+3
7.17E-1	6.47E+3	1.96E-1	1.32E+3
6.84E-1	6.32E+3	1.92E-1	1.25E+3
6.97E-1	6.34E+3	1.87E-1	1.31E+3
7.07E-1	6.28E+3	1.91E-1	1.35E+3
7.10E-1	6.39E+3	1.97E-1	1.36E+3
6.90E-1	6.34E+3	1.92E-1	1.37E+3
9.52E-3	2.65E+1	4.32E-1	3.34E+3
7.01E-1	6.43E+3	1.86E-1	1.32E+3
6.75E-1	6.11E+3	1.79E-1	1.22E+3
7.05E-1	6.36E+3	1.83E-1	1.34E+3
6.96E-1	6.34E+3	2.01E-1	1.36E+3
6.92E-1	6.38E+3	1.93E-1	1.29E+3
7.04E-1	6.16E+3	1.86E-1	1.33E+3
7.09E-1	6.42E+3	1.89E-1	1.28E+3
6.80E-1	6.33E+3	1.91E-1	1.30E+3
6.93E-1	6.34E+3	1.89E-1	1.30E+3
6.93E-1	6.34E+3	1.92E-1	1.32E+3
6.98E-1	6.39E+3	1.80E-1	1.26E+3
7.04E-1	6.35E+3	1.79E-1	1.34E+3
6.83E-1	6.30E+3	1.96E-1	1.40E+3
7.08E-1	6.42E+3	2.01E-1	1.42E+3
6.97E-1	6.26E+3	1.89E-1	1.31E+3
6.92E-1	6.40E+3	1.86E-1	1.32E+3
6.87E-1	6.30E+3	1.83E-1	1.30E+3
6.98E-1	6.37E+3	1.78E-1	1.26E+3
6.95E-1	6.31E+3	1.99E-1	1.32E+3
7.06E-1	6.32E+3	1.89E-1	1.26E+3
6.97E-1	6.36E+3	1.80E-1	1.23E+3
6.88E-1	6.36E+3	1.78E-1	1.24E+3
6.96E-1	6.45E+3	1.82E-1	1.27E+3
7.02E-1	6.34E+3	1.97E-1	1.32E+3
7.00E-1	6.35E+3	1.72E-1	1.27E+3
6.94E-1	6.38E+3	1.92E-1	1.35E+3
6.89E-1	6.38E+3	1.91E-1	1.33E+3
6.90E-1	6.29E+3	1.89E-1	1.37E+3
6.88E-1	6.34E+3	1.84E-1	1.31E+3
7.16E-1	6.41E+3	1.85E-1	1.33E+3
6.88E-1	6.24E+3	1.88E-1	1.30E+3
7.12E-1	6.36E+3	1.83E-1	1.24E+3
6.91E-1	6.32E+3	1.77E-1	1.27E+3
6.81E-1	6.33E+3	2.01E-1	1.37E+3
7.05E-1	6.32E+3	1.84E-1	1.24E+3
7.07E-1	6.40E+3	1.88E-1	1.30E+3
6.95E-1	6.38E+3	1.86E-1	1.27E+3
6.91E-1	6.37E+3	1.80E-1	1.27E+3
6.95E-1	6.39E+3	1.80E-1	1.28E+3
6.98E-1	6.36E+3	1.80E-1	1.24E+3
6.85E-1	6.30E+3	1.91E-1	1.34E+3
6.84E-1	6.28E+3	1.73E-1	1.26E+3
6.88E-1	6.34E+3	1.94E-1	1.41E+3
6.86E-1	6.47E+3	1.95E-1	1.39E+3
7.02E-1	6.30E+3	1.98E-1	1.35E+3
6.86E-1	6.37E+3	1.87E-1	1.33E+3
6.94E-1	6.44E+3	1.85E-1	1.34E+3
6.95E-1	6.40E+3	1.79E-1	1.25E+3
6.95E-1	6.40E+3	1.83E-1	1.34E+3
6.94E-1	6.34E+3	1.94E-1	1.29E+3
6.86E-1	6.33E+3	1.97E-1	1.35E+3
6.83E-1	6.32E+3	1.88E-1	1.29E+3
7.01E-1	6.38E+3	1.91E-1	1.30E+3
7.08E-1	6.42E+3	1.79E-1	1.26E+3
7.09E-1	6.38E+3	1.85E-1	1.26E+3
7.00E-1	6.38E+3	1.96E-1	1.32E+3
7.03E-1	6.32E+3	1.99E-1	1.30E+3
6.98E-1	6.27E+3	1.87E-1	1.30E+3
6.98E-1	6.29E+3	1.86E-1	1.21E+3
7.15E-1	6.30E+3	1.95E-1	1.39E+3
6.87E-1	6.31E+3	1.79E-1	1.28E+3
6.96E-1	6.33E+3	1.91E-1	1.31E+3
7.03E-1	6.37E+3	1.90E-1	1.37E+3
7.03E-1	6.44E+3	1.77E-1	1.23E+3
7.03E-1	6.28E+3	1.91E-1	1.34E+3
6.81E-1	6.30E+3	1.74E-1	1.24E+3
6.90E-1	6.31E+3	1.85E-1	1.33E+3
6.90E-1	6.31E+3	1.90E-1	1.33E+3
7.11E-1	6.31E+3	1.86E-1	1.31E+3
6.90E-1	6.40E+3	1.87E-1	1.30E+3
6.82E-1	6.33E+3	1.88E-1	1.25E+3
6.92E-1	6.32E+3	1.93E-1	1.36E+3
7.11E-1	6.38E+3	1.97E-1	1.39E+3
6.91E-1	6.18E+3	1.90E-1	1.30E+3
6.88E-1	6.41E+3	2.03E-1	1.38E+3
6.93E-1	6.36E+3	1.86E-1	1.37E+3
6.80E-1	6.32E+3	1.90E-1	1.29E+3
6.99E-1	6.32E+3	1.88E-1	1.32E+3
6.92E-1	6.36E+3	1.95E-1	1.38E+3
7.07E-1	6.38E+3	1.78E-1	1.22E+3
6.91E-1	6.51E+3	1.93E-1	1.35E+3
7.00E-1	6.33E+3	2.01E-1	1.39E+3
6.91E-1	6.38E+3	1.87E-1	1.35E+3
6.83E-1	6.30E+3	1.77E-1	1.32E+3
7.06E-1	6.37E+3	1.83E-1	1.34E+3
6.92E-1	6.35E+3	2.01E-1	1.33E+3
7.07E-1	6.37E+3	1.88E-1	1.34E+3
6.89E-1	6.26E+3	1.77E-1	1.26E+3
6.90E-1	6.40E+3	1.86E-1	1.33E+3
7.15E-1	6.34E+3	1.93E-1	1.36E+3
6.91E-1	6.31E+3	1.77E-1	1.26E+3
6.93E-1	6.35E+3	1.79E-1	1.32E+3
6.86E-1	6.33E+3	1.84E-1	1.29E+3
7.02E-1	6.36E+3	2.00E-1	1.38E+3
7.04E-1	6.31E+3	1.81E-1	1.26E+3
6.99E-1	6.52E+3	1.85E-1	1.34E+3
7.07E-1	6.36E+3	1.82E-1	1.32E+3
6.80E-1	6.25E+3	1.71E-1	1.27E+3
7.06E-1	6.37E+3	1.76E-1	1.26E+3
6.92E-1	6.40E+3	1.74E-1	1.23E+3
7.09E-1	6.49E+3	1.82E-1	1.29E+3
6.88E-1	6.41E+3	1.84E-1	1.29E+3
6.87E-1	6.27E+3	2.06E-1	1.31E+3
7.21E-1	6.47E+3	1.96E-1	1.32E+3
6.93E-1	6.30E+3	1.74E-1	1.29E+3
6.90E-1	6.35E+3	1.84E-1	1.31E+3
6.94E-1	6.21E+3	1.93E-1	1.29E+3
6.84E-1	6.25E+3	2.02E-1	1.40E+3
7.00E-1	6.41E+3	1.79E-1	1.29E+3
7.07E-1	6.31E+3	1.81E-1	1.28E+3
7.10E-1	6.46E+3	1.84E-1	1.37E+3
7.18E-1	6.31E+3	1.98E-1	1.36E+3
6.81E-1	6.46E+3	1.77E-1	1.23E+3
7.10E-1	6.43E+3	1.91E-1	1.35E+3
7.07E-1	6.33E+3	1.96E-1	1.30E+3
6.80E-1	6.32E+3	1.80E-1	1.31E+3
7.01E-1	6.19E+3	1.96E-1	1.34E+3
7.33E-1	6.42E+3	1.93E-1	1.25E+3
6.83E-1	6.31E+3	1.84E-1	1.31E+3
6.85E-1	6.26E+3	1.93E-1	1.27E+3
6.93E-1	6.32E+3	1.81E-1	1.30E+3
6.83E-1	6.33E+3	1.88E-1	1.25E+3
6.85E-1	6.35E+3	1.76E-1	1.28E+3
6.94E-1	6.35E+3	1.85E-1	1.32E+3
6.89E-1	6.34E+3	1.83E-1	1.28E+3
7.17E-1	6.48E+3	1.91E-1	1.33E+3
6.93E-1	6.44E+3	1.98E-1	1.37E+3
6.83E-1	6.30E+3	1.94E-1	1.41E+3
6.98E-1	6.36E+3	1.81E-1	1.32E+3
1.12E-2	1.73E+1	4.32E-1	3.31E+3
6.95E-1	6.48E+3	1.81E-1	1.27E+3
6.79E-1	6.24E+3	1.92E-1	1.30E+3
7.18E-1	6.53E+3	1.78E-1	1.22E+3
7.00E-1	6.31E+3	1.79E-1	1.27E+3
6.87E-1	6.44E+3	1.81E-1	1.28E+3
6.99E-1	6.35E+3	1.93E-1	1.33E+3
6.89E-1	6.37E+3	1.81E-1	1.29E+3
6.93E-1	6.40E+3	2.05E-1	1.32E+3
6.84E-1	6.30E+3	1.87E-1	1.27E+3
7.00E-1	6.47E+3	1.92E-1	1.34E+3
6.99E-1	6.28E+3	1.87E-1	1.32E+3
6.94E-1	6.41E+3	1.89E-1	1.28E+3
6.86E-1	6.28E+3	1.81E-1	1.30E+3
7.07E-1	6.32E+3	1.93E-1	1.30E+3
6.95E-1	6.38E+3	1.89E-1	1.25E+3
7.10E-1	6.37E+3	1.84E-1	1.29E+3
6.83E-1	6.35E+3	1.93E-1	1.35E+3
6.84E-1	6.27E+3	1.86E-1	1.34E+3
7.11E-1	6.43E+3	2.08E-1	1.43E+3
6.93E-1	6.23E+3	1.85E-1	1.27E+3
7.17E-1	6.49E+3	1.77E-1	1.30E+3
6.95E-1	6.36E+3	1.96E-1	1.39E+3
6.81E-1	6.19E+3	1.98E-1	1.40E+3
7.01E-1	6.35E+3	1.90E-1	1.34E+3
7.21E-1	6.53E+3	1.87E-1	1.27E+3
7.12E-1	6.46E+3	2.08E-1	1.33E+3
6.89E-1	6.28E+3	1.87E-1	1.29E+3
6.89E-1	6.34E+3	1.87E-1	1.34E+3
6.77E-1	6.14E+3	1.83E-1	1.27E+3
7.05E-1	6.50E+3	1.90E-1	1.34E+3
6.93E-1	6.39E+3	2.00E-1	1.35E+3
6.94E-1	6.45E+3	1.89E-1	1.22E+3
6.93E-1	6.36E+3	1.83E-1	1.33E+3
7.08E-1	6.51E+3	1.84E-1	1.32E+3
6.87E-1	6.40E+3	1.83E-1	1.32E+3
6.97E-1	6.35E+3	1.92E-1	1.30E+3
7.08E-1	6.37E+3	1.97E-1	1.29E+3
6.89E-1	6.25E+3	1.93E-1	1.37E+3
7.09E-1	6.33E+3	2.08E-1	1.36E+3
6.99E-1	6.24E+3	1.84E-1	1.26E+3
7.08E-1	6.35E+3	1.88E-1	1.27E+3
7.09E-1	6.38E+3	1.82E-1	1.23E+3
6.94E-1	6.40E+3	1.77E-1	1.27E+3
6.90E-1	6.34E+3	2.01E-1	1.36E+3
6.92E-1	6.36E+3	1.91E-1	1.36E+3
6.95E-1	6.27E+3	1.91E-1	1.36E+3
6.95E-1	6.28E+3	1.90E-1	1.36E+3
7.09E-1	6.38E+3	1.82E-1	1.32E+3
6.93E-1	6.21E+3	1.87E-1	1.30E+3
6.79E-1	6.33E+3	1.86E-1	1.28E+3
7.03E-1	6.33E+3	1.87E-1	1.33E+3
7.07E-1	6.20E+3	1.86E-1	1.35E+3
6.87E-1	6.41E+3	1.92E-1	1.27E+3
7.04E-1	6.43E+3	1.88E-1	1.33E+3
6.86E-1	6.35E+3	1.92E-1	1.28E+3
6.83E-1	6.34E+3	2.04E-1	1.41E+3
6.87E-1	6.31E+3	1.89E-1	1.33E+3
6.89E-1	6.36E+3	1.88E-1	1.28E+3
6.94E-1	6.40E+3	1.84E-1	1.34E+3
6.91E-1	6.38E+3	1.86E-1	1.29E+3
6.94E-1	6.30E+3	1.87E-1	1.30E+3
7.19E-1	6.32E+3	1.91E-1	1.35E+3
6.83E-1	6.31E+3	1.82E-1	1.27E+3
6.98E-1	6.37E+3	2.03E-1	1.36E+3
7.11E-1	6.36E+3	1.77E-1	1.26E+3
7.05E-1	6.33E+3	1.92E-1	1.29E+3
7.21E-1	6.49E+3	1.82E-1	1.30E+3
6.81E-1	6.31E+3	1.92E-1	1.30E+3
7.09E-1	6.32E+3	1.84E-1	1.26E+3
7.08E-1	6.40E+3	1.80E-1	1.27E+3
6.95E-1	6.41E+3	1.78E-1	1.26E+3
6.98E-1	6.27E+3	1.80E-1	1.31E+3
6.98E-1	6.44E+3	1.90E-1	1.36E+3
7.10E-1	6.21E+3	1.80E-1	1.28E+3
6.91E-1	6.40E+3	1.87E-1	1.30E+3
6.95E-1	6.35E+3	1.87E-1	1.33E+3
7.10E-1	6.25E+3	1.74E-1	1.20E+3
7.04E-1	6.44E+3	1.95E-1	1.35E+3
6.84E-1	6.33E+3	1.83E-1	1.29E+3
6.92E-1	6.29E+3	1.95E-1	1.28E+3
6.83E-1	6.33E+3	1.92E-1	1.26E+3
6.93E-1	6.36E+3	1.88E-1	1.35E+3
6.98E-1	6.45E+3	1.88E-1	1.30E+3
6.98E-1	6.47E+3	1.90E-1	1.37E+3
7.11E-1	6.31E+3	2.04E-1	1.42E+3
6.92E-1	6.31E+3	1.87E-1	1.32E+3
6.97E-1	6.42E+3	1.85E-1	1.29E+3
6.96E-1	6.39E+3	1.99E-1	1.39E+3
6.91E-1	6.30E+3	1.89E-1	1.31E+3
6.83E-1	6.26E+3	1.87E-1	1.37E+3
6.93E-1	6.36E+3	1.98E-1	1.35E+3
6.85E-1	6.40E+3	1.86E-1	1.32E+3
7.04E-1	6.31E+3	1.88E-1	1.29E+3
7.05E-1	6.43E+3	1.77E-1	1.23E+3
6.96E-1	6.38E+3	1.85E-1	1.29E+3
6.90E-1	6.25E+3	1.93E-1	1.32E+3
6.87E-1	6.33E+3	1.82E-1	1.28E+3
6.88E-1	6.26E+3	1.94E-1	1.37E+3
6.84E-1	6.27E+3	1.82E-1	1.31E+3
7.09E-1	6.32E+3	1.79E-1	1.28E+3
6.84E-1	6.27E+3	1.77E-1	1.28E+3
6.98E-1	6.31E+3	1.87E-1	1.31E+3
6.80E-1	6.17E+3	1.78E-1	1.24E+3
6.95E-1	6.37E+3	1.79E-1	1.30E+3
6.98E-1	6.37E+3	1.88E-1	1.36E+3
6.92E-1	6.25E+3	1.90E-1	1.32E+3
6.88E-1	6.37E+3	2.08E-1	1.39E+3
7.18E-1	6.49E+3	1.94E-1	1.29E+3
7.17E-1	6.35E+3	1.80E-1	1.26E+3
6.84E-1	6.23E+3	1.84E-1	1.28E+3
6.91E-1	6.41E+3	1.84E-1	1.35E+3
6.86E-1	6.40E+3	1.92E-1	1.29E+3
6.99E-1	6.40E+3	1.92E-1	1.37E+3
6.91E-1	6.35E+3	1.95E-1	1.31E+3
6.96E-1	6.31E+3	1.83E-1	1.34E+3
6.72E-1	6.22E+3	1.95E-1	1.40E+3
6.96E-1	6.38E+3	1.79E-1	1.27E+3
7.01E-1	6.40E+3	1.94E-1	1.30E+3
7.06E-1	6.41E+3	1.87E-1	1.25E+3
7.13E-1	6.44E+3	1.92E-1	1.36E+3
6.91E-1	6.44E+3	1.91E-1	1.34E+3
6.97E-1	6.25E+3	1.87E-1	1.23E+3
6.88E-1	6.37E+3	1.75E-1	1.23E+3
7.01E-1	6.42E+3	1.84E-1	1.34E+3
6.84E-1	6.28E+3	2.03E-1	1.42E+3
6.95E-1	6.44E+3	1.68E-1	1.23E+3
7.11E-1	6.33E+3	1.74E-1	1.19E+3
7.01E-1	6.37E+3	2.06E-1	1.33E+3
6.93E-1	6.27E+3	1.81E-1	1.27E+3
7.08E-1	6.39E+3	1.76E-1	1.25E+3
7.20E-1	6.40E+3	1.95E-1	1.36E+3
6.97E-1	6.20E+3	1.98E-1	1.38E+3
7.08E-1	6.36E+3	1.83E-1	1.29E+3
6.88E-1	6.37E+3	1.84E-1	1.32E+3
6.77E-1	6.26E+3	1.96E-1	1.32E+3
6.80E-1	6.24E+3	1.93E-1	1.24E+3
6.82E-1	6.20E+3	1.94E-1	1.36E+3
6.98E-1	6.39E+3	1.99E-1	1.35E+3
6.93E-1	6.35E+3	1.95E-1	1.34E+3
6.93E-1	6.35E+3	1.79E-1	1.34E+3
6.92E-1	6.38E+3	1.80E-1	1.33E+3
6.91E-1	6.37E+3	1.90E-1	1.35E+3
6.96E-1	6.38E+3	1.85E-1	1.29E+3
7.00E-1	6.24E+3	1.87E-1	1.27E+3
6.90E-1	6.39E+3	1.98E-1	1.28E+3
6.77E-1	6.31E+3	1.73E-1	1.24E+3
6.87E-1	6.42E+3	1.98E-1	1.35E+3
6.94E-1	6.31E+3	1.98E-1	1.38E+3
6.91E-1	6.25E+3	1.83E-1	1.30E+3
6.94E-1	6.23E+3	1.85E-1	1.24E+3
7.00E-1	6.38E+3	1.91E-1	1.25E+3
6.86E-1	6.36E+3	2.02E-1	1.47E+3
6.98E-1	6.36E+3	1.87E-1	1.34E+3
6.92E-1	6.31E+3	1.95E-1	1.32E+3
7.15E-1	6.39E+3	1.86E-1	1.33E+3
7.10E-1	6.47E+3	1.87E-1	1.33E+3
7.01E-1	6.33E+3	1.82E-1	1.32E+3
7.04E-1	6.31E+3	2.02E-1	1.34E+3
6.95E-1	6.24E+3	2.00E-1	1.32E+3
6.93E-1	6.35E+3	1.91E-1	1.29E+3
6.86E-1	6.34E+3	2.06E-1	1.36E+3
7.09E-1	6.36E+3	2.14E-1	1.44E+3
6.96E-1	6.29E+3	1.96E-1	1.39E+3
6.98E-1	6.31E+3	1.70E-1	1.19E+3
6.83E-1	6.21E+3	1.93E-1	1.35E+3
6.91E-1	6.33E+3	1.91E-1	1.38E+3
6.87E-1	6.39E+3	1.81E-1	1.28E+3
6.96E-1	6.35E+3	1.76E-1	1.27E+3
7.07E-1	6.30E+3	1.85E-1	1.28E+3
7.02E-1	6.28E+3	1.91E-1	1.27E+3
7.10E-1	6.42E+3	1.91E-1	1.31E+3
7.05E-1	6.41E+3	1.84E-1	1.25E+3
7.03E-1	6.36E+3	1.94E-1	1.33E+3
6.99E-1	6.36E+3	2.06E-1	1.37E+3
6.89E-1	6.30E+3	1.90E-1	1.29E+3
6.89E-1	6.35E+3	1.81E-1	1.29E+3
7.14E-1	6.45E+3	1.89E-1	1.29E+3
6.98E-1	6.39E+3	1.83E-1	1.28E+3
6.95E-1	6.37E+3	1.87E-1	1.34E+3
7.13E-1	6.41E+3	2.13E-1	1.43E+3
6.97E-1	6.44E+3	1.82E-1	1.28E+3
6.98E-1	6.45E+3	1.79E-1	1.29E+3
6.98E-1	6.27E+3	1.95E-1	1.37E+3
6.94E-1	6.38E+3	1.76E-1	1.23E+3
6.91E-1	6.26E+3	1.95E-1	1.31E+3
6.96E-1	6.40E+3	1.87E-1	1.27E+3
7.00E-1	6.36E+3	1.69E-1	1.24E+3
7.03E-1	6.47E+3	1.90E-1	1.29E+3
7.08E-1	6.33E+3	1.79E-1	1.20E+3
6.90E-1	6.39E+3	2.00E-1	1.37E+3
6.97E-1	6.33E+3	1.88E-1	1.32E+3
7.04E-1	6.43E+3	1.75E-1	1.30E+3
6.89E-1	6.44E+3	1.82E-1	1.31E+3
6.92E-1	6.37E+3	1.91E-1	1.36E+3
6.97E-1	6.34E+3	1.76E-1	1.27E+3
6.85E-1	6.27E+3	1.92E-1	1.39E+3
6.96E-1	6.27E+3	1.86E-1	1.24E+3
7.11E-1	6.40E+3	1.88E-1	1.38E+3
6.90E-1	6.26E+3	1.92E-1	1.31E+3
6.99E-1	6.32E+3	1.83E-1	1.22E+3
7.14E-1	6.37E+3	1.94E-1	1.29E+3
6.95E-1	6.48E+3	1.88E-1	1.34E+3
6.90E-1	6.29E+3	1.75E-1	1.25E+3
6.90E-1	6.35E+3	1.98E-1	1.31E+3
7.05E-1	6.39E+3	1.86E-1	1.31E+3
6.85E-1	6.22E+3	1.73E-1	1.23E+3
6.97E-1	6.42E+3	1.82E-1	1.29E+3
6.98E-1	6.29E+3	1.82E-1	1.28E+3
7.13E-1	6.53E+3	1.83E-1	1.28E+3
6.96E-1	6.44E+3	1.87E-1	1.26E+3
6.97E-1	6.29E+3	1.92E-1	1.32E+3
7.06E-1	6.38E+3	1.89E-1	1.29E+3
6.90E-1	6.37E+3	1.80E-1	1.30E+3
6.87E-1	6.27E+3	1.86E-1	1.27E+3
7.07E-1	6.40E+3	1.93E-1	1.32E+3
6.94E-1	6.45E+3	1.79E-1	1.23E+3
6.84E-1	6.45E+3	1.91E-1	1.34E+3
6.83E-1	6.36E+3	1.88E-1	1.36E+3
7.03E-1	6.40E+3	1.93E-1	1.30E+3
6.88E-1	6.31E+3	2.08E-1	1.39E+3
6.91E-1	6.31E+3	1.96E-1	1.34E+3
6.80E-1	6.29E+3	1.86E-1	1.37E+3
7.20E-1	6.50E+3	1.86E-1	1.31E+3
7.04E-1	6.32E+3	1.80E-1	1.32E+3
7.07E-1	6.39E+3	2.08E-1	1.39E+3
7.16E-1	6.35E+3	1.92E-1	1.34E+3
7.05E-1	6.44E+3	1.94E-1	1.28E+3
6.84E-1	6.26E+3	1.88E-1	1.21E+3
6.93E-1	6.43E+3	1.85E-1	1.26E+3
6.86E-1	6.27E+3	1.85E-1	1.25E+3
6.88E-1	6.36E+3	1.80E-1	1.20E+3
7.01E-1	6.29E+3	1.94E-1	1.34E+3
7.06E-1	6.32E+3	1.81E-1	1.27E+3
6.98E-1	6.27E+3	1.84E-1	1.32E+3
7.03E-1	6.26E+3	1.83E-1	1.29E+3
7.01E-1	6.58E+3	1.93E-1	1.38E+3
6.91E-1	6.31E+3	1.87E-1	1.31E+3
6.98E-1	6.27E+3	1.83E-1	1.27E+3
6.83E-1	6.25E+3	1.85E-1	1.30E+3
7.15E-1	6.36E+3	2.01E-1	1.32E+3
6.95E-1	6.32E+3	1.87E-1	1.26E+3
6.88E-1	6.29E+3	1.93E-1	1.31E+3
6.98E-1	6.32E+3	1.81E-1	1.24E+3
6.90E-1	6.40E+3	1.92E-1	1.35E+3
6.96E-1	6.32E+3	1.88E-1	1.37E+3
7.09E-1	6.33E+3	1.87E-1	1.31E+3
6.91E-1	6.38E+3	1.78E-1	1.34E+3
6.91E-1	6.31E+3	2.12E-1	1.41E+3
6.98E-1	6.34E+3	1.85E-1	1.29E+3
6.81E-1	6.35E+3	1.78E-1	1.22E+3
6.89E-1	6.41E+3	1.77E-1	1.28E+3
7.07E-1	6.32E+3	1.85E-1	1.32E+3
7.02E-1	6.28E+3	1.92E-1	1.32E+3
7.02E-1	6.33E+3	1.97E-1	1.33E+3
7.06E-1	6.44E+3	2.02E-1	1.38E+3
6.84E-1	6.30E+3	1.89E-1	1.34E+3
6.88E-1	6.39E+3	1.79E-1	1.26E+3
7.02E-1	6.43E+3	1.84E-1	1.26E+3
7.03E-1	6.34E+3	1.86E-1	1.27E+3
7.07E-1	6.36E+3	1.80E-1	1.30E+3
6.80E-1	6.23E+3	1.78E-1	1.27E+3
6.95E-1	6.35E+3	1.81E-1	1.30E+3
6.84E-1	6.27E+3	1.85E-1	1.30E+3
6.88E-1	6.37E+3	1.79E-1	1.26E+3
6.92E-1	6.40E+3	2.01E-1	1.35E+3
7.16E-1	6.49E+3	1.88E-1	1.26E+3
7.03E-1	6.42E+3	1.77E-1	1.23E+3
6.91E-1	6.39E+3	1.87E-1	1.33E+3
6.96E-1	6.24E+3	1.83E-1	1.26E+3
7.08E-1	6.38E+3	1.77E-1	1.28E+3
6.89E-1	6.26E+3	2.09E-1	1.38E+3
6.88E-1	6.37E+3	1.85E-1	1.30E+3
6.78E-1	6.13E+3	1.96E-1	1.36E+3
7.09E-1	6.37E+3	1.95E-1	1.38E+3
7.10E-1	6.38E+3	1.85E-1	1.33E+3
6.88E-1	6.34E+3	1.82E-1	1.31E+3
7.13E-1	6.39E+3	1.86E-1	1.33E+3
6.90E-1	6.34E+3	1.88E-1	1.29E+3
6.91E-1	6.28E+3	1.89E-1	1.38E+3
7.00E-1	6.28E+3	1.81E-1	1.25E+3
6.96E-1	6.31E+3	1.95E-1	1.33E+3
6.88E-1	6.31E+3	2.00E-1	1.32E+3
6.88E-1	6.32E+3	1.90E-1	1.31E+3
6.87E-1	6.43E+3	1.96E-1	1.38E+3
7.07E-1	6.24E+3	1.87E-1	1.26E+3
6.85E-1	6.35E+3	1.73E-1	1.24E+3
7.15E-1	6.28E+3	1.87E-1	1.27E+3
6.90E-1	6.33E+3	1.81E-1	1.27E+3
6.98E-1	6.49E+3	1.91E-1	1.31E+3
6.86E-1	6.36E+3	1.84E-1	1.31E+3
1.15E-2	3.03E+1	4.66E-1	3.35E+3
6.97E-1	6.50E+3	1.87E-1	1.37E+3
7.05E-1	6.33E+3	1.90E-1	1.35E+3
6.88E-1	6.24E+3	2.01E-1	1.32E+3
6.97E-1	6.25E+3	1.93E-1	1.30E+3
6.86E-1	6.35E+3	1.87E-1	1.29E+3
6.90E-1	6.34E+3	1.80E-1	1.27E+3
6.73E-1	6.20E+3	1.93E-1	1.26E+3
6.83E-1	6.28E+3	2.10E-1	1.39E+3
7.05E-1	6.44E+3	1.90E-1	1.33E+3
6.95E-1	6.26E+3	1.88E-1	1.33E+3
7.15E-1	6.33E+3	1.96E-1	1.35E+3
6.87E-1	6.32E+3	1.93E-1	1.37E+3
7.10E-1	6.41E+3	1.92E-1	1.28E+3
6.91E-1	6.36E+3	1.96E-1	1.32E+3
6.93E-1	6.39E+3	1.87E-1	1.36E+3
7.06E-1	6.35E+3	1.90E-1	1.29E+3
6.88E-1	6.38E+3	1.92E-1	1.26E+3
7.10E-1	6.40E+3	1.97E-1	1.33E+3
7.12E-1	6.33E+3	1.89E-1	1.28E+3
6.88E-1	6.37E+3	1.88E-1	1.36E+3
6.87E-1	6.27E+3	1.97E-1	1.37E+3
6.88E-1	6.35E+3	1.86E-1	1.24E+3
6.98E-1	6.35E+3	1.89E-1	1.36E+3
7.22E-1	6.43E+3	1.83E-1	1.29E+3
7.12E-1	6.38E+3	1.86E-1	1.33E+3
7.14E-1	6.39E+3	1.84E-1	1.33E+3
6.98E-1	6.30E+3	1.82E-1	1.27E+3
6.85E-1	6.28E+3	1.96E-1	1.32E+3
6.97E-1	6.26E+3	1.95E-1	1.27E+3
6.84E-1	6.34E+3	1.93E-1	1.25E+3
6.96E-1	6.43E+3	1.93E-1	1.32E+3
6.98E-1	6.40E+3	1.94E-1	1.31E+3
7.04E-1	6.39E+3	1.84E-1	1.28E+3
6.92E-1	6.40E+3	2.00E-1	1.29E+3
6.93E-1	6.33E+3	1.83E-1	1.35E+3
7.03E-1	6.43E+3	1.95E-1	1.38E+3
7.24E-1	6.30E+3	1.93E-1	1.38E+3
6.74E-1	6.22E+3	1.92E-1	1.35E+3
7.05E-1	6.40E+3	1.95E-1	1.32E+3
6.94E-1	6.33E+3	1.87E-1	1.27E+3
6.87E-1	6.30E+3	1.85E-1	1.33E+3
7.01E-1	6.32E+3	1.80E-1	1.23E+3
6.91E-1	6.26E+3	1.79E-1	1.32E+3
7.07E-1	6.38E+3	1.88E-1	1.30E+3
7.11E-1	6.43E+3	1.90E-1	1.34E+3
6.90E-1	6.32E+3	1.92E-1	1.35E+3
7.01E-1	6.52E+3	2.12E-1	1.36E+3
6.95E-1	6.32E+3	1.86E-1	1.23E+3
6.99E-1	6.42E+3	1.99E-1	1.35E+3
6.84E-1	6.22E+3	1.87E-1	1.31E+3
6.81E-1	6.23E+3	1.94E-1	1.30E+3
7.07E-1	6.30E+3	1.81E-1	1.31E+3
7.05E-1	6.36E+3	1.85E-1	1.33E+3
6.97E-1	6.31E+3	1.81E-1	1.27E+3
6.84E-1	6.27E+3	1.82E-1	1.31E+3
6.89E-1	6.38E+3	1.82E-1	1.35E+3
7.08E-1	6.35E+3	1.85E-1	1.28E+3
6.97E-1	6.33E+3	1.78E-1	1.19E+3
6.97E-1	6.31E+3	1.96E-1	1.33E+3
7.00E-1	6.32E+3	1.79E-1	1.25E+3
7.02E-1	6.46E+3	1.96E-1	1.33E+3
7.04E-1	6.44E+3	1.85E-1	1.31E+3
6.95E-1	6.23E+3	1.83E-1	1.30E+3
6.79E-1	6.29E+3	1.95E-1	1.34E+3
7.03E-1	6.36E+3	1.98E-1	1.35E+3
6.98E-1	6.24E+3	1.79E-1	1.34E+3
7.01E-1	6.30E+3	1.81E-1	1.31E+3
6.87E-1	6.20E+3	1.82E-1	1.26E+3
6.97E-1	6.23E+3	1.98E-1	1.31E+3
6.99E-1	6.42E+3	1.96E-1	1.34E+3
7.17E-1	6.39E+3	1.98E-1	1.39E+3
7.05E-1	6.36E+3	1.98E-1	1.32E+3
6.92E-1	6.40E+3	1.97E-1	1.36E+3
6.98E-1	6.30E+3	1.90E-1	1.38E+3
6.98E-1	6.50E+3	1.81E-1	1.31E+3
6.91E-1	6.32E+3	1.90E-1	1.36E+3
6.92E-1	6.35E+3	1.85E-1	1.28E+3
6.84E-1	6.34E+3	1.84E-1	1.28E+3
6.98E-1	6.39E+3	1.82E-1	1.28E+3
6.89E-1	6.37E+3	1.86E-1	1.26E+3
6.93E-1	6.50E+3	1.88E-1	1.35E+3
6.90E-1	6.27E+3	1.94E-1	1.32E+3
7.04E-1	6.35E+3	1.91E-1	1.27E+3
7.14E-1	6.35E+3	1.96E-1	1.34E+3
6.89E-1	6.25E+3	1.82E-1	1.23E+3
7.01E-1	6.34E+3	1.92E-1	1.37E+3
6.91E-1	6.26E+3	1.91E-1	1.35E+3
6.81E-1	6.29E+3	1.88E-1	1.30E+3
6.95E-1	6.36E+3	1.84E-1	1.27E+3
6.93E-1	6.38E+3	2.09E-1	1.38E+3
