4.35E-1	2.25E+3	1.11E-1	4.57E+2
4.29E-1	2.40E+3	1.06E-1	4.56E+2
4.11E-1	2.34E+3	1.18E-1	4.59E+2
4.09E-1	2.12E+3	1.02E-1	4.08E+2
4.31E-1	2.25E+3	1.04E-1	4.63E+2
4.43E-1	2.24E+3	1.04E-1	4.28E+2
4.35E-1	2.34E+3	1.13E-1	5.17E+2
4.28E-1	2.33E+3	1.09E-1	4.79E+2
4.20E-1	2.22E+3	1.06E-1	3.93E+2
4.25E-1	2.25E+3	1.09E-1	3.89E+2
4.29E-1	2.29E+3	1.19E-1	5.15E+2
4.44E-1	2.34E+3	1.11E-1	4.63E+2
4.07E-1	2.28E+3	1.13E-1	4.50E+2
4.15E-1	2.32E+3	1.11E-1	4.17E+2
4.14E-1	2.30E+3	1.03E-1	3.95E+2
4.16E-1	2.38E+3	9.91E-2	4.05E+2
4.10E-1	2.34E+3	1.09E-1	4.44E+2
4.08E-1	2.30E+3	1.01E-1	3.83E+2
4.28E-1	2.35E+3	9.77E-2	3.85E+2
4.02E-1	2.09E+3	9.86E-2	4.48E+2
4.32E-1	2.27E+3	1.03E-1	4.39E+2
4.42E-1	2.36E+3	1.03E-1	4.06E+2
4.10E-1	2.08E+3	1.14E-1	4.85E+2
4.14E-1	2.12E+3	1.15E-1	4.78E+2
4.33E-1	2.33E+3	1.05E-1	4.39E+2
4.13E-1	2.15E+3	1.08E-1	4.58E+2
4.13E-1	2.22E+3	1.10E-1	4.25E+2
4.25E-1	2.14E+3	1.15E-1	4.92E+2
4.11E-1	2.31E+3	1.07E-1	3.89E+2
4.01E-1	2.22E+3	1.04E-1	4.49E+2
4.15E-1	2.27E+3	1.07E-1	4.46E+2
4.40E-1	2.22E+3	9.91E-2	4.06E+2
4.08E-1	2.24E+3	1.05E-1	4.15E+2
4.23E-1	2.32E+3	1.10E-1	4.88E+2
4.31E-1	2.31E+3	1.09E-1	4.47E+2
4.13E-1	2.30E+3	9.94E-2	3.72E+2
4.40E-1	2.31E+3	9.99E-2	4.16E+2
3.96E-1	2.17E+3	1.08E-1	4.75E+2
4.30E-1	2.24E+3	1.07E-1	4.35E+2
4.38E-1	2.37E+3	1.06E-1	3.88E+2
4.23E-1	2.16E+3	1.05E-1	4.02E+2
4.45E-1	2.37E+3	1.02E-1	4.48E+2
4.33E-1	2.28E+3	1.03E-1	4.06E+2
4.33E-1	2.36E+3	1.02E-1	3.64E+2
4.07E-1	2.31E+3	1.07E-1	4.48E+2
4.05E-1	2.27E+3	1.04E-1	4.25E+2
4.20E-1	2.37E+3	1.10E-1	4.68E+2
4.17E-1	2.23E+3	9.69E-2	3.95E+2
4.16E-1	2.18E+3	1.13E-1	4.68E+2
4.12E-1	2.25E+3	1.06E-1	4.08E+2
4.52E-1	2.34E+3	1.11E-1	4.96E+2
4.13E-1	2.32E+3	1.04E-1	3.88E+2
3.95E-1	2.06E+3	1.05E-1	4.06E+2
4.08E-1	2.15E+3	1.04E-1	4.18E+2
4.20E-1	2.15E+3	1.04E-1	4.14E+2
4.34E-1	2.25E+3	1.09E-1	4.23E+2
4.03E-1	2.18E+3	1.10E-1	4.28E+2
4.06E-1	2.19E+3	1.08E-1	4.42E+2
6.84E-3	5.76E+0	3.27E-1	1.08E+3
4.48E-1	2.35E+3	1.05E-1	4.31E+2
4.21E-1	2.16E+3	1.10E-1	4.58E+2
4.31E-1	2.33E+3	1.04E-1	4.69E+2
4.38E-1	2.28E+3	1.10E-1	4.38E+2
4.25E-1	2.24E+3	1.04E-1	4.21E+2
4.28E-1	2.24E+3	1.09E-1	4.28E+2
4.17E-1	2.28E+3	1.05E-1	4.09E+2
4.12E-1	2.25E+3	1.09E-1	4.17E+2
4.20E-1	2.23E+3	9.77E-2	4.03E+2
4.12E-1	2.21E+3	1.07E-1	4.14E+2
3.99E-1	2.18E+3	1.01E-1	3.95E+2
4.10E-1	2.25E+3	1.03E-1	4.66E+2
4.21E-1	2.41E+3	1.09E-1	5.00E+2
4.15E-1	2.30E+3	1.02E-1	4.20E+2
4.24E-1	2.28E+3	1.01E-1	4.25E+2
4.11E-1	2.26E+3	1.06E-1	4.65E+2
4.18E-1	2.42E+3	1.12E-1	4.42E+2
4.28E-1	2.21E+3	1.08E-1	4.05E+2
4.05E-1	2.22E+3	1.12E-1	5.37E+2
4.06E-1	2.16E+3	1.10E-1	4.04E+2
4.26E-1	2.16E+3	1.10E-1	4.32E+2
3.99E-1	2.19E+3	9.86E-2	3.65E+2
4.08E-1	2.27E+3	1.01E-1	4.09E+2
4.31E-1	2.20E+3	1.13E-1	4.37E+2
4.27E-1	2.18E+3	1.08E-1	4.21E+2
4.38E-1	2.26E+3	1.05E-1	4.06E+2
4.27E-1	2.29E+3	1.04E-1	4.58E+2
4.14E-1	2.27E+3	9.69E-2	3.79E+2
4.07E-1	2.31E+3	1.07E-1	4.91E+2
4.22E-1	2.25E+3	1.14E-1	5.00E+2
4.16E-1	2.26E+3	1.02E-1	4.29E+2
4.12E-1	2.23E+3	1.05E-1	4.69E+2
4.02E-1	2.19E+3	1.03E-1	4.09E+2
4.46E-1	2.29E+3	9.62E-2	3.89E+2
4.07E-1	2.27E+3	1.05E-1	4.35E+2
4.15E-1	2.26E+3	1.08E-1	4.97E+2
4.42E-1	2.35E+3	1.06E-1	4.00E+2
4.37E-1	2.35E+3	1.02E-1	4.38E+2
4.38E-1	2.28E+3	1.07E-1	4.36E+2
4.41E-1	2.28E+3	1.00E-1	4.17E+2
4.33E-1	2.33E+3	1.06E-1	4.57E+2
4.14E-1	2.24E+3	1.04E-1	4.40E+2
4.41E-1	2.33E+3	9.99E-2	4.05E+2
4.31E-1	2.29E+3	1.09E-1	3.96E+2
4.25E-1	2.21E+3	1.08E-1	4.84E+2
4.11E-1	2.19E+3	1.01E-1	4.47E+2
4.19E-1	2.28E+3	1.02E-1	3.73E+2
3.99E-1	2.21E+3	1.04E-1	4.08E+2
4.03E-1	2.18E+3	1.15E-1	4.74E+2
4.18E-1	2.21E+3	9.89E-2	4.82E+2
4.07E-1	2.30E+3	9.79E-2	3.93E+2
4.00E-1	2.27E+3	1.05E-1	4.47E+2
8.13E-2	4.71E+1	3.33E-1	1.02E+3
4.21E-1	2.21E+3	1.07E-1	4.47E+2
4.06E-1	2.28E+3	1.04E-1	4.67E+2
4.27E-1	2.27E+3	1.12E-1	4.29E+2
4.10E-1	2.31E+3	1.03E-1	4.31E+2
3.96E-1	2.16E+3	1.06E-1	4.42E+2
4.32E-1	2.18E+3	1.07E-1	4.75E+2
4.14E-1	2.35E+3	9.91E-2	4.49E+2
4.25E-1	2.22E+3	1.03E-1	4.62E+2
4.30E-1	2.31E+3	1.12E-1	4.50E+2
3.99E-1	2.17E+3	1.07E-1	4.20E+2
4.07E-1	2.27E+3	1.08E-1	4.24E+2
4.17E-1	2.31E+3	1.00E-1	3.93E+2
4.11E-1	2.32E+3	9.91E-2	4.36E+2
4.11E-1	2.32E+3	1.07E-1	4.57E+2
4.26E-1	2.27E+3	1.06E-1	4.51E+2
4.23E-1	2.19E+3	1.04E-1	3.97E+2
4.29E-1	2.22E+3	1.05E-1	4.48E+2
4.23E-1	2.29E+3	1.01E-1	4.11E+2
4.28E-1	2.24E+3	1.15E-1	4.73E+2
4.23E-1	2.33E+3	1.03E-1	4.50E+2
4.15E-1	2.17E+3	1.07E-1	3.88E+2
4.19E-1	2.35E+3	1.03E-1	4.17E+2
4.28E-1	2.31E+3	1.05E-1	3.65E+2
4.05E-1	2.26E+3	1.04E-1	3.97E+2
4.24E-1	2.26E+3	1.10E-1	4.68E+2
4.03E-1	2.26E+3	1.08E-1	4.68E+2
4.15E-1	2.15E+3	1.07E-1	4.47E+2
4.00E-1	2.19E+3	1.03E-1	4.81E+2
4.00E-1	2.21E+3	9.96E-2	3.77E+2
4.22E-1	2.16E+3	1.11E-1	4.60E+2
4.45E-1	2.32E+3	1.12E-1	4.55E+2
4.15E-1	2.22E+3	1.08E-1	4.60E+2
4.06E-1	2.24E+3	1.06E-1	4.25E+2
4.27E-1	2.26E+3	1.04E-1	4.47E+2
4.32E-1	2.27E+3	1.11E-1	5.07E+2
4.27E-1	2.34E+3	1.05E-1	4.59E+2
4.06E-1	2.17E+3	1.13E-1	3.88E+2
4.29E-1	2.30E+3	1.08E-1	4.24E+2
4.19E-1	2.12E+3	1.12E-1	4.43E+2
4.25E-1	2.26E+3	1.00E-1	4.20E+2
3.95E-1	2.10E+3	1.02E-1	4.53E+2
4.29E-1	2.33E+3	1.06E-1	4.58E+2
4.09E-1	2.22E+3	1.08E-1	4.40E+2
4.24E-1	2.24E+3	1.04E-1	4.76E+2
4.22E-1	2.29E+3	1.03E-1	4.18E+2
4.24E-1	2.25E+3	1.06E-1	3.82E+2
4.29E-1	2.26E+3	1.10E-1	4.78E+2
4.06E-1	2.27E+3	1.12E-1	4.73E+2
4.11E-1	2.22E+3	1.11E-1	4.78E+2
4.16E-1	2.26E+3	1.04E-1	4.55E+2
4.13E-1	2.20E+3	1.07E-1	4.59E+2
4.25E-1	2.25E+3	1.05E-1	4.34E+2
3.96E-1	2.19E+3	1.02E-1	4.01E+2
3.99E-1	2.17E+3	1.04E-1	4.26E+2
4.07E-1	2.28E+3	1.08E-1	4.30E+2
4.44E-1	2.24E+3	9.47E-2	3.49E+2
4.07E-1	2.17E+3	1.02E-1	4.35E+2
4.27E-1	2.27E+3	1.09E-1	4.26E+2
4.31E-1	2.19E+3	1.06E-1	4.01E+2
4.29E-1	2.38E+3	1.11E-1	4.67E+2
4.08E-1	2.26E+3	1.13E-1	4.57E+2
4.10E-1	2.34E+3	1.05E-1	4.21E+2
3.96E-1	2.14E+3	1.08E-1	4.15E+2
4.33E-1	2.27E+3	1.15E-1	5.09E+2
4.11E-1	2.25E+3	1.01E-1	4.33E+2
4.06E-1	2.32E+3	1.07E-1	4.40E+2
4.11E-1	2.32E+3	1.05E-1	4.45E+2
4.09E-1	2.21E+3	1.00E-1	3.98E+2
4.26E-1	2.19E+3	1.11E-1	4.84E+2
4.07E-1	2.27E+3	1.00E-1	4.25E+2
3.96E-1	2.20E+3	1.05E-1	4.59E+2
4.16E-1	2.16E+3	1.07E-1	4.72E+2
4.05E-1	2.21E+3	1.04E-1	3.83E+2
4.24E-1	2.25E+3	1.04E-1	4.94E+2
4.12E-1	2.28E+3	1.08E-1	4.30E+2
4.27E-1	2.28E+3	1.06E-1	4.12E+2
4.23E-1	2.26E+3	1.04E-1	3.89E+2
4.34E-1	2.29E+3	1.07E-1	4.38E+2
4.12E-1	2.24E+3	9.79E-2	4.15E+2
4.23E-1	2.34E+3	9.59E-2	3.70E+2
4.02E-1	2.31E+3	1.04E-1	4.27E+2
4.25E-1	2.23E+3	1.06E-1	4.06E+2
4.37E-1	2.31E+3	9.91E-2	4.29E+2
4.27E-1	2.34E+3	1.05E-1	3.76E+2
4.44E-1	2.34E+3	1.00E-1	4.10E+2
4.25E-1	2.25E+3	1.01E-1	4.51E+2
4.11E-1	2.07E+3	1.07E-1	4.11E+2
4.10E-1	2.28E+3	1.15E-1	4.66E+2
4.36E-1	2.40E+3	1.04E-1	4.78E+2
4.25E-1	2.23E+3	1.05E-1	4.56E+2
4.16E-1	2.21E+3	1.04E-1	3.95E+2
4.00E-1	2.17E+3	1.02E-1	3.97E+2
4.13E-1	2.17E+3	1.04E-1	3.81E+2
4.43E-1	2.27E+3	1.05E-1	4.39E+2
4.27E-1	2.22E+3	1.09E-1	4.69E+2
4.23E-1	2.25E+3	1.08E-1	4.10E+2
4.32E-1	2.27E+3	1.15E-1	5.14E+2
4.23E-1	2.21E+3	1.04E-1	4.81E+2
4.03E-1	2.27E+3	1.07E-1	4.33E+2
4.23E-1	2.37E+3	1.10E-1	5.29E+2
4.19E-1	2.20E+3	1.08E-1	4.90E+2
4.06E-1	2.16E+3	1.05E-1	3.89E+2
4.20E-1	2.23E+3	1.04E-1	4.86E+2
4.32E-1	2.28E+3	1.05E-1	4.23E+2
4.30E-1	2.38E+3	1.07E-1	4.20E+2
4.30E-1	2.26E+3	1.04E-1	4.10E+2
3.93E-1	2.09E+3	1.04E-1	3.68E+2
4.14E-1	2.26E+3	1.04E-1	3.82E+2
4.23E-1	2.25E+3	1.08E-1	4.41E+2
4.22E-1	2.27E+3	1.05E-1	4.56E+2
4.22E-1	2.20E+3	1.02E-1	3.51E+2
4.38E-1	2.34E+3	1.00E-1	4.15E+2
4.26E-1	2.25E+3	1.04E-1	4.64E+2
4.30E-1	2.23E+3	1.04E-1	4.60E+2
4.09E-1	2.29E+3	1.07E-1	4.36E+2
4.38E-1	2.25E+3	1.08E-1	4.21E+2
4.37E-1	2.19E+3	9.89E-2	3.49E+2
4.13E-1	2.42E+3	1.09E-1	4.53E+2
4.18E-1	2.28E+3	1.06E-1	4.15E+2
6.35E-3	1.76E+0	3.28E-1	1.03E+3
4.06E-1	2.22E+3	1.02E-1	3.84E+2
4.25E-1	2.32E+3	1.01E-1	4.10E+2
4.33E-1	2.19E+3	1.08E-1	5.11E+2
4.00E-1	2.20E+3	1.03E-1	3.96E+2
4.37E-1	2.35E+3	1.06E-1	4.87E+2
4.29E-1	2.35E+3	1.05E-1	4.70E+2
4.27E-1	2.24E+3	1.10E-1	4.43E+2
4.34E-1	2.34E+3	1.16E-1	5.04E+2
4.13E-1	2.28E+3	1.03E-1	4.21E+2
4.26E-1	2.22E+3	1.06E-1	4.79E+2
4.14E-1	2.38E+3	1.01E-1	4.09E+2
4.16E-1	2.19E+3	1.03E-1	3.57E+2
4.24E-1	2.27E+3	1.07E-1	4.41E+2
4.38E-1	2.27E+3	1.02E-1	4.34E+2
3.94E-1	2.14E+3	1.11E-1	4.59E+2
4.26E-1	2.23E+3	1.05E-1	3.96E+2
4.11E-1	2.29E+3	1.09E-1	4.09E+2
4.27E-1	2.28E+3	1.06E-1	4.11E+2
4.22E-1	2.30E+3	1.11E-1	4.58E+2
4.05E-1	2.21E+3	1.02E-1	4.48E+2
4.43E-1	2.37E+3	1.07E-1	4.19E+2
4.05E-1	2.13E+3	1.04E-1	4.79E+2
4.09E-1	2.31E+3	1.01E-1	4.39E+2
4.23E-1	2.08E+3	1.01E-1	3.52E+2
4.23E-1	2.36E+3	1.13E-1	4.93E+2
4.23E-1	2.28E+3	1.10E-1	4.61E+2
4.11E-1	2.15E+3	1.05E-1	4.49E+2
4.05E-1	2.24E+3	9.89E-2	3.86E+2
4.10E-1	2.33E+3	9.79E-2	3.94E+2
4.25E-1	2.32E+3	1.07E-1	4.21E+2
4.27E-1	2.23E+3	1.08E-1	4.49E+2
4.27E-1	2.29E+3	1.07E-1	4.26E+2
4.29E-1	2.24E+3	9.99E-2	3.92E+2
4.03E-1	2.10E+3	1.07E-1	4.39E+2
4.42E-1	2.27E+3	1.12E-1	4.82E+2
4.32E-1	2.24E+3	1.15E-1	5.13E+2
4.05E-1	2.18E+3	1.05E-1	3.88E+2
4.23E-1	2.30E+3	1.03E-1	4.48E+2
4.04E-1	2.27E+3	1.13E-1	4.71E+2
4.07E-1	2.19E+3	1.08E-1	3.68E+2
4.35E-1	2.33E+3	1.01E-1	4.15E+2
4.04E-1	2.16E+3	1.05E-1	3.56E+2
4.11E-1	2.33E+3	1.03E-1	4.48E+2
4.21E-1	2.15E+3	1.05E-1	4.08E+2
4.18E-1	2.23E+3	1.07E-1	4.08E+2
4.38E-1	2.22E+3	1.04E-1	4.19E+2
4.22E-1	2.31E+3	1.14E-1	4.58E+2
4.36E-1	2.35E+3	1.09E-1	4.66E+2
4.05E-1	2.15E+3	1.01E-1	4.44E+2
4.10E-1	2.26E+3	1.01E-1	4.22E+2
4.36E-1	2.29E+3	1.17E-1	5.28E+2
4.12E-1	2.26E+3	1.08E-1	4.09E+2
4.26E-1	2.35E+3	1.01E-1	4.08E+2
4.14E-1	2.31E+3	1.00E-1	4.41E+2
4.16E-1	2.24E+3	1.07E-1	4.26E+2
4.03E-1	2.25E+3	1.02E-1	4.29E+2
5.62E-3	4.98E+0	3.28E-1	1.15E+3
4.50E-1	2.41E+3	9.79E-2	4.30E+2
4.42E-1	2.28E+3	1.12E-1	4.90E+2
4.22E-1	2.26E+3	1.02E-1	4.39E+2
4.14E-1	2.14E+3	1.11E-1	4.63E+2
4.09E-1	2.21E+3	9.69E-2	3.87E+2
4.25E-1	2.23E+3	1.13E-1	4.69E+2
4.19E-1	2.21E+3	1.03E-1	4.51E+2
4.12E-1	2.27E+3	1.03E-1	4.22E+2
4.13E-1	2.22E+3	1.13E-1	4.45E+2
4.03E-1	2.18E+3	1.15E-1	4.12E+2
4.09E-1	2.32E+3	1.04E-1	4.49E+2
4.26E-1	2.22E+3	1.10E-1	4.48E+2
4.22E-1	2.12E+3	1.04E-1	4.19E+2
4.17E-1	2.33E+3	1.08E-1	4.28E+2
4.21E-1	2.26E+3	1.00E-1	3.81E+2
4.48E-1	2.30E+3	1.00E-1	4.15E+2
4.26E-1	2.42E+3	1.04E-1	3.98E+2
4.43E-1	2.36E+3	1.10E-1	4.88E+2
4.45E-1	2.19E+3	1.12E-1	4.53E+2
4.05E-1	2.25E+3	1.06E-1	4.15E+2
4.06E-1	2.30E+3	9.96E-2	3.90E+2
4.34E-1	2.26E+3	1.10E-1	4.45E+2
4.18E-1	2.33E+3	1.04E-1	4.42E+2
4.30E-1	2.25E+3	1.07E-1	4.17E+2
4.39E-1	2.27E+3	1.11E-1	4.76E+2
4.10E-1	2.26E+3	9.72E-2	3.84E+2
4.46E-1	2.42E+3	1.04E-1	4.67E+2
4.18E-1	2.25E+3	1.09E-1	4.85E+2
4.36E-1	2.26E+3	1.12E-1	4.80E+2
4.44E-1	2.21E+3	1.07E-1	4.66E+2
4.29E-1	2.20E+3	1.07E-1	4.25E+2
4.31E-1	2.25E+3	1.01E-1	4.07E+2
4.32E-1	2.30E+3	1.11E-1	4.70E+2
4.34E-1	2.43E+3	1.11E-1	4.66E+2
4.33E-1	2.21E+3	1.15E-1	4.79E+2
4.14E-1	2.30E+3	1.02E-1	4.52E+2
4.11E-1	2.25E+3	1.04E-1	3.85E+2
4.35E-1	2.33E+3	1.05E-1	4.25E+2
4.46E-1	2.32E+3	1.03E-1	4.30E+2
4.02E-1	2.20E+3	1.04E-1	4.81E+2
4.26E-1	2.21E+3	9.86E-2	4.25E+2
4.40E-1	2.34E+3	1.12E-1	4.35E+2
4.23E-1	2.26E+3	1.02E-1	3.95E+2
4.08E-1	2.29E+3	1.04E-1	4.03E+2
4.14E-1	2.35E+3	1.00E-1	4.22E+2
4.12E-1	2.32E+3	1.07E-1	4.70E+2
4.09E-1	2.21E+3	1.09E-1	4.79E+2
4.16E-1	2.32E+3	1.07E-1	4.66E+2
4.23E-1	2.25E+3	1.06E-1	4.05E+2
4.07E-1	2.19E+3	1.01E-1	4.49E+2
4.12E-1	2.20E+3	1.11E-1	4.30E+2
4.01E-1	2.17E+3	1.02E-1	3.97E+2
4.10E-1	2.15E+3	1.07E-1	4.43E+2
4.22E-1	2.21E+3	1.00E-1	4.09E+2
4.02E-1	2.24E+3	1.02E-1	4.23E+2
4.22E-1	2.24E+3	1.03E-1	4.41E+2
4.46E-1	2.27E+3	1.10E-1	4.54E+2
4.37E-1	2.23E+3	1.07E-1	4.84E+2
4.07E-1	2.36E+3	1.07E-1	4.75E+2
4.30E-1	2.23E+3	1.03E-1	4.50E+2
4.28E-1	2.20E+3	1.09E-1	4.67E+2
4.37E-1	2.36E+3	1.10E-1	5.05E+2
4.11E-1	2.27E+3	1.12E-1	5.16E+2
4.23E-1	2.25E+3	1.05E-1	4.65E+2
4.09E-1	2.25E+3	1.08E-1	4.44E+2
4.10E-1	2.27E+3	9.86E-2	4.32E+2
4.30E-1	2.25E+3	1.11E-1	4.67E+2
4.08E-1	2.34E+3	1.05E-1	4.57E+2
4.18E-1	2.16E+3	1.05E-1	4.21E+2
4.15E-1	2.35E+3	1.04E-1	4.56E+2
4.14E-1	2.35E+3	1.04E-1	3.84E+2
4.28E-1	2.30E+3	1.06E-1	4.50E+2
4.03E-1	2.26E+3	1.11E-1	5.03E+2
4.39E-1	2.33E+3	1.08E-1	4.56E+2
4.06E-1	2.33E+3	1.08E-1	4.73E+2
4.21E-1	2.27E+3	1.11E-1	4.04E+2
4.21E-1	2.31E+3	1.05E-1	5.07E+2
4.13E-1	2.34E+3	1.13E-1	4.78E+2
4.07E-1	2.17E+3	1.05E-1	4.20E+2
4.18E-1	2.24E+3	1.01E-1	3.67E+2
3.97E-1	2.22E+3	1.04E-1	4.27E+2
4.04E-1	2.21E+3	1.04E-1	3.82E+2
4.24E-1	2.24E+3	1.06E-1	4.12E+2
3.96E-1	2.17E+3	1.03E-1	4.16E+2
4.38E-1	2.29E+3	9.96E-2	4.16E+2
4.21E-1	2.23E+3	1.02E-1	4.13E+2
4.32E-1	2.32E+3	1.13E-1	4.84E+2
4.40E-1	2.30E+3	1.10E-1	4.56E+2
4.26E-1	2.18E+3	1.06E-1	4.70E+2
4.22E-1	2.27E+3	1.00E-1	4.31E+2
4.42E-1	2.35E+3	1.03E-1	4.56E+2
4.35E-1	2.28E+3	1.11E-1	4.23E+2
4.16E-1	2.34E+3	1.06E-1	4.14E+2
4.05E-1	2.25E+3	1.08E-1	4.06E+2
4.10E-1	2.22E+3	9.67E-2	3.89E+2
4.14E-1	2.33E+3	1.07E-1	3.87E+2
4.50E-1	2.37E+3	1.01E-1	4.39E+2
4.26E-1	2.22E+3	1.07E-1	4.73E+2
4.11E-1	2.27E+3	1.01E-1	3.85E+2
4.35E-1	2.30E+3	1.04E-1	4.40E+2
4.46E-1	2.37E+3	1.10E-1	5.22E+2
4.07E-1	2.22E+3	1.08E-1	4.85E+2
4.34E-1	2.36E+3	1.06E-1	4.17E+2
4.37E-1	2.22E+3	1.04E-1	3.85E+2
4.08E-1	2.26E+3	1.03E-1	4.14E+2
3.97E-1	2.19E+3	1.04E-1	4.54E+2
3.98E-1	2.20E+3	1.02E-1	4.17E+2
4.21E-1	2.18E+3	1.11E-1	4.53E+2
3.95E-1	2.22E+3	1.03E-1	4.17E+2
4.09E-1	2.22E+3	1.03E-1	4.26E+2
4.07E-1	2.35E+3	1.03E-1	4.77E+2
4.36E-1	2.29E+3	1.12E-1	4.91E+2
4.35E-1	2.27E+3	1.06E-1	4.27E+2
4.19E-1	2.23E+3	1.12E-1	4.62E+2
4.25E-1	2.17E+3	9.96E-2	3.69E+2
4.32E-1	2.30E+3	1.07E-1	4.83E+2
4.28E-1	2.22E+3	1.03E-1	4.77E+2
4.32E-1	2.33E+3	1.09E-1	4.66E+2
4.37E-1	2.37E+3	1.10E-1	4.51E+2
3.93E-1	2.12E+3	1.11E-1	4.66E+2
4.05E-1	2.19E+3	1.13E-1	4.41E+2
4.05E-1	2.25E+3	9.69E-2	3.48E+2
4.20E-1	2.34E+3	1.08E-1	4.11E+2
4.46E-1	2.26E+3	1.13E-1	4.56E+2
4.37E-1	2.39E+3	1.13E-1	4.83E+2
4.33E-1	2.29E+3	1.05E-1	4.65E+2
4.21E-1	2.31E+3	1.08E-1	4.24E+2
4.16E-1	2.23E+3	1.09E-1	4.56E+2
4.28E-1	2.29E+3	1.12E-1	4.90E+2
4.22E-1	2.23E+3	1.01E-1	4.11E+2
4.19E-1	2.31E+3	1.03E-1	4.93E+2
4.20E-1	2.26E+3	1.08E-1	4.23E+2
4.07E-1	2.26E+3	1.03E-1	4.20E+2
4.32E-1	2.13E+3	1.00E-1	4.09E+2
4.17E-1	2.33E+3	1.06E-1	4.24E+2
4.12E-1	2.34E+3	1.10E-1	4.75E+2
4.09E-1	2.27E+3	1.06E-1	4.10E+2
4.04E-1	2.27E+3	1.06E-1	3.73E+2
4.29E-1	2.32E+3	1.02E-1	4.65E+2
4.15E-1	2.24E+3	1.07E-1	4.85E+2
4.31E-1	2.34E+3	1.15E-1	4.59E+2
4.08E-1	2.24E+3	1.02E-1	4.64E+2
4.33E-1	2.30E+3	1.04E-1	4.70E+2
4.13E-1	2.25E+3	1.04E-1	4.71E+2
4.26E-1	2.28E+3	1.04E-1	4.61E+2
4.33E-1	2.24E+3	1.09E-1	4.25E+2
4.23E-1	2.26E+3	1.06E-1	4.91E+2
4.16E-1	2.27E+3	1.05E-1	4.29E+2
4.02E-1	2.18E+3	1.01E-1	3.82E+2
4.45E-1	2.36E+3	1.03E-1	3.97E+2
4.43E-1	2.33E+3	1.12E-1	4.40E+2
4.37E-1	2.38E+3	1.07E-1	4.52E+2
4.13E-1	2.25E+3	1.04E-1	4.40E+2
4.31E-1	2.27E+3	1.19E-1	3.59E+2
4.03E-1	2.27E+3	1.03E-1	4.58E+2
4.42E-1	2.33E+3	9.96E-2	4.02E+2
4.16E-1	2.26E+3	1.08E-1	4.46E+2
4.32E-1	2.23E+3	1.04E-1	4.29E+2
3.95E-1	2.08E+3	1.08E-1	4.25E+2
4.02E-1	2.24E+3	1.03E-1	4.19E+2
3.98E-1	2.14E+3	1.03E-1	4.36E+2
4.04E-1	2.27E+3	1.09E-1	3.98E+2
4.03E-1	2.25E+3	1.09E-1	4.50E+2
4.17E-1	2.37E+3	1.04E-1	3.94E+2
4.03E-1	2.18E+3	9.99E-2	3.95E+2
4.06E-1	2.17E+3	1.09E-1	4.03E+2
4.07E-1	2.23E+3	1.05E-1	4.56E+2
4.37E-1	2.27E+3	1.07E-1	4.40E+2
4.12E-1	2.32E+3	1.11E-1	4.38E+2
4.19E-1	2.12E+3	1.13E-1	4.21E+2
4.26E-1	2.33E+3	1.05E-1	4.34E+2
4.20E-1	2.31E+3	9.94E-2	4.26E+2
4.04E-1	2.21E+3	1.07E-1	4.11E+2
4.21E-1	2.15E+3	1.09E-1	5.26E+2
4.40E-1	2.33E+3	1.06E-1	4.37E+2
4.09E-1	2.27E+3	1.12E-1	4.64E+2
4.03E-1	2.20E+3	9.94E-2	3.75E+2
4.25E-1	2.31E+3	1.04E-1	4.48E+2
4.11E-1	2.30E+3	1.00E-1	3.67E+2
4.04E-1	2.25E+3	1.05E-1	4.68E+2
4.25E-1	2.28E+3	1.06E-1	4.87E+2
4.03E-1	2.18E+3	1.04E-1	4.17E+2
4.11E-1	2.32E+3	1.06E-1	4.78E+2
4.44E-1	2.36E+3	1.05E-1	4.71E+2
4.07E-1	2.23E+3	1.11E-1	4.55E+2
4.06E-1	2.21E+3	1.04E-1	4.06E+2
4.30E-1	2.16E+3	1.06E-1	4.39E+2
4.06E-1	2.29E+3	1.01E-1	3.98E+2
4.06E-1	2.26E+3	1.03E-1	4.45E+2
4.09E-1	2.30E+3	1.02E-1	3.72E+2
4.10E-1	2.20E+3	1.05E-1	3.81E+2
4.18E-1	2.34E+3	1.03E-1	4.15E+2
4.04E-1	2.17E+3	1.04E-1	4.34E+2
4.38E-1	2.30E+3	9.86E-2	4.09E+2
4.28E-1	2.29E+3	1.08E-1	4.53E+2
4.28E-1	2.16E+3	1.09E-1	4.51E+2
4.37E-1	2.31E+3	1.10E-1	4.49E+2
4.22E-1	2.25E+3	1.08E-1	4.49E+2
4.33E-1	2.20E+3	1.01E-1	4.08E+2
4.10E-1	2.21E+3	1.10E-1	4.66E+2
4.24E-1	2.18E+3	1.06E-1	4.14E+2
4.04E-1	2.22E+3	1.15E-1	4.62E+2
4.35E-1	2.18E+3	1.13E-1	4.78E+2
4.29E-1	2.31E+3	1.12E-1	4.71E+2
4.15E-1	2.28E+3	1.03E-1	3.98E+2
4.41E-1	2.25E+3	1.09E-1	4.84E+2
4.13E-1	2.32E+3	1.05E-1	4.81E+2
4.31E-1	2.33E+3	1.07E-1	5.06E+2
4.16E-1	2.29E+3	1.05E-1	4.32E+2
4.33E-1	2.37E+3	1.12E-1	5.31E+2
4.38E-1	2.36E+3	1.15E-1	4.93E+2
4.33E-1	2.25E+3	1.03E-1	4.02E+2
4.06E-1	2.23E+3	1.08E-1	4.39E+2
4.28E-1	2.24E+3	9.59E-2	4.37E+2
4.22E-1	2.29E+3	1.04E-1	3.84E+2
4.09E-1	2.27E+3	9.94E-2	4.40E+2
4.27E-1	2.31E+3	1.03E-1	3.81E+2
4.34E-1	2.31E+3	1.04E-1	4.37E+2
4.09E-1	2.28E+3	1.02E-1	3.77E+2
4.01E-1	2.24E+3	1.02E-1	3.69E+2
8.06E-3	-3.42E+0	3.18E-1	1.07E+3
4.09E-1	2.26E+3	1.09E-1	4.54E+2
4.30E-1	2.22E+3	1.02E-1	4.48E+2
4.28E-1	2.27E+3	1.02E-1	5.03E+2
4.47E-1	2.41E+3	1.15E-1	4.72E+2
4.00E-1	2.16E+3	1.05E-1	4.19E+2
4.17E-1	2.35E+3	1.01E-1	3.99E+2
4.10E-1	2.22E+3	1.04E-1	4.11E+2
4.15E-1	2.23E+3	1.12E-1	4.43E+2
4.06E-1	2.18E+3	1.07E-1	4.29E+2
4.01E-1	2.30E+3	1.01E-1	3.96E+2
4.26E-1	2.23E+3	1.05E-1	4.22E+2
4.28E-1	2.24E+3	1.06E-1	4.19E+2
4.10E-1	2.28E+3	1.05E-1	4.65E+2
4.23E-1	2.23E+3	1.06E-1	4.65E+2
4.05E-1	2.16E+3	1.02E-1	3.81E+2
4.28E-1	2.41E+3	1.03E-1	4.38E+2
4.29E-1	2.26E+3	1.11E-1	4.42E+2
3.95E-1	2.16E+3	1.11E-1	4.72E+2
4.30E-1	2.27E+3	9.79E-2	4.27E+2
4.06E-1	2.18E+3	1.10E-1	4.56E+2
4.07E-1	2.21E+3	1.04E-1	3.70E+2
4.01E-1	2.26E+3	9.50E-2	3.55E+2
4.08E-1	2.29E+3	1.01E-1	4.04E+2
4.33E-1	2.27E+3	1.02E-1	3.88E+2
4.17E-1	2.36E+3	1.07E-1	4.98E+2
4.17E-1	2.30E+3	1.08E-1	3.96E+2
4.39E-1	2.33E+3	1.06E-1	5.14E+2
4.45E-1	2.26E+3	1.04E-1	4.23E+2
4.03E-1	2.26E+3	1.07E-1	4.80E+2
4.28E-1	2.24E+3	1.16E-1	4.72E+2
4.10E-1	2.22E+3	1.07E-1	4.58E+2
4.28E-1	2.26E+3	1.08E-1	3.94E+2
4.06E-1	2.26E+3	9.79E-2	4.50E+2
4.16E-1	2.28E+3	1.01E-1	3.84E+2
4.08E-1	2.26E+3	1.09E-1	4.27E+2
3.89E-1	2.05E+3	1.05E-1	4.48E+2
4.33E-1	2.33E+3	1.04E-1	4.24E+2
4.07E-1	2.12E+3	1.11E-1	4.68E+2
4.22E-1	2.29E+3	1.04E-1	4.04E+2
4.31E-1	2.28E+3	1.04E-1	4.34E+2
4.15E-1	2.32E+3	1.06E-1	5.16E+2
4.42E-1	2.32E+3	1.11E-1	4.40E+2
4.29E-1	2.24E+3	1.17E-1	4.79E+2
4.09E-1	2.32E+3	1.08E-1	4.88E+2
3.95E-1	2.16E+3	1.11E-1	4.66E+2
4.31E-1	2.24E+3	1.03E-1	4.68E+2
4.29E-1	2.24E+3	1.14E-1	4.36E+2
4.12E-1	2.31E+3	1.09E-1	4.28E+2
4.17E-1	2.26E+3	1.07E-1	4.47E+2
4.48E-1	2.29E+3	1.04E-1	4.34E+2
4.38E-1	2.27E+3	1.02E-1	4.15E+2
4.18E-1	2.27E+3	1.04E-1	3.88E+2
4.20E-1	2.27E+3	1.11E-1	4.94E+2
4.27E-1	2.27E+3	1.12E-1	5.08E+2
4.32E-1	2.29E+3	1.05E-1	4.12E+2
3.98E-1	2.24E+3	1.04E-1	4.24E+2
4.21E-1	2.19E+3	1.03E-1	4.46E+2
4.44E-1	2.37E+3	1.09E-1	4.82E+2
4.12E-1	2.27E+3	1.12E-1	4.65E+2
4.02E-1	2.11E+3	1.01E-1	3.17E+2
4.23E-1	2.32E+3	1.17E-1	4.75E+2
4.27E-1	2.25E+3	1.05E-1	4.38E+2
4.07E-1	2.26E+3	1.09E-1	4.10E+2
4.14E-1	2.31E+3	1.07E-1	4.12E+2
4.10E-1	2.31E+3	1.01E-1	3.86E+2
4.25E-1	2.13E+3	1.08E-1	4.51E+2
4.32E-1	2.28E+3	9.91E-2	3.86E+2
4.44E-1	2.33E+3	1.03E-1	4.34E+2
4.27E-1	2.22E+3	1.11E-1	4.94E+2
4.06E-1	2.23E+3	1.10E-1	4.14E+2
4.03E-1	2.21E+3	1.09E-1	4.54E+2
4.04E-1	2.21E+3	1.10E-1	4.65E+2
4.13E-1	2.22E+3	1.04E-1	4.39E+2
4.35E-1	2.29E+3	1.01E-1	4.50E+2
4.31E-1	2.30E+3	1.04E-1	4.82E+2
4.02E-1	2.27E+3	1.12E-1	4.40E+2
4.34E-1	2.31E+3	1.07E-1	4.36E+2
4.28E-1	2.29E+3	1.10E-1	4.84E+2
3.97E-1	2.17E+3	1.03E-1	4.49E+2
4.27E-1	2.29E+3	1.12E-1	4.85E+2
4.21E-1	2.21E+3	1.10E-1	4.88E+2
4.32E-1	2.26E+3	1.11E-1	4.45E+2
4.10E-1	2.28E+3	9.99E-2	3.96E+2
4.36E-1	2.29E+3	1.11E-1	4.75E+2
4.27E-1	2.23E+3	9.96E-2	4.71E+2
4.13E-1	2.27E+3	1.01E-1	4.06E+2
4.25E-1	2.15E+3	1.10E-1	4.52E+2
4.21E-1	2.24E+3	1.07E-1	4.12E+2
4.07E-1	2.26E+3	1.03E-1	4.36E+2
4.01E-1	2.21E+3	1.02E-1	3.67E+2
4.11E-1	2.31E+3	1.03E-1	4.23E+2
3.99E-1	2.15E+3	1.03E-1	4.08E+2
4.31E-1	2.24E+3	1.03E-1	4.46E+2
4.27E-1	2.28E+3	1.04E-1	4.41E+2
4.10E-1	2.22E+3	9.91E-2	3.75E+2
4.30E-1	2.29E+3	1.08E-1	4.61E+2
4.18E-1	2.08E+3	1.11E-1	4.71E+2
4.01E-1	2.17E+3	1.08E-1	4.53E+2
6.84E-3	1.46E+0	3.32E-1	1.07E+3
4.03E-1	2.20E+3	9.86E-2	4.20E+2
4.35E-1	2.31E+3	1.10E-1	4.07E+2
4.32E-1	2.23E+3	1.02E-1	3.76E+2
4.29E-1	2.24E+3	1.00E-1	4.59E+2
4.05E-1	2.28E+3	1.04E-1	4.08E+2
4.09E-1	2.22E+3	1.04E-1	4.16E+2
4.29E-1	2.31E+3	1.03E-1	4.58E+2
4.27E-1	2.23E+3	1.05E-1	4.03E+2
4.28E-1	2.30E+3	1.02E-1	4.58E+2
4.38E-1	2.34E+3	1.08E-1	4.18E+2
4.40E-1	2.33E+3	1.06E-1	4.63E+2
4.38E-1	2.27E+3	1.01E-1	4.41E+2
4.21E-1	2.28E+3	1.09E-1	5.43E+2
4.30E-1	2.23E+3	1.17E-1	4.37E+2
4.17E-1	2.29E+3	1.08E-1	3.89E+2
4.16E-1	2.25E+3	1.07E-1	4.47E+2
4.05E-1	2.25E+3	1.10E-1	4.54E+2
4.24E-1	2.35E+3	1.04E-1	4.66E+2
3.95E-1	2.13E+3	1.08E-1	4.52E+2
4.34E-1	2.23E+3	1.07E-1	4.37E+2
4.26E-1	2.21E+3	1.03E-1	3.71E+2
4.02E-1	2.23E+3	1.08E-1	4.41E+2
4.39E-1	2.21E+3	1.06E-1	4.42E+2
4.30E-1	2.25E+3	1.12E-1	5.28E+2
3.97E-1	2.10E+3	1.04E-1	4.56E+2
4.06E-1	2.22E+3	1.18E-1	4.46E+2
4.07E-1	2.21E+3	1.14E-1	3.79E+2
4.11E-1	2.33E+3	1.18E-1	5.28E+2
4.07E-1	2.21E+3	1.11E-1	4.48E+2
4.11E-1	2.20E+3	1.04E-1	3.74E+2
4.14E-1	2.24E+3	1.10E-1	4.56E+2
4.14E-1	2.31E+3	1.15E-1	4.43E+2
4.09E-1	2.26E+3	1.03E-1	4.02E+2
4.31E-1	2.39E+3	1.05E-1	4.17E+2
4.09E-1	2.19E+3	1.08E-1	4.67E+2
4.24E-1	2.16E+3	1.06E-1	4.51E+2
4.14E-1	2.21E+3	9.94E-2	4.35E+2
4.19E-1	2.27E+3	1.06E-1	4.01E+2
4.46E-1	2.36E+3	1.15E-1	4.81E+2
4.30E-1	2.34E+3	1.14E-1	4.74E+2
4.32E-1	2.33E+3	1.03E-1	4.73E+2
4.13E-1	2.27E+3	1.10E-1	4.54E+2
4.38E-1	2.24E+3	1.07E-1	4.05E+2
4.18E-1	2.38E+3	1.08E-1	4.44E+2
4.12E-1	2.22E+3	1.00E-1	3.91E+2
4.11E-1	2.14E+3	1.03E-1	3.71E+2
4.15E-1	2.25E+3	1.06E-1	4.61E+2
4.15E-1	2.41E+3	1.03E-1	4.74E+2
4.36E-1	2.21E+3	1.06E-1	4.42E+2
4.27E-1	2.22E+3	1.06E-1	3.92E+2
4.06E-1	2.21E+3	1.08E-1	4.72E+2
4.37E-1	2.33E+3	1.09E-1	4.78E+2
4.34E-1	2.25E+3	1.07E-1	4.22E+2
4.01E-1	2.15E+3	1.04E-1	4.33E+2
4.05E-1	2.19E+3	1.15E-1	4.98E+2
4.26E-1	2.22E+3	1.07E-1	4.43E+2
4.09E-1	2.28E+3	1.11E-1	3.96E+2
4.18E-1	2.23E+3	1.05E-1	4.13E+2
4.15E-1	2.31E+3	9.77E-2	4.03E+2
4.29E-1	2.21E+3	1.03E-1	4.10E+2
4.05E-1	2.18E+3	1.09E-1	4.15E+2
3.98E-1	2.19E+3	1.04E-1	4.61E+2
4.55E-1	2.31E+3	1.05E-1	4.85E+2
4.26E-1	2.25E+3	1.03E-1	4.44E+2
4.39E-1	2.30E+3	1.09E-1	4.92E+2
4.42E-1	2.21E+3	1.11E-1	4.79E+2
4.19E-1	2.30E+3	1.05E-1	4.56E+2
4.19E-1	2.25E+3	9.67E-2	4.63E+2
4.32E-1	2.25E+3	1.19E-1	5.04E+2
4.33E-1	2.18E+3	1.03E-1	4.41E+2
4.03E-1	2.17E+3	1.00E-1	3.83E+2
8.54E-3	1.25E+1	3.39E-1	1.07E+3
4.18E-1	2.31E+3	1.02E-1	3.78E+2
4.33E-1	2.27E+3	9.50E-2	3.73E+2
4.12E-1	2.16E+3	1.16E-1	4.48E+2
4.18E-1	2.35E+3	1.01E-1	4.28E+2
4.09E-1	2.25E+3	1.05E-1	4.23E+2
4.06E-1	2.24E+3	1.04E-1	4.48E+2
4.03E-1	2.21E+3	1.05E-1	4.26E+2
4.25E-1	2.34E+3	1.09E-1	4.17E+2
4.47E-1	2.33E+3	1.03E-1	4.31E+2
4.26E-1	2.26E+3	1.01E-1	3.39E+2
4.08E-1	2.25E+3	1.14E-1	4.62E+2
4.18E-1	2.26E+3	1.09E-1	4.24E+2
4.05E-1	2.15E+3	1.08E-1	5.15E+2
4.13E-1	2.29E+3	1.06E-1	4.56E+2
4.38E-1	2.33E+3	1.08E-1	4.60E+2
4.05E-1	2.15E+3	1.05E-1	3.77E+2
4.31E-1	2.21E+3	1.03E-1	4.39E+2
4.13E-1	2.23E+3	1.04E-1	3.98E+2
4.08E-1	2.27E+3	1.04E-1	4.27E+2
4.12E-1	2.12E+3	1.02E-1	4.60E+2
4.32E-1	2.30E+3	1.11E-1	4.47E+2
4.09E-1	2.30E+3	1.03E-1	4.66E+2
4.36E-1	2.31E+3	1.13E-1	4.50E+2
4.33E-1	2.33E+3	1.04E-1	4.39E+2
4.31E-1	2.32E+3	1.17E-1	5.28E+2
4.11E-1	2.21E+3	1.07E-1	4.56E+2
4.27E-1	2.28E+3	1.10E-1	4.75E+2
4.18E-1	2.35E+3	1.09E-1	4.07E+2
4.07E-1	2.24E+3	1.05E-1	4.70E+2
4.21E-1	2.34E+3	1.02E-1	4.01E+2
4.27E-1	2.28E+3	1.09E-1	4.82E+2
4.42E-1	2.35E+3	1.01E-1	4.29E+2
4.35E-1	2.19E+3	1.04E-1	4.54E+2
4.08E-1	2.21E+3	1.06E-1	3.98E+2
4.43E-1	2.33E+3	1.05E-1	4.37E+2
4.09E-1	2.28E+3	1.06E-1	4.62E+2
4.28E-1	2.24E+3	1.05E-1	4.72E+2
4.17E-1	2.29E+3	1.05E-1	3.98E+2
4.07E-1	2.23E+3	1.09E-1	4.34E+2
3.99E-1	2.24E+3	1.10E-1	4.25E+2
4.03E-1	2.22E+3	1.05E-1	3.87E+2
4.14E-1	2.26E+3	1.02E-1	4.12E+2
4.20E-1	2.25E+3	1.09E-1	4.58E+2
4.02E-1	2.21E+3	1.04E-1	4.50E+2
4.11E-1	2.30E+3	1.03E-1	4.35E+2
4.11E-1	2.24E+3	1.07E-1	4.11E+2
4.12E-1	2.28E+3	1.08E-1	4.15E+2
4.26E-1	2.29E+3	1.02E-1	4.78E+2
4.28E-1	2.24E+3	1.10E-1	4.65E+2
4.06E-1	2.17E+3	1.01E-1	4.26E+2
4.24E-1	2.29E+3	1.01E-1	4.50E+2
4.37E-1	2.22E+3	1.06E-1	4.09E+2
4.31E-1	2.27E+3	1.06E-1	4.91E+2
4.01E-1	2.04E+3	1.09E-1	4.62E+2
4.04E-1	2.25E+3	1.03E-1	4.25E+2
3.98E-1	2.18E+3	1.02E-1	4.18E+2
4.46E-1	2.32E+3	1.05E-1	4.48E+2
4.08E-1	2.23E+3	9.94E-2	4.04E+2
4.13E-1	2.34E+3	1.09E-1	4.56E+2
4.33E-1	2.36E+3	1.02E-1	4.59E+2
4.24E-1	2.27E+3	1.07E-1	4.28E+2
3.93E-1	2.15E+3	9.94E-2	3.88E+2
4.54E-1	2.33E+3	1.02E-1	4.10E+2
4.21E-1	2.19E+3	1.21E-1	4.87E+2
4.22E-1	2.24E+3	1.05E-1	4.59E+2
4.06E-1	2.26E+3	1.03E-1	4.42E+2
4.20E-1	2.23E+3	1.04E-1	4.17E+2
4.09E-1	2.25E+3	1.06E-1	3.87E+2
4.01E-1	2.25E+3	1.13E-1	4.60E+2
4.24E-1	2.30E+3	1.12E-1	4.45E+2
4.06E-1	2.26E+3	1.03E-1	4.32E+2
4.25E-1	2.29E+3	1.08E-1	4.40E+2
4.22E-1	2.27E+3	1.10E-1	4.70E+2
4.40E-1	2.29E+3	1.07E-1	4.83E+2
4.40E-1	2.35E+3	1.12E-1	4.71E+2
4.30E-1	2.31E+3	1.03E-1	4.34E+2
4.06E-1	2.16E+3	1.04E-1	4.33E+2
4.07E-1	2.25E+3	9.96E-2	3.82E+2
4.00E-1	2.23E+3	1.07E-1	4.57E+2
4.24E-1	2.28E+3	1.08E-1	4.53E+2
4.27E-1	2.30E+3	1.06E-1	5.10E+2
4.27E-1	2.33E+3	1.03E-1	3.79E+2
4.21E-1	2.29E+3	1.10E-1	3.97E+2
4.17E-1	2.16E+3	1.07E-1	3.92E+2
4.05E-1	2.21E+3	9.91E-2	3.67E+2
4.41E-1	2.28E+3	9.86E-2	4.47E+2
4.35E-1	2.41E+3	1.03E-1	4.40E+2
4.12E-1	2.26E+3	9.57E-2	3.88E+2
4.03E-1	2.22E+3	9.64E-2	3.64E+2
4.00E-1	2.21E+3	1.02E-1	3.92E+2
4.28E-1	2.33E+3	1.04E-1	4.35E+2
4.30E-1	2.31E+3	1.09E-1	4.57E+2
4.00E-1	2.18E+3	1.07E-1	4.11E+2
4.08E-1	2.28E+3	1.08E-1	4.87E+2
4.12E-1	2.23E+3	1.09E-1	4.55E+2
4.14E-1	2.34E+3	1.03E-1	4.11E+2
4.13E-1	2.35E+3	1.08E-1	4.35E+2
4.06E-1	2.18E+3	1.03E-1	3.70E+2
4.28E-1	2.16E+3	1.15E-1	5.02E+2
4.29E-1	2.30E+3	1.06E-1	3.91E+2
4.26E-1	2.29E+3	9.99E-2	3.50E+2
4.34E-1	2.29E+3	1.04E-1	4.37E+2
4.23E-1	2.21E+3	1.06E-1	4.40E+2
4.33E-1	2.30E+3	1.10E-1	4.73E+2
4.20E-1	2.32E+3	1.03E-1	4.44E+2
4.03E-1	2.25E+3	1.11E-1	5.06E+2
4.35E-1	2.31E+3	1.11E-1	4.93E+2
4.31E-1	2.26E+3	1.10E-1	4.85E+2
4.13E-1	2.28E+3	1.02E-1	4.65E+2
4.11E-1	2.30E+3	1.12E-1	4.34E+2
4.43E-1	2.37E+3	1.08E-1	4.19E+2
4.28E-1	2.34E+3	1.09E-1	4.29E+2
4.17E-1	2.24E+3	1.02E-1	3.44E+2
4.13E-1	2.32E+3	1.02E-1	4.28E+2
4.17E-1	2.34E+3	1.06E-1	4.43E+2
4.30E-1	2.32E+3	1.04E-1	4.01E+2
4.09E-1	2.28E+3	1.03E-1	3.84E+2
4.18E-1	2.25E+3	1.02E-1	3.79E+2
4.41E-1	2.36E+3	1.02E-1	4.16E+2
4.45E-1	2.37E+3	1.11E-1	5.01E+2
4.07E-1	2.19E+3	1.13E-1	4.86E+2
4.27E-1	2.12E+3	1.09E-1	3.90E+2
4.08E-1	2.21E+3	1.14E-1	4.21E+2
4.00E-1	2.16E+3	1.10E-1	4.59E+2
4.29E-1	2.25E+3	1.05E-1	4.22E+2
4.42E-1	2.26E+3	1.07E-1	4.05E+2
4.14E-1	2.34E+3	1.07E-1	4.18E+2
4.10E-1	2.26E+3	1.09E-1	3.87E+2
4.27E-1	2.19E+3	1.07E-1	4.29E+2
4.26E-1	2.21E+3	1.04E-1	4.37E+2
4.08E-1	2.33E+3	1.07E-1	4.69E+2
4.33E-1	2.26E+3	1.04E-1	5.17E+2
4.30E-1	2.26E+3	1.01E-1	4.46E+2
4.30E-1	2.30E+3	1.12E-1	4.64E+2
4.42E-1	2.34E+3	1.12E-1	4.89E+2
4.43E-1	2.35E+3	1.07E-1	4.81E+2
4.17E-1	2.31E+3	1.06E-1	4.88E+2
4.07E-1	2.21E+3	1.03E-1	4.44E+2
3.99E-1	2.24E+3	1.10E-1	4.88E+2
4.05E-1	2.22E+3	9.94E-2	3.87E+2
4.23E-1	2.18E+3	1.05E-1	3.63E+2
4.43E-1	2.37E+3	1.00E-1	4.35E+2
4.18E-1	2.27E+3	1.06E-1	4.13E+2
4.19E-1	2.26E+3	1.01E-1	3.74E+2
4.46E-1	2.40E+3	1.01E-1	4.00E+2
4.33E-1	2.25E+3	1.13E-1	4.32E+2
4.08E-1	2.26E+3	9.99E-2	4.35E+2
4.34E-1	2.29E+3	1.05E-1	4.55E+2
4.22E-1	2.34E+3	1.03E-1	4.80E+2
4.35E-1	2.27E+3	1.09E-1	4.58E+2
4.33E-1	2.15E+3	1.06E-1	4.09E+2
4.15E-1	2.26E+3	1.04E-1	4.28E+2
3.99E-1	2.17E+3	1.11E-1	5.02E+2
4.34E-1	2.37E+3	1.07E-1	4.21E+2
4.44E-1	2.25E+3	1.06E-1	4.06E+2
4.02E-1	2.28E+3	1.11E-1	4.90E+2
4.21E-1	2.17E+3	1.07E-1	4.27E+2
4.18E-1	2.26E+3	1.07E-1	4.58E+2
4.34E-1	2.36E+3	1.08E-1	4.50E+2
4.13E-1	2.37E+3	1.01E-1	4.21E+2
4.30E-1	2.31E+3	1.11E-1	4.62E+2
4.18E-1	2.29E+3	1.07E-1	4.47E+2
4.54E-1	2.36E+3	1.11E-1	4.50E+2
4.31E-1	2.28E+3	1.07E-1	5.28E+2
4.32E-1	2.32E+3	1.10E-1	4.94E+2
4.08E-1	2.29E+3	1.06E-1	4.03E+2
4.02E-1	2.20E+3	1.00E-1	4.05E+2
4.17E-1	2.24E+3	1.08E-1	4.19E+2
3.96E-1	2.23E+3	1.09E-1	4.88E+2
4.42E-1	2.36E+3	1.07E-1	3.80E+2
4.20E-1	2.30E+3	1.02E-1	4.12E+2
4.27E-1	2.31E+3	1.05E-1	4.48E+2
4.24E-1	2.22E+3	1.04E-1	4.12E+2
4.06E-1	2.33E+3	1.04E-1	4.80E+2
4.22E-1	2.32E+3	1.03E-1	3.99E+2
4.36E-1	2.29E+3	1.02E-1	3.73E+2
4.27E-1	2.15E+3	1.11E-1	4.82E+2
4.12E-1	2.30E+3	1.08E-1	3.83E+2
3.99E-1	2.17E+3	1.10E-1	4.37E+2
4.16E-1	2.30E+3	1.03E-1	4.09E+2
4.19E-1	2.26E+3	1.07E-1	4.23E+2
4.06E-1	2.21E+3	1.05E-1	4.04E+2
4.33E-1	2.31E+3	1.10E-1	4.38E+2
8.30E-3	2.17E+1	3.43E-1	1.13E+3
4.13E-1	2.36E+3	1.06E-1	4.36E+2
4.12E-1	2.20E+3	1.06E-1	3.98E+2
4.44E-1	2.30E+3	1.01E-1	3.94E+2
4.35E-1	2.29E+3	1.10E-1	4.85E+2
4.47E-1	2.38E+3	1.12E-1	4.81E+2
4.36E-1	2.19E+3	1.07E-1	4.59E+2
4.20E-1	2.26E+3	1.13E-1	5.60E+2
4.20E-1	2.14E+3	1.17E-1	4.65E+2
4.08E-1	2.29E+3	9.84E-2	4.04E+2
4.39E-1	2.36E+3	1.08E-1	4.63E+2
4.22E-1	2.17E+3	1.09E-1	4.07E+2
4.12E-1	2.31E+3	1.04E-1	3.95E+2
4.25E-1	2.21E+3	1.07E-1	4.30E+2
4.38E-1	2.46E+3	1.07E-1	4.36E+2
4.41E-1	2.31E+3	1.00E-1	3.65E+2
4.28E-1	2.23E+3	1.11E-1	4.77E+2
4.32E-1	2.35E+3	1.16E-1	5.58E+2
4.48E-1	2.32E+3	1.03E-1	4.65E+2
4.41E-1	2.25E+3	1.08E-1	4.65E+2
4.40E-1	2.29E+3	1.05E-1	4.71E+2
4.40E-1	2.33E+3	1.13E-1	4.79E+2
4.28E-1	2.23E+3	1.04E-1	3.83E+2
4.07E-1	2.22E+3	1.06E-1	3.91E+2
4.39E-1	2.25E+3	1.02E-1	4.46E+2
4.10E-1	2.26E+3	1.00E-1	4.06E+2
4.26E-1	2.22E+3	1.07E-1	4.12E+2
4.20E-1	2.28E+3	1.02E-1	3.84E+2
4.18E-1	2.29E+3	1.06E-1	4.60E+2
4.31E-1	2.32E+3	1.08E-1	4.24E+2
4.24E-1	2.36E+3	1.01E-1	4.55E+2
4.31E-1	2.34E+3	9.81E-2	3.92E+2
4.36E-1	2.29E+3	1.02E-1	4.39E+2
4.29E-1	2.36E+3	1.12E-1	4.68E+2
4.28E-1	2.26E+3	9.86E-2	3.71E+2
4.24E-1	2.25E+3	9.64E-2	4.43E+2
4.42E-1	2.27E+3	1.13E-1	4.53E+2
4.12E-1	2.20E+3	1.07E-1	4.51E+2
4.01E-1	2.19E+3	1.03E-1	3.78E+2
4.08E-1	2.29E+3	1.02E-1	4.46E+2
4.12E-1	2.26E+3	1.09E-1	4.25E+2
4.25E-1	2.24E+3	1.04E-1	4.48E+2
4.13E-1	2.19E+3	1.10E-1	4.14E+2
4.25E-1	2.22E+3	1.04E-1	4.58E+2
4.37E-1	2.31E+3	1.10E-1	4.49E+2
4.28E-1	2.30E+3	1.08E-1	4.47E+2
4.12E-1	2.29E+3	1.07E-1	4.17E+2
4.46E-1	2.28E+3	1.07E-1	4.67E+2
4.21E-1	2.13E+3	9.57E-2	4.18E+2
4.18E-1	2.26E+3	1.01E-1	4.70E+2
4.08E-1	2.22E+3	1.03E-1	4.43E+2
4.14E-1	2.32E+3	1.10E-1	4.44E+2
4.16E-1	2.19E+3	1.08E-1	4.32E+2
4.48E-1	2.40E+3	1.09E-1	4.27E+2
4.16E-1	2.28E+3	1.09E-1	4.58E+2
4.12E-1	2.33E+3	1.11E-1	4.41E+2
4.28E-1	2.16E+3	1.12E-1	4.18E+2
4.20E-1	2.18E+3	1.05E-1	4.20E+2
4.32E-1	2.17E+3	1.00E-1	4.20E+2
4.08E-1	2.18E+3	1.08E-1	4.28E+2
4.20E-1	2.26E+3	9.99E-2	4.05E+2
4.11E-1	2.35E+3	1.08E-1	4.43E+2
4.13E-1	2.32E+3	1.01E-1	4.13E+2
4.12E-1	2.27E+3	1.02E-1	3.99E+2
4.11E-1	2.32E+3	1.09E-1	4.44E+2
4.02E-1	2.25E+3	1.10E-1	4.82E+2
4.39E-1	2.26E+3	1.06E-1	4.21E+2
4.04E-1	2.27E+3	1.01E-1	4.09E+2
4.30E-1	2.19E+3	1.01E-1	4.26E+2
4.12E-1	2.28E+3	1.04E-1	4.83E+2
4.22E-1	2.40E+3	1.13E-1	4.77E+2
4.50E-1	2.28E+3	9.84E-2	3.99E+2
4.32E-1	2.31E+3	1.06E-1	4.84E+2
4.47E-1	2.27E+3	1.10E-1	4.58E+2
4.19E-1	2.30E+3	1.06E-1	4.57E+2
4.41E-1	2.36E+3	1.05E-1	4.37E+2
4.35E-1	2.16E+3	1.11E-1	4.96E+2
4.22E-1	2.19E+3	1.10E-1	4.61E+2
7.81E-3	1.81E+1	3.27E-1	1.12E+3
4.02E-1	2.25E+3	9.69E-2	3.62E+2
4.14E-1	2.27E+3	1.11E-1	4.69E+2
4.56E-1	2.41E+3	1.10E-1	4.96E+2
4.35E-1	2.32E+3	1.10E-1	4.60E+2
4.44E-1	2.28E+3	1.01E-1	4.01E+2
4.37E-1	2.26E+3	1.09E-1	4.48E+2
4.35E-1	2.22E+3	1.04E-1	4.31E+2
4.06E-1	2.19E+3	1.12E-1	4.57E+2
4.21E-1	2.23E+3	9.74E-2	4.26E+2
4.35E-1	2.41E+3	1.12E-1	4.63E+2
4.10E-1	2.26E+3	1.08E-1	4.48E+2
4.08E-1	2.24E+3	1.07E-1	4.06E+2
3.99E-1	2.18E+3	1.03E-1	4.16E+2
4.18E-1	2.18E+3	1.23E-1	4.49E+2
4.06E-1	2.21E+3	1.10E-1	4.21E+2
4.04E-1	2.22E+3	1.05E-1	4.56E+2
4.03E-1	2.26E+3	9.89E-2	4.27E+2
4.21E-1	2.32E+3	1.07E-1	4.35E+2
4.33E-1	2.27E+3	1.07E-1	5.11E+2
4.27E-1	2.31E+3	1.12E-1	5.43E+2
4.34E-1	2.26E+3	1.04E-1	4.87E+2
4.08E-1	2.20E+3	1.04E-1	4.01E+2
4.09E-1	2.26E+3	1.06E-1	4.17E+2
4.09E-1	2.29E+3	1.08E-1	4.39E+2
4.22E-1	2.33E+3	1.05E-1	5.10E+2
4.03E-1	2.20E+3	1.08E-1	4.03E+2
4.28E-1	2.11E+3	1.07E-1	4.21E+2
3.99E-1	2.18E+3	1.03E-1	3.55E+2
4.11E-1	2.23E+3	1.04E-1	4.35E+2
4.19E-1	2.21E+3	1.04E-1	4.88E+2
4.19E-1	2.17E+3	1.08E-1	4.47E+2
4.37E-1	2.40E+3	1.14E-1	5.15E+2
4.30E-1	2.27E+3	1.10E-1	4.84E+2
4.04E-1	2.23E+3	1.04E-1	4.21E+2
4.11E-1	2.27E+3	1.10E-1	4.31E+2
4.25E-1	2.24E+3	1.12E-1	4.78E+2
3.99E-1	2.24E+3	1.07E-1	4.35E+2
4.31E-1	2.27E+3	1.02E-1	4.09E+2
4.16E-1	2.15E+3	1.09E-1	3.93E+2
4.10E-1	2.27E+3	1.08E-1	4.43E+2
4.27E-1	2.27E+3	9.77E-2	3.74E+2
4.10E-1	2.29E+3	1.06E-1	4.35E+2
4.12E-1	2.36E+3	1.03E-1	4.37E+2
4.21E-1	2.24E+3	1.04E-1	4.46E+2
1.22E-2	2.18E+1	3.21E-1	1.08E+3
4.23E-1	2.25E+3	1.07E-1	3.92E+2
4.32E-1	2.23E+3	1.09E-1	5.01E+2
4.23E-1	2.27E+3	1.10E-1	4.36E+2
4.42E-1	2.18E+3	1.08E-1	4.38E+2
4.05E-1	2.26E+3	1.04E-1	3.70E+2
4.09E-1	2.23E+3	1.09E-1	4.24E+2
4.25E-1	2.24E+3	1.17E-1	4.74E+2
3.99E-1	2.13E+3	1.11E-1	4.43E+2
4.10E-1	2.30E+3	1.13E-1	4.27E+2
4.18E-1	2.29E+3	1.04E-1	3.91E+2
4.27E-1	2.30E+3	1.08E-1	4.55E+2
4.28E-1	2.31E+3	1.08E-1	4.36E+2
