4.83E-1	3.65E+3	1.09E-1	6.80E+2
4.60E-1	3.49E+3	9.45E-2	6.52E+2
4.82E-1	3.62E+3	1.06E-1	6.61E+2
4.57E-1	3.45E+3	1.04E-1	6.35E+2
4.79E-1	3.69E+3	1.05E-1	7.04E+2
4.83E-1	3.57E+3	9.47E-2	6.96E+2
4.65E-1	3.54E+3	1.01E-1	7.11E+2
4.67E-1	3.44E+3	1.05E-1	7.08E+2
4.83E-1	3.37E+3	1.02E-1	6.37E+2
4.80E-1	3.40E+3	1.02E-1	6.74E+2
4.60E-1	3.49E+3	1.02E-1	6.05E+2
4.70E-1	3.40E+3	1.01E-1	6.45E+2
4.56E-1	3.50E+3	9.89E-2	6.58E+2
4.65E-1	3.57E+3	1.05E-1	6.91E+2
4.73E-1	3.51E+3	9.50E-2	6.43E+2
4.87E-1	3.56E+3	9.20E-2	6.27E+2
4.74E-1	3.49E+3	8.89E-2	6.56E+2
4.81E-1	3.50E+3	1.05E-1	7.19E+2
4.99E-1	3.57E+3	1.04E-1	7.25E+2
4.57E-1	3.36E+3	1.04E-1	7.42E+2
4.62E-1	3.48E+3	1.02E-1	6.84E+2
4.78E-1	3.46E+3	9.74E-2	7.08E+2
4.48E-1	3.43E+3	1.04E-1	6.92E+2
4.79E-1	3.40E+3	1.00E-1	6.46E+2
4.53E-1	3.45E+3	1.02E-1	6.64E+2
4.65E-1	3.52E+3	1.04E-1	7.00E+2
4.68E-1	3.54E+3	1.05E-1	7.03E+2
4.78E-1	3.57E+3	9.94E-2	7.03E+2
4.71E-1	3.46E+3	1.18E-1	7.06E+2
4.88E-1	3.51E+3	9.77E-2	6.25E+2
4.83E-1	3.54E+3	1.07E-1	7.36E+2
4.88E-1	3.50E+3	1.09E-1	6.88E+2
4.56E-1	3.41E+3	1.02E-1	6.60E+2
4.67E-1	3.38E+3	1.00E-1	6.93E+2
4.67E-1	3.43E+3	1.03E-1	7.06E+2
4.62E-1	3.55E+3	9.77E-2	6.27E+2
4.69E-1	3.48E+3	1.14E-1	6.82E+2
4.81E-1	3.58E+3	9.52E-2	6.69E+2
4.48E-1	3.37E+3	1.06E-1	6.69E+2
4.62E-1	3.50E+3	1.06E-1	6.77E+2
4.62E-1	3.41E+3	1.09E-1	7.35E+2
4.79E-1	3.53E+3	9.89E-2	6.77E+2
4.79E-1	3.52E+3	9.47E-2	6.58E+2
4.78E-1	3.49E+3	1.01E-1	6.96E+2
4.70E-1	3.52E+3	9.69E-2	6.66E+2
4.75E-1	3.54E+3	1.04E-1	6.81E+2
4.52E-1	3.43E+3	9.20E-2	6.07E+2
5.00E-1	3.59E+3	1.02E-1	6.51E+2
4.62E-1	3.48E+3	1.09E-1	7.23E+2
4.77E-1	3.46E+3	9.72E-2	6.13E+2
4.72E-1	3.44E+3	1.01E-1	6.63E+2
4.82E-1	3.55E+3	1.02E-1	6.69E+2
4.71E-1	3.61E+3	1.07E-1	6.64E+2
4.66E-1	3.57E+3	1.07E-1	6.58E+2
4.92E-1	3.65E+3	9.67E-2	6.77E+2
4.89E-1	3.53E+3	9.64E-2	6.03E+2
4.67E-1	3.54E+3	1.02E-1	6.73E+2
4.85E-1	3.43E+3	1.02E-1	7.14E+2
4.87E-1	3.52E+3	1.08E-1	7.08E+2
4.94E-1	3.58E+3	1.02E-1	6.91E+2
4.78E-1	3.48E+3	9.47E-2	6.47E+2
4.90E-1	3.49E+3	9.99E-2	6.55E+2
5.02E-1	3.65E+3	1.00E-1	7.05E+2
4.74E-1	3.55E+3	1.00E-1	6.15E+2
4.62E-1	3.43E+3	9.35E-2	5.70E+2
4.74E-1	3.47E+3	9.25E-2	5.98E+2
4.71E-1	3.64E+3	1.09E-1	7.48E+2
4.59E-1	3.41E+3	1.06E-1	7.13E+2
4.70E-1	3.49E+3	1.01E-1	6.88E+2
4.70E-1	3.45E+3	8.89E-2	5.74E+2
4.59E-1	3.44E+3	9.20E-2	5.75E+2
4.83E-1	3.51E+3	1.04E-1	7.27E+2
4.88E-1	3.56E+3	9.79E-2	6.96E+2
4.78E-1	3.36E+3	9.69E-2	6.01E+2
4.72E-1	3.54E+3	9.47E-2	6.53E+2
4.72E-1	3.57E+3	1.03E-1	6.98E+2
4.82E-1	3.57E+3	1.02E-1	6.37E+2
5.00E-1	3.58E+3	1.02E-1	6.48E+2
4.63E-1	3.54E+3	1.01E-1	6.79E+2
4.58E-1	3.51E+3	1.12E-1	6.55E+2
4.53E-1	3.32E+3	9.35E-2	6.23E+2
4.65E-1	3.57E+3	9.64E-2	6.58E+2
4.96E-1	3.65E+3	1.05E-1	6.91E+2
4.83E-1	3.55E+3	9.64E-2	6.00E+2
4.98E-1	3.55E+3	9.69E-2	6.43E+2
4.72E-1	3.45E+3	1.01E-1	6.42E+2
4.89E-1	3.57E+3	1.04E-1	7.50E+2
4.79E-1	3.63E+3	9.69E-2	6.74E+2
4.80E-1	3.60E+3	1.06E-1	7.09E+2
4.83E-1	3.46E+3	9.91E-2	6.86E+2
4.62E-1	3.53E+3	1.07E-1	7.38E+2
4.70E-1	3.62E+3	9.23E-2	6.46E+2
4.43E-1	3.34E+3	1.04E-1	6.74E+2
4.67E-1	3.52E+3	9.67E-2	6.76E+2
4.67E-1	3.58E+3	1.06E-1	6.71E+2
4.98E-1	3.61E+3	8.81E-2	5.26E+2
4.79E-1	3.58E+3	1.16E-1	7.31E+2
4.75E-1	3.50E+3	9.47E-2	6.28E+2
4.79E-1	3.52E+3	9.99E-2	6.54E+2
4.75E-1	3.47E+3	1.06E-1	7.18E+2
4.87E-1	3.55E+3	1.03E-1	6.59E+2
4.86E-1	3.53E+3	1.03E-1	6.58E+2
4.62E-1	3.48E+3	1.09E-1	6.70E+2
4.93E-1	3.59E+3	1.02E-1	6.87E+2
4.67E-1	3.61E+3	9.99E-2	6.48E+2
4.79E-1	3.43E+3	1.03E-1	6.92E+2
4.76E-1	3.50E+3	9.77E-2	6.06E+2
4.64E-1	3.48E+3	1.01E-1	6.49E+2
4.81E-1	3.55E+3	9.91E-2	6.50E+2
4.77E-1	3.51E+3	1.04E-1	6.38E+2
4.82E-1	3.58E+3	1.01E-1	6.58E+2
4.80E-1	3.61E+3	1.02E-1	6.85E+2
4.93E-1	3.62E+3	9.62E-2	6.68E+2
4.77E-1	3.48E+3	1.08E-1	6.97E+2
4.63E-1	3.49E+3	9.40E-2	6.79E+2
4.74E-1	3.52E+3	9.52E-2	6.79E+2
4.94E-1	3.55E+3	1.01E-1	7.35E+2
4.69E-1	3.51E+3	1.03E-1	7.18E+2
4.82E-1	3.52E+3	9.94E-2	6.15E+2
4.78E-1	3.62E+3	1.02E-1	6.77E+2
5.00E-1	3.53E+3	9.67E-2	6.58E+2
4.78E-1	3.59E+3	1.04E-1	7.18E+2
4.71E-1	3.46E+3	1.03E-1	7.00E+2
4.75E-1	3.60E+3	1.01E-1	6.83E+2
4.85E-1	3.53E+3	1.05E-1	6.80E+2
4.59E-1	3.59E+3	1.04E-1	7.29E+2
4.89E-1	3.57E+3	9.81E-2	6.57E+2
4.99E-1	3.57E+3	1.18E-1	6.43E+2
4.51E-1	3.41E+3	1.06E-1	6.92E+2
4.58E-1	3.41E+3	9.40E-2	6.14E+2
5.37E-3	4.39E-1	2.94E-1	1.68E+3
4.80E-1	3.60E+3	9.96E-2	6.30E+2
4.86E-1	3.51E+3	9.89E-2	6.55E+2
4.89E-1	3.53E+3	1.04E-1	6.43E+2
4.54E-1	3.44E+3	9.50E-2	5.90E+2
4.68E-1	3.57E+3	1.10E-1	7.13E+2
4.78E-1	3.61E+3	9.77E-2	6.12E+2
4.48E-1	3.39E+3	1.12E-1	6.97E+2
4.69E-1	3.51E+3	1.00E-1	6.50E+2
4.64E-1	3.52E+3	9.77E-2	6.88E+2
5.00E-1	3.47E+3	1.04E-1	6.93E+2
4.53E-1	3.45E+3	9.62E-2	6.27E+2
4.72E-1	3.50E+3	1.07E-1	6.66E+2
4.69E-1	3.54E+3	1.05E-1	6.92E+2
4.86E-1	3.60E+3	9.67E-2	6.78E+2
4.62E-1	3.48E+3	9.35E-2	6.78E+2
4.69E-1	3.49E+3	9.96E-2	6.89E+2
4.75E-1	3.59E+3	9.30E-2	6.17E+2
4.72E-1	3.50E+3	9.37E-2	6.15E+2
4.98E-1	3.59E+3	9.64E-2	6.43E+2
4.62E-1	3.57E+3	9.77E-2	6.45E+2
4.62E-1	3.40E+3	1.01E-1	6.66E+2
4.80E-1	3.47E+3	1.02E-1	6.75E+2
4.84E-1	3.55E+3	9.33E-2	5.92E+2
4.68E-1	3.51E+3	1.03E-1	6.89E+2
4.65E-1	3.54E+3	8.89E-2	6.52E+2
4.90E-1	3.55E+3	9.62E-2	6.44E+2
4.85E-1	3.45E+3	1.13E-1	7.13E+2
4.74E-1	3.52E+3	1.01E-1	6.12E+2
4.58E-1	3.45E+3	1.01E-1	6.72E+2
1.63E-1	1.24E+2	3.09E-1	1.67E+3
4.97E-1	3.57E+3	1.02E-1	6.26E+2
4.64E-1	3.50E+3	1.06E-1	6.44E+2
4.62E-1	3.46E+3	1.08E-1	6.61E+2
4.70E-1	3.59E+3	1.01E-1	6.46E+2
4.88E-1	3.53E+3	1.00E-1	6.81E+2
4.99E-1	3.68E+3	9.86E-2	6.80E+2
4.87E-1	3.52E+3	9.99E-2	6.89E+2
4.81E-1	3.47E+3	1.13E-1	7.62E+2
4.69E-1	3.42E+3	1.02E-1	6.68E+2
4.69E-1	3.41E+3	9.81E-2	6.78E+2
4.84E-1	3.48E+3	1.00E-1	6.09E+2
4.75E-1	3.58E+3	9.99E-2	7.05E+2
4.73E-1	3.47E+3	1.07E-1	7.19E+2
4.56E-1	3.43E+3	9.47E-2	6.23E+2
4.51E-1	3.46E+3	9.69E-2	6.38E+2
4.64E-1	3.48E+3	1.01E-1	6.07E+2
5.00E-1	3.66E+3	9.69E-2	6.75E+2
4.90E-1	3.50E+3	9.72E-2	6.18E+2
5.14E-1	3.58E+3	1.07E-1	7.13E+2
4.60E-1	3.45E+3	9.84E-2	6.11E+2
4.84E-1	3.60E+3	1.19E-1	7.25E+2
4.82E-1	3.51E+3	9.20E-2	6.26E+2
4.76E-1	3.50E+3	1.18E-1	7.22E+2
4.81E-1	3.53E+3	1.04E-1	6.49E+2
5.07E-1	3.59E+3	1.05E-1	7.30E+2
4.61E-1	3.50E+3	9.96E-2	6.39E+2
4.53E-1	3.38E+3	1.01E-1	6.44E+2
4.71E-1	3.36E+3	9.37E-2	5.99E+2
4.75E-1	3.46E+3	9.94E-2	6.22E+2
4.57E-1	3.48E+3	9.99E-2	6.95E+2
4.68E-1	3.47E+3	9.16E-2	6.46E+2
4.32E-1	3.28E+3	1.14E-1	6.66E+2
4.56E-1	3.43E+3	9.11E-2	5.47E+2
4.60E-1	3.34E+3	9.94E-2	6.26E+2
5.00E-1	3.55E+3	1.05E-1	7.12E+2
4.63E-1	3.38E+3	9.64E-2	7.07E+2
4.72E-1	3.48E+3	9.45E-2	6.60E+2
4.69E-1	3.56E+3	1.00E-1	6.60E+2
4.69E-1	3.48E+3	1.06E-1	7.33E+2
4.66E-1	3.43E+3	9.52E-2	6.33E+2
4.92E-1	3.51E+3	1.02E-1	6.39E+2
4.92E-1	3.50E+3	1.02E-1	6.85E+2
4.81E-1	3.46E+3	9.30E-2	6.24E+2
4.73E-1	3.49E+3	9.72E-2	6.47E+2
4.75E-1	3.60E+3	1.01E-1	6.55E+2
4.66E-1	3.57E+3	9.77E-2	6.75E+2
4.88E-1	3.49E+3	9.06E-2	6.18E+2
4.93E-1	3.49E+3	1.08E-1	7.22E+2
4.87E-1	3.49E+3	1.03E-1	6.95E+2
4.65E-1	3.45E+3	1.05E-1	6.81E+2
4.79E-1	3.42E+3	1.05E-1	6.92E+2
4.58E-1	3.42E+3	9.96E-2	6.59E+2
4.60E-1	3.39E+3	1.01E-1	6.66E+2
4.74E-1	3.64E+3	1.06E-1	6.62E+2
4.67E-1	3.55E+3	1.06E-1	7.15E+2
4.86E-1	3.57E+3	1.05E-1	7.00E+2
4.75E-1	3.56E+3	9.42E-2	5.83E+2
4.78E-1	3.53E+3	9.86E-2	6.10E+2
5.04E-1	3.52E+3	1.03E-1	6.73E+2
4.72E-1	3.44E+3	1.12E-1	6.91E+2
5.01E-1	3.66E+3	9.96E-2	6.67E+2
4.67E-1	3.52E+3	9.84E-2	7.24E+2
4.74E-1	3.46E+3	9.99E-2	6.53E+2
5.03E-1	3.63E+3	9.84E-2	6.70E+2
4.69E-1	3.46E+3	1.02E-1	7.12E+2
4.58E-1	3.48E+3	1.03E-1	6.34E+2
4.69E-1	3.51E+3	1.01E-1	6.40E+2
4.81E-1	3.51E+3	1.01E-1	6.32E+2
4.80E-1	3.46E+3	9.96E-2	6.29E+2
4.64E-1	3.43E+3	1.03E-1	6.49E+2
4.61E-1	3.45E+3	9.67E-2	6.79E+2
4.71E-1	3.56E+3	9.77E-2	6.01E+2
4.69E-1	3.46E+3	1.00E-1	6.26E+2
4.77E-1	3.48E+3	9.96E-2	6.72E+2
4.62E-1	3.52E+3	1.06E-1	7.11E+2
4.69E-1	3.31E+3	9.16E-2	6.34E+2
4.86E-1	3.47E+3	1.03E-1	6.95E+2
4.65E-1	3.51E+3	9.55E-2	6.55E+2
4.63E-1	3.46E+3	9.42E-2	6.32E+2
4.74E-1	3.44E+3	1.02E-1	7.09E+2
4.66E-1	3.51E+3	1.03E-1	6.86E+2
4.79E-1	3.46E+3	1.05E-1	7.43E+2
4.82E-1	3.63E+3	1.02E-1	6.73E+2
4.71E-1	3.58E+3	1.01E-1	7.02E+2
4.76E-1	3.48E+3	9.77E-2	6.30E+2
4.91E-1	3.57E+3	1.06E-1	7.67E+2
4.70E-1	3.48E+3	1.01E-1	6.78E+2
4.81E-1	3.54E+3	1.13E-1	6.60E+2
4.82E-1	3.64E+3	1.19E-1	7.02E+2
4.73E-1	3.57E+3	9.99E-2	6.93E+2
4.78E-1	3.44E+3	1.05E-1	6.87E+2
4.97E-1	3.64E+3	9.67E-2	6.36E+2
4.77E-1	3.53E+3	9.59E-2	6.67E+2
4.60E-1	3.45E+3	1.00E-1	6.50E+2
4.62E-1	3.35E+3	1.03E-1	6.64E+2
4.71E-1	3.53E+3	1.08E-1	6.91E+2
4.72E-1	3.55E+3	1.09E-1	7.94E+2
4.65E-1	3.53E+3	1.06E-1	6.34E+2
4.65E-1	3.50E+3	1.06E-1	6.98E+2
4.63E-1	3.53E+3	9.81E-2	6.32E+2
4.70E-1	3.49E+3	1.12E-1	7.55E+2
4.85E-1	3.51E+3	9.40E-2	6.44E+2
4.72E-1	3.54E+3	1.02E-1	7.22E+2
5.00E-1	3.64E+3	1.02E-1	6.96E+2
4.60E-1	3.46E+3	9.72E-2	6.81E+2
4.67E-1	3.53E+3	1.02E-1	7.14E+2
4.78E-1	3.56E+3	1.06E-1	7.22E+2
4.55E-1	3.45E+3	1.10E-1	6.67E+2
4.54E-1	3.42E+3	9.91E-2	6.55E+2
4.68E-1	3.29E+3	1.00E-1	6.75E+2
4.86E-1	3.48E+3	1.03E-1	7.19E+2
4.83E-1	3.44E+3	1.04E-1	6.42E+2
4.55E-1	3.50E+3	9.72E-2	6.18E+2
4.80E-1	3.55E+3	8.98E-2	6.03E+2
4.75E-1	3.58E+3	1.01E-1	6.84E+2
4.60E-1	3.39E+3	9.77E-2	6.46E+2
4.95E-1	3.49E+3	9.64E-2	6.83E+2
4.88E-1	3.52E+3	1.04E-1	7.30E+2
4.93E-1	3.49E+3	1.05E-1	7.11E+2
4.87E-1	3.45E+3	1.04E-1	6.98E+2
4.76E-1	3.58E+3	9.13E-2	6.60E+2
4.70E-1	3.57E+3	9.77E-2	6.77E+2
4.71E-1	3.42E+3	1.07E-1	6.87E+2
4.65E-1	3.53E+3	9.45E-2	6.48E+2
4.85E-1	3.48E+3	9.84E-2	7.07E+2
4.58E-1	3.46E+3	1.05E-1	6.75E+2
4.77E-1	3.58E+3	1.02E-1	6.55E+2
4.80E-1	3.49E+3	1.06E-1	7.31E+2
4.71E-1	3.41E+3	9.33E-2	5.74E+2
4.50E-1	3.34E+3	1.01E-1	6.93E+2
4.72E-1	3.48E+3	9.94E-2	6.76E+2
4.82E-1	3.61E+3	9.84E-2	6.95E+2
4.69E-1	3.50E+3	1.03E-1	6.84E+2
4.84E-1	3.61E+3	9.74E-2	6.66E+2
4.86E-1	3.50E+3	1.10E-1	7.38E+2
4.56E-1	3.44E+3	9.79E-2	6.35E+2
4.87E-1	3.60E+3	1.06E-1	6.95E+2
4.54E-1	3.43E+3	1.03E-1	6.55E+2
4.58E-1	3.46E+3	1.03E-1	6.42E+2
4.90E-1	3.55E+3	9.52E-2	5.96E+2
4.44E-1	3.36E+3	9.72E-2	6.79E+2
4.64E-1	3.47E+3	9.55E-2	6.71E+2
4.60E-1	3.47E+3	1.01E-1	6.42E+2
4.91E-1	3.61E+3	1.02E-1	7.19E+2
4.73E-1	3.49E+3	1.07E-1	7.54E+2
4.84E-1	3.56E+3	9.50E-2	6.28E+2
4.66E-1	3.58E+3	1.03E-1	7.37E+2
4.71E-1	3.39E+3	1.01E-1	6.82E+2
4.69E-1	3.56E+3	1.02E-1	6.63E+2
4.82E-1	3.52E+3	9.94E-2	6.98E+2
4.53E-1	3.40E+3	9.55E-2	6.28E+2
4.77E-1	3.44E+3	1.05E-1	6.86E+2
4.84E-1	3.50E+3	9.47E-2	6.78E+2
4.88E-1	3.55E+3	9.57E-2	6.35E+2
4.89E-1	3.60E+3	1.01E-1	6.84E+2
4.54E-1	3.37E+3	9.18E-2	6.15E+2
4.73E-1	3.45E+3	9.77E-2	6.35E+2
4.82E-1	3.49E+3	9.23E-2	5.95E+2
4.71E-1	3.55E+3	8.89E-2	5.88E+2
4.83E-1	3.54E+3	1.04E-1	7.09E+2
4.65E-1	3.40E+3	1.08E-1	6.94E+2
5.03E-1	3.50E+3	1.03E-1	6.57E+2
4.64E-1	3.48E+3	1.02E-1	6.66E+2
4.80E-1	3.55E+3	1.05E-1	7.37E+2
4.47E-1	3.33E+3	1.01E-1	6.76E+2
4.59E-1	3.49E+3	9.42E-2	5.82E+2
4.63E-1	3.54E+3	9.74E-2	6.85E+2
4.60E-1	3.49E+3	1.02E-1	6.64E+2
4.63E-1	3.42E+3	1.07E-1	7.09E+2
4.80E-1	3.44E+3	9.67E-2	6.42E+2
4.69E-1	3.46E+3	1.06E-1	7.03E+2
4.88E-1	3.57E+3	1.01E-1	6.73E+2
4.72E-1	3.48E+3	9.25E-2	6.49E+2
4.57E-1	3.45E+3	1.03E-1	6.93E+2
4.81E-1	3.47E+3	1.05E-1	6.81E+2
5.00E-1	3.60E+3	1.12E-1	7.52E+2
4.63E-1	3.47E+3	1.05E-1	7.19E+2
4.48E-1	3.29E+3	9.08E-2	6.41E+2
4.72E-1	3.56E+3	9.45E-2	6.13E+2
4.80E-1	3.52E+3	9.45E-2	6.37E+2
4.52E-1	3.42E+3	1.00E-1	6.09E+2
4.62E-1	3.51E+3	1.04E-1	6.87E+2
4.80E-1	3.58E+3	1.08E-1	7.51E+2
4.69E-1	3.42E+3	9.84E-2	6.77E+2
4.86E-1	3.50E+3	1.07E-1	7.34E+2
4.67E-1	3.56E+3	9.77E-2	6.69E+2
4.68E-1	3.41E+3	9.72E-2	6.42E+2
4.67E-1	3.37E+3	9.06E-2	6.06E+2
4.91E-1	3.49E+3	1.04E-1	6.94E+2
4.55E-1	3.40E+3	1.10E-1	6.97E+2
4.66E-1	3.47E+3	9.94E-2	6.90E+2
4.73E-1	3.36E+3	9.59E-2	6.85E+2
4.83E-1	3.57E+3	9.55E-2	6.59E+2
4.80E-1	3.48E+3	9.86E-2	6.80E+2
4.58E-1	3.50E+3	9.91E-2	6.17E+2
4.97E-1	3.61E+3	9.35E-2	6.15E+2
5.02E-1	3.50E+3	1.04E-1	7.37E+2
4.87E-1	3.70E+3	1.01E-1	7.21E+2
4.64E-1	3.54E+3	9.81E-2	6.31E+2
4.84E-1	3.52E+3	1.08E-1	7.40E+2
4.58E-1	3.50E+3	9.77E-2	6.82E+2
4.60E-1	3.49E+3	1.08E-1	7.00E+2
4.86E-1	3.48E+3	1.06E-1	6.63E+2
4.54E-1	3.37E+3	1.05E-1	6.87E+2
4.81E-1	3.54E+3	1.02E-1	6.47E+2
4.70E-1	3.57E+3	1.08E-1	6.98E+2
4.78E-1	3.51E+3	1.02E-1	6.58E+2
4.85E-1	3.57E+3	9.84E-2	6.97E+2
4.69E-1	3.46E+3	9.67E-2	6.56E+2
4.55E-1	3.47E+3	9.72E-2	6.22E+2
4.66E-1	3.48E+3	1.04E-1	7.23E+2
4.83E-1	3.57E+3	1.03E-1	6.54E+2
4.89E-1	3.54E+3	1.05E-1	6.52E+2
4.49E-1	3.30E+3	1.05E-1	7.24E+2
5.00E-1	3.61E+3	1.04E-1	6.86E+2
5.03E-1	3.50E+3	9.59E-2	6.34E+2
4.60E-1	3.40E+3	1.02E-1	6.97E+2
4.75E-1	3.49E+3	1.13E-1	7.65E+2
4.92E-1	3.51E+3	9.99E-2	6.83E+2
4.53E-1	3.41E+3	9.89E-2	6.76E+2
4.69E-1	3.44E+3	9.89E-2	6.23E+2
4.79E-1	3.55E+3	9.18E-2	6.07E+2
4.83E-1	3.64E+3	9.42E-2	6.45E+2
4.70E-1	3.61E+3	9.47E-2	5.83E+2
4.62E-1	3.40E+3	1.00E-1	6.36E+2
4.76E-1	3.62E+3	1.03E-1	6.82E+2
4.84E-1	3.48E+3	1.01E-1	6.53E+2
4.96E-1	3.63E+3	9.50E-2	6.34E+2
4.88E-1	3.55E+3	9.40E-2	6.41E+2
4.80E-1	3.48E+3	9.20E-2	6.08E+2
4.71E-1	3.35E+3	1.07E-1	6.80E+2
4.64E-1	3.53E+3	9.35E-2	6.30E+2
4.99E-1	3.62E+3	1.02E-1	6.55E+2
4.95E-1	3.55E+3	9.77E-2	5.91E+2
4.89E-1	3.39E+3	1.04E-1	6.27E+2
4.69E-1	3.47E+3	9.33E-2	5.88E+2
4.60E-1	3.50E+3	1.04E-1	7.17E+2
4.70E-1	3.59E+3	9.94E-2	6.76E+2
4.62E-1	3.48E+3	1.04E-1	6.88E+2
4.73E-1	3.52E+3	9.13E-2	5.67E+2
4.69E-1	3.41E+3	1.07E-1	7.71E+2
4.73E-1	3.51E+3	1.06E-1	7.37E+2
4.77E-1	3.61E+3	9.52E-2	6.94E+2
4.89E-1	3.55E+3	1.07E-1	7.55E+2
4.89E-1	3.64E+3	9.64E-2	7.03E+2
6.59E-3	-8.30E-1	3.04E-1	1.66E+3
4.78E-1	3.45E+3	9.91E-2	6.78E+2
4.52E-1	3.42E+3	1.04E-1	6.56E+2
4.65E-1	3.57E+3	1.07E-1	6.74E+2
4.73E-1	3.51E+3	9.55E-2	6.16E+2
4.75E-1	3.66E+3	9.84E-2	6.27E+2
4.53E-1	3.48E+3	9.18E-2	5.93E+2
4.89E-1	3.54E+3	9.77E-2	6.48E+2
4.83E-1	3.53E+3	1.03E-1	6.96E+2
4.89E-1	3.50E+3	1.01E-1	6.62E+2
4.89E-1	3.56E+3	1.08E-1	7.23E+2
4.66E-1	3.42E+3	1.02E-1	6.48E+2
4.71E-1	3.58E+3	1.02E-1	6.86E+2
4.65E-1	3.50E+3	1.01E-1	6.83E+2
4.72E-1	3.59E+3	1.01E-1	7.13E+2
4.97E-1	3.53E+3	1.08E-1	6.67E+2
4.86E-1	3.56E+3	9.52E-2	6.34E+2
4.61E-1	3.47E+3	9.86E-2	6.47E+2
4.83E-1	3.53E+3	1.02E-1	7.08E+2
4.67E-1	3.48E+3	9.74E-2	6.25E+2
4.66E-1	3.54E+3	1.03E-1	6.81E+2
6.84E-3	1.56E+1	2.87E-1	1.70E+3
4.89E-1	3.59E+3	9.79E-2	6.85E+2
4.82E-1	3.47E+3	1.02E-1	6.61E+2
4.82E-1	3.53E+3	9.86E-2	6.67E+2
4.57E-1	3.50E+3	1.01E-1	6.55E+2
4.87E-1	3.52E+3	1.09E-1	7.34E+2
4.71E-1	3.55E+3	1.06E-1	6.84E+2
4.72E-1	3.51E+3	1.04E-1	7.32E+2
4.63E-1	3.49E+3	1.01E-1	6.95E+2
4.99E-1	3.58E+3	1.05E-1	6.64E+2
4.69E-1	3.58E+3	9.42E-2	5.89E+2
4.69E-1	3.57E+3	9.45E-2	5.76E+2
4.99E-1	3.50E+3	1.03E-1	6.75E+2
4.71E-1	3.49E+3	1.06E-1	6.72E+2
5.02E-1	3.70E+3	1.00E-1	6.76E+2
4.58E-1	3.45E+3	1.01E-1	7.12E+2
4.51E-1	3.40E+3	1.04E-1	7.15E+2
4.87E-1	3.49E+3	1.04E-1	6.71E+2
4.94E-1	3.53E+3	1.14E-1	7.82E+2
4.49E-1	3.36E+3	1.02E-1	6.93E+2
4.82E-1	3.59E+3	1.03E-1	6.42E+2
4.65E-1	3.42E+3	9.84E-2	6.47E+2
4.70E-1	3.48E+3	9.45E-2	6.32E+2
4.66E-1	3.52E+3	1.09E-1	7.02E+2
4.55E-1	3.53E+3	9.79E-2	6.55E+2
4.57E-1	3.46E+3	1.06E-1	6.56E+2
4.56E-1	3.36E+3	1.06E-1	6.98E+2
4.81E-1	3.62E+3	9.72E-2	6.90E+2
4.83E-1	3.47E+3	9.42E-2	6.24E+2
4.79E-1	3.54E+3	9.55E-2	6.94E+2
4.90E-1	3.59E+3	1.06E-1	7.64E+2
4.67E-1	3.47E+3	1.05E-1	7.02E+2
4.87E-1	3.69E+3	1.02E-1	6.46E+2
4.57E-1	3.49E+3	1.04E-1	6.74E+2
4.74E-1	3.46E+3	1.03E-1	7.02E+2
4.77E-1	3.60E+3	1.02E-1	6.21E+2
4.87E-1	3.58E+3	9.67E-2	6.61E+2
4.71E-1	3.49E+3	9.94E-2	6.00E+2
4.56E-1	3.48E+3	1.02E-1	6.65E+2
4.77E-1	3.47E+3	9.67E-2	6.73E+2
4.70E-1	3.46E+3	1.00E-1	6.48E+2
4.95E-1	3.47E+3	9.89E-2	6.42E+2
4.68E-1	3.52E+3	9.28E-2	6.56E+2
4.78E-1	3.55E+3	9.52E-2	6.93E+2
4.73E-1	3.42E+3	1.07E-1	7.09E+2
4.89E-1	3.59E+3	9.79E-2	6.58E+2
4.88E-1	3.51E+3	1.03E-1	6.76E+2
4.81E-1	3.57E+3	9.67E-2	7.10E+2
4.78E-1	3.45E+3	9.62E-2	6.52E+2
4.69E-1	3.52E+3	9.79E-2	6.42E+2
4.59E-1	3.54E+3	9.86E-2	7.21E+2
4.78E-1	3.38E+3	9.52E-2	6.17E+2
4.54E-1	3.44E+3	1.03E-1	6.24E+2
4.96E-1	3.61E+3	9.79E-2	6.61E+2
4.60E-1	3.51E+3	1.00E-1	6.42E+2
4.82E-1	3.55E+3	9.45E-2	6.26E+2
4.77E-1	3.56E+3	9.16E-2	6.31E+2
4.85E-1	3.62E+3	1.07E-1	7.10E+2
4.61E-1	3.49E+3	1.05E-1	6.43E+2
4.75E-1	3.57E+3	9.59E-2	6.70E+2
4.64E-1	3.52E+3	1.04E-1	7.21E+2
4.86E-1	3.47E+3	1.10E-1	7.08E+2
4.66E-1	3.56E+3	9.08E-2	5.87E+2
4.77E-1	3.42E+3	1.06E-1	6.60E+2
4.76E-1	3.59E+3	1.02E-1	6.56E+2
4.69E-1	3.60E+3	9.57E-2	6.26E+2
4.66E-1	3.55E+3	9.94E-2	6.70E+2
4.79E-1	3.51E+3	1.13E-1	7.30E+2
4.74E-1	3.50E+3	1.03E-1	7.37E+2
4.83E-1	3.53E+3	9.89E-2	6.50E+2
4.65E-1	3.52E+3	9.59E-2	6.45E+2
4.76E-1	3.51E+3	1.01E-1	7.08E+2
4.84E-1	3.49E+3	1.02E-1	6.73E+2
4.75E-1	3.51E+3	9.69E-2	7.30E+2
4.71E-1	3.50E+3	9.74E-2	6.65E+2
4.46E-1	3.37E+3	9.89E-2	7.22E+2
4.86E-1	3.62E+3	9.30E-2	6.19E+2
4.68E-1	3.46E+3	1.08E-1	6.93E+2
4.69E-1	3.57E+3	9.86E-2	6.25E+2
4.58E-1	3.51E+3	9.64E-2	6.75E+2
4.94E-1	3.62E+3	1.00E-1	6.64E+2
4.61E-1	3.50E+3	9.37E-2	6.13E+2
4.62E-1	3.54E+3	1.04E-1	7.04E+2
4.72E-1	3.55E+3	9.91E-2	6.71E+2
5.00E-1	3.49E+3	9.86E-2	6.90E+2
4.70E-1	3.42E+3	1.00E-1	7.07E+2
4.98E-1	3.65E+3	1.05E-1	6.92E+2
4.89E-1	3.54E+3	1.03E-1	6.63E+2
4.59E-1	3.49E+3	9.84E-2	6.14E+2
6.84E-3	-6.45E+0	2.93E-1	1.60E+3
4.79E-1	3.57E+3	9.91E-2	6.09E+2
4.87E-1	3.54E+3	1.04E-1	6.78E+2
4.72E-1	3.54E+3	1.03E-1	6.78E+2
4.73E-1	3.54E+3	9.77E-2	6.43E+2
4.48E-1	3.47E+3	9.77E-2	6.27E+2
4.71E-1	3.60E+3	1.06E-1	6.77E+2
4.76E-1	3.52E+3	9.99E-2	6.67E+2
5.04E-1	3.65E+3	1.06E-1	7.14E+2
4.84E-1	3.45E+3	1.01E-1	6.90E+2
5.09E-1	3.54E+3	9.99E-2	6.86E+2
4.60E-1	3.45E+3	9.33E-2	6.01E+2
4.66E-1	3.50E+3	9.72E-2	6.64E+2
4.90E-1	3.59E+3	1.03E-1	6.95E+2
4.65E-1	3.50E+3	1.05E-1	6.95E+2
4.77E-1	3.50E+3	9.94E-2	6.35E+2
4.61E-1	3.43E+3	1.04E-1	6.55E+2
4.70E-1	3.52E+3	9.89E-2	6.66E+2
4.82E-1	3.52E+3	9.25E-2	6.21E+2
5.12E-1	3.70E+3	1.05E-1	7.10E+2
4.71E-1	3.54E+3	1.03E-1	6.50E+2
4.91E-1	3.49E+3	1.08E-1	6.91E+2
4.79E-1	3.56E+3	1.06E-1	6.99E+2
4.79E-1	3.43E+3	1.09E-1	7.78E+2
4.70E-1	3.57E+3	1.01E-1	6.73E+2
4.67E-1	3.50E+3	9.77E-2	6.30E+2
4.78E-1	3.55E+3	1.05E-1	6.83E+2
4.60E-1	3.49E+3	1.08E-1	6.82E+2
4.66E-1	3.47E+3	1.00E-1	6.88E+2
4.63E-1	3.52E+3	1.05E-1	6.68E+2
4.62E-1	3.46E+3	1.04E-1	7.42E+2
4.65E-1	3.51E+3	1.00E-1	6.57E+2
4.78E-1	3.57E+3	1.01E-1	6.50E+2
4.54E-1	3.36E+3	9.16E-2	6.20E+2
4.93E-1	3.49E+3	8.89E-2	6.06E+2
4.77E-1	3.46E+3	9.01E-2	6.08E+2
5.04E-1	3.54E+3	1.08E-1	6.91E+2
4.72E-1	3.52E+3	1.02E-1	7.04E+2
4.83E-1	3.56E+3	1.08E-1	7.26E+2
4.93E-1	3.56E+3	9.28E-2	6.26E+2
4.70E-1	3.54E+3	1.01E-1	6.94E+2
4.69E-1	3.54E+3	1.03E-1	6.36E+2
4.85E-1	3.52E+3	1.03E-1	6.56E+2
4.64E-1	3.50E+3	1.08E-1	7.14E+2
4.77E-1	3.57E+3	9.55E-2	6.47E+2
4.73E-1	3.62E+3	9.72E-2	6.76E+2
4.71E-1	3.55E+3	9.18E-2	6.46E+2
4.80E-1	3.52E+3	1.02E-1	6.73E+2
4.65E-1	3.54E+3	1.06E-1	6.75E+2
4.79E-1	3.51E+3	9.20E-2	6.67E+2
4.93E-1	3.55E+3	1.06E-1	6.71E+2
4.79E-1	3.55E+3	9.96E-2	6.61E+2
4.79E-1	3.52E+3	1.02E-1	7.13E+2
4.65E-1	3.55E+3	1.06E-1	7.27E+2
4.66E-1	3.58E+3	9.89E-2	6.77E+2
4.49E-1	3.39E+3	1.06E-1	6.62E+2
4.72E-1	3.59E+3	1.02E-1	6.76E+2
4.73E-1	3.48E+3	9.40E-2	6.65E+2
4.93E-1	3.55E+3	1.10E-1	7.38E+2
4.88E-1	3.42E+3	1.10E-1	7.06E+2
4.60E-1	3.44E+3	9.35E-2	5.71E+2
4.66E-1	3.53E+3	1.08E-1	7.04E+2
4.85E-1	3.49E+3	1.09E-1	7.82E+2
4.85E-1	3.55E+3	9.84E-2	6.34E+2
4.78E-1	3.54E+3	9.67E-2	6.76E+2
4.67E-1	3.46E+3	9.37E-2	6.78E+2
4.72E-1	3.55E+3	9.79E-2	6.94E+2
4.91E-1	3.57E+3	9.55E-2	6.58E+2
4.69E-1	3.48E+3	1.13E-1	7.16E+2
4.93E-1	3.60E+3	9.25E-2	6.88E+2
4.92E-1	3.41E+3	9.91E-2	6.12E+2
4.59E-1	3.44E+3	1.04E-1	6.74E+2
4.91E-1	3.57E+3	9.37E-2	6.13E+2
4.79E-1	3.61E+3	9.96E-2	6.81E+2
4.52E-1	3.44E+3	9.47E-2	6.47E+2
4.87E-1	3.67E+3	9.81E-2	6.98E+2
4.82E-1	3.65E+3	9.77E-2	6.45E+2
4.67E-1	3.52E+3	1.02E-1	6.77E+2
4.81E-1	3.47E+3	1.01E-1	6.45E+2
6.35E-3	7.91E+0	3.00E-1	1.71E+3
4.86E-1	3.56E+3	9.79E-2	6.52E+2
4.75E-1	3.57E+3	9.20E-2	6.44E+2
4.63E-1	3.49E+3	1.11E-1	7.20E+2
4.78E-1	3.51E+3	1.02E-1	6.61E+2
5.02E-1	3.63E+3	8.84E-2	5.95E+2
4.70E-1	3.48E+3	9.96E-2	6.30E+2
4.78E-1	3.46E+3	1.08E-1	7.20E+2
4.74E-1	3.42E+3	1.00E-1	6.47E+2
4.98E-1	3.60E+3	1.03E-1	6.48E+2
4.60E-1	3.51E+3	1.04E-1	6.77E+2
4.86E-1	3.64E+3	1.02E-1	6.72E+2
4.78E-1	3.51E+3	9.52E-2	6.86E+2
6.59E-3	1.35E+1	2.98E-1	1.69E+3
5.01E-1	3.63E+3	1.07E-1	7.38E+2
4.77E-1	3.47E+3	9.11E-2	6.35E+2
4.70E-1	3.48E+3	8.79E-2	5.96E+2
4.90E-1	3.57E+3	1.01E-1	6.59E+2
4.88E-1	3.52E+3	1.04E-1	7.20E+2
4.91E-1	3.49E+3	9.72E-2	6.42E+2
4.56E-1	3.53E+3	9.74E-2	6.84E+2
4.62E-1	3.49E+3	9.57E-2	6.42E+2
4.65E-1	3.52E+3	9.55E-2	6.15E+2
5.03E-1	3.59E+3	1.05E-1	6.94E+2
5.03E-1	3.57E+3	1.02E-1	6.85E+2
4.67E-1	3.55E+3	1.03E-1	6.76E+2
4.73E-1	3.51E+3	9.57E-2	6.29E+2
4.91E-1	3.55E+3	9.91E-2	6.61E+2
4.58E-1	3.40E+3	9.45E-2	6.06E+2
4.82E-1	3.64E+3	9.67E-2	5.92E+2
4.65E-1	3.51E+3	1.00E-1	6.68E+2
4.70E-1	3.57E+3	1.08E-1	6.74E+2
4.53E-1	3.44E+3	9.35E-2	6.04E+2
4.92E-1	3.46E+3	1.03E-1	6.48E+2
4.61E-1	3.53E+3	1.04E-1	6.79E+2
4.87E-1	3.58E+3	1.05E-1	6.98E+2
4.75E-1	3.54E+3	1.01E-1	6.76E+2
4.56E-1	3.51E+3	9.50E-2	6.22E+2
5.07E-1	3.60E+3	9.72E-2	6.70E+2
4.58E-1	3.43E+3	9.42E-2	6.27E+2
4.78E-1	3.52E+3	1.04E-1	7.49E+2
5.08E-1	3.55E+3	9.45E-2	5.98E+2
4.66E-1	3.44E+3	9.55E-2	6.46E+2
4.79E-1	3.58E+3	1.06E-1	7.92E+2
4.82E-1	3.44E+3	1.01E-1	7.51E+2
4.90E-1	3.54E+3	9.84E-2	6.40E+2
4.74E-1	3.52E+3	9.55E-2	6.75E+2
4.77E-1	3.57E+3	1.10E-1	6.52E+2
4.63E-1	3.51E+3	1.12E-1	7.20E+2
4.61E-1	3.52E+3	1.02E-1	6.30E+2
4.59E-1	3.43E+3	9.77E-2	6.24E+2
4.55E-1	3.37E+3	9.37E-2	5.96E+2
4.76E-1	3.57E+3	9.94E-2	6.23E+2
8.79E-3	1.07E+1	2.99E-1	1.71E+3
4.85E-1	3.48E+3	9.94E-2	6.86E+2
4.89E-1	3.51E+3	9.30E-2	6.36E+2
4.81E-1	3.53E+3	9.77E-2	6.18E+2
4.89E-1	3.53E+3	9.52E-2	6.79E+2
4.88E-1	3.48E+3	1.00E-1	6.91E+2
4.74E-1	3.43E+3	1.07E-1	6.71E+2
4.73E-1	3.56E+3	1.09E-1	6.99E+2
4.56E-1	3.44E+3	9.84E-2	6.48E+2
4.81E-1	3.45E+3	9.52E-2	6.96E+2
4.79E-1	3.61E+3	9.37E-2	6.32E+2
9.47E-2	7.35E+1	3.02E-1	1.61E+3
4.97E-1	3.53E+3	9.99E-2	6.63E+2
4.63E-1	3.45E+3	9.50E-2	6.20E+2
4.60E-1	3.47E+3	1.03E-1	7.06E+2
5.02E-1	3.60E+3	1.00E-1	6.42E+2
4.80E-1	3.42E+3	1.00E-1	6.97E+2
4.85E-1	3.50E+3	1.07E-1	7.13E+2
4.70E-1	3.45E+3	1.02E-1	7.13E+2
4.94E-1	3.67E+3	1.07E-1	7.37E+2
4.74E-1	3.56E+3	1.00E-1	6.54E+2
4.89E-1	3.54E+3	9.11E-2	6.39E+2
4.63E-1	3.43E+3	1.01E-1	6.34E+2
4.83E-1	3.69E+3	1.01E-1	6.69E+2
4.68E-1	3.56E+3	1.04E-1	6.47E+2
4.74E-1	3.51E+3	9.81E-2	6.57E+2
5.05E-1	3.56E+3	9.72E-2	6.17E+2
4.60E-1	3.38E+3	8.91E-2	5.77E+2
4.80E-1	3.50E+3	1.01E-1	6.77E+2
4.71E-1	3.55E+3	9.81E-2	6.29E+2
4.80E-1	3.50E+3	9.81E-2	6.63E+2
4.56E-1	3.48E+3	9.57E-2	6.78E+2
4.71E-1	3.45E+3	9.59E-2	6.66E+2
4.62E-1	3.49E+3	1.02E-1	6.41E+2
4.68E-1	3.49E+3	8.86E-2	6.13E+2
5.08E-1	3.60E+3	9.50E-2	6.38E+2
4.59E-1	3.43E+3	1.03E-1	6.86E+2
4.63E-1	3.42E+3	1.04E-1	6.89E+2
4.87E-1	3.56E+3	1.00E-1	6.27E+2
4.61E-1	3.53E+3	9.18E-2	5.88E+2
4.52E-1	3.42E+3	1.03E-1	6.59E+2
4.79E-1	3.60E+3	1.01E-1	6.56E+2
5.02E-1	3.60E+3	1.09E-1	7.16E+2
4.71E-1	3.36E+3	1.01E-1	6.80E+2
4.65E-1	3.43E+3	1.00E-1	7.14E+2
4.87E-1	3.56E+3	1.05E-1	6.70E+2
4.51E-1	3.43E+3	1.00E-1	6.91E+2
5.00E-1	3.66E+3	1.01E-1	6.73E+2
4.93E-1	3.51E+3	9.94E-2	6.78E+2
4.63E-1	3.49E+3	1.07E-1	7.55E+2
4.73E-1	3.47E+3	9.62E-2	6.59E+2
4.88E-1	3.62E+3	9.28E-2	6.02E+2
4.62E-1	3.53E+3	8.91E-2	6.02E+2
4.82E-1	3.53E+3	9.79E-2	6.55E+2
4.77E-1	3.46E+3	1.03E-1	6.87E+2
5.03E-1	3.55E+3	1.07E-1	6.67E+2
4.78E-1	3.59E+3	9.89E-2	6.33E+2
4.97E-1	3.57E+3	9.11E-2	6.06E+2
4.61E-1	3.48E+3	9.89E-2	6.61E+2
4.77E-1	3.52E+3	9.59E-2	6.65E+2
4.75E-1	3.53E+3	9.89E-2	6.92E+2
4.53E-1	3.42E+3	1.07E-1	7.06E+2
4.63E-1	3.43E+3	1.06E-1	7.09E+2
4.68E-1	3.53E+3	1.09E-1	7.30E+2
4.88E-1	3.48E+3	1.05E-1	6.81E+2
4.53E-1	3.36E+3	9.91E-2	6.16E+2
4.81E-1	3.52E+3	9.86E-2	6.55E+2
4.60E-1	3.48E+3	1.08E-1	7.14E+2
4.72E-1	3.60E+3	1.01E-1	6.41E+2
4.52E-1	3.48E+3	9.16E-2	5.69E+2
4.74E-1	3.50E+3	1.01E-1	6.68E+2
4.76E-1	3.35E+3	1.04E-1	7.32E+2
4.68E-1	3.47E+3	8.94E-2	6.12E+2
4.73E-1	3.58E+3	9.91E-2	6.63E+2
5.13E-1	3.57E+3	9.84E-2	6.38E+2
4.84E-1	3.53E+3	9.74E-2	6.87E+2
4.70E-1	3.56E+3	9.77E-2	6.85E+2
4.87E-1	3.55E+3	1.04E-1	7.17E+2
4.68E-1	3.55E+3	9.52E-2	6.75E+2
4.62E-1	3.50E+3	1.01E-1	6.73E+2
4.60E-1	3.48E+3	9.79E-2	6.81E+2
4.78E-1	3.58E+3	1.05E-1	7.06E+2
4.61E-1	3.53E+3	1.04E-1	6.93E+2
4.61E-1	3.52E+3	9.89E-2	6.51E+2
4.86E-1	3.49E+3	9.96E-2	6.41E+2
4.68E-1	3.45E+3	1.02E-1	6.23E+2
5.03E-1	3.60E+3	1.02E-1	6.57E+2
4.76E-1	3.61E+3	1.00E-1	6.80E+2
4.84E-1	3.53E+3	9.91E-2	7.26E+2
4.69E-1	3.59E+3	9.64E-2	6.46E+2
4.68E-1	3.49E+3	1.02E-1	7.38E+2
4.73E-1	3.43E+3	9.96E-2	6.70E+2
4.64E-1	3.56E+3	9.77E-2	6.49E+2
4.72E-1	3.59E+3	1.01E-1	6.78E+2
4.85E-1	3.57E+3	1.07E-1	7.00E+2
4.55E-1	3.35E+3	9.84E-2	6.34E+2
4.65E-1	3.51E+3	1.00E-1	6.46E+2
4.73E-1	3.57E+3	9.57E-2	6.35E+2
4.83E-1	3.47E+3	1.03E-1	6.74E+2
4.93E-1	3.58E+3	9.57E-2	6.75E+2
5.02E-1	3.49E+3	9.79E-2	6.52E+2
4.88E-1	3.63E+3	1.04E-1	6.60E+2
4.64E-1	3.46E+3	1.06E-1	6.56E+2
4.87E-1	3.67E+3	9.89E-2	6.47E+2
4.89E-1	3.50E+3	1.04E-1	7.22E+2
4.86E-1	3.58E+3	1.01E-1	6.95E+2
4.98E-1	3.60E+3	1.05E-1	6.79E+2
4.68E-1	3.58E+3	9.72E-2	6.67E+2
4.85E-1	3.51E+3	1.04E-1	6.70E+2
4.48E-1	3.45E+3	8.47E-2	5.74E+2
4.79E-1	3.64E+3	9.57E-2	5.87E+2
5.02E-1	3.59E+3	1.01E-1	6.29E+2
4.93E-1	3.57E+3	1.09E-1	6.94E+2
4.58E-1	3.48E+3	1.03E-1	7.13E+2
4.90E-1	3.58E+3	9.47E-2	6.34E+2
4.78E-1	3.51E+3	9.91E-2	6.39E+2
4.76E-1	3.40E+3	1.06E-1	7.14E+2
4.70E-1	3.54E+3	1.01E-1	6.98E+2
5.00E-1	3.57E+3	9.91E-2	6.69E+2
4.92E-1	3.50E+3	1.12E-1	7.51E+2
4.65E-1	3.49E+3	1.06E-1	7.16E+2
4.75E-1	3.43E+3	9.72E-2	6.64E+2
4.71E-1	3.42E+3	9.72E-2	6.60E+2
4.75E-1	3.44E+3	9.06E-2	5.77E+2
4.62E-1	3.47E+3	9.79E-2	6.15E+2
4.75E-1	3.58E+3	1.07E-1	6.49E+2
4.58E-1	3.44E+3	9.74E-2	6.71E+2
4.81E-1	3.56E+3	9.62E-2	6.02E+2
4.73E-1	3.54E+3	9.79E-2	6.71E+2
4.96E-1	3.47E+3	1.12E-1	6.51E+2
4.73E-1	3.49E+3	9.94E-2	6.69E+2
4.97E-1	3.61E+3	1.05E-1	7.39E+2
4.79E-1	3.53E+3	1.06E-1	7.21E+2
4.54E-1	3.43E+3	1.01E-1	7.17E+2
4.82E-1	3.42E+3	1.03E-1	6.70E+2
4.54E-1	3.42E+3	9.91E-2	6.26E+2
4.63E-1	3.42E+3	1.05E-1	6.67E+2
4.74E-1	3.51E+3	1.03E-1	6.73E+2
5.10E-1	3.57E+3	1.00E-1	6.65E+2
4.59E-1	3.48E+3	1.10E-1	7.50E+2
4.65E-1	3.47E+3	9.81E-2	6.22E+2
4.93E-1	3.66E+3	9.69E-2	6.69E+2
4.91E-1	3.52E+3	9.45E-2	6.10E+2
4.86E-1	3.51E+3	1.07E-1	7.01E+2
4.79E-1	3.53E+3	9.62E-2	6.69E+2
4.93E-1	3.51E+3	1.04E-1	7.42E+2
4.65E-1	3.54E+3	1.01E-1	6.83E+2
4.68E-1	3.60E+3	9.50E-2	6.36E+2
4.54E-1	3.50E+3	1.01E-1	6.70E+2
4.67E-1	3.46E+3	1.04E-1	7.24E+2
4.58E-1	3.39E+3	9.40E-2	6.14E+2
4.70E-1	3.54E+3	1.00E-1	6.47E+2
4.76E-1	3.58E+3	1.01E-1	6.89E+2
4.65E-1	3.48E+3	9.89E-2	6.58E+2
4.92E-1	3.73E+3	9.99E-2	6.83E+2
4.73E-1	3.64E+3	9.64E-2	6.30E+2
4.81E-1	3.52E+3	9.35E-2	6.23E+2
4.85E-1	3.63E+3	1.02E-1	6.61E+2
4.95E-1	3.43E+3	9.89E-2	6.48E+2
4.71E-1	3.50E+3	9.50E-2	6.80E+2
4.94E-1	3.62E+3	1.04E-1	6.72E+2
4.69E-1	3.59E+3	1.01E-1	6.89E+2
4.65E-1	3.59E+3	1.03E-1	7.04E+2
4.58E-1	3.44E+3	1.01E-1	6.63E+2
4.60E-1	3.38E+3	1.02E-1	5.87E+2
4.66E-1	3.44E+3	1.04E-1	7.07E+2
4.85E-1	3.48E+3	1.02E-1	6.75E+2
4.70E-1	3.49E+3	1.12E-1	6.53E+2
4.80E-1	3.61E+3	1.06E-1	6.68E+2
4.76E-1	3.56E+3	9.23E-2	6.06E+2
4.72E-1	3.54E+3	1.04E-1	7.54E+2
4.75E-1	3.46E+3	9.79E-2	7.11E+2
4.86E-1	3.51E+3	9.47E-2	6.67E+2
4.92E-1	3.55E+3	9.96E-2	6.86E+2
4.78E-1	3.56E+3	9.74E-2	7.02E+2
4.76E-1	3.43E+3	1.03E-1	6.85E+2
4.71E-1	3.49E+3	9.67E-2	6.21E+2
4.78E-1	3.48E+3	1.10E-1	7.30E+2
4.69E-1	3.40E+3	1.03E-1	7.28E+2
4.66E-1	3.59E+3	1.15E-1	7.34E+2
4.72E-1	3.56E+3	1.12E-1	7.35E+2
4.62E-1	3.44E+3	9.42E-2	6.06E+2
4.62E-1	3.54E+3	1.07E-1	6.94E+2
4.74E-1	3.55E+3	9.45E-2	5.96E+2
4.78E-1	3.43E+3	1.01E-1	6.74E+2
4.79E-1	3.54E+3	9.99E-2	6.30E+2
4.39E-1	3.25E+3	1.16E-1	7.39E+2
5.12E-1	3.57E+3	1.00E-1	6.46E+2
4.83E-1	3.57E+3	1.01E-1	6.86E+2
4.67E-1	3.53E+3	1.09E-1	7.02E+2
4.49E-1	3.43E+3	1.10E-1	7.42E+2
4.74E-1	3.53E+3	1.11E-1	7.03E+2
4.67E-1	3.52E+3	9.33E-2	6.00E+2
4.87E-1	3.62E+3	1.07E-1	6.88E+2
4.87E-1	3.46E+3	1.12E-1	7.17E+2
4.65E-1	3.36E+3	1.00E-1	6.19E+2
4.55E-1	3.46E+3	9.13E-2	5.66E+2
4.99E-1	3.53E+3	1.01E-1	6.72E+2
4.89E-1	3.53E+3	1.09E-1	7.15E+2
4.83E-1	3.49E+3	1.07E-1	7.03E+2
4.69E-1	3.38E+3	9.96E-2	6.95E+2
4.81E-1	3.56E+3	9.77E-2	6.73E+2
4.86E-1	3.48E+3	9.94E-2	7.12E+2
4.79E-1	3.55E+3	1.00E-1	6.82E+2
4.85E-1	3.55E+3	9.79E-2	6.41E+2
4.89E-1	3.71E+3	9.57E-2	6.35E+2
1.59E-1	1.05E+2	3.06E-1	1.66E+3
4.60E-1	3.22E+3	1.04E-1	6.26E+2
4.63E-1	3.49E+3	1.06E-1	7.10E+2
4.68E-1	3.41E+3	1.00E-1	6.51E+2
4.98E-1	3.64E+3	8.96E-2	5.95E+2
4.77E-1	3.43E+3	9.50E-2	6.86E+2
5.09E-1	3.66E+3	1.06E-1	7.39E+2
4.92E-1	3.54E+3	1.01E-1	7.08E+2
4.68E-1	3.41E+3	9.35E-2	6.93E+2
4.78E-1	3.57E+3	9.99E-2	6.70E+2
4.85E-1	3.49E+3	1.05E-1	7.22E+2
4.65E-1	3.59E+3	1.01E-1	6.82E+2
4.71E-1	3.58E+3	1.02E-1	7.20E+2
4.85E-1	3.62E+3	1.06E-1	6.56E+2
4.95E-1	3.69E+3	9.86E-2	6.35E+2
4.64E-1	3.60E+3	1.08E-1	7.39E+2
4.88E-1	3.47E+3	9.86E-2	6.24E+2
4.68E-1	3.51E+3	1.02E-1	6.56E+2
4.71E-1	3.52E+3	1.03E-1	6.85E+2
4.90E-1	3.57E+3	9.94E-2	6.89E+2
4.75E-1	3.48E+3	1.01E-1	6.19E+2
6.10E-3	4.98E+0	3.00E-1	1.67E+3
4.96E-1	3.47E+3	9.74E-2	6.82E+2
4.79E-1	3.53E+3	1.07E-1	7.33E+2
4.74E-1	3.44E+3	1.01E-1	6.98E+2
4.87E-1	3.57E+3	9.30E-2	6.65E+2
4.74E-1	3.48E+3	9.77E-2	7.08E+2
4.74E-1	3.40E+3	9.67E-2	6.02E+2
4.73E-1	3.49E+3	1.01E-1	6.48E+2
4.95E-1	3.48E+3	9.99E-2	6.76E+2
4.70E-1	3.56E+3	1.02E-1	6.17E+2
4.49E-1	3.41E+3	9.67E-2	6.30E+2
4.90E-1	3.52E+3	1.01E-1	7.00E+2
4.64E-1	3.51E+3	1.09E-1	6.90E+2
4.85E-1	3.43E+3	9.91E-2	6.77E+2
4.90E-1	3.61E+3	9.40E-2	6.09E+2
4.64E-1	3.51E+3	1.03E-1	7.01E+2
4.80E-1	3.47E+3	1.01E-1	6.66E+2
4.80E-1	3.50E+3	1.04E-1	6.18E+2
4.90E-1	3.50E+3	9.50E-2	6.01E+2
4.65E-1	3.49E+3	1.07E-1	7.54E+2
4.38E-1	3.27E+3	1.05E-1	6.67E+2
4.89E-1	3.65E+3	9.86E-2	6.11E+2
4.77E-1	3.45E+3	1.36E-1	7.11E+2
4.69E-1	3.59E+3	1.02E-1	6.69E+2
4.67E-1	3.53E+3	9.91E-2	6.76E+2
4.73E-1	3.59E+3	1.01E-1	6.57E+2
4.72E-1	3.58E+3	1.02E-1	6.81E+2
4.86E-1	3.62E+3	9.37E-2	6.02E+2
4.64E-1	3.46E+3	1.07E-1	7.49E+2
4.84E-1	3.56E+3	1.07E-1	7.66E+2
4.89E-1	3.53E+3	1.07E-1	6.74E+2
4.89E-1	3.54E+3	1.01E-1	6.70E+2
4.92E-1	3.60E+3	9.79E-2	6.61E+2
4.65E-1	3.53E+3	1.01E-1	6.52E+2
5.00E-1	3.62E+3	9.74E-2	6.17E+2
4.67E-1	3.47E+3	1.03E-1	7.04E+2
4.69E-1	3.52E+3	9.59E-2	6.07E+2
4.78E-1	3.49E+3	9.57E-2	6.38E+2
4.76E-1	3.47E+3	9.40E-2	6.46E+2
4.50E-1	3.42E+3	1.05E-1	7.12E+2
4.62E-1	3.44E+3	1.04E-1	7.29E+2
4.73E-1	3.48E+3	9.67E-2	6.24E+2
4.88E-1	3.55E+3	1.04E-1	6.86E+2
4.77E-1	3.46E+3	9.50E-2	6.70E+2
4.94E-1	3.53E+3	1.04E-1	6.53E+2
4.82E-1	3.62E+3	1.04E-1	6.97E+2
4.62E-1	3.44E+3	9.64E-2	6.26E+2
7.32E-3	1.98E+1	2.92E-1	1.65E+3
4.72E-1	3.57E+3	1.01E-1	5.96E+2
4.87E-1	3.52E+3	9.50E-2	6.17E+2
4.46E-1	3.40E+3	9.62E-2	6.30E+2
4.84E-1	3.42E+3	9.33E-2	6.04E+2
4.56E-1	3.43E+3	9.89E-2	6.44E+2
4.64E-1	3.54E+3	1.05E-1	6.61E+2
4.93E-1	3.53E+3	1.10E-1	7.56E+2
4.93E-1	3.58E+3	9.11E-2	6.08E+2
4.84E-1	3.59E+3	1.08E-1	7.37E+2
4.93E-1	3.56E+3	1.01E-1	6.46E+2
4.73E-1	3.53E+3	1.04E-1	7.22E+2
4.94E-1	3.58E+3	9.28E-2	5.83E+2
4.73E-1	3.58E+3	1.02E-1	6.63E+2
4.55E-1	3.41E+3	9.89E-2	6.72E+2
4.63E-1	3.51E+3	1.03E-1	7.06E+2
4.82E-1	3.38E+3	9.55E-2	5.83E+2
4.58E-1	3.52E+3	1.00E-1	6.02E+2
4.92E-1	3.50E+3	9.42E-2	6.98E+2
5.05E-1	3.58E+3	1.09E-1	6.95E+2
4.84E-1	3.47E+3	1.06E-1	7.04E+2
4.75E-1	3.49E+3	1.10E-1	7.40E+2
5.02E-1	3.59E+3	1.02E-1	6.80E+2
4.64E-1	3.58E+3	9.89E-2	6.51E+2
4.47E-1	3.36E+3	9.57E-2	6.61E+2
4.81E-1	3.57E+3	9.59E-2	6.59E+2
4.81E-1	3.48E+3	1.03E-1	6.06E+2
4.67E-1	3.47E+3	9.91E-2	6.44E+2
4.65E-1	3.47E+3	1.06E-1	6.71E+2
4.77E-1	3.55E+3	1.04E-1	7.05E+2
4.78E-1	3.65E+3	9.47E-2	6.37E+2
4.71E-1	3.48E+3	1.11E-1	7.30E+2
4.68E-1	3.61E+3	9.81E-2	6.78E+2
4.63E-1	3.48E+3	9.69E-2	6.11E+2
4.64E-1	3.41E+3	9.35E-2	6.69E+2
4.93E-1	3.58E+3	1.11E-1	7.86E+2
4.74E-1	3.45E+3	1.06E-1	6.91E+2
4.90E-1	3.54E+3	9.77E-2	6.91E+2
4.88E-1	3.68E+3	9.69E-2	6.33E+2
4.58E-1	3.51E+3	1.01E-1	6.60E+2
4.75E-1	3.50E+3	1.07E-1	6.97E+2
4.75E-1	3.63E+3	9.59E-2	6.10E+2
4.71E-1	3.56E+3	1.09E-1	7.33E+2
4.56E-1	3.44E+3	1.06E-1	7.21E+2
7.81E-3	1.27E+1	2.96E-1	1.67E+3
5.91E-2	4.20E+1	2.82E-1	1.73E+3
4.99E-1	3.45E+3	9.96E-2	6.37E+2
4.93E-1	3.52E+3	1.00E-1	6.97E+2
4.97E-1	3.67E+3	1.09E-1	7.39E+2
4.67E-1	3.52E+3	1.12E-1	7.17E+2
4.61E-1	3.50E+3	9.69E-2	6.52E+2
4.98E-1	3.57E+3	1.06E-1	7.09E+2
4.91E-1	3.60E+3	1.04E-1	6.97E+2
4.70E-1	3.55E+3	9.96E-2	7.23E+2
4.59E-1	3.51E+3	1.05E-1	7.01E+2
4.54E-1	3.42E+3	1.10E-1	6.81E+2
4.80E-1	3.47E+3	9.64E-2	5.75E+2
4.60E-1	3.41E+3	9.79E-2	6.61E+2
4.72E-1	3.55E+3	9.86E-2	6.58E+2
4.78E-1	3.58E+3	1.09E-1	7.39E+2
4.60E-1	3.41E+3	1.07E-1	6.74E+2
4.99E-1	3.62E+3	1.00E-1	6.76E+2
5.03E-1	3.65E+3	9.40E-2	6.24E+2
4.84E-1	3.55E+3	1.01E-1	6.64E+2
4.70E-1	3.53E+3	9.23E-2	6.88E+2
4.69E-1	3.56E+3	1.04E-1	6.53E+2
4.89E-1	3.45E+3	9.94E-2	6.44E+2
4.87E-1	3.50E+3	9.23E-2	6.44E+2
4.83E-1	3.44E+3	1.03E-1	6.47E+2
4.74E-1	3.51E+3	9.52E-2	6.06E+2
4.73E-1	3.53E+3	1.01E-1	6.12E+2
4.71E-1	3.64E+3	1.07E-1	7.02E+2
4.52E-1	3.40E+3	9.96E-2	6.20E+2
4.69E-1	3.44E+3	9.69E-2	6.28E+2
4.80E-1	3.46E+3	9.55E-2	6.40E+2
4.78E-1	3.48E+3	1.08E-1	7.58E+2
4.64E-1	3.48E+3	9.62E-2	6.50E+2
4.73E-1	3.53E+3	1.06E-1	7.39E+2
4.66E-1	3.49E+3	1.03E-1	7.05E+2
