6.67E-1	5.47E+3	1.85E-1	1.16E+3
7.06E-1	5.63E+3	1.63E-1	1.13E+3
6.71E-1	5.61E+3	1.72E-1	1.15E+3
6.73E-1	5.64E+3	1.59E-1	1.05E+3
6.82E-1	5.68E+3	1.74E-1	1.20E+3
7.07E-1	5.58E+3	1.63E-1	1.07E+3
6.79E-1	5.57E+3	1.55E-1	1.06E+3
6.72E-1	5.62E+3	1.74E-1	1.23E+3
6.87E-1	5.66E+3	1.83E-1	1.25E+3
6.99E-1	5.66E+3	1.79E-1	1.15E+3
6.83E-1	5.52E+3	1.68E-1	1.12E+3
6.79E-1	5.62E+3	1.69E-1	1.12E+3
6.66E-1	5.68E+3	1.73E-1	1.20E+3
6.98E-1	5.51E+3	1.66E-1	1.07E+3
7.04E-1	5.73E+3	1.74E-1	1.12E+3
6.95E-1	5.71E+3	1.75E-1	1.10E+3
6.90E-1	5.60E+3	1.71E-1	1.07E+3
6.98E-1	5.52E+3	1.86E-1	1.09E+3
6.90E-1	5.69E+3	1.84E-1	1.18E+3
6.74E-1	5.49E+3	1.77E-1	1.13E+3
6.72E-1	5.66E+3	1.92E-1	1.15E+3
6.82E-1	5.65E+3	1.66E-1	1.14E+3
6.76E-1	5.64E+3	1.69E-1	1.09E+3
6.96E-1	5.68E+3	1.72E-1	1.17E+3
6.80E-1	5.60E+3	1.68E-1	1.09E+3
6.65E-1	5.57E+3	1.67E-1	1.12E+3
6.89E-1	5.34E+3	1.81E-1	1.17E+3
6.77E-1	5.68E+3	1.71E-1	1.15E+3
6.95E-1	5.58E+3	1.64E-1	1.07E+3
6.91E-1	5.57E+3	1.78E-1	1.14E+3
6.82E-1	5.68E+3	1.70E-1	1.11E+3
6.93E-1	5.59E+3	1.75E-1	1.19E+3
7.04E-1	5.51E+3	1.74E-1	1.14E+3
6.86E-1	5.61E+3	1.69E-1	1.11E+3
6.91E-1	5.51E+3	1.87E-1	1.19E+3
7.07E-1	5.52E+3	1.74E-1	1.09E+3
6.81E-1	5.64E+3	1.78E-1	1.21E+3
6.78E-1	5.64E+3	1.74E-1	1.11E+3
7.15E-1	5.61E+3	1.64E-1	1.11E+3
7.08E-1	5.55E+3	1.71E-1	1.12E+3
6.85E-1	5.54E+3	1.73E-1	1.05E+3
6.62E-1	5.47E+3	1.75E-1	1.07E+3
6.62E-1	5.58E+3	1.89E-1	1.16E+3
7.05E-1	5.70E+3	1.70E-1	1.11E+3
7.02E-1	5.67E+3	1.77E-1	1.14E+3
6.80E-1	5.76E+3	1.78E-1	1.11E+3
6.98E-1	5.67E+3	1.68E-1	1.09E+3
6.76E-1	5.46E+3	1.80E-1	1.10E+3
6.82E-1	5.68E+3	1.68E-1	1.10E+3
6.83E-1	5.65E+3	1.73E-1	1.12E+3
6.60E-1	5.56E+3	1.99E-1	1.22E+3
6.85E-1	5.48E+3	1.84E-1	1.18E+3
6.84E-1	5.56E+3	1.70E-1	1.13E+3
6.97E-1	5.64E+3	1.77E-1	1.16E+3
6.78E-1	5.62E+3	1.80E-1	1.23E+3
6.78E-1	5.63E+3	1.66E-1	1.15E+3
7.09E-1	5.57E+3	1.71E-1	1.13E+3
6.87E-1	5.53E+3	1.67E-1	1.07E+3
1.07E-2	2.60E+1	4.26E-1	2.86E+3
6.96E-1	5.62E+3	1.85E-1	1.15E+3
7.15E-1	5.63E+3	1.77E-1	1.24E+3
6.59E-1	5.45E+3	1.77E-1	1.19E+3
7.11E-1	5.60E+3	1.87E-1	1.17E+3
6.84E-1	5.66E+3	1.62E-1	1.11E+3
7.04E-1	5.65E+3	1.73E-1	1.16E+3
7.05E-1	5.59E+3	1.79E-1	1.17E+3
6.98E-1	5.66E+3	1.82E-1	1.22E+3
6.91E-1	5.61E+3	1.62E-1	1.05E+3
6.89E-1	5.70E+3	1.72E-1	1.11E+3
6.85E-1	5.44E+3	1.79E-1	1.09E+3
6.66E-1	5.46E+3	1.72E-1	1.18E+3
6.94E-1	5.52E+3	1.69E-1	1.12E+3
6.73E-1	5.66E+3	1.76E-1	1.12E+3
6.99E-1	5.57E+3	1.67E-1	1.11E+3
7.08E-1	5.69E+3	1.70E-1	1.11E+3
7.02E-1	5.74E+3	1.90E-1	1.19E+3
6.75E-1	5.59E+3	1.58E-1	1.10E+3
6.97E-1	5.65E+3	1.72E-1	1.10E+3
6.90E-1	5.58E+3	1.79E-1	1.17E+3
7.01E-1	5.63E+3	1.76E-1	1.13E+3
7.15E-1	5.62E+3	1.75E-1	1.06E+3
6.87E-1	5.59E+3	1.77E-1	1.11E+3
6.66E-1	5.58E+3	1.67E-1	1.14E+3
6.84E-1	5.59E+3	1.68E-1	1.11E+3
6.73E-1	5.69E+3	1.73E-1	1.12E+3
7.01E-1	5.64E+3	1.90E-1	1.21E+3
6.65E-1	5.57E+3	1.67E-1	1.13E+3
6.71E-1	5.61E+3	1.71E-1	1.12E+3
6.87E-1	5.65E+3	1.77E-1	1.15E+3
7.03E-1	5.73E+3	1.86E-1	1.20E+3
6.70E-1	5.59E+3	1.68E-1	1.10E+3
6.78E-1	5.64E+3	1.81E-1	1.17E+3
6.69E-1	5.54E+3	1.77E-1	1.20E+3
6.86E-1	5.56E+3	1.80E-1	1.14E+3
6.93E-1	5.62E+3	1.85E-1	1.17E+3
6.86E-1	5.57E+3	1.72E-1	1.11E+3
6.63E-1	5.60E+3	1.70E-1	1.15E+3
6.91E-1	5.64E+3	1.89E-1	1.20E+3
6.91E-1	5.60E+3	1.63E-1	1.01E+3
7.08E-1	5.54E+3	1.74E-1	1.11E+3
6.95E-1	5.49E+3	1.85E-1	1.19E+3
6.87E-1	5.58E+3	1.72E-1	1.12E+3
6.97E-1	5.66E+3	1.77E-1	1.16E+3
6.79E-1	5.61E+3	1.84E-1	1.11E+3
6.98E-1	5.45E+3	1.60E-1	1.07E+3
7.04E-1	5.48E+3	1.66E-1	1.05E+3
7.07E-1	5.62E+3	1.63E-1	1.07E+3
6.71E-1	5.55E+3	1.82E-1	1.20E+3
6.85E-1	5.58E+3	1.76E-1	1.20E+3
6.85E-1	5.70E+3	1.66E-1	1.06E+3
6.82E-1	5.63E+3	1.74E-1	1.12E+3
3.76E-2	5.06E+1	4.28E-1	3.01E+3
6.94E-1	5.44E+3	1.75E-1	1.14E+3
6.72E-1	5.61E+3	1.71E-1	1.15E+3
6.91E-1	5.57E+3	1.78E-1	1.14E+3
6.75E-1	5.66E+3	1.73E-1	1.15E+3
6.67E-1	5.59E+3	1.60E-1	1.06E+3
6.77E-1	5.58E+3	1.68E-1	1.11E+3
6.76E-1	5.69E+3	1.71E-1	1.09E+3
6.67E-1	5.47E+3	1.85E-1	1.25E+3
6.80E-1	5.60E+3	1.65E-1	1.12E+3
6.68E-1	5.63E+3	1.68E-1	1.09E+3
6.91E-1	5.58E+3	1.67E-1	1.09E+3
6.85E-1	5.67E+3	1.78E-1	1.11E+3
6.83E-1	5.68E+3	1.67E-1	1.04E+3
6.74E-1	5.56E+3	1.79E-1	1.17E+3
7.02E-1	5.55E+3	1.82E-1	1.16E+3
6.98E-1	5.72E+3	1.82E-1	1.13E+3
6.84E-1	5.53E+3	1.77E-1	1.14E+3
6.70E-1	5.61E+3	1.83E-1	1.15E+3
6.87E-1	5.72E+3	1.64E-1	1.12E+3
6.68E-1	5.50E+3	1.73E-1	1.13E+3
6.91E-1	5.65E+3	1.66E-1	1.05E+3
6.81E-1	5.53E+3	1.74E-1	1.15E+3
6.80E-1	5.40E+3	1.66E-1	1.02E+3
6.78E-1	5.70E+3	1.72E-1	1.10E+3
7.04E-1	5.62E+3	1.75E-1	1.18E+3
6.98E-1	5.67E+3	1.82E-1	1.09E+3
6.97E-1	5.62E+3	1.67E-1	1.12E+3
7.18E-1	5.61E+3	1.85E-1	1.12E+3
6.93E-1	5.54E+3	1.66E-1	1.03E+3
6.74E-1	5.57E+3	1.70E-1	1.14E+3
6.84E-1	5.65E+3	1.78E-1	1.10E+3
6.84E-1	5.64E+3	1.62E-1	1.10E+3
6.65E-1	5.58E+3	1.75E-1	1.16E+3
6.65E-1	5.60E+3	1.68E-1	1.14E+3
6.75E-1	5.51E+3	1.80E-1	1.21E+3
7.14E-1	5.61E+3	1.71E-1	1.12E+3
6.77E-1	5.70E+3	1.71E-1	1.13E+3
6.98E-1	5.64E+3	1.86E-1	1.19E+3
6.91E-1	5.63E+3	1.68E-1	1.04E+3
6.98E-1	5.60E+3	1.72E-1	1.08E+3
6.96E-1	5.63E+3	1.76E-1	1.14E+3
6.75E-1	5.61E+3	1.69E-1	1.06E+3
6.74E-1	5.66E+3	1.79E-1	1.13E+3
6.86E-1	5.76E+3	1.65E-1	1.12E+3
6.76E-1	5.54E+3	1.67E-1	1.09E+3
6.99E-1	5.59E+3	1.86E-1	1.16E+3
7.18E-1	5.59E+3	1.70E-1	1.17E+3
6.94E-1	5.54E+3	1.76E-1	1.14E+3
6.95E-1	5.60E+3	1.84E-1	1.17E+3
6.89E-1	5.64E+3	1.86E-1	1.18E+3
7.17E-1	5.66E+3	1.63E-1	1.05E+3
7.02E-1	5.64E+3	1.72E-1	1.12E+3
6.88E-1	5.64E+3	1.76E-1	1.08E+3
6.87E-1	5.59E+3	1.87E-1	1.15E+3
6.77E-1	5.50E+3	1.81E-1	1.13E+3
6.72E-1	5.69E+3	1.80E-1	1.10E+3
6.84E-1	5.69E+3	1.77E-1	1.14E+3
7.06E-1	5.51E+3	1.60E-1	1.07E+3
6.68E-1	5.63E+3	1.75E-1	1.12E+3
7.01E-1	5.49E+3	1.88E-1	1.24E+3
7.04E-1	5.55E+3	1.71E-1	1.16E+3
6.83E-1	5.65E+3	1.73E-1	1.14E+3
6.71E-1	5.56E+3	1.80E-1	1.16E+3
6.99E-1	5.70E+3	1.82E-1	1.21E+3
6.87E-1	5.67E+3	1.75E-1	1.16E+3
6.71E-1	5.49E+3	1.62E-1	1.10E+3
7.04E-1	5.73E+3	1.82E-1	1.14E+3
6.75E-1	5.60E+3	1.70E-1	1.07E+3
6.73E-1	5.41E+3	1.84E-1	1.15E+3
6.94E-1	5.59E+3	1.66E-1	1.07E+3
6.84E-1	5.63E+3	1.86E-1	1.18E+3
6.76E-1	5.64E+3	1.87E-1	1.21E+3
6.77E-1	5.65E+3	1.68E-1	1.13E+3
6.69E-1	5.61E+3	1.75E-1	1.17E+3
6.63E-1	5.44E+3	1.84E-1	1.17E+3
6.92E-1	5.59E+3	1.61E-1	1.05E+3
7.04E-1	5.54E+3	1.77E-1	1.15E+3
7.01E-1	5.66E+3	1.66E-1	1.08E+3
6.83E-1	5.62E+3	1.79E-1	1.16E+3
6.68E-1	5.47E+3	1.73E-1	1.10E+3
6.79E-1	5.54E+3	1.76E-1	1.20E+3
6.85E-1	5.47E+3	1.74E-1	1.08E+3
6.78E-1	5.69E+3	1.72E-1	1.06E+3
6.97E-1	5.51E+3	1.86E-1	1.14E+3
6.93E-1	5.55E+3	1.81E-1	1.17E+3
7.03E-1	5.60E+3	1.63E-1	1.09E+3
6.90E-1	5.51E+3	1.76E-1	1.11E+3
6.65E-1	5.51E+3	1.76E-1	1.17E+3
7.06E-1	5.49E+3	1.72E-1	1.14E+3
6.72E-1	5.63E+3	1.61E-1	1.10E+3
6.75E-1	5.70E+3	1.61E-1	1.13E+3
7.15E-1	5.66E+3	1.74E-1	1.10E+3
6.95E-1	5.61E+3	1.62E-1	1.08E+3
7.12E-1	5.74E+3	1.70E-1	1.13E+3
6.85E-1	5.65E+3	1.59E-1	1.05E+3
6.87E-1	5.58E+3	1.73E-1	1.13E+3
7.02E-1	5.64E+3	1.81E-1	1.18E+3
6.77E-1	5.40E+3	1.81E-1	1.12E+3
6.60E-1	5.50E+3	1.83E-1	1.14E+3
6.81E-1	5.67E+3	1.67E-1	1.12E+3
6.86E-1	5.48E+3	1.76E-1	1.14E+3
6.96E-1	5.59E+3	1.61E-1	1.03E+3
6.76E-1	5.70E+3	1.75E-1	1.20E+3
6.86E-1	5.64E+3	1.76E-1	1.11E+3
7.09E-1	5.63E+3	1.70E-1	1.07E+3
6.91E-1	5.52E+3	1.81E-1	1.08E+3
6.85E-1	5.50E+3	1.63E-1	1.09E+3
6.87E-1	5.61E+3	1.64E-1	1.05E+3
7.02E-1	5.64E+3	1.85E-1	1.13E+3
7.18E-1	5.68E+3	1.73E-1	1.16E+3
6.93E-1	5.70E+3	1.72E-1	1.11E+3
6.65E-1	5.58E+3	1.66E-1	1.08E+3
6.63E-1	5.51E+3	1.66E-1	1.11E+3
6.64E-1	5.58E+3	1.69E-1	1.12E+3
7.02E-1	5.61E+3	1.67E-1	1.13E+3
6.95E-1	5.63E+3	1.70E-1	1.14E+3
6.89E-1	5.51E+3	1.75E-1	1.16E+3
6.97E-1	5.56E+3	1.73E-1	1.15E+3
6.77E-1	5.57E+3	1.68E-1	1.15E+3
8.06E-3	1.30E+1	4.17E-1	2.98E+3
6.97E-1	5.67E+3	1.75E-1	1.13E+3
6.94E-1	5.60E+3	1.85E-1	1.22E+3
6.77E-1	5.61E+3	1.57E-1	1.08E+3
6.73E-1	5.61E+3	1.76E-1	1.12E+3
6.85E-1	5.60E+3	1.68E-1	1.17E+3
6.99E-1	5.50E+3	1.80E-1	1.18E+3
6.81E-1	5.68E+3	1.68E-1	1.14E+3
6.76E-1	5.60E+3	1.73E-1	1.22E+3
6.95E-1	5.68E+3	1.80E-1	1.17E+3
6.89E-1	5.71E+3	1.81E-1	1.19E+3
6.78E-1	5.61E+3	1.87E-1	1.13E+3
6.98E-1	5.65E+3	1.78E-1	1.17E+3
6.85E-1	5.56E+3	1.56E-1	1.01E+3
6.87E-1	5.63E+3	1.67E-1	1.13E+3
6.97E-1	5.67E+3	1.70E-1	1.09E+3
6.94E-1	5.56E+3	1.71E-1	1.12E+3
6.96E-1	5.58E+3	1.73E-1	1.09E+3
6.97E-1	5.57E+3	1.78E-1	1.14E+3
6.86E-1	5.58E+3	1.72E-1	1.15E+3
6.77E-1	5.56E+3	1.74E-1	1.21E+3
6.61E-1	5.52E+3	1.85E-1	1.26E+3
7.01E-1	5.71E+3	1.66E-1	1.08E+3
6.70E-1	5.64E+3	1.70E-1	1.12E+3
6.71E-1	5.68E+3	1.72E-1	1.11E+3
6.91E-1	5.62E+3	1.80E-1	1.10E+3
6.98E-1	5.70E+3	1.77E-1	1.15E+3
6.87E-1	5.56E+3	1.71E-1	1.13E+3
6.96E-1	5.62E+3	1.76E-1	1.10E+3
6.84E-1	5.61E+3	1.78E-1	1.15E+3
6.93E-1	5.53E+3	1.86E-1	1.21E+3
6.88E-1	5.70E+3	1.89E-1	1.22E+3
6.94E-1	5.78E+3	1.69E-1	1.19E+3
6.74E-1	5.68E+3	1.66E-1	1.11E+3
6.94E-1	5.63E+3	1.68E-1	1.07E+3
6.74E-1	5.51E+3	1.76E-1	1.10E+3
6.87E-1	5.44E+3	1.66E-1	1.11E+3
6.93E-1	5.46E+3	1.80E-1	1.11E+3
6.99E-1	5.60E+3	1.71E-1	1.16E+3
6.95E-1	5.51E+3	1.77E-1	1.13E+3
6.86E-1	5.65E+3	1.76E-1	1.13E+3
6.85E-1	5.45E+3	1.62E-1	1.06E+3
6.87E-1	5.68E+3	1.79E-1	1.21E+3
6.99E-1	5.50E+3	1.76E-1	1.13E+3
6.94E-1	5.57E+3	1.87E-1	1.16E+3
6.92E-1	5.54E+3	1.72E-1	1.07E+3
7.08E-1	5.60E+3	1.73E-1	1.15E+3
6.81E-1	5.62E+3	1.77E-1	1.17E+3
6.86E-1	5.66E+3	1.65E-1	1.19E+3
6.76E-1	5.64E+3	1.60E-1	1.07E+3
7.01E-1	5.58E+3	1.80E-1	1.19E+3
6.88E-1	5.57E+3	1.77E-1	1.17E+3
7.00E-1	5.58E+3	1.77E-1	1.17E+3
6.80E-1	5.62E+3	1.78E-1	1.22E+3
6.86E-1	5.79E+3	1.87E-1	1.18E+3
6.86E-1	5.47E+3	1.76E-1	1.12E+3
6.95E-1	5.57E+3	1.97E-1	1.19E+3
5.13E-3	4.39E+0	4.89E-1	3.14E+3
6.81E-1	5.73E+3	1.84E-1	1.14E+3
6.87E-1	5.71E+3	1.95E-1	1.17E+3
6.80E-1	5.62E+3	1.66E-1	1.10E+3
6.81E-1	5.70E+3	1.78E-1	1.15E+3
6.77E-1	5.71E+3	1.77E-1	1.16E+3
6.96E-1	5.54E+3	1.70E-1	1.12E+3
6.91E-1	5.62E+3	1.77E-1	1.15E+3
6.83E-1	5.53E+3	1.82E-1	1.19E+3
6.85E-1	5.44E+3	1.69E-1	1.10E+3
6.71E-1	5.57E+3	1.58E-1	1.04E+3
6.99E-1	5.55E+3	1.79E-1	1.13E+3
7.04E-1	5.53E+3	1.72E-1	1.12E+3
6.76E-1	5.58E+3	1.89E-1	1.19E+3
7.05E-1	5.56E+3	1.77E-1	1.12E+3
7.07E-1	5.64E+3	1.74E-1	1.12E+3
6.83E-1	5.61E+3	1.71E-1	1.15E+3
6.99E-1	5.60E+3	1.65E-1	1.07E+3
6.87E-1	5.77E+3	1.79E-1	1.19E+3
6.85E-1	5.57E+3	1.77E-1	1.16E+3
7.05E-1	5.59E+3	1.73E-1	1.10E+3
6.86E-1	5.63E+3	1.71E-1	1.09E+3
7.04E-1	5.57E+3	1.71E-1	1.10E+3
7.04E-1	5.56E+3	1.62E-1	1.08E+3
6.70E-1	5.52E+3	1.78E-1	1.22E+3
6.97E-1	5.61E+3	1.68E-1	1.09E+3
6.66E-1	5.52E+3	1.79E-1	1.10E+3
6.63E-1	5.57E+3	1.87E-1	1.14E+3
6.75E-1	5.54E+3	1.92E-1	1.22E+3
6.76E-1	5.56E+3	1.72E-1	1.16E+3
6.76E-1	5.64E+3	1.75E-1	1.19E+3
6.95E-1	5.67E+3	1.77E-1	1.17E+3
6.82E-1	5.47E+3	1.74E-1	1.15E+3
6.94E-1	5.61E+3	1.77E-1	1.14E+3
6.85E-1	5.67E+3	1.72E-1	1.14E+3
6.70E-1	5.60E+3	1.87E-1	1.15E+3
6.87E-1	5.60E+3	1.87E-1	1.21E+3
6.98E-1	5.65E+3	1.69E-1	1.09E+3
6.98E-1	5.62E+3	1.80E-1	1.11E+3
6.80E-1	5.72E+3	1.89E-1	1.22E+3
6.63E-1	5.38E+3	1.81E-1	1.15E+3
6.79E-1	5.62E+3	1.68E-1	1.10E+3
7.11E-1	5.67E+3	1.77E-1	1.15E+3
7.01E-1	5.59E+3	1.91E-1	1.15E+3
6.92E-1	5.55E+3	1.66E-1	1.07E+3
6.78E-1	5.61E+3	1.75E-1	1.14E+3
6.66E-1	5.52E+3	1.69E-1	1.15E+3
6.78E-1	5.61E+3	1.70E-1	1.11E+3
6.95E-1	5.59E+3	1.77E-1	1.12E+3
6.97E-1	5.56E+3	1.72E-1	1.14E+3
6.87E-1	5.59E+3	1.76E-1	1.12E+3
6.65E-1	5.38E+3	1.90E-1	1.20E+3
6.64E-1	5.56E+3	1.67E-1	1.08E+3
6.87E-1	5.48E+3	1.78E-1	1.18E+3
6.86E-1	5.58E+3	1.55E-1	1.03E+3
6.97E-1	5.61E+3	1.75E-1	1.11E+3
7.07E-1	5.61E+3	1.67E-1	1.07E+3
6.85E-1	5.58E+3	1.78E-1	1.20E+3
7.02E-1	5.67E+3	1.68E-1	1.10E+3
7.07E-1	5.65E+3	1.82E-1	1.17E+3
6.96E-1	5.63E+3	1.84E-1	1.17E+3
7.28E-1	5.72E+3	1.66E-1	1.17E+3
6.75E-1	5.55E+3	1.70E-1	1.13E+3
6.80E-1	5.56E+3	1.68E-1	1.09E+3
6.64E-1	5.60E+3	1.56E-1	1.04E+3
6.75E-1	5.45E+3	1.79E-1	1.13E+3
6.71E-1	5.57E+3	1.79E-1	1.16E+3
6.73E-1	5.56E+3	1.78E-1	1.10E+3
6.83E-1	5.65E+3	1.72E-1	1.13E+3
7.09E-1	5.56E+3	1.69E-1	1.08E+3
7.15E-1	5.61E+3	1.91E-1	1.18E+3
6.74E-1	5.54E+3	1.69E-1	1.07E+3
6.89E-1	5.68E+3	1.68E-1	1.10E+3
6.63E-1	5.52E+3	1.63E-1	1.09E+3
6.89E-1	5.49E+3	1.62E-1	1.10E+3
6.67E-1	5.71E+3	1.79E-1	1.16E+3
6.90E-1	5.61E+3	1.88E-1	1.25E+3
6.75E-1	5.54E+3	1.73E-1	1.18E+3
6.70E-1	5.64E+3	1.69E-1	1.10E+3
6.90E-1	5.55E+3	1.88E-1	1.17E+3
7.00E-1	5.64E+3	1.72E-1	1.13E+3
6.94E-1	5.69E+3	1.81E-1	1.11E+3
6.85E-1	5.63E+3	1.81E-1	1.17E+3
7.00E-1	5.52E+3	1.65E-1	1.06E+3
6.80E-1	5.64E+3	1.76E-1	1.12E+3
6.75E-1	5.65E+3	1.86E-1	1.20E+3
6.56E-1	5.42E+3	1.76E-1	1.17E+3
6.93E-1	5.71E+3	1.74E-1	1.15E+3
7.01E-1	5.63E+3	1.65E-1	1.07E+3
6.65E-1	5.46E+3	1.63E-1	1.10E+3
6.99E-1	5.65E+3	1.69E-1	1.16E+3
6.94E-1	5.70E+3	1.80E-1	1.14E+3
6.92E-1	5.54E+3	1.73E-1	1.10E+3
6.97E-1	5.73E+3	1.76E-1	1.17E+3
7.02E-1	5.54E+3	1.69E-1	1.05E+3
6.94E-1	5.54E+3	1.90E-1	1.13E+3
6.91E-1	5.62E+3	1.80E-1	1.19E+3
7.13E-1	5.66E+3	1.60E-1	1.03E+3
6.73E-1	5.71E+3	1.87E-1	1.19E+3
6.81E-1	5.55E+3	1.84E-1	1.19E+3
6.94E-1	5.61E+3	1.90E-1	1.18E+3
6.87E-1	5.60E+3	1.77E-1	1.13E+3
6.61E-1	5.58E+3	1.67E-1	1.11E+3
7.09E-1	5.52E+3	1.70E-1	1.05E+3
6.59E-1	5.52E+3	1.75E-1	1.11E+3
6.97E-1	5.59E+3	1.78E-1	1.13E+3
7.02E-1	5.64E+3	1.81E-1	1.14E+3
7.02E-1	5.67E+3	1.79E-1	1.14E+3
7.00E-1	5.65E+3	1.72E-1	1.14E+3
6.76E-1	5.53E+3	1.63E-1	1.11E+3
6.73E-1	5.53E+3	1.54E-1	9.71E+2
7.01E-1	5.57E+3	1.74E-1	1.13E+3
6.97E-1	5.53E+3	1.69E-1	1.13E+3
6.83E-1	5.76E+3	1.69E-1	1.15E+3
6.91E-1	5.66E+3	1.68E-1	1.14E+3
6.68E-1	5.64E+3	1.68E-1	1.15E+3
6.63E-1	5.54E+3	1.77E-1	1.17E+3
7.00E-1	5.61E+3	1.79E-1	1.17E+3
6.94E-1	5.75E+3	1.66E-1	1.07E+3
6.84E-1	5.64E+3	1.71E-1	1.17E+3
6.98E-1	5.57E+3	1.76E-1	1.17E+3
6.65E-1	5.58E+3	1.67E-1	1.13E+3
6.76E-1	5.62E+3	1.71E-1	1.12E+3
6.90E-1	5.58E+3	1.62E-1	1.05E+3
6.94E-1	5.68E+3	1.78E-1	1.21E+3
6.91E-1	5.58E+3	1.71E-1	1.09E+3
7.20E-1	5.61E+3	1.62E-1	1.08E+3
6.75E-1	5.62E+3	1.65E-1	1.01E+3
6.93E-1	5.71E+3	1.75E-1	1.18E+3
6.75E-1	5.61E+3	1.77E-1	1.14E+3
6.68E-1	5.53E+3	1.77E-1	1.15E+3
7.09E-1	5.58E+3	1.69E-1	1.11E+3
7.01E-1	5.60E+3	1.71E-1	1.11E+3
6.82E-1	5.46E+3	1.73E-1	1.10E+3
6.71E-1	5.55E+3	1.87E-1	1.15E+3
7.09E-1	5.47E+3	1.77E-1	1.16E+3
6.79E-1	5.63E+3	1.74E-1	1.13E+3
6.95E-1	5.53E+3	1.84E-1	1.16E+3
6.92E-1	5.58E+3	1.76E-1	1.12E+3
6.72E-1	5.45E+3	1.76E-1	1.08E+3
6.83E-1	5.70E+3	1.87E-1	1.16E+3
6.84E-1	5.64E+3	1.67E-1	1.12E+3
6.59E-1	5.47E+3	1.77E-1	1.22E+3
6.88E-1	5.71E+3	1.80E-1	1.15E+3
6.78E-1	5.60E+3	1.77E-1	1.12E+3
7.04E-1	5.56E+3	1.78E-1	1.16E+3
6.83E-1	5.68E+3	1.90E-1	1.18E+3
6.98E-1	5.69E+3	1.68E-1	1.13E+3
6.81E-1	5.54E+3	1.83E-1	1.11E+3
6.73E-1	5.64E+3	1.64E-1	1.08E+3
7.11E-1	5.64E+3	1.55E-1	1.04E+3
6.84E-1	5.67E+3	1.67E-1	1.17E+3
6.81E-1	5.67E+3	1.68E-1	1.16E+3
6.68E-1	5.55E+3	1.85E-1	1.21E+3
6.96E-1	5.68E+3	1.75E-1	1.19E+3
6.76E-1	5.50E+3	1.82E-1	1.17E+3
6.89E-1	5.57E+3	1.82E-1	1.19E+3
6.76E-1	5.57E+3	1.67E-1	1.14E+3
6.89E-1	5.56E+3	1.60E-1	1.12E+3
6.98E-1	5.61E+3	1.75E-1	1.11E+3
6.88E-1	5.51E+3	1.74E-1	1.11E+3
6.96E-1	5.58E+3	1.75E-1	1.12E+3
6.77E-1	5.57E+3	1.68E-1	1.11E+3
6.84E-1	5.42E+3	1.95E-1	1.22E+3
6.78E-1	5.52E+3	1.68E-1	1.10E+3
7.12E-1	5.58E+3	1.74E-1	1.10E+3
6.71E-1	5.48E+3	1.84E-1	1.13E+3
7.01E-1	5.68E+3	1.84E-1	1.13E+3
6.93E-1	5.70E+3	1.73E-1	1.12E+3
6.67E-1	5.56E+3	1.82E-1	1.14E+3
7.05E-1	5.61E+3	1.78E-1	1.12E+3
7.02E-1	5.60E+3	1.73E-1	1.13E+3
7.06E-1	5.58E+3	1.89E-1	1.26E+3
6.81E-1	5.69E+3	1.78E-1	1.23E+3
6.88E-1	5.66E+3	1.82E-1	1.18E+3
6.75E-1	5.53E+3	1.85E-1	1.14E+3
6.61E-1	5.48E+3	1.74E-1	1.11E+3
6.56E-1	5.48E+3	1.81E-1	1.15E+3
6.88E-1	5.62E+3	1.80E-1	1.09E+3
6.70E-1	5.63E+3	1.82E-1	1.17E+3
6.82E-1	5.63E+3	1.84E-1	1.17E+3
6.69E-1	5.67E+3	1.67E-1	1.14E+3
6.62E-1	5.58E+3	1.80E-1	1.15E+3
6.72E-1	5.55E+3	1.81E-1	1.13E+3
6.67E-1	5.55E+3	1.75E-1	1.09E+3
6.59E-1	5.50E+3	1.76E-1	1.12E+3
6.92E-1	5.63E+3	1.77E-1	1.14E+3
6.96E-1	5.61E+3	1.73E-1	1.11E+3
6.72E-1	5.61E+3	1.83E-1	1.12E+3
6.68E-1	5.49E+3	1.69E-1	1.07E+3
6.74E-1	5.61E+3	1.78E-1	1.05E+3
7.08E-1	5.69E+3	1.76E-1	1.12E+3
6.86E-1	5.51E+3	1.77E-1	1.14E+3
6.79E-1	5.50E+3	1.77E-1	1.14E+3
7.05E-1	5.60E+3	1.76E-1	1.14E+3
6.86E-1	5.58E+3	1.81E-1	1.12E+3
6.84E-1	5.53E+3	1.75E-1	1.14E+3
6.79E-1	5.58E+3	1.73E-1	1.16E+3
6.70E-1	5.52E+3	1.67E-1	1.10E+3
6.99E-1	5.61E+3	1.72E-1	1.11E+3
6.90E-1	5.46E+3	1.75E-1	1.10E+3
6.81E-1	5.55E+3	1.86E-1	1.20E+3
6.89E-1	5.58E+3	1.76E-1	1.15E+3
6.80E-1	5.71E+3	1.69E-1	1.15E+3
7.08E-1	5.60E+3	1.73E-1	1.15E+3
6.75E-1	5.61E+3	1.71E-1	1.13E+3
6.82E-1	5.68E+3	1.84E-1	1.16E+3
6.81E-1	5.58E+3	1.88E-1	1.19E+3
7.03E-1	5.60E+3	1.62E-1	1.06E+3
6.66E-1	5.41E+3	1.71E-1	1.10E+3
6.73E-1	5.53E+3	1.64E-1	1.15E+3
7.22E-1	5.69E+3	1.85E-1	1.19E+3
6.77E-1	5.60E+3	1.79E-1	1.09E+3
6.64E-1	5.65E+3	1.65E-1	1.11E+3
6.64E-1	5.54E+3	1.76E-1	1.21E+3
6.98E-1	5.62E+3	1.83E-1	1.18E+3
6.91E-1	5.56E+3	1.79E-1	1.14E+3
7.10E-1	5.64E+3	1.71E-1	1.13E+3
7.13E-1	5.65E+3	1.76E-1	1.14E+3
6.83E-1	5.61E+3	1.74E-1	1.11E+3
6.93E-1	5.54E+3	1.62E-1	1.06E+3
9.52E-3	2.81E+1	4.31E-1	2.97E+3
7.04E-1	5.67E+3	1.77E-1	1.11E+3
6.71E-1	5.56E+3	1.67E-1	1.11E+3
6.71E-1	5.64E+3	1.77E-1	1.14E+3
6.70E-1	5.55E+3	1.94E-1	1.19E+3
7.09E-1	5.55E+3	1.71E-1	1.15E+3
6.96E-1	5.63E+3	1.77E-1	1.12E+3
6.78E-1	5.61E+3	1.77E-1	1.13E+3
7.02E-1	5.68E+3	1.63E-1	1.09E+3
6.71E-1	5.50E+3	1.66E-1	1.07E+3
7.19E-1	5.66E+3	1.77E-1	1.14E+3
6.99E-1	5.60E+3	1.76E-1	1.16E+3
7.07E-1	5.57E+3	1.69E-1	1.09E+3
6.87E-1	5.74E+3	1.60E-1	1.04E+3
7.00E-1	5.66E+3	1.81E-1	1.17E+3
6.78E-1	5.72E+3	1.71E-1	1.18E+3
6.72E-1	5.59E+3	1.84E-1	1.16E+3
6.72E-1	5.54E+3	1.75E-1	1.18E+3
7.03E-1	5.61E+3	1.74E-1	1.11E+3
6.84E-1	5.71E+3	1.72E-1	1.15E+3
6.74E-1	5.65E+3	1.79E-1	1.18E+3
6.86E-1	5.48E+3	1.87E-1	1.18E+3
7.09E-1	5.68E+3	1.71E-1	1.06E+3
6.97E-1	5.66E+3	1.75E-1	1.15E+3
6.64E-1	5.63E+3	1.89E-1	1.13E+3
6.79E-1	5.73E+3	1.71E-1	1.08E+3
7.07E-1	5.72E+3	1.64E-1	1.08E+3
7.11E-1	5.77E+3	1.71E-1	1.11E+3
6.91E-1	5.74E+3	1.89E-1	1.19E+3
6.77E-1	5.60E+3	1.73E-1	1.12E+3
6.60E-1	5.55E+3	1.74E-1	1.21E+3
6.78E-1	5.53E+3	1.69E-1	1.12E+3
7.13E-1	5.63E+3	1.64E-1	1.14E+3
6.69E-1	5.60E+3	1.86E-1	1.13E+3
6.99E-1	5.52E+3	1.76E-1	1.14E+3
6.93E-1	5.55E+3	1.71E-1	1.09E+3
7.24E-1	5.77E+3	1.84E-1	1.18E+3
6.94E-1	5.74E+3	1.75E-1	1.10E+3
6.88E-1	5.61E+3	1.67E-1	1.13E+3
7.02E-1	5.63E+3	1.63E-1	1.12E+3
6.76E-1	5.55E+3	1.81E-1	1.19E+3
6.69E-1	5.58E+3	1.80E-1	1.14E+3
6.93E-1	5.68E+3	1.66E-1	1.15E+3
6.84E-1	5.70E+3	1.67E-1	1.11E+3
7.07E-1	5.59E+3	1.77E-1	1.11E+3
6.88E-1	5.59E+3	1.84E-1	1.17E+3
6.79E-1	5.65E+3	1.72E-1	1.09E+3
6.84E-1	5.65E+3	1.71E-1	1.16E+3
6.94E-1	5.58E+3	1.67E-1	1.05E+3
6.89E-1	5.57E+3	1.78E-1	1.15E+3
6.79E-1	5.67E+3	1.76E-1	1.13E+3
6.77E-1	5.65E+3	1.75E-1	1.12E+3
7.10E-1	5.52E+3	1.75E-1	1.13E+3
6.79E-1	5.66E+3	1.76E-1	1.15E+3
6.83E-1	5.54E+3	1.82E-1	1.16E+3
6.81E-1	5.59E+3	1.82E-1	1.08E+3
6.86E-1	5.70E+3	1.81E-1	1.17E+3
6.81E-1	5.54E+3	1.81E-1	1.13E+3
6.98E-1	5.63E+3	1.83E-1	1.18E+3
6.89E-1	5.64E+3	1.67E-1	1.12E+3
6.70E-1	5.52E+3	1.72E-1	1.08E+3
7.08E-1	5.54E+3	1.75E-1	1.14E+3
7.01E-1	5.75E+3	1.73E-1	1.07E+3
6.78E-1	5.63E+3	1.69E-1	1.08E+3
7.02E-1	5.52E+3	1.84E-1	1.18E+3
6.94E-1	5.59E+3	1.78E-1	1.12E+3
6.78E-1	5.42E+3	1.79E-1	1.13E+3
6.75E-1	5.60E+3	1.91E-1	1.12E+3
6.89E-1	5.61E+3	1.74E-1	1.16E+3
6.71E-1	5.63E+3	1.72E-1	1.16E+3
7.06E-1	5.63E+3	1.64E-1	1.07E+3
6.98E-1	5.50E+3	1.73E-1	1.15E+3
7.00E-1	5.59E+3	1.87E-1	1.23E+3
6.72E-1	5.57E+3	1.69E-1	1.10E+3
6.71E-1	5.61E+3	1.86E-1	1.22E+3
6.71E-1	5.65E+3	1.67E-1	1.11E+3
6.69E-1	5.52E+3	1.69E-1	1.09E+3
7.04E-1	5.56E+3	1.66E-1	1.06E+3
6.83E-1	5.60E+3	1.68E-1	1.10E+3
6.72E-1	5.52E+3	1.89E-1	1.21E+3
6.78E-1	5.58E+3	1.87E-1	1.19E+3
7.07E-1	5.62E+3	1.68E-1	1.15E+3
6.81E-1	5.71E+3	1.81E-1	1.23E+3
6.95E-1	5.59E+3	1.70E-1	1.11E+3
6.74E-1	5.55E+3	1.69E-1	1.14E+3
6.62E-1	5.51E+3	1.80E-1	1.22E+3
7.00E-1	5.65E+3	1.81E-1	1.13E+3
7.12E-1	5.70E+3	1.69E-1	1.13E+3
6.92E-1	5.61E+3	1.79E-1	1.13E+3
6.74E-1	5.65E+3	1.65E-1	1.10E+3
6.67E-1	5.52E+3	1.73E-1	1.16E+3
6.71E-1	5.57E+3	1.66E-1	1.11E+3
6.77E-1	5.49E+3	1.69E-1	1.06E+3
6.75E-1	5.64E+3	1.76E-1	1.07E+3
6.93E-1	5.55E+3	1.77E-1	1.12E+3
6.82E-1	5.56E+3	1.83E-1	1.18E+3
6.91E-1	5.55E+3	1.75E-1	1.18E+3
6.75E-1	5.62E+3	1.91E-1	1.18E+3
6.82E-1	5.55E+3	1.83E-1	1.18E+3
7.81E-3	1.25E+1	4.26E-1	2.97E+3
6.79E-1	5.65E+3	1.72E-1	1.13E+3
7.03E-1	5.56E+3	1.71E-1	1.15E+3
6.78E-1	5.54E+3	1.89E-1	1.20E+3
6.72E-1	5.58E+3	1.74E-1	1.16E+3
7.12E-1	5.62E+3	1.78E-1	1.11E+3
6.89E-1	5.60E+3	1.76E-1	1.13E+3
6.93E-1	5.54E+3	1.83E-1	1.21E+3
7.10E-1	5.60E+3	1.88E-1	1.21E+3
6.73E-1	5.60E+3	1.74E-1	1.15E+3
6.82E-1	5.60E+3	1.73E-1	1.15E+3
6.98E-1	5.57E+3	1.69E-1	1.14E+3
7.15E-1	5.68E+3	1.72E-1	1.12E+3
6.76E-1	5.58E+3	1.62E-1	1.07E+3
6.79E-1	5.61E+3	1.82E-1	1.14E+3
6.91E-1	5.56E+3	1.71E-1	1.08E+3
7.15E-1	5.75E+3	1.75E-1	1.19E+3
7.09E-1	5.56E+3	1.86E-1	1.20E+3
6.79E-1	5.67E+3	1.71E-1	1.12E+3
6.57E-1	5.50E+3	1.77E-1	1.17E+3
6.96E-1	5.61E+3	1.67E-1	1.07E+3
7.00E-1	5.61E+3	1.74E-1	1.12E+3
6.76E-1	5.65E+3	1.70E-1	1.09E+3
6.99E-1	5.51E+3	1.65E-1	1.09E+3
6.88E-1	5.59E+3	1.79E-1	1.14E+3
7.11E-1	5.77E+3	1.63E-1	1.09E+3
6.73E-1	5.62E+3	1.66E-1	1.03E+3
6.65E-1	5.61E+3	1.72E-1	1.13E+3
6.70E-1	5.61E+3	1.80E-1	1.14E+3
6.98E-1	5.69E+3	1.75E-1	1.08E+3
6.94E-1	5.64E+3	1.70E-1	1.10E+3
6.91E-1	5.54E+3	1.73E-1	1.14E+3
6.90E-1	5.60E+3	1.70E-1	1.09E+3
6.76E-1	5.63E+3	1.77E-1	1.05E+3
6.68E-1	5.51E+3	1.72E-1	1.11E+3
6.78E-1	5.59E+3	1.92E-1	1.31E+3
6.81E-1	5.67E+3	1.59E-1	1.07E+3
6.84E-1	5.55E+3	1.79E-1	1.21E+3
6.82E-1	5.50E+3	1.73E-1	1.09E+3
6.77E-1	5.69E+3	1.62E-1	1.14E+3
6.85E-1	5.65E+3	1.80E-1	1.13E+3
7.09E-1	5.67E+3	1.76E-1	1.17E+3
7.10E-1	5.72E+3	1.64E-1	1.10E+3
6.99E-1	5.55E+3	1.83E-1	1.13E+3
7.01E-1	5.68E+3	1.79E-1	1.14E+3
6.91E-1	5.59E+3	1.81E-1	1.15E+3
6.71E-1	5.55E+3	1.67E-1	1.10E+3
6.66E-1	5.47E+3	1.85E-1	1.21E+3
6.72E-1	5.62E+3	1.82E-1	1.23E+3
6.77E-1	5.65E+3	1.78E-1	1.12E+3
6.96E-1	5.60E+3	1.78E-1	1.15E+3
6.71E-1	5.60E+3	1.71E-1	1.09E+3
6.93E-1	5.72E+3	1.74E-1	1.16E+3
6.70E-1	5.60E+3	1.68E-1	1.14E+3
6.59E-1	5.40E+3	1.74E-1	1.10E+3
6.92E-1	5.48E+3	1.65E-1	1.11E+3
6.98E-1	5.48E+3	1.77E-1	1.17E+3
7.08E-1	5.61E+3	1.72E-1	1.11E+3
6.90E-1	5.57E+3	1.80E-1	1.22E+3
6.65E-1	5.60E+3	1.92E-1	1.14E+3
7.10E-1	5.64E+3	1.67E-1	1.10E+3
6.83E-1	5.54E+3	1.69E-1	1.04E+3
6.78E-1	5.75E+3	1.69E-1	1.02E+3
7.08E-1	5.52E+3	1.72E-1	1.15E+3
6.88E-1	5.58E+3	1.67E-1	1.08E+3
6.97E-1	5.75E+3	1.67E-1	1.12E+3
6.77E-1	5.59E+3	1.68E-1	1.09E+3
6.72E-1	5.59E+3	1.61E-1	1.10E+3
6.69E-1	5.55E+3	1.78E-1	1.19E+3
6.85E-1	5.66E+3	1.86E-1	1.22E+3
6.65E-1	5.59E+3	1.62E-1	1.13E+3
6.89E-1	5.53E+3	1.68E-1	1.10E+3
9.52E-3	1.75E+1	4.19E-1	2.90E+3
6.81E-1	5.65E+3	1.78E-1	1.13E+3
6.74E-1	5.68E+3	1.86E-1	1.18E+3
6.71E-1	5.42E+3	1.65E-1	1.08E+3
6.72E-1	5.54E+3	1.78E-1	1.20E+3
6.85E-1	5.53E+3	1.77E-1	1.13E+3
6.76E-1	5.63E+3	1.86E-1	1.12E+3
7.05E-1	5.66E+3	1.72E-1	1.12E+3
6.87E-1	5.60E+3	1.72E-1	1.14E+3
7.11E-1	5.57E+3	1.72E-1	1.09E+3
7.00E-1	5.58E+3	1.67E-1	1.11E+3
6.97E-1	5.55E+3	1.87E-1	1.20E+3
6.80E-1	5.54E+3	1.80E-1	1.15E+3
6.89E-1	5.65E+3	1.80E-1	1.16E+3
6.81E-1	5.67E+3	1.79E-1	1.18E+3
7.06E-1	5.69E+3	1.60E-1	1.05E+3
7.11E-1	5.65E+3	1.85E-1	1.15E+3
6.63E-1	5.51E+3	1.60E-1	1.10E+3
6.76E-1	5.67E+3	1.65E-1	1.08E+3
6.78E-1	5.73E+3	1.68E-1	1.11E+3
6.98E-1	5.66E+3	1.73E-1	1.18E+3
6.91E-1	5.75E+3	1.84E-1	1.14E+3
6.68E-1	5.63E+3	1.63E-1	1.06E+3
6.77E-1	5.77E+3	1.86E-1	1.20E+3
7.01E-1	5.54E+3	1.74E-1	1.16E+3
6.84E-1	5.76E+3	1.72E-1	1.17E+3
6.96E-1	5.67E+3	1.62E-1	1.06E+3
6.96E-1	5.61E+3	1.65E-1	1.09E+3
7.00E-1	5.60E+3	1.90E-1	1.19E+3
6.68E-1	5.55E+3	1.78E-1	1.12E+3
6.72E-1	5.62E+3	1.63E-1	1.06E+3
6.95E-1	5.55E+3	1.87E-1	1.17E+3
6.79E-1	5.59E+3	1.78E-1	1.08E+3
6.60E-1	5.56E+3	1.87E-1	1.11E+3
6.84E-1	5.65E+3	1.80E-1	1.18E+3
6.71E-1	5.65E+3	1.78E-1	1.12E+3
6.76E-1	5.55E+3	1.73E-1	1.13E+3
6.71E-1	5.66E+3	1.77E-1	1.22E+3
6.81E-1	5.78E+3	1.66E-1	1.10E+3
6.84E-1	5.68E+3	1.77E-1	1.17E+3
6.65E-1	5.54E+3	1.60E-1	1.01E+3
6.80E-1	5.60E+3	1.78E-1	1.18E+3
6.77E-1	5.50E+3	1.78E-1	1.10E+3
6.91E-1	5.59E+3	1.82E-1	1.19E+3
7.08E-1	5.59E+3	1.69E-1	1.13E+3
6.82E-1	5.71E+3	1.62E-1	1.10E+3
7.05E-1	5.55E+3	1.75E-1	1.10E+3
7.01E-1	5.63E+3	1.74E-1	1.11E+3
6.92E-1	5.64E+3	1.75E-1	1.18E+3
7.15E-1	5.74E+3	1.70E-1	1.17E+3
6.92E-1	5.62E+3	1.79E-1	1.15E+3
6.87E-1	5.62E+3	1.64E-1	1.10E+3
6.95E-1	5.64E+3	1.82E-1	1.15E+3
7.28E-1	5.76E+3	1.72E-1	1.19E+3
6.94E-1	5.71E+3	1.80E-1	1.14E+3
6.78E-1	5.69E+3	1.86E-1	1.19E+3
7.06E-1	5.65E+3	1.85E-1	1.18E+3
6.99E-1	5.69E+3	1.75E-1	1.11E+3
6.83E-1	5.52E+3	1.79E-1	1.10E+3
7.00E-1	5.58E+3	1.80E-1	1.09E+3
6.77E-1	5.57E+3	1.75E-1	1.10E+3
7.09E-1	5.62E+3	1.84E-1	1.18E+3
7.14E-1	5.66E+3	1.84E-1	1.23E+3
6.98E-1	5.70E+3	1.85E-1	1.16E+3
6.98E-1	5.68E+3	1.62E-1	1.12E+3
6.90E-1	5.49E+3	1.75E-1	1.15E+3
6.85E-1	5.65E+3	1.80E-1	1.17E+3
6.96E-1	5.68E+3	1.70E-1	1.11E+3
6.64E-1	5.40E+3	1.79E-1	1.11E+3
6.71E-1	5.60E+3	1.76E-1	1.19E+3
6.88E-1	5.62E+3	1.61E-1	1.03E+3
6.79E-1	5.52E+3	1.80E-1	1.15E+3
7.05E-1	5.59E+3	1.60E-1	1.03E+3
7.01E-1	5.59E+3	1.88E-1	1.23E+3
6.77E-1	5.59E+3	1.68E-1	1.06E+3
7.01E-1	5.69E+3	1.80E-1	1.13E+3
6.79E-1	5.73E+3	1.70E-1	1.16E+3
6.76E-1	5.50E+3	1.79E-1	1.12E+3
6.66E-1	5.56E+3	1.76E-1	1.14E+3
6.79E-1	5.66E+3	1.81E-1	1.17E+3
6.82E-1	5.51E+3	1.79E-1	1.13E+3
7.12E-1	5.64E+3	1.80E-1	1.15E+3
6.99E-1	5.60E+3	1.79E-1	1.15E+3
6.98E-1	5.61E+3	1.80E-1	1.17E+3
6.99E-1	5.57E+3	1.80E-1	1.20E+3
6.74E-1	5.59E+3	1.77E-1	1.16E+3
6.82E-1	5.62E+3	1.78E-1	1.11E+3
6.75E-1	5.64E+3	1.75E-1	1.15E+3
6.73E-1	5.58E+3	1.87E-1	1.14E+3
6.69E-1	5.57E+3	1.78E-1	1.06E+3
6.92E-1	5.57E+3	1.74E-1	1.09E+3
6.80E-1	5.58E+3	1.67E-1	1.06E+3
6.87E-1	5.67E+3	1.71E-1	1.15E+3
6.62E-1	5.52E+3	1.74E-1	1.10E+3
6.63E-1	5.56E+3	1.77E-1	1.16E+3
6.69E-1	5.60E+3	1.77E-1	1.15E+3
6.79E-1	5.61E+3	1.78E-1	1.09E+3
6.91E-1	5.41E+3	1.80E-1	1.16E+3
6.65E-1	5.66E+3	1.77E-1	1.14E+3
7.01E-1	5.60E+3	1.82E-1	1.18E+3
7.02E-1	5.55E+3	1.73E-1	1.16E+3
7.06E-1	5.72E+3	1.82E-1	1.17E+3
7.08E-1	5.77E+3	1.69E-1	1.07E+3
6.87E-1	5.59E+3	1.91E-1	1.19E+3
7.08E-1	5.72E+3	1.68E-1	1.07E+3
6.74E-1	5.63E+3	1.73E-1	1.15E+3
7.00E-1	5.56E+3	1.62E-1	1.06E+3
6.89E-1	5.66E+3	1.76E-1	1.17E+3
7.17E-1	5.73E+3	1.76E-1	1.18E+3
6.74E-1	5.58E+3	1.74E-1	1.15E+3
6.78E-1	5.65E+3	1.74E-1	1.18E+3
6.84E-1	5.54E+3	1.72E-1	1.09E+3
7.04E-1	5.68E+3	1.66E-1	1.13E+3
6.85E-1	5.60E+3	1.78E-1	1.13E+3
6.64E-1	5.53E+3	1.76E-1	1.17E+3
7.11E-1	5.77E+3	1.70E-1	1.08E+3
6.98E-1	5.58E+3	1.87E-1	1.16E+3
6.99E-1	5.65E+3	1.83E-1	1.11E+3
6.76E-1	5.63E+3	1.69E-1	1.06E+3
6.93E-1	5.77E+3	1.68E-1	1.07E+3
6.73E-1	5.47E+3	1.69E-1	1.10E+3
6.70E-1	5.62E+3	1.68E-1	1.11E+3
6.88E-1	5.58E+3	1.71E-1	1.11E+3
6.67E-1	5.51E+3	1.76E-1	1.11E+3
6.83E-1	5.77E+3	1.52E-1	9.94E+2
6.97E-1	5.48E+3	1.80E-1	1.17E+3
6.99E-1	5.57E+3	1.79E-1	1.14E+3
6.97E-1	5.71E+3	1.65E-1	1.13E+3
6.90E-1	5.65E+3	1.70E-1	1.09E+3
6.87E-1	5.50E+3	1.89E-1	1.24E+3
6.82E-1	5.61E+3	1.75E-1	1.16E+3
6.61E-1	5.51E+3	1.78E-1	1.15E+3
6.89E-1	5.78E+3	1.73E-1	1.16E+3
6.63E-1	5.53E+3	1.67E-1	1.12E+3
6.91E-1	5.76E+3	1.67E-1	1.09E+3
7.07E-1	5.72E+3	1.75E-1	1.14E+3
6.67E-1	5.60E+3	1.61E-1	1.11E+3
6.82E-1	5.65E+3	1.81E-1	1.16E+3
6.85E-1	5.53E+3	1.89E-1	1.28E+3
6.63E-1	5.58E+3	1.86E-1	1.24E+3
6.82E-1	5.46E+3	1.77E-1	1.08E+3
6.88E-1	5.69E+3	1.84E-1	1.14E+3
7.03E-1	5.62E+3	1.67E-1	1.13E+3
6.96E-1	5.72E+3	1.70E-1	1.10E+3
6.77E-1	5.74E+3	1.64E-1	1.12E+3
7.08E-1	5.63E+3	1.75E-1	1.16E+3
7.05E-1	5.54E+3	1.78E-1	1.14E+3
6.60E-1	5.50E+3	1.65E-1	1.07E+3
7.01E-1	5.59E+3	1.82E-1	1.11E+3
6.89E-1	5.53E+3	1.69E-1	1.15E+3
6.96E-1	5.74E+3	1.72E-1	1.17E+3
6.61E-1	5.52E+3	1.72E-1	1.12E+3
6.82E-1	5.58E+3	1.77E-1	1.16E+3
6.68E-1	5.56E+3	1.74E-1	1.11E+3
6.98E-1	5.53E+3	1.71E-1	1.12E+3
6.83E-1	5.42E+3	1.68E-1	1.08E+3
7.15E-1	5.70E+3	1.71E-1	1.14E+3
6.89E-1	5.62E+3	1.72E-1	1.07E+3
6.76E-1	5.52E+3	1.64E-1	1.08E+3
6.76E-1	5.48E+3	1.75E-1	1.18E+3
6.64E-1	5.51E+3	1.70E-1	1.11E+3
6.86E-1	5.63E+3	1.83E-1	1.18E+3
6.86E-1	5.66E+3	1.83E-1	1.22E+3
6.76E-1	5.65E+3	1.65E-1	1.08E+3
7.15E-1	5.64E+3	1.74E-1	1.14E+3
6.75E-1	5.69E+3	1.76E-1	1.17E+3
7.19E-1	5.61E+3	1.60E-1	1.06E+3
6.98E-1	5.67E+3	1.78E-1	1.12E+3
6.98E-1	5.60E+3	1.62E-1	1.05E+3
6.79E-1	5.60E+3	1.71E-1	1.08E+3
6.83E-1	5.65E+3	1.84E-1	1.15E+3
6.74E-1	5.63E+3	1.65E-1	1.09E+3
6.78E-1	5.59E+3	1.74E-1	1.19E+3
6.94E-1	5.54E+3	1.77E-1	1.13E+3
6.74E-1	5.68E+3	1.73E-1	1.13E+3
7.09E-1	5.66E+3	1.74E-1	1.16E+3
7.04E-1	5.51E+3	1.62E-1	1.08E+3
7.16E-1	5.74E+3	1.93E-1	1.19E+3
6.67E-1	5.64E+3	1.61E-1	1.05E+3
6.67E-1	5.62E+3	1.81E-1	1.18E+3
6.85E-1	5.48E+3	1.72E-1	1.12E+3
6.85E-1	5.52E+3	1.71E-1	1.13E+3
6.84E-1	5.53E+3	1.78E-1	1.15E+3
6.88E-1	5.58E+3	1.68E-1	1.06E+3
7.81E-3	2.14E+1	4.31E-1	2.93E+3
6.77E-1	5.67E+3	1.73E-1	1.11E+3
6.98E-1	5.48E+3	1.67E-1	1.05E+3
6.70E-1	5.57E+3	1.87E-1	1.20E+3
6.86E-1	5.65E+3	1.71E-1	1.14E+3
6.85E-1	5.63E+3	1.77E-1	1.16E+3
6.80E-1	5.60E+3	1.68E-1	1.17E+3
6.76E-1	5.68E+3	1.69E-1	1.12E+3
7.14E-1	5.62E+3	1.77E-1	1.14E+3
6.90E-1	5.64E+3	1.70E-1	1.13E+3
6.69E-1	5.54E+3	1.65E-1	1.15E+3
6.94E-1	5.68E+3	1.66E-1	1.10E+3
6.84E-1	5.61E+3	1.68E-1	1.12E+3
7.15E-1	5.67E+3	1.76E-1	1.16E+3
6.74E-1	5.59E+3	1.78E-1	1.13E+3
6.80E-1	5.70E+3	1.80E-1	1.13E+3
6.79E-1	5.64E+3	1.63E-1	1.10E+3
6.97E-1	5.60E+3	1.84E-1	1.13E+3
7.16E-1	5.62E+3	1.67E-1	1.09E+3
6.71E-1	5.52E+3	1.65E-1	1.09E+3
6.66E-1	5.52E+3	1.96E-1	1.23E+3
6.87E-1	5.60E+3	1.66E-1	1.12E+3
7.15E-1	5.70E+3	1.78E-1	1.15E+3
6.99E-1	5.61E+3	1.78E-1	1.21E+3
7.01E-1	5.53E+3	1.68E-1	1.06E+3
6.90E-1	5.47E+3	1.77E-1	1.10E+3
6.92E-1	5.63E+3	1.69E-1	1.13E+3
7.11E-1	5.64E+3	1.60E-1	1.03E+3
7.06E-1	5.67E+3	1.83E-1	1.21E+3
6.91E-1	5.65E+3	1.77E-1	1.16E+3
6.83E-1	5.62E+3	1.79E-1	1.18E+3
6.72E-1	5.47E+3	1.87E-1	1.12E+3
6.68E-1	5.51E+3	1.60E-1	1.05E+3
6.87E-1	5.59E+3	1.74E-1	1.14E+3
7.29E-1	5.78E+3	1.70E-1	1.11E+3
6.89E-1	5.72E+3	1.73E-1	1.18E+3
6.88E-1	5.75E+3	1.77E-1	1.27E+3
6.87E-1	5.60E+3	1.87E-1	1.19E+3
7.04E-1	5.56E+3	1.72E-1	1.06E+3
7.15E-1	5.64E+3	1.74E-1	1.09E+3
6.78E-1	5.63E+3	1.66E-1	1.07E+3
6.84E-1	5.50E+3	1.85E-1	1.19E+3
7.03E-1	5.69E+3	1.84E-1	1.20E+3
6.93E-1	5.69E+3	1.66E-1	1.07E+3
6.82E-1	5.58E+3	1.84E-1	1.20E+3
6.76E-1	5.58E+3	1.85E-1	1.22E+3
6.74E-1	5.64E+3	1.69E-1	1.08E+3
6.81E-1	5.56E+3	1.69E-1	1.13E+3
6.82E-1	5.65E+3	1.77E-1	1.17E+3
6.94E-1	5.49E+3	1.72E-1	1.18E+3
6.91E-1	5.58E+3	1.80E-1	1.17E+3
6.96E-1	5.67E+3	1.85E-1	1.15E+3
7.18E-1	5.75E+3	1.64E-1	1.06E+3
6.94E-1	5.61E+3	1.67E-1	1.03E+3
6.90E-1	5.55E+3	1.67E-1	1.05E+3
7.04E-1	5.63E+3	1.67E-1	1.12E+3
7.07E-1	5.62E+3	1.59E-1	1.03E+3
6.74E-1	5.62E+3	1.68E-1	1.11E+3
6.92E-1	5.57E+3	1.84E-1	1.23E+3
6.86E-1	5.57E+3	1.63E-1	1.01E+3
6.72E-1	5.62E+3	1.67E-1	1.15E+3
7.11E-1	5.76E+3	1.76E-1	1.21E+3
6.86E-1	5.65E+3	1.75E-1	1.20E+3
6.94E-1	5.63E+3	1.74E-1	1.10E+3
6.79E-1	5.43E+3	1.81E-1	1.14E+3
6.74E-1	5.58E+3	1.66E-1	1.09E+3
7.01E-1	5.61E+3	1.73E-1	1.14E+3
7.05E-1	5.51E+3	1.89E-1	1.15E+3
7.08E-1	5.65E+3	1.70E-1	1.13E+3
6.86E-1	5.68E+3	1.87E-1	1.18E+3
6.80E-1	5.62E+3	1.88E-1	1.18E+3
6.92E-1	5.65E+3	1.68E-1	1.08E+3
6.67E-1	5.46E+3	1.71E-1	1.14E+3
6.72E-1	5.57E+3	1.94E-1	1.27E+3
6.82E-1	5.52E+3	1.87E-1	1.15E+3
6.77E-1	5.65E+3	1.64E-1	1.15E+3
6.75E-1	5.56E+3	1.60E-1	1.08E+3
7.08E-1	5.65E+3	1.78E-1	1.18E+3
1.05E-2	3.25E+1	4.35E-1	3.00E+3
6.84E-1	5.42E+3	1.76E-1	1.11E+3
6.96E-1	5.68E+3	1.59E-1	1.11E+3
6.89E-1	5.71E+3	1.68E-1	1.10E+3
6.77E-1	5.56E+3	1.84E-1	1.15E+3
6.91E-1	5.56E+3	1.71E-1	1.14E+3
6.68E-1	5.63E+3	1.77E-1	1.18E+3
7.05E-1	5.56E+3	1.63E-1	1.06E+3
6.81E-1	5.71E+3	1.70E-1	1.13E+3
6.56E-1	5.50E+3	1.69E-1	1.15E+3
6.51E-1	5.45E+3	1.66E-1	1.12E+3
6.90E-1	5.54E+3	1.76E-1	1.11E+3
6.81E-1	5.59E+3	1.66E-1	1.09E+3
7.15E-1	5.56E+3	1.83E-1	1.12E+3
6.95E-1	5.44E+3	1.81E-1	1.15E+3
6.84E-1	5.48E+3	1.75E-1	1.11E+3
6.86E-1	5.51E+3	1.89E-1	1.16E+3
6.75E-1	5.53E+3	1.76E-1	1.14E+3
6.97E-1	5.53E+3	1.87E-1	1.19E+3
6.89E-1	5.53E+3	1.67E-1	1.08E+3
6.87E-1	5.68E+3	1.67E-1	1.10E+3
6.79E-1	5.62E+3	1.79E-1	1.13E+3
7.13E-1	5.61E+3	1.81E-1	1.15E+3
6.75E-1	5.48E+3	1.59E-1	1.00E+3
6.83E-1	5.61E+3	1.74E-1	1.17E+3
6.91E-1	5.68E+3	1.77E-1	1.18E+3
7.24E-1	5.73E+3	1.79E-1	1.14E+3
7.10E-1	5.65E+3	1.70E-1	1.08E+3
6.83E-1	5.57E+3	1.69E-1	1.05E+3
6.86E-1	5.82E+3	1.76E-1	1.17E+3
7.07E-1	5.62E+3	1.81E-1	1.12E+3
6.86E-1	5.58E+3	1.85E-1	1.23E+3
6.87E-1	5.71E+3	1.62E-1	1.12E+3
6.74E-1	5.58E+3	1.81E-1	1.20E+3
6.92E-1	5.60E+3	1.81E-1	1.15E+3
7.01E-1	5.70E+3	1.70E-1	1.10E+3
6.88E-1	5.60E+3	1.68E-1	1.10E+3
6.60E-1	5.51E+3	1.67E-1	1.08E+3
7.00E-1	5.51E+3	1.67E-1	1.14E+3
7.06E-1	5.52E+3	1.82E-1	1.09E+3
6.95E-1	5.60E+3	1.74E-1	1.17E+3
6.69E-1	5.64E+3	1.67E-1	1.09E+3
6.79E-1	5.70E+3	1.69E-1	1.15E+3
7.09E-1	5.65E+3	1.77E-1	1.09E+3
7.07E-1	5.68E+3	1.68E-1	1.10E+3
9.52E-3	2.54E+1	6.31E-1	3.42E+3
6.84E-1	5.75E+3	1.72E-1	1.15E+3
6.87E-1	5.55E+3	1.81E-1	1.18E+3
6.84E-1	5.71E+3	1.61E-1	1.07E+3
6.81E-1	5.76E+3	1.72E-1	1.14E+3
6.89E-1	5.65E+3	1.79E-1	1.17E+3
6.66E-1	5.58E+3	1.64E-1	1.06E+3
6.78E-1	5.58E+3	1.66E-1	1.11E+3
7.11E-1	5.70E+3	1.71E-1	1.14E+3
6.71E-1	5.68E+3	1.84E-1	1.23E+3
6.90E-1	5.63E+3	1.87E-1	1.13E+3
7.07E-1	5.70E+3	1.85E-1	1.15E+3
6.90E-1	5.73E+3	1.72E-1	1.17E+3
