1.74E-1	1.06E+3	3.05E-2	1.63E+2
1.75E-1	1.12E+3	3.91E-2	2.27E+2
1.82E-1	1.14E+3	3.59E-2	1.84E+2
1.75E-1	1.09E+3	3.54E-2	1.48E+2
1.82E-1	1.08E+3	3.69E-2	2.18E+2
8.30E-3	2.58E+1	1.33E-1	5.32E+2
1.94E-1	1.20E+3	3.42E-2	1.94E+2
1.91E-1	1.05E+3	4.00E-2	2.22E+2
1.97E-1	1.19E+3	3.56E-2	1.95E+2
1.82E-1	1.12E+3	3.96E-2	2.56E+2
1.79E-1	1.17E+3	3.74E-2	1.87E+2
1.89E-1	1.18E+3	4.20E-2	2.97E+2
1.91E-1	1.15E+3	3.71E-2	2.06E+2
1.73E-1	1.07E+3	4.42E-2	2.81E+2
1.90E-1	1.11E+3	3.49E-2	2.07E+2
1.85E-1	1.11E+3	3.86E-2	2.27E+2
1.77E-1	1.12E+3	4.05E-2	2.52E+2
1.80E-1	1.12E+3	3.59E-2	2.36E+2
1.97E-1	1.20E+3	3.15E-2	2.05E+2
1.91E-1	1.12E+3	3.49E-2	2.00E+2
1.85E-1	1.16E+3	3.64E-2	2.11E+2
1.81E-1	1.03E+3	3.54E-2	1.85E+2
1.89E-1	1.16E+3	4.05E-2	2.65E+2
1.90E-1	1.18E+3	4.20E-2	2.64E+2
1.80E-1	1.18E+3	3.59E-2	2.18E+2
1.83E-1	1.14E+3	3.86E-2	2.46E+2
1.96E-1	1.16E+3	3.88E-2	2.70E+2
1.71E-1	1.05E+3	3.81E-2	2.50E+2
1.97E-1	1.20E+3	4.13E-2	2.57E+2
1.78E-1	1.10E+3	3.27E-2	1.86E+2
1.81E-1	1.08E+3	3.54E-2	2.57E+2
2.03E-1	1.20E+3	4.57E-2	2.51E+2
1.80E-1	1.09E+3	3.52E-2	1.87E+2
1.72E-1	1.06E+3	4.42E-2	2.42E+2
1.72E-1	1.03E+3	3.49E-2	1.69E+2
1.70E-1	1.12E+3	3.81E-2	2.06E+2
1.77E-1	1.10E+3	4.03E-2	3.10E+2
1.83E-1	1.11E+3	3.37E-2	2.01E+2
1.82E-1	1.11E+3	3.25E-2	2.03E+2
1.74E-1	1.07E+3	3.69E-2	1.99E+2
1.90E-1	1.16E+3	3.37E-2	1.75E+2
1.91E-1	1.14E+3	3.49E-2	2.48E+2
1.82E-1	1.09E+3	4.05E-2	2.09E+2
1.87E-1	1.14E+3	3.64E-2	2.36E+2
1.85E-1	1.12E+3	3.83E-2	2.18E+2
1.80E-1	1.08E+3	3.91E-2	2.03E+2
1.86E-1	1.17E+3	3.42E-2	2.38E+2
1.79E-1	1.08E+3	3.71E-2	2.48E+2
1.82E-1	1.10E+3	3.47E-2	2.16E+2
1.75E-1	1.11E+3	3.42E-2	1.80E+2
1.76E-1	1.11E+3	3.78E-2	2.32E+2
1.94E-1	1.18E+3	3.74E-2	1.80E+2
1.87E-1	1.14E+3	3.12E-2	1.66E+2
2.03E-1	1.23E+3	3.98E-2	2.38E+2
1.85E-1	1.13E+3	3.76E-2	2.30E+2
2.03E-1	1.18E+3	3.76E-2	2.75E+2
1.94E-1	1.12E+3	3.44E-2	2.41E+2
1.68E-1	1.03E+3	3.49E-2	1.88E+2
1.83E-1	1.10E+3	3.59E-2	1.80E+2
1.72E-1	1.07E+3	3.78E-2	2.43E+2
1.65E-1	1.05E+3	3.44E-2	1.83E+2
1.73E-1	1.05E+3	3.49E-2	1.37E+2
1.92E-1	1.17E+3	4.03E-2	2.75E+2
1.94E-1	1.09E+3	3.20E-2	1.48E+2
1.98E-1	1.16E+3	3.59E-2	1.80E+2
1.91E-1	1.07E+3	3.42E-2	1.55E+2
1.81E-1	1.12E+3	3.54E-2	1.93E+2
1.83E-1	1.16E+3	3.49E-2	1.90E+2
1.77E-1	1.05E+3	3.54E-2	2.00E+2
1.85E-1	1.14E+3	4.57E-2	2.80E+2
1.88E-1	1.17E+3	3.54E-2	2.39E+2
1.84E-1	1.14E+3	3.52E-2	2.28E+2
1.92E-1	1.13E+3	3.64E-2	2.42E+2
1.86E-1	1.12E+3	3.32E-2	2.02E+2
1.75E-1	1.11E+3	3.44E-2	2.11E+2
2.00E-1	1.08E+3	3.22E-2	1.41E+2
1.69E-1	1.01E+3	4.08E-2	2.49E+2
1.84E-1	1.13E+3	3.66E-2	1.97E+2
1.83E-1	1.09E+3	3.56E-2	1.93E+2
1.81E-1	1.12E+3	3.39E-2	1.95E+2
1.80E-1	1.17E+3	3.54E-2	1.72E+2
1.82E-1	1.10E+3	3.61E-2	1.67E+2
1.84E-1	1.11E+3	3.44E-2	1.86E+2
1.81E-1	1.18E+3	3.78E-2	1.87E+2
1.86E-1	1.16E+3	3.30E-2	1.70E+2
1.71E-1	1.10E+3	3.37E-2	1.90E+2
1.87E-1	1.15E+3	4.15E-2	2.61E+2
1.89E-1	1.15E+3	3.64E-2	2.23E+2
1.80E-1	1.11E+3	3.66E-2	2.17E+2
1.75E-1	1.10E+3	4.00E-2	2.32E+2
1.82E-1	1.10E+3	3.08E-2	1.71E+2
1.80E-1	1.13E+3	3.96E-2	2.15E+2
1.78E-1	1.15E+3	3.37E-2	1.93E+2
1.83E-1	1.11E+3	3.27E-2	1.98E+2
1.85E-1	1.04E+3	3.56E-2	2.05E+2
1.73E-1	1.11E+3	3.52E-2	1.70E+2
1.90E-1	1.13E+3	3.37E-2	1.85E+2
1.85E-1	1.16E+3	3.86E-2	2.27E+2
1.78E-1	1.12E+3	3.27E-2	2.12E+2
1.87E-1	1.09E+3	3.27E-2	1.74E+2
1.73E-1	1.09E+3	3.20E-2	1.62E+2
7.08E-3	-4.44E+0	1.35E-1	5.34E+2
1.83E-1	1.16E+3	3.64E-2	1.92E+2
1.82E-1	1.08E+3	3.81E-2	1.94E+2
1.85E-1	1.11E+3	4.05E-2	2.79E+2
1.77E-1	1.03E+3	3.64E-2	2.25E+2
1.85E-1	1.12E+3	3.34E-2	2.06E+2
1.74E-1	1.05E+3	3.64E-2	1.54E+2
1.72E-1	1.05E+3	3.39E-2	2.06E+2
1.79E-1	1.13E+3	3.32E-2	1.99E+2
1.68E-1	1.06E+3	3.93E-2	2.06E+2
1.80E-1	1.13E+3	3.27E-2	1.80E+2
1.81E-1	1.14E+3	3.91E-2	2.09E+2
1.79E-1	1.14E+3	3.61E-2	2.26E+2
1.75E-1	1.09E+3	3.56E-2	2.09E+2
4.88E-3	-4.88E-2	1.41E-1	5.19E+2
1.86E-1	1.18E+3	3.44E-2	1.73E+2
1.86E-1	1.13E+3	3.37E-2	1.94E+2
1.77E-1	1.06E+3	4.00E-2	2.72E+2
1.75E-1	1.05E+3	3.56E-2	2.51E+2
1.80E-1	1.03E+3	3.66E-2	2.12E+2
1.94E-1	1.13E+3	3.91E-2	2.42E+2
1.89E-1	1.21E+3	3.56E-2	2.29E+2
1.68E-1	1.04E+3	3.81E-2	2.42E+2
1.74E-1	1.11E+3	3.20E-2	1.87E+2
1.82E-1	1.19E+3	3.17E-2	1.73E+2
1.78E-1	1.13E+3	3.44E-2	2.23E+2
1.93E-1	1.15E+3	3.61E-2	2.53E+2
1.92E-1	1.14E+3	3.42E-2	1.95E+2
1.77E-1	1.11E+3	3.39E-2	1.98E+2
1.79E-1	1.08E+3	3.66E-2	2.14E+2
1.93E-1	1.20E+3	4.08E-2	2.59E+2
1.83E-1	1.09E+3	4.03E-2	2.42E+2
8.06E-3	6.05E+0	1.31E-1	5.16E+2
1.88E-1	1.14E+3	3.78E-2	2.28E+2
1.79E-1	1.11E+3	3.69E-2	2.21E+2
1.74E-1	1.06E+3	3.39E-2	1.89E+2
1.92E-1	1.13E+3	3.20E-2	1.77E+2
1.87E-1	1.19E+3	3.61E-2	2.46E+2
1.92E-1	1.09E+3	3.61E-2	2.18E+2
1.79E-1	1.16E+3	3.34E-2	1.66E+2
1.87E-1	1.06E+3	3.32E-2	1.61E+2
1.75E-1	1.11E+3	2.73E-2	1.40E+2
1.59E-1	1.05E+3	3.42E-2	2.18E+2
1.80E-1	1.04E+3	4.13E-2	2.92E+2
1.96E-1	1.12E+3	3.74E-2	1.94E+2
1.80E-1	1.11E+3	3.52E-2	1.94E+2
1.83E-1	1.19E+3	3.44E-2	2.02E+2
1.81E-1	1.09E+3	3.15E-2	2.28E+2
1.95E-1	1.16E+3	4.47E-2	2.48E+2
1.99E-1	1.19E+3	3.86E-2	2.41E+2
1.79E-1	1.13E+3	3.81E-2	2.63E+2
1.83E-1	1.10E+3	3.98E-2	2.22E+2
1.71E-1	1.05E+3	3.34E-2	2.01E+2
1.86E-1	1.12E+3	4.20E-2	2.84E+2
1.83E-1	1.12E+3	3.52E-2	1.90E+2
1.75E-1	1.06E+3	4.37E-2	1.83E+2
1.80E-1	1.12E+3	3.74E-2	2.13E+2
1.75E-1	9.97E+2	3.83E-2	1.91E+2
1.71E-1	1.06E+3	3.30E-2	1.64E+2
1.74E-1	1.00E+3	3.91E-2	1.95E+2
1.88E-1	1.11E+3	3.42E-2	2.15E+2
1.89E-1	1.11E+3	3.69E-2	2.53E+2
2.01E-1	1.23E+3	4.17E-2	2.76E+2
1.84E-1	1.16E+3	3.64E-2	2.34E+2
1.80E-1	1.17E+3	3.98E-2	2.49E+2
1.87E-1	1.16E+3	3.66E-2	2.29E+2
1.85E-1	1.15E+3	3.10E-2	1.92E+2
1.94E-1	1.17E+3	3.81E-2	2.65E+2
1.77E-1	1.18E+3	3.66E-2	2.70E+2
1.77E-1	1.09E+3	3.66E-2	2.62E+2
1.89E-1	1.10E+3	3.44E-2	1.96E+2
1.99E-1	1.15E+3	3.34E-2	1.89E+2
1.80E-1	1.15E+3	4.08E-2	2.34E+2
1.80E-1	1.14E+3	3.49E-2	1.92E+2
1.92E-1	1.12E+3	3.81E-2	1.88E+2
1.78E-1	1.09E+3	3.42E-2	1.94E+2
1.79E-1	1.18E+3	3.39E-2	1.75E+2
1.75E-1	1.07E+3	3.66E-2	2.42E+2
1.81E-1	1.06E+3	3.44E-2	1.86E+2
1.76E-1	1.14E+3	3.64E-2	1.90E+2
1.90E-1	1.23E+3	3.69E-2	2.56E+2
1.93E-1	1.21E+3	3.69E-2	2.37E+2
1.82E-1	1.10E+3	3.39E-2	2.16E+2
1.76E-1	1.05E+3	3.83E-2	2.33E+2
1.75E-1	1.07E+3	3.54E-2	2.20E+2
1.78E-1	1.11E+3	3.69E-2	1.98E+2
1.88E-1	1.14E+3	3.64E-2	1.90E+2
1.85E-1	1.15E+3	3.59E-2	2.29E+2
1.79E-1	1.14E+3	3.30E-2	1.63E+2
1.87E-1	1.18E+3	3.39E-2	1.37E+2
1.78E-1	1.09E+3	3.56E-2	2.30E+2
1.80E-1	1.09E+3	4.10E-2	2.42E+2
1.75E-1	1.10E+3	4.08E-2	2.17E+2
1.98E-1	1.22E+3	3.71E-2	2.61E+2
1.92E-1	1.13E+3	4.03E-2	2.52E+2
1.78E-1	1.10E+3	3.74E-2	2.39E+2
1.66E-1	1.04E+3	3.59E-2	2.22E+2
1.86E-1	1.12E+3	3.54E-2	2.03E+2
2.05E-1	1.23E+3	3.81E-2	2.35E+2
1.83E-1	1.14E+3	3.91E-2	2.43E+2
1.75E-1	1.11E+3	3.88E-2	2.39E+2
1.85E-1	1.10E+3	3.98E-2	2.13E+2
1.85E-1	1.17E+3	4.10E-2	2.40E+2
1.77E-1	1.07E+3	3.22E-2	1.61E+2
1.78E-1	1.15E+3	3.83E-2	2.23E+2
1.93E-1	1.11E+3	3.88E-2	2.09E+2
1.79E-1	1.10E+3	3.42E-2	2.00E+2
1.94E-1	1.15E+3	3.03E-2	1.44E+2
1.84E-1	1.10E+3	3.81E-2	2.30E+2
1.80E-1	1.08E+3	3.66E-2	2.53E+2
1.81E-1	1.12E+3	3.69E-2	2.38E+2
1.86E-1	1.09E+3	3.49E-2	2.06E+2
1.96E-1	1.19E+3	4.27E-2	2.49E+2
1.78E-1	1.09E+3	4.05E-2	2.32E+2
2.03E-1	1.13E+3	3.61E-2	1.83E+2
1.82E-1	1.13E+3	3.15E-2	2.12E+2
1.91E-1	1.09E+3	4.13E-2	2.23E+2
1.74E-1	1.03E+3	3.44E-2	2.10E+2
1.89E-1	1.16E+3	4.03E-2	2.09E+2
1.94E-1	1.15E+3	4.20E-2	2.20E+2
1.81E-1	1.10E+3	3.98E-2	2.10E+2
1.84E-1	1.09E+3	3.32E-2	1.37E+2
1.94E-1	1.21E+3	4.00E-2	2.69E+2
1.71E-1	1.08E+3	3.71E-2	1.95E+2
1.83E-1	1.14E+3	4.10E-2	2.47E+2
1.74E-1	1.08E+3	3.44E-2	2.18E+2
1.96E-1	1.21E+3	3.56E-2	2.61E+2
1.90E-1	1.13E+3	4.17E-2	2.44E+2
1.73E-1	1.07E+3	3.66E-2	2.27E+2
1.91E-1	1.09E+3	3.91E-2	2.08E+2
1.88E-1	1.11E+3	3.52E-2	1.81E+2
1.85E-1	1.08E+3	3.54E-2	1.77E+2
1.74E-1	1.09E+3	3.98E-2	2.01E+2
1.92E-1	1.07E+3	3.20E-2	1.53E+2
1.93E-1	1.10E+3	3.56E-2	1.54E+2
1.89E-1	1.09E+3	3.61E-2	1.92E+2
1.86E-1	1.15E+3	3.66E-2	2.32E+2
1.91E-1	1.22E+3	3.98E-2	2.20E+2
1.76E-1	1.09E+3	3.86E-2	2.38E+2
1.87E-1	1.15E+3	4.00E-2	2.58E+2
1.90E-1	1.14E+3	3.88E-2	2.31E+2
1.79E-1	1.08E+3	3.03E-2	1.86E+2
1.85E-1	1.13E+3	3.42E-2	2.43E+2
1.73E-1	1.11E+3	3.39E-2	2.25E+2
1.77E-1	1.09E+3	3.76E-2	2.27E+2
1.74E-1	1.13E+3	3.56E-2	2.29E+2
2.02E-1	1.17E+3	3.69E-2	1.92E+2
1.93E-1	1.14E+3	3.25E-2	1.74E+2
1.68E-1	1.07E+3	3.34E-2	2.05E+2
1.89E-1	1.18E+3	4.05E-2	2.74E+2
1.97E-1	1.19E+3	3.88E-2	2.23E+2
1.84E-1	1.15E+3	3.71E-2	2.23E+2
1.95E-1	1.14E+3	3.74E-2	1.96E+2
1.71E-1	1.07E+3	3.00E-2	1.75E+2
1.74E-1	1.08E+3	3.69E-2	2.09E+2
1.99E-1	1.17E+3	3.49E-2	2.26E+2
1.82E-1	1.14E+3	3.93E-2	1.98E+2
1.78E-1	1.16E+3	3.81E-2	2.35E+2
1.75E-1	1.03E+3	3.56E-2	2.20E+2
1.78E-1	1.07E+3	3.56E-2	2.21E+2
1.77E-1	1.07E+3	3.76E-2	2.19E+2
1.74E-1	1.06E+3	3.08E-2	1.55E+2
1.74E-1	1.10E+3	3.32E-2	1.67E+2
1.87E-1	1.19E+3	3.34E-2	1.60E+2
1.86E-1	1.10E+3	3.25E-2	1.46E+2
1.76E-1	1.11E+3	3.76E-2	2.42E+2
1.79E-1	1.14E+3	4.03E-2	2.11E+2
1.74E-1	1.06E+3	3.81E-2	2.27E+2
1.82E-1	1.08E+3	3.76E-2	2.20E+2
1.87E-1	1.15E+3	3.47E-2	1.85E+2
1.64E-1	1.08E+3	3.20E-2	1.61E+2
1.75E-1	1.08E+3	3.22E-2	1.61E+2
1.75E-1	1.07E+3	3.74E-2	2.24E+2
1.86E-1	1.09E+3	3.81E-2	2.38E+2
1.84E-1	1.16E+3	3.32E-2	2.27E+2
1.72E-1	1.07E+3	3.66E-2	1.95E+2
1.80E-1	1.15E+3	3.98E-2	2.34E+2
1.78E-1	1.09E+3	3.17E-2	2.01E+2
1.94E-1	1.09E+3	3.98E-2	2.19E+2
1.82E-1	1.12E+3	3.64E-2	1.96E+2
1.91E-1	1.17E+3	3.52E-2	2.02E+2
1.81E-1	1.14E+3	3.76E-2	2.06E+2
1.82E-1	1.14E+3	3.54E-2	2.20E+2
1.74E-1	1.07E+3	3.44E-2	1.71E+2
1.92E-1	1.09E+3	3.61E-2	2.10E+2
1.64E-1	1.06E+3	3.91E-2	2.17E+2
8.06E-3	7.13E+0	1.30E-1	5.45E+2
1.95E-1	1.17E+3	4.76E-2	2.09E+2
2.01E-1	1.19E+3	3.71E-2	2.34E+2
1.87E-1	1.16E+3	3.78E-2	2.27E+2
1.95E-1	1.15E+3	3.64E-2	2.49E+2
1.77E-1	1.05E+3	3.32E-2	1.52E+2
1.78E-1	1.03E+3	3.74E-2	1.83E+2
1.76E-1	1.06E+3	4.10E-2	2.36E+2
1.89E-1	1.11E+3	3.56E-2	1.87E+2
1.79E-1	1.15E+3	3.39E-2	1.83E+2
1.70E-1	1.03E+3	4.20E-2	2.14E+2
1.74E-1	1.07E+3	3.61E-2	1.65E+2
1.73E-1	1.07E+3	3.69E-2	1.91E+2
1.82E-1	1.13E+3	3.88E-2	2.08E+2
1.75E-1	1.10E+3	4.37E-2	2.51E+2
1.68E-1	1.08E+3	3.56E-2	2.33E+2
1.82E-1	1.14E+3	3.37E-2	1.77E+2
1.92E-1	1.13E+3	3.69E-2	2.02E+2
1.90E-1	1.20E+3	3.88E-2	2.07E+2
1.76E-1	1.16E+3	3.66E-2	2.51E+2
1.92E-1	1.17E+3	3.64E-2	2.39E+2
1.79E-1	1.10E+3	3.52E-2	2.03E+2
1.90E-1	1.11E+3	3.74E-2	2.33E+2
1.68E-1	1.05E+3	3.76E-2	2.32E+2
1.77E-1	1.07E+3	4.00E-2	1.98E+2
1.66E-1	1.01E+3	3.81E-2	1.88E+2
1.74E-1	1.10E+3	4.05E-2	2.15E+2
1.71E-1	1.06E+3	3.83E-2	1.91E+2
1.83E-1	1.16E+3	3.66E-2	1.69E+2
1.88E-1	1.10E+3	4.22E-2	2.00E+2
1.89E-1	1.17E+3	3.74E-2	2.49E+2
1.90E-1	1.13E+3	3.32E-2	2.46E+2
1.79E-1	1.12E+3	3.81E-2	1.93E+2
1.84E-1	1.10E+3	3.91E-2	1.99E+2
1.82E-1	1.11E+3	3.66E-2	2.03E+2
1.89E-1	1.18E+3	3.08E-2	1.62E+2
1.94E-1	1.18E+3	4.27E-2	3.02E+2
1.63E-1	1.03E+3	3.61E-2	2.57E+2
1.89E-1	1.15E+3	3.81E-2	2.46E+2
2.01E-1	1.18E+3	3.52E-2	1.62E+2
1.79E-1	1.08E+3	3.44E-2	1.65E+2
1.85E-1	1.16E+3	3.69E-2	1.86E+2
1.79E-1	1.06E+3	3.39E-2	1.87E+2
1.93E-1	1.15E+3	3.91E-2	2.27E+2
1.81E-1	1.04E+3	3.64E-2	1.61E+2
1.77E-1	1.10E+3	3.88E-2	1.88E+2
1.81E-1	1.12E+3	3.64E-2	2.12E+2
1.69E-1	1.04E+3	3.93E-2	2.04E+2
1.82E-1	1.09E+3	3.59E-2	1.98E+2
1.80E-1	1.11E+3	3.76E-2	1.93E+2
2.02E-1	1.18E+3	3.42E-2	1.49E+2
1.73E-1	1.00E+3	3.69E-2	2.16E+2
1.80E-1	1.14E+3	3.64E-2	2.04E+2
1.86E-1	1.14E+3	3.86E-2	2.43E+2
1.91E-1	1.13E+3	4.03E-2	2.21E+2
1.86E-1	1.16E+3	3.96E-2	2.27E+2
1.86E-1	1.16E+3	3.69E-2	2.66E+2
1.91E-1	1.12E+3	3.74E-2	2.38E+2
1.89E-1	1.08E+3	3.86E-2	2.20E+2
1.72E-1	1.07E+3	4.00E-2	2.38E+2
1.76E-1	1.07E+3	3.32E-2	1.62E+2
1.87E-1	1.15E+3	3.54E-2	1.71E+2
1.77E-1	1.12E+3	3.76E-2	2.18E+2
1.82E-1	1.08E+3	3.61E-2	1.95E+2
1.77E-1	1.12E+3	3.88E-2	1.99E+2
1.77E-1	1.09E+3	3.54E-2	2.00E+2
1.79E-1	1.09E+3	3.54E-2	2.21E+2
1.88E-1	1.05E+3	3.69E-2	2.52E+2
1.78E-1	1.10E+3	4.32E-2	2.99E+2
1.98E-1	1.14E+3	3.83E-2	2.40E+2
1.84E-1	1.10E+3	3.96E-2	2.48E+2
1.73E-1	1.02E+3	3.66E-2	2.07E+2
1.99E-1	1.18E+3	3.76E-2	2.07E+2
1.68E-1	1.05E+3	3.98E-2	2.16E+2
1.81E-1	1.13E+3	3.54E-2	1.87E+2
1.85E-1	1.11E+3	2.76E-2	1.59E+2
1.92E-1	1.19E+3	3.69E-2	2.00E+2
2.04E-1	1.23E+3	3.56E-2	2.01E+2
1.76E-1	1.11E+3	3.59E-2	1.99E+2
1.79E-1	1.12E+3	3.86E-2	2.10E+2
1.81E-1	1.09E+3	3.27E-2	1.56E+2
1.81E-1	1.12E+3	3.52E-2	2.12E+2
1.78E-1	1.13E+3	3.42E-2	1.78E+2
1.87E-1	1.14E+3	3.81E-2	1.90E+2
1.67E-1	1.07E+3	3.83E-2	2.65E+2
1.81E-1	1.05E+3	3.49E-2	1.87E+2
1.84E-1	1.16E+3	3.56E-2	2.25E+2
1.82E-1	1.10E+3	3.44E-2	2.29E+2
1.90E-1	1.13E+3	3.98E-2	2.43E+2
1.98E-1	1.11E+3	4.42E-2	2.38E+2
1.93E-1	1.09E+3	3.93E-2	2.39E+2
2.01E-1	1.26E+3	3.39E-2	1.78E+2
1.91E-1	1.18E+3	3.17E-2	1.83E+2
1.87E-1	1.12E+3	3.78E-2	2.11E+2
1.85E-1	1.14E+3	3.96E-2	2.03E+2
1.74E-1	1.02E+3	3.59E-2	1.43E+2
1.77E-1	1.13E+3	3.49E-2	2.05E+2
1.88E-1	1.13E+3	3.52E-2	2.23E+2
1.90E-1	1.18E+3	3.39E-2	1.94E+2
1.98E-1	1.17E+3	4.05E-2	2.59E+2
1.87E-1	1.13E+3	3.39E-2	1.91E+2
1.83E-1	1.09E+3	3.39E-2	2.14E+2
1.75E-1	1.08E+3	3.64E-2	2.58E+2
1.78E-1	1.05E+3	3.69E-2	2.34E+2
1.84E-1	1.11E+3	3.22E-2	1.77E+2
1.90E-1	1.17E+3	3.81E-2	2.70E+2
1.71E-1	1.09E+3	3.91E-2	2.31E+2
1.81E-1	1.15E+3	3.17E-2	1.72E+2
1.63E-1	9.97E+2	4.13E-2	1.82E+2
1.75E-1	1.17E+3	3.91E-2	2.44E+2
1.85E-1	1.13E+3	3.71E-2	1.71E+2
1.79E-1	1.09E+3	4.08E-2	1.87E+2
1.85E-1	1.14E+3	3.39E-2	1.62E+2
1.77E-1	1.13E+3	3.20E-2	1.75E+2
1.82E-1	1.07E+3	3.15E-2	1.76E+2
1.69E-1	1.07E+3	3.91E-2	2.35E+2
2.00E-1	1.20E+3	3.32E-2	1.72E+2
1.83E-1	1.19E+3	3.39E-2	2.16E+2
1.87E-1	1.14E+3	3.74E-2	2.68E+2
1.97E-1	1.21E+3	3.78E-2	2.36E+2
1.86E-1	1.15E+3	4.03E-2	2.35E+2
1.81E-1	1.13E+3	3.81E-2	2.78E+2
1.85E-1	1.12E+3	3.32E-2	1.67E+2
1.84E-1	1.04E+3	3.49E-2	1.48E+2
1.82E-1	1.19E+3	3.91E-2	2.17E+2
1.83E-1	1.15E+3	3.25E-2	1.71E+2
1.90E-1	1.22E+3	3.17E-2	2.10E+2
1.93E-1	1.15E+3	3.47E-2	2.09E+2
1.82E-1	1.12E+3	3.74E-2	2.28E+2
1.88E-1	1.13E+3	3.66E-2	1.71E+2
1.82E-1	1.03E+3	3.34E-2	1.91E+2
1.79E-1	1.09E+3	3.74E-2	1.97E+2
1.81E-1	1.14E+3	3.39E-2	2.13E+2
1.99E-1	1.14E+3	3.37E-2	2.01E+2
1.81E-1	1.09E+3	3.96E-2	2.58E+2
1.90E-1	1.18E+3	4.15E-2	2.29E+2
1.87E-1	1.20E+3	3.10E-2	2.13E+2
1.81E-1	1.06E+3	3.59E-2	1.95E+2
1.86E-1	1.11E+3	4.17E-2	1.84E+2
1.77E-1	1.06E+3	3.69E-2	1.66E+2
1.78E-1	1.08E+3	3.81E-2	2.23E+2
1.83E-1	1.11E+3	3.34E-2	2.25E+2
1.89E-1	1.17E+3	3.54E-2	1.99E+2
1.82E-1	1.16E+3	3.25E-2	1.98E+2
1.74E-1	1.10E+3	3.61E-2	2.08E+2
1.79E-1	1.09E+3	3.49E-2	2.08E+2
1.69E-1	1.07E+3	3.66E-2	2.20E+2
1.87E-1	1.10E+3	3.37E-2	2.02E+2
1.76E-1	1.11E+3	3.69E-2	1.86E+2
1.85E-1	1.09E+3	3.71E-2	2.66E+2
1.83E-1	1.18E+3	4.00E-2	2.54E+2
1.81E-1	1.11E+3	3.78E-2	2.30E+2
1.86E-1	1.11E+3	3.91E-2	1.89E+2
1.88E-1	1.08E+3	4.00E-2	2.16E+2
1.94E-1	1.11E+3	3.96E-2	2.32E+2
1.73E-1	1.12E+3	3.61E-2	2.10E+2
1.85E-1	1.14E+3	3.27E-2	1.92E+2
1.93E-1	1.19E+3	3.30E-2	2.07E+2
1.81E-1	1.08E+3	3.30E-2	1.86E+2
1.85E-1	1.21E+3	3.52E-2	1.87E+2
1.88E-1	1.06E+3	3.22E-2	1.60E+2
1.80E-1	1.13E+3	3.49E-2	1.69E+2
1.85E-1	1.07E+3	3.66E-2	2.49E+2
1.83E-1	1.09E+3	3.30E-2	1.76E+2
1.80E-1	1.13E+3	3.71E-2	2.25E+2
1.91E-1	1.13E+3	3.88E-2	2.52E+2
1.75E-1	1.07E+3	3.66E-2	2.30E+2
1.84E-1	1.10E+3	4.10E-2	1.64E+2
1.89E-1	1.14E+3	3.44E-2	2.44E+2
1.86E-1	1.14E+3	3.74E-2	2.57E+2
1.77E-1	1.05E+3	3.78E-2	1.87E+2
1.81E-1	1.13E+3	3.37E-2	1.59E+2
1.83E-1	1.19E+3	3.98E-2	2.78E+2
1.73E-1	1.10E+3	3.56E-2	2.20E+2
1.99E-1	1.18E+3	3.88E-2	2.13E+2
1.90E-1	1.11E+3	3.81E-2	2.06E+2
1.89E-1	1.21E+3	3.47E-2	2.11E+2
1.65E-1	1.04E+3	3.17E-2	1.71E+2
1.89E-1	1.16E+3	4.13E-2	2.76E+2
1.79E-1	1.08E+3	3.61E-2	1.79E+2
1.78E-1	1.10E+3	3.71E-2	2.34E+2
1.90E-1	1.18E+3	3.44E-2	2.07E+2
1.90E-1	1.17E+3	3.71E-2	2.40E+2
1.89E-1	1.17E+3	3.49E-2	2.04E+2
1.82E-1	1.13E+3	3.76E-2	2.27E+2
1.75E-1	1.06E+3	3.49E-2	2.38E+2
1.79E-1	1.15E+3	3.96E-2	2.27E+2
1.86E-1	1.09E+3	3.98E-2	2.33E+2
1.76E-1	1.10E+3	3.56E-2	1.91E+2
1.80E-1	1.13E+3	3.49E-2	2.06E+2
1.72E-1	1.06E+3	3.44E-2	1.95E+2
1.98E-1	1.13E+3	3.32E-2	2.13E+2
1.78E-1	1.11E+3	3.54E-2	2.52E+2
1.83E-1	1.15E+3	4.00E-2	2.61E+2
1.90E-1	1.10E+3	3.56E-2	2.61E+2
1.85E-1	1.10E+3	3.52E-2	1.72E+2
1.83E-1	1.18E+3	3.44E-2	2.25E+2
1.82E-1	1.08E+3	3.83E-2	2.55E+2
1.84E-1	1.13E+3	3.66E-2	2.59E+2
1.99E-1	1.22E+3	3.37E-2	2.48E+2
1.75E-1	1.01E+3	3.22E-2	2.30E+2
1.71E-1	1.11E+3	3.30E-2	2.17E+2
1.77E-1	1.08E+3	3.59E-2	1.80E+2
1.65E-1	1.12E+3	3.66E-2	2.24E+2
1.85E-1	1.19E+3	3.66E-2	2.54E+2
1.88E-1	1.17E+3	3.71E-2	1.95E+2
1.91E-1	1.16E+3	3.27E-2	1.72E+2
1.83E-1	1.17E+3	3.25E-2	1.67E+2
1.84E-1	1.12E+3	3.96E-2	2.67E+2
1.82E-1	1.13E+3	3.83E-2	2.30E+2
1.95E-1	1.12E+3	3.83E-2	1.82E+2
1.79E-1	1.11E+3	3.49E-2	2.44E+2
1.88E-1	1.17E+3	3.37E-2	2.06E+2
1.77E-1	1.11E+3	3.42E-2	2.29E+2
1.94E-1	1.17E+3	3.71E-2	2.46E+2
1.94E-1	1.16E+3	4.27E-2	2.93E+2
1.76E-1	1.07E+3	3.74E-2	2.29E+2
1.81E-1	1.08E+3	3.69E-2	2.49E+2
1.77E-1	1.10E+3	3.27E-2	1.80E+2
1.77E-1	1.09E+3	3.42E-2	1.75E+2
1.68E-1	1.06E+3	3.81E-2	2.33E+2
1.78E-1	1.09E+3	3.66E-2	1.61E+2
1.85E-1	1.15E+3	3.17E-2	1.90E+2
2.00E-1	1.17E+3	3.64E-2	2.14E+2
1.97E-1	1.19E+3	3.66E-2	2.33E+2
1.86E-1	1.07E+3	4.00E-2	2.30E+2
1.84E-1	1.19E+3	3.78E-2	2.65E+2
1.92E-1	1.14E+3	3.42E-2	2.38E+2
1.93E-1	1.17E+3	3.47E-2	1.93E+2
1.70E-1	1.13E+3	3.47E-2	2.45E+2
1.91E-1	1.15E+3	3.69E-2	2.56E+2
1.86E-1	1.11E+3	3.66E-2	2.33E+2
1.81E-1	1.12E+3	3.98E-2	2.50E+2
1.82E-1	1.10E+3	2.93E-2	1.93E+2
1.77E-1	1.06E+3	3.42E-2	2.09E+2
1.81E-1	1.08E+3	3.64E-2	1.69E+2
1.83E-1	1.18E+3	3.66E-2	1.98E+2
1.89E-1	1.13E+3	3.59E-2	1.93E+2
2.01E-1	1.20E+3	3.64E-2	2.01E+2
1.85E-1	1.16E+3	3.56E-2	2.42E+2
1.76E-1	1.15E+3	3.96E-2	2.44E+2
1.75E-1	1.06E+3	3.61E-2	2.59E+2
1.83E-1	1.15E+3	3.76E-2	2.21E+2
1.86E-1	1.14E+3	3.69E-2	2.40E+2
1.67E-1	1.01E+3	3.69E-2	1.98E+2
1.83E-1	1.15E+3	3.93E-2	2.60E+2
1.68E-1	1.03E+3	3.44E-2	1.97E+2
1.64E-1	1.04E+3	3.49E-2	1.81E+2
1.71E-1	1.08E+3	3.76E-2	2.46E+2
1.78E-1	1.04E+3	3.91E-2	1.91E+2
1.85E-1	1.14E+3	3.96E-2	2.56E+2
1.68E-1	1.03E+3	4.15E-2	2.39E+2
1.85E-1	1.13E+3	3.49E-2	1.49E+2
1.81E-1	1.12E+3	3.52E-2	1.74E+2
1.79E-1	1.14E+3	3.66E-2	2.24E+2
1.77E-1	1.14E+3	3.20E-2	2.02E+2
1.85E-1	1.15E+3	4.00E-2	2.42E+2
1.89E-1	1.11E+3	4.08E-2	2.80E+2
1.85E-1	1.15E+3	3.52E-2	2.09E+2
1.89E-1	1.14E+3	3.59E-2	2.14E+2
1.82E-1	1.09E+3	3.81E-2	2.10E+2
1.94E-1	1.18E+3	3.86E-2	2.47E+2
1.86E-1	1.17E+3	3.39E-2	1.66E+2
1.91E-1	1.17E+3	3.96E-2	2.08E+2
1.65E-1	1.07E+3	3.98E-2	2.35E+2
1.89E-1	1.14E+3	4.22E-2	2.30E+2
1.80E-1	1.11E+3	3.69E-2	2.60E+2
1.97E-1	1.16E+3	3.47E-2	1.50E+2
1.70E-1	1.08E+3	3.96E-2	2.38E+2
1.79E-1	1.13E+3	3.96E-2	2.13E+2
1.73E-1	1.04E+3	3.61E-2	1.94E+2
1.83E-1	1.07E+3	3.93E-2	2.21E+2
1.95E-1	1.15E+3	3.69E-2	2.85E+2
1.87E-1	1.16E+3	3.34E-2	1.93E+2
1.82E-1	1.06E+3	3.76E-2	2.24E+2
1.76E-1	1.10E+3	3.20E-2	2.13E+2
1.77E-1	1.07E+3	3.71E-2	2.17E+2
1.77E-1	1.13E+3	4.08E-2	2.60E+2
1.87E-1	1.17E+3	3.59E-2	2.25E+2
1.82E-1	1.11E+3	4.05E-2	1.90E+2
1.74E-1	1.04E+3	3.76E-2	1.58E+2
1.84E-1	1.08E+3	3.44E-2	2.08E+2
1.88E-1	1.06E+3	3.17E-2	1.84E+2
1.74E-1	1.10E+3	3.42E-2	1.74E+2
1.82E-1	1.15E+3	3.78E-2	2.09E+2
1.67E-1	1.10E+3	3.59E-2	1.80E+2
1.84E-1	1.12E+3	3.61E-2	1.89E+2
1.75E-1	1.10E+3	3.86E-2	2.38E+2
1.78E-1	1.10E+3	3.64E-2	2.33E+2
1.88E-1	1.19E+3	3.93E-2	2.00E+2
1.82E-1	1.05E+3	4.08E-2	2.86E+2
1.86E-1	1.13E+3	4.03E-2	2.30E+2
1.98E-1	1.13E+3	3.54E-2	2.69E+2
1.73E-1	1.09E+3	4.00E-2	2.29E+2
1.82E-1	1.12E+3	3.76E-2	2.00E+2
1.82E-1	1.05E+3	3.52E-2	1.83E+2
1.81E-1	1.09E+3	3.69E-2	2.21E+2
1.91E-1	1.18E+3	3.32E-2	1.97E+2
1.82E-1	1.16E+3	4.17E-2	2.49E+2
1.78E-1	1.11E+3	3.64E-2	1.95E+2
1.85E-1	1.17E+3	3.39E-2	1.87E+2
1.81E-1	1.14E+3	2.86E-2	1.55E+2
1.77E-1	1.13E+3	3.47E-2	1.70E+2
1.87E-1	1.16E+3	3.27E-2	2.10E+2
1.99E-1	1.15E+3	3.49E-2	2.01E+2
1.93E-1	1.14E+3	4.20E-2	2.27E+2
1.89E-1	1.16E+3	3.74E-2	1.98E+2
1.80E-1	1.10E+3	4.05E-2	2.34E+2
1.86E-1	1.10E+3	3.54E-2	2.14E+2
1.70E-1	1.13E+3	3.59E-2	2.45E+2
1.82E-1	1.17E+3	3.54E-2	2.17E+2
1.90E-1	1.15E+3	3.03E-2	1.62E+2
1.70E-1	1.07E+3	3.54E-2	1.96E+2
1.84E-1	1.04E+3	3.96E-2	2.37E+2
1.78E-1	1.09E+3	3.52E-2	2.00E+2
1.85E-1	1.11E+3	3.52E-2	1.62E+2
1.95E-1	1.22E+3	4.00E-2	2.35E+2
1.78E-1	1.10E+3	5.08E-2	2.35E+2
1.81E-1	1.11E+3	3.44E-2	1.96E+2
1.62E-1	1.00E+3	3.61E-2	1.74E+2
1.95E-1	1.12E+3	3.42E-2	2.09E+2
1.85E-1	1.13E+3	3.69E-2	1.95E+2
1.76E-1	1.10E+3	4.13E-2	2.57E+2
1.80E-1	1.12E+3	3.52E-2	2.43E+2
1.80E-1	1.12E+3	3.96E-2	2.16E+2
1.87E-1	1.14E+3	4.22E-2	2.44E+2
2.04E-1	1.16E+3	3.44E-2	2.02E+2
1.70E-1	1.05E+3	3.47E-2	2.04E+2
1.95E-1	1.13E+3	3.71E-2	1.95E+2
1.69E-1	1.04E+3	3.91E-2	2.05E+2
1.67E-1	1.03E+3	4.15E-2	2.31E+2
1.87E-1	1.12E+3	3.74E-2	2.37E+2
1.90E-1	1.12E+3	4.17E-2	2.45E+2
1.85E-1	1.09E+3	3.56E-2	1.96E+2
1.75E-1	1.11E+3	3.61E-2	2.51E+2
1.90E-1	1.14E+3	3.49E-2	2.04E+2
1.74E-1	1.05E+3	3.71E-2	2.17E+2
1.86E-1	1.12E+3	3.74E-2	2.54E+2
1.90E-1	1.13E+3	3.42E-2	2.07E+2
1.70E-1	1.05E+3	3.74E-2	2.40E+2
1.80E-1	1.12E+3	3.39E-2	1.99E+2
1.67E-1	1.07E+3	4.03E-2	2.51E+2
1.80E-1	1.14E+3	3.39E-2	2.13E+2
1.91E-1	1.14E+3	3.69E-2	2.13E+2
1.80E-1	1.10E+3	3.96E-2	2.41E+2
1.82E-1	1.06E+3	3.52E-2	2.23E+2
1.84E-1	1.11E+3	3.54E-2	2.35E+2
1.90E-1	1.20E+3	3.27E-2	1.67E+2
1.84E-1	1.25E+3	3.64E-2	2.30E+2
1.84E-1	1.10E+3	3.64E-2	2.32E+2
1.74E-1	1.10E+3	3.59E-2	2.55E+2
5.37E-3	8.79E-1	1.35E-1	5.04E+2
1.95E-1	1.11E+3	3.42E-2	2.24E+2
1.93E-1	1.16E+3	3.86E-2	2.41E+2
1.79E-1	1.09E+3	4.10E-2	2.45E+2
1.69E-1	1.06E+3	3.25E-2	1.76E+2
1.79E-1	1.08E+3	3.08E-2	1.93E+2
1.67E-1	1.02E+3	3.08E-2	1.35E+2
1.75E-1	1.10E+3	3.69E-2	1.75E+2
1.73E-1	1.07E+3	3.49E-2	2.38E+2
1.89E-1	1.12E+3	3.88E-2	1.95E+2
1.83E-1	1.16E+3	3.44E-2	1.90E+2
1.80E-1	1.12E+3	3.27E-2	1.86E+2
1.73E-1	1.10E+3	3.98E-2	2.40E+2
1.91E-1	1.13E+3	3.76E-2	2.28E+2
1.93E-1	1.17E+3	4.05E-2	2.53E+2
1.96E-1	1.16E+3	3.81E-2	2.68E+2
1.81E-1	1.13E+3	3.52E-2	2.48E+2
1.78E-1	1.06E+3	3.32E-2	2.52E+2
2.03E-1	1.16E+3	3.69E-2	2.42E+2
1.69E-1	1.03E+3	3.98E-2	2.15E+2
1.96E-1	1.19E+3	3.47E-2	2.42E+2
1.82E-1	1.09E+3	3.81E-2	2.32E+2
1.73E-1	1.04E+3	3.61E-2	1.87E+2
1.89E-1	1.07E+3	3.91E-2	2.26E+2
1.67E-1	1.05E+3	3.83E-2	2.06E+2
2.16E-1	1.13E+3	3.93E-2	2.28E+2
1.78E-1	1.07E+3	3.25E-2	1.93E+2
1.75E-1	1.06E+3	3.37E-2	1.90E+2
1.98E-1	1.17E+3	4.05E-2	2.68E+2
1.77E-1	1.08E+3	4.25E-2	2.28E+2
1.72E-1	1.06E+3	3.74E-2	2.88E+2
1.90E-1	1.13E+3	3.69E-2	2.29E+2
1.85E-1	1.12E+3	3.66E-2	1.82E+2
1.91E-1	1.16E+3	3.69E-2	2.45E+2
1.68E-1	1.06E+3	3.61E-2	1.87E+2
1.76E-1	1.08E+3	3.27E-2	1.99E+2
1.92E-1	1.16E+3	3.83E-2	2.57E+2
1.83E-1	1.09E+3	3.64E-2	2.20E+2
1.82E-1	1.09E+3	3.61E-2	2.37E+2
1.81E-1	1.09E+3	3.27E-2	1.86E+2
1.80E-1	1.12E+3	4.22E-2	2.18E+2
1.76E-1	1.15E+3	3.81E-2	2.53E+2
1.86E-1	1.13E+3	3.74E-2	2.39E+2
1.71E-1	1.01E+3	4.00E-2	2.64E+2
1.82E-1	1.12E+3	3.20E-2	1.81E+2
1.70E-1	1.04E+3	3.81E-2	2.31E+2
1.85E-1	1.05E+3	3.47E-2	1.86E+2
1.74E-1	1.04E+3	3.37E-2	1.88E+2
1.85E-1	1.11E+3	3.74E-2	2.17E+2
1.75E-1	1.07E+3	3.00E-2	1.86E+2
1.72E-1	1.08E+3	3.22E-2	2.03E+2
1.83E-1	1.07E+3	4.03E-2	1.58E+2
1.82E-1	1.12E+3	3.20E-2	1.51E+2
1.78E-1	1.09E+3	4.08E-2	2.47E+2
1.90E-1	1.15E+3	4.08E-2	1.83E+2
1.76E-1	1.12E+3	3.66E-2	1.85E+2
1.89E-1	1.17E+3	3.25E-2	2.04E+2
1.85E-1	1.11E+3	3.42E-2	1.37E+2
1.89E-1	1.16E+3	3.59E-2	2.35E+2
1.93E-1	1.09E+3	4.42E-2	2.47E+2
1.87E-1	1.12E+3	3.44E-2	1.97E+2
1.75E-1	1.03E+3	4.03E-2	2.47E+2
1.77E-1	1.09E+3	4.05E-2	2.61E+2
1.84E-1	1.15E+3	3.83E-2	2.90E+2
1.91E-1	1.17E+3	3.69E-2	1.79E+2
1.76E-1	1.12E+3	3.78E-2	1.93E+2
1.76E-1	1.10E+3	3.56E-2	1.78E+2
1.87E-1	1.18E+3	3.27E-2	1.63E+2
1.83E-1	1.10E+3	4.13E-2	2.02E+2
1.94E-1	1.09E+3	3.42E-2	1.83E+2
1.70E-1	1.08E+3	3.47E-2	1.66E+2
1.97E-1	1.12E+3	4.27E-2	2.08E+2
1.88E-1	1.11E+3	3.17E-2	1.74E+2
1.80E-1	1.08E+3	3.61E-2	2.16E+2
1.93E-1	1.14E+3	4.03E-2	2.86E+2
1.82E-1	1.09E+3	4.00E-2	2.20E+2
1.94E-1	1.18E+3	3.71E-2	2.68E+2
1.78E-1	1.17E+3	3.81E-2	1.70E+2
1.83E-1	1.14E+3	3.59E-2	1.81E+2
1.95E-1	1.14E+3	3.66E-2	2.22E+2
1.79E-1	1.06E+3	3.49E-2	1.72E+2
1.76E-1	1.03E+3	3.83E-2	2.01E+2
1.78E-1	1.07E+3	3.42E-2	2.12E+2
1.84E-1	1.07E+3	3.54E-2	1.72E+2
1.88E-1	1.19E+3	3.47E-2	1.92E+2
1.88E-1	1.11E+3	3.76E-2	1.90E+2
1.78E-1	1.16E+3	3.56E-2	1.99E+2
1.69E-1	1.07E+3	3.71E-2	2.04E+2
1.88E-1	1.15E+3	4.17E-2	2.17E+2
1.89E-1	1.11E+3	4.10E-2	2.59E+2
1.72E-1	1.02E+3	3.49E-2	2.23E+2
2.02E-1	1.20E+3	4.47E-2	2.78E+2
1.71E-1	1.05E+3	3.81E-2	2.31E+2
1.83E-1	1.10E+3	3.81E-2	1.61E+2
1.91E-1	1.09E+3	3.59E-2	1.83E+2
1.81E-1	1.13E+3	3.47E-2	1.89E+2
1.78E-1	1.12E+3	4.17E-2	2.22E+2
1.71E-1	1.08E+3	3.27E-2	1.87E+2
2.04E-1	1.21E+3	3.37E-2	1.79E+2
1.80E-1	1.10E+3	4.03E-2	2.58E+2
1.77E-1	1.14E+3	3.93E-2	2.25E+2
1.82E-1	1.12E+3	3.52E-2	1.71E+2
1.87E-1	1.23E+3	3.39E-2	2.13E+2
1.79E-1	1.06E+3	3.78E-2	2.15E+2
1.92E-1	1.13E+3	4.05E-2	2.88E+2
1.79E-1	1.13E+3	4.57E-2	2.60E+2
1.80E-1	1.10E+3	4.17E-2	2.81E+2
1.82E-1	1.08E+3	3.44E-2	2.56E+2
1.92E-1	1.09E+3	4.00E-2	1.82E+2
1.88E-1	1.14E+3	3.96E-2	2.48E+2
1.84E-1	1.09E+3	3.34E-2	1.89E+2
1.96E-1	1.16E+3	4.05E-2	2.42E+2
1.73E-1	1.10E+3	3.66E-2	1.85E+2
1.76E-1	1.11E+3	3.74E-2	1.80E+2
1.76E-1	1.12E+3	3.74E-2	2.23E+2
1.80E-1	1.09E+3	3.71E-2	1.96E+2
1.85E-1	1.15E+3	3.54E-2	1.98E+2
1.79E-1	1.06E+3	3.37E-2	1.55E+2
1.80E-1	1.11E+3	3.52E-2	2.39E+2
1.82E-1	1.05E+3	4.32E-2	2.55E+2
1.94E-1	1.15E+3	3.52E-2	2.25E+2
1.81E-1	1.06E+3	3.74E-2	2.10E+2
1.80E-1	1.05E+3	4.08E-2	2.39E+2
1.79E-1	1.10E+3	3.64E-2	1.93E+2
1.70E-1	1.03E+3	3.76E-2	2.30E+2
1.86E-1	1.10E+3	3.64E-2	2.16E+2
1.72E-1	9.88E+2	3.61E-2	1.63E+2
1.83E-1	1.07E+3	3.96E-2	2.15E+2
1.77E-1	1.14E+3	3.12E-2	1.31E+2
1.81E-1	1.11E+3	3.88E-2	2.14E+2
1.84E-1	1.14E+3	3.76E-2	2.11E+2
1.75E-1	1.09E+3	3.44E-2	2.04E+2
1.93E-1	1.16E+3	3.37E-2	2.26E+2
1.85E-1	1.11E+3	3.37E-2	1.90E+2
1.88E-1	1.12E+3	3.93E-2	2.23E+2
1.94E-1	1.21E+3	3.66E-2	2.59E+2
1.78E-1	1.01E+3	3.86E-2	2.65E+2
1.93E-1	1.15E+3	3.98E-2	2.00E+2
1.88E-1	1.14E+3	4.03E-2	2.27E+2
1.76E-1	1.09E+3	3.34E-2	1.87E+2
1.74E-1	1.14E+3	3.88E-2	2.32E+2
1.78E-1	1.12E+3	3.47E-2	1.59E+2
1.83E-1	1.07E+3	3.93E-2	2.17E+2
1.91E-1	1.12E+3	3.47E-2	1.82E+2
1.90E-1	1.14E+3	3.69E-2	2.34E+2
1.84E-1	1.13E+3	3.59E-2	2.31E+2
1.87E-1	1.19E+3	3.44E-2	2.23E+2
1.77E-1	1.09E+3	3.64E-2	1.79E+2
1.97E-1	1.15E+3	3.61E-2	2.28E+2
1.83E-1	1.14E+3	4.08E-2	2.64E+2
1.66E-1	1.05E+3	3.91E-2	2.13E+2
1.78E-1	1.03E+3	3.74E-2	2.12E+2
1.90E-1	1.20E+3	4.03E-2	2.75E+2
1.78E-1	1.15E+3	3.96E-2	2.64E+2
1.88E-1	1.09E+3	3.83E-2	1.98E+2
1.93E-1	1.18E+3	3.30E-2	2.35E+2
1.71E-1	1.04E+3	3.69E-2	1.69E+2
2.11E-1	1.24E+3	3.64E-2	1.58E+2
1.87E-1	1.18E+3	3.64E-2	2.34E+2
1.94E-1	1.15E+3	3.59E-2	2.68E+2
1.89E-1	1.16E+3	3.71E-2	2.83E+2
1.82E-1	1.09E+3	3.42E-2	2.22E+2
1.87E-1	1.14E+3	4.64E-2	3.20E+2
1.83E-1	1.09E+3	3.91E-2	2.40E+2
1.83E-1	1.12E+3	3.71E-2	2.53E+2
1.80E-1	1.10E+3	3.56E-2	2.50E+2
1.80E-1	1.10E+3	4.00E-2	2.56E+2
1.81E-1	1.13E+3	3.76E-2	2.64E+2
7.32E-3	5.91E+0	1.26E-1	4.88E+2
1.68E-1	1.08E+3	3.34E-2	1.86E+2
1.81E-1	1.15E+3	3.42E-2	1.83E+2
1.68E-1	9.63E+2	3.42E-2	2.03E+2
1.84E-1	1.19E+3	3.49E-2	2.14E+2
1.94E-1	1.25E+3	3.37E-2	2.39E+2
1.88E-1	1.20E+3	3.56E-2	2.46E+2
1.91E-1	1.15E+3	3.74E-2	2.41E+2
1.89E-1	1.13E+3	3.52E-2	2.43E+2
1.81E-1	1.10E+3	4.05E-2	2.48E+2
1.81E-1	1.13E+3	3.64E-2	2.41E+2
1.83E-1	1.12E+3	3.78E-2	1.99E+2
1.86E-1	1.12E+3	3.39E-2	2.19E+2
1.80E-1	1.12E+3	3.91E-2	2.50E+2
1.81E-1	1.10E+3	3.34E-2	1.61E+2
1.92E-1	1.13E+3	4.13E-2	2.34E+2
1.73E-1	1.06E+3	4.59E-2	2.55E+2
1.79E-1	1.12E+3	3.59E-2	1.54E+2
1.81E-1	1.06E+3	3.74E-2	2.41E+2
1.80E-1	1.07E+3	3.52E-2	2.07E+2
1.94E-1	1.18E+3	3.81E-2	2.75E+2
1.89E-1	1.15E+3	3.93E-2	2.48E+2
1.80E-1	1.08E+3	3.74E-2	2.20E+2
1.87E-1	1.12E+3	3.39E-2	2.32E+2
1.82E-1	1.13E+3	3.74E-2	2.45E+2
1.96E-1	1.10E+3	3.54E-2	2.06E+2
1.92E-1	1.15E+3	3.52E-2	2.36E+2
1.97E-1	1.23E+3	3.66E-2	2.43E+2
1.93E-1	1.14E+3	3.54E-2	1.74E+2
1.81E-1	1.17E+3	4.10E-2	2.65E+2
1.81E-1	1.09E+3	3.69E-2	2.43E+2
1.86E-1	1.14E+3	3.78E-2	2.31E+2
1.76E-1	1.02E+3	3.81E-2	2.20E+2
1.82E-1	1.17E+3	3.59E-2	1.97E+2
1.86E-1	1.18E+3	3.44E-2	1.70E+2
1.84E-1	1.13E+3	3.39E-2	1.80E+2
1.94E-1	1.17E+3	3.32E-2	1.67E+2
1.90E-1	1.14E+3	3.39E-2	1.71E+2
1.85E-1	1.09E+3	4.39E-2	2.78E+2
1.79E-1	1.07E+3	3.69E-2	2.21E+2
1.80E-1	1.07E+3	4.10E-2	1.82E+2
1.69E-1	9.89E+2	3.44E-2	1.92E+2
1.88E-1	1.14E+3	3.81E-2	2.33E+2
1.78E-1	1.07E+3	3.88E-2	2.47E+2
1.72E-1	1.01E+3	4.08E-2	2.19E+2
2.02E-1	1.22E+3	3.83E-2	2.27E+2
1.75E-1	1.06E+3	4.25E-2	2.42E+2
1.80E-1	1.13E+3	3.42E-2	1.94E+2
1.83E-1	1.10E+3	3.98E-2	2.02E+2
1.78E-1	1.08E+3	3.86E-2	1.41E+2
1.86E-1	1.19E+3	3.66E-2	2.36E+2
1.88E-1	1.18E+3	4.15E-2	2.55E+2
1.86E-1	1.13E+3	3.52E-2	2.50E+2
1.76E-1	1.04E+3	3.17E-2	2.26E+2
1.76E-1	1.09E+3	3.61E-2	2.54E+2
1.98E-1	1.16E+3	3.91E-2	2.59E+2
1.92E-1	1.17E+3	3.74E-2	2.24E+2
1.88E-1	1.14E+3	3.83E-2	2.41E+2
1.77E-1	1.11E+3	3.42E-2	2.13E+2
1.83E-1	1.09E+3	3.93E-2	2.43E+2
1.74E-1	1.05E+3	4.15E-2	2.86E+2
1.82E-1	1.09E+3	3.96E-2	2.14E+2
1.73E-1	1.07E+3	3.78E-2	2.40E+2
1.81E-1	1.14E+3	3.15E-2	1.51E+2
1.80E-1	1.17E+3	3.34E-2	1.52E+2
1.81E-1	1.09E+3	3.39E-2	1.73E+2
1.87E-1	1.21E+3	3.32E-2	1.86E+2
1.87E-1	1.13E+3	4.05E-2	2.37E+2
1.87E-1	1.17E+3	3.69E-2	2.46E+2
1.79E-1	1.08E+3	3.69E-2	2.16E+2
1.78E-1	1.10E+3	3.54E-2	2.22E+2
1.89E-1	1.12E+3	3.49E-2	2.33E+2
1.99E-1	1.20E+3	4.03E-2	2.25E+2
1.93E-1	1.15E+3	3.71E-2	2.14E+2
1.76E-1	1.08E+3	3.59E-2	2.41E+2
1.85E-1	1.13E+3	3.61E-2	2.31E+2
1.88E-1	1.08E+3	3.56E-2	2.12E+2
1.83E-1	1.06E+3	3.69E-2	2.39E+2
1.86E-1	1.17E+3	3.83E-2	1.94E+2
1.85E-1	1.15E+3	4.10E-2	2.62E+2
1.75E-1	1.05E+3	3.74E-2	2.08E+2
1.83E-1	1.10E+3	3.44E-2	2.51E+2
1.95E-1	1.10E+3	3.61E-2	2.20E+2
1.90E-1	1.14E+3	3.69E-2	2.12E+2
1.91E-1	1.15E+3	4.13E-2	2.19E+2
1.87E-1	1.15E+3	3.86E-2	2.18E+2
1.74E-1	1.07E+3	3.66E-2	2.07E+2
1.71E-1	1.05E+3	3.88E-2	2.40E+2
1.86E-1	1.07E+3	3.44E-2	2.30E+2
1.72E-1	1.03E+3	3.59E-2	2.07E+2
1.88E-1	1.09E+3	3.83E-2	2.30E+2
1.78E-1	1.08E+3	3.61E-2	1.95E+2
1.84E-1	1.08E+3	3.96E-2	1.57E+2
1.88E-1	1.13E+3	3.86E-2	2.42E+2
1.85E-1	1.12E+3	3.54E-2	1.78E+2
1.87E-1	1.16E+3	3.47E-2	1.98E+2
1.95E-1	1.20E+3	3.44E-2	2.09E+2
1.75E-1	1.06E+3	3.44E-2	1.86E+2
6.10E-3	6.01E+0	1.28E-1	5.37E+2
1.82E-1	1.14E+3	3.42E-2	2.01E+2
1.70E-1	1.05E+3	3.27E-2	1.80E+2
1.84E-1	1.11E+3	3.81E-2	2.58E+2
1.91E-1	1.14E+3	3.32E-2	2.00E+2
1.78E-1	1.09E+3	4.00E-2	2.32E+2
1.88E-1	1.09E+3	3.54E-2	1.82E+2
1.84E-1	1.13E+3	3.66E-2	2.47E+2
1.75E-1	1.11E+3	3.71E-2	1.90E+2
1.82E-1	1.04E+3	3.69E-2	2.04E+2
1.73E-1	9.92E+2	3.37E-2	2.41E+2
1.78E-1	1.10E+3	3.86E-2	2.08E+2
1.87E-1	1.11E+3	3.22E-2	2.06E+2
1.83E-1	1.14E+3	3.61E-2	1.92E+2
1.89E-1	1.17E+3	3.56E-2	2.63E+2
1.89E-1	1.11E+3	3.42E-2	1.97E+2
1.85E-1	1.19E+3	3.83E-2	2.36E+2
1.74E-1	1.14E+3	3.66E-2	2.25E+2
1.76E-1	1.05E+3	4.08E-2	2.06E+2
1.87E-1	1.10E+3	3.81E-2	2.49E+2
1.69E-1	1.04E+3	3.37E-2	1.63E+2
1.77E-1	1.06E+3	3.66E-2	2.20E+2
1.99E-1	1.16E+3	3.98E-2	1.92E+2
1.88E-1	1.10E+3	3.56E-2	2.27E+2
1.80E-1	1.14E+3	3.25E-2	2.30E+2
1.76E-1	1.01E+3	3.52E-2	2.20E+2
1.78E-1	1.13E+3	3.81E-2	2.36E+2
1.71E-1	1.08E+3	4.08E-2	2.43E+2
1.82E-1	1.12E+3	4.17E-2	2.34E+2
1.88E-1	1.17E+3	3.71E-2	2.09E+2
1.87E-1	1.13E+3	3.25E-2	1.99E+2
1.91E-1	1.13E+3	3.32E-2	2.51E+2
1.94E-1	1.12E+3	3.59E-2	2.28E+2
1.82E-1	1.09E+3	3.39E-2	2.36E+2
1.72E-1	1.06E+3	3.76E-2	2.06E+2
1.85E-1	1.16E+3	4.13E-2	2.39E+2
1.83E-1	1.14E+3	3.69E-2	1.99E+2
1.84E-1	1.17E+3	4.00E-2	2.37E+2
1.79E-1	1.13E+3	3.83E-2	2.37E+2
1.76E-1	1.09E+3	3.49E-2	2.13E+2
1.76E-1	1.07E+3	3.52E-2	2.24E+2
1.76E-1	1.06E+3	3.56E-2	1.85E+2
1.75E-1	1.06E+3	4.08E-2	2.23E+2
1.90E-1	1.07E+3	3.78E-2	1.94E+2
1.86E-1	1.17E+3	3.78E-2	2.28E+2
1.87E-1	1.14E+3	3.15E-2	2.11E+2
1.88E-1	1.24E+3	3.49E-2	2.19E+2
1.84E-1	1.14E+3	3.52E-2	2.13E+2
1.92E-1	1.16E+3	3.71E-2	2.45E+2
1.96E-1	1.20E+3	3.69E-2	1.94E+2
1.87E-1	1.19E+3	3.52E-2	2.27E+2
1.77E-1	1.14E+3	3.69E-2	2.22E+2
1.69E-1	1.06E+3	3.74E-2	2.64E+2
1.83E-1	1.08E+3	3.64E-2	1.91E+2
1.84E-1	1.08E+3	3.37E-2	1.72E+2
1.73E-1	1.04E+3	4.05E-2	2.08E+2
1.80E-1	1.04E+3	3.83E-2	2.06E+2
1.95E-1	1.12E+3	3.54E-2	1.50E+2
1.74E-1	1.06E+3	3.69E-2	1.83E+2
1.78E-1	1.12E+3	3.37E-2	1.83E+2
1.82E-1	1.08E+3	3.76E-2	1.63E+2
1.84E-1	1.14E+3	3.83E-2	2.29E+2
1.88E-1	1.14E+3	3.61E-2	1.73E+2
1.77E-1	1.09E+3	3.88E-2	2.53E+2
1.79E-1	1.08E+3	3.56E-2	1.77E+2
1.81E-1	1.11E+3	3.64E-2	2.23E+2
1.71E-1	1.03E+3	3.49E-2	2.07E+2
1.98E-1	1.19E+3	3.88E-2	2.62E+2
1.94E-1	1.11E+3	3.76E-2	1.85E+2
1.88E-1	1.18E+3	3.64E-2	1.92E+2
1.82E-1	1.11E+3	3.81E-2	2.03E+2
1.94E-1	1.13E+3	3.76E-2	2.17E+2
1.80E-1	1.14E+3	3.15E-2	1.88E+2
1.83E-1	1.07E+3	3.76E-2	2.17E+2
1.83E-1	1.11E+3	3.25E-2	1.61E+2
2.01E-1	1.14E+3	3.76E-2	1.91E+2
1.69E-1	1.03E+3	3.88E-2	1.96E+2
1.77E-1	1.12E+3	3.59E-2	2.18E+2
1.85E-1	1.12E+3	3.42E-2	2.56E+2
1.79E-1	1.07E+3	4.05E-2	2.57E+2
1.73E-1	1.09E+3	3.78E-2	2.86E+2
1.72E-1	1.02E+3	4.22E-2	2.24E+2
1.91E-1	1.16E+3	3.76E-2	2.25E+2
1.88E-1	1.09E+3	3.47E-2	1.56E+2
1.79E-1	1.15E+3	3.69E-2	1.81E+2
1.85E-1	1.10E+3	3.30E-2	1.42E+2
1.73E-1	1.09E+3	3.56E-2	2.22E+2
6.59E-3	4.15E+0	1.38E-1	5.34E+2
1.96E-1	1.12E+3	4.35E-2	2.41E+2
1.74E-1	1.06E+3	3.52E-2	1.81E+2
1.75E-1	1.08E+3	3.81E-2	1.82E+2
1.86E-1	1.10E+3	3.59E-2	1.74E+2
2.01E-1	1.18E+3	3.59E-2	2.07E+2
2.01E-1	1.21E+3	3.30E-2	2.63E+2
1.86E-1	1.14E+3	3.78E-2	2.03E+2
1.93E-1	1.14E+3	3.56E-2	1.89E+2
