2.84E-1	2.01E+3	5.86E-2	3.69E+2
2.79E-1	1.91E+3	5.83E-2	3.90E+2
2.77E-1	1.90E+3	5.37E-2	3.35E+2
2.79E-1	1.91E+3	5.15E-2	3.44E+2
2.86E-1	1.96E+3	5.71E-2	3.75E+2
2.81E-1	1.96E+3	4.66E-2	2.99E+2
2.85E-1	2.02E+3	5.25E-2	3.65E+2
2.66E-1	1.89E+3	6.35E-2	3.94E+2
2.76E-1	1.94E+3	5.52E-2	3.75E+2
2.62E-1	1.88E+3	6.42E-2	3.93E+2
2.68E-1	1.95E+3	6.13E-2	3.79E+2
2.81E-1	1.99E+3	5.30E-2	3.70E+2
2.71E-1	1.86E+3	4.79E-2	3.37E+2
2.79E-1	1.87E+3	5.71E-2	3.37E+2
2.87E-1	1.91E+3	6.05E-2	4.10E+2
2.73E-1	1.87E+3	5.83E-2	3.62E+2
2.85E-1	1.98E+3	5.13E-2	3.28E+2
2.88E-1	2.00E+3	5.20E-2	3.27E+2
2.84E-1	1.99E+3	5.69E-2	4.21E+2
2.64E-1	1.87E+3	5.71E-2	3.76E+2
2.74E-1	1.94E+3	5.86E-2	3.90E+2
2.90E-1	1.99E+3	5.10E-2	3.59E+2
2.72E-1	1.90E+3	5.13E-2	3.23E+2
2.87E-1	2.02E+3	5.05E-2	3.45E+2
2.73E-1	1.87E+3	5.25E-2	3.11E+2
2.83E-1	1.95E+3	5.88E-2	3.92E+2
2.74E-1	1.96E+3	6.03E-2	4.55E+2
3.04E-1	1.97E+3	5.57E-2	3.53E+2
2.77E-1	1.89E+3	5.37E-2	3.69E+2
2.82E-1	1.89E+3	5.40E-2	3.52E+2
2.77E-1	1.94E+3	5.42E-2	3.60E+2
2.76E-1	1.96E+3	5.35E-2	3.33E+2
2.97E-1	2.03E+3	5.30E-2	3.42E+2
2.91E-1	2.04E+3	5.20E-2	3.27E+2
2.85E-1	2.06E+3	6.05E-2	3.96E+2
2.63E-1	1.91E+3	5.15E-2	3.59E+2
2.69E-1	1.88E+3	5.13E-2	3.38E+2
2.70E-1	1.91E+3	5.98E-2	3.84E+2
2.60E-1	1.90E+3	5.35E-2	3.56E+2
2.85E-1	1.99E+3	5.08E-2	2.98E+2
2.64E-1	1.91E+3	5.98E-2	4.45E+2
2.63E-1	1.84E+3	5.15E-2	3.10E+2
2.76E-1	1.90E+3	5.35E-2	3.67E+2
2.75E-1	1.92E+3	6.05E-2	3.81E+2
2.60E-1	1.74E+3	5.13E-2	3.70E+2
2.86E-1	2.00E+3	5.40E-2	3.36E+2
2.86E-1	1.96E+3	5.25E-2	3.40E+2
2.81E-1	1.92E+3	6.30E-2	3.65E+2
2.70E-1	1.92E+3	5.52E-2	4.01E+2
2.79E-1	1.98E+3	5.62E-2	3.87E+2
2.65E-1	1.79E+3	5.15E-2	3.67E+2
2.76E-1	1.88E+3	5.69E-2	3.25E+2
2.95E-1	2.00E+3	6.03E-2	3.79E+2
2.66E-1	1.90E+3	5.93E-2	3.97E+2
2.67E-1	1.87E+3	5.49E-2	3.61E+2
2.73E-1	1.93E+3	5.22E-2	3.04E+2
2.89E-1	2.00E+3	5.49E-2	4.20E+2
2.85E-1	1.88E+3	5.66E-2	4.29E+2
2.76E-1	1.91E+3	5.74E-2	3.57E+2
2.82E-1	1.93E+3	5.35E-2	3.69E+2
2.73E-1	1.87E+3	5.96E-2	3.75E+2
2.80E-1	2.02E+3	5.42E-2	3.51E+2
2.77E-1	1.96E+3	5.30E-2	3.66E+2
2.68E-1	1.85E+3	5.91E-2	4.00E+2
2.78E-1	2.00E+3	5.42E-2	3.95E+2
2.72E-1	1.91E+3	5.27E-2	4.08E+2
2.65E-1	1.92E+3	5.71E-2	4.16E+2
2.84E-1	2.07E+3	5.52E-2	3.84E+2
2.85E-1	1.92E+3	5.79E-2	4.09E+2
2.86E-1	2.02E+3	4.69E-2	2.94E+2
2.96E-1	2.10E+3	5.40E-2	4.04E+2
2.74E-1	1.95E+3	5.64E-2	4.01E+2
2.69E-1	1.87E+3	5.62E-2	3.64E+2
2.64E-1	1.85E+3	5.40E-2	3.96E+2
2.83E-1	1.94E+3	5.00E-2	3.53E+2
2.89E-1	2.01E+3	5.54E-2	4.04E+2
2.87E-1	1.90E+3	5.91E-2	3.50E+2
6.84E-3	3.32E+0	1.32E-1	8.34E+2
2.80E-1	2.00E+3	5.74E-2	3.95E+2
2.78E-1	1.96E+3	6.05E-2	4.18E+2
2.74E-1	1.99E+3	4.93E-2	3.99E+2
2.78E-1	1.91E+3	6.01E-2	4.03E+2
2.85E-1	2.07E+3	5.27E-2	4.21E+2
2.73E-1	1.92E+3	5.37E-2	3.87E+2
2.79E-1	2.04E+3	4.81E-2	3.76E+2
2.92E-1	1.92E+3	5.27E-2	3.52E+2
2.74E-1	1.84E+3	5.71E-2	3.89E+2
2.74E-1	1.92E+3	5.30E-2	4.17E+2
2.85E-1	1.91E+3	5.10E-2	3.08E+2
2.60E-1	1.84E+3	5.47E-2	3.66E+2
2.79E-1	1.94E+3	6.37E-2	4.07E+2
2.80E-1	1.87E+3	4.98E-2	3.58E+2
2.75E-1	1.94E+3	5.76E-2	3.60E+2
2.68E-1	1.90E+3	4.47E-2	2.79E+2
2.71E-1	1.95E+3	5.44E-2	3.63E+2
2.71E-1	1.95E+3	5.49E-2	3.45E+2
3.12E-1	2.00E+3	5.05E-2	3.58E+2
2.88E-1	2.01E+3	5.25E-2	3.78E+2
2.64E-1	1.90E+3	4.69E-2	3.23E+2
2.89E-1	2.04E+3	5.69E-2	4.04E+2
2.71E-1	1.91E+3	5.74E-2	3.62E+2
2.86E-1	2.06E+3	5.57E-2	4.06E+2
2.75E-1	1.95E+3	5.76E-2	3.96E+2
2.67E-1	1.88E+3	5.96E-2	3.65E+2
2.98E-1	2.02E+3	6.05E-2	3.75E+2
2.91E-1	2.01E+3	5.69E-2	3.29E+2
2.91E-1	1.94E+3	4.98E-2	3.29E+2
2.86E-1	1.93E+3	5.66E-2	3.54E+2
2.74E-1	1.95E+3	5.66E-2	3.84E+2
2.78E-1	1.98E+3	5.49E-2	3.78E+2
2.71E-1	1.97E+3	5.64E-2	3.78E+2
2.89E-1	1.95E+3	5.37E-2	3.93E+2
2.75E-1	1.87E+3	5.49E-2	3.90E+2
2.78E-1	1.93E+3	5.27E-2	4.03E+2
3.02E-1	2.02E+3	5.79E-2	3.94E+2
2.70E-1	1.88E+3	5.42E-2	3.79E+2
2.95E-1	2.01E+3	5.03E-2	3.81E+2
2.70E-1	1.92E+3	5.86E-2	3.56E+2
2.66E-1	1.90E+3	5.22E-2	3.57E+2
2.91E-1	2.01E+3	4.98E-2	3.30E+2
2.77E-1	2.04E+3	5.69E-2	3.61E+2
2.82E-1	1.94E+3	4.96E-2	3.56E+2
2.77E-1	1.95E+3	5.37E-2	3.82E+2
2.83E-1	2.02E+3	5.62E-2	3.59E+2
2.74E-1	1.92E+3	5.57E-2	4.17E+2
2.93E-1	2.00E+3	5.93E-2	4.01E+2
2.84E-1	1.98E+3	5.08E-2	3.29E+2
2.86E-1	1.84E+3	4.93E-2	3.34E+2
2.78E-1	1.91E+3	5.27E-2	3.70E+2
2.75E-1	1.89E+3	5.10E-2	3.69E+2
2.62E-1	1.85E+3	5.62E-2	4.01E+2
2.78E-1	1.94E+3	5.64E-2	3.90E+2
2.62E-1	1.93E+3	5.98E-2	4.14E+2
2.81E-1	1.86E+3	5.44E-2	3.51E+2
2.78E-1	1.89E+3	5.64E-2	3.79E+2
2.60E-1	1.86E+3	5.71E-2	3.75E+2
2.79E-1	1.93E+3	5.22E-2	3.49E+2
2.80E-1	2.00E+3	5.35E-2	3.32E+2
2.79E-1	1.94E+3	5.96E-2	3.80E+2
2.86E-1	1.92E+3	5.37E-2	3.95E+2
3.01E-1	2.01E+3	5.62E-2	3.86E+2
2.79E-1	2.01E+3	5.52E-2	4.26E+2
2.96E-1	1.98E+3	5.54E-2	3.89E+2
2.80E-1	1.95E+3	5.52E-2	4.14E+2
2.89E-1	1.95E+3	6.08E-2	4.07E+2
3.07E-1	2.10E+3	5.44E-2	4.28E+2
2.92E-1	2.01E+3	5.30E-2	3.69E+2
2.85E-1	1.88E+3	5.96E-2	4.43E+2
2.69E-1	1.91E+3	5.08E-2	3.19E+2
2.79E-1	1.97E+3	5.76E-2	3.55E+2
2.65E-1	1.85E+3	5.15E-2	3.45E+2
2.84E-1	2.00E+3	5.37E-2	3.92E+2
2.77E-1	1.87E+3	5.47E-2	3.41E+2
2.73E-1	1.83E+3	5.54E-2	3.84E+2
2.92E-1	2.03E+3	5.88E-2	3.96E+2
2.75E-1	1.92E+3	5.57E-2	4.27E+2
2.82E-1	2.03E+3	5.69E-2	4.18E+2
2.89E-1	1.97E+3	5.22E-2	3.52E+2
2.84E-1	1.88E+3	5.57E-2	3.88E+2
2.79E-1	1.96E+3	5.13E-2	3.72E+2
2.76E-1	2.01E+3	5.91E-2	4.70E+2
2.82E-1	1.91E+3	5.71E-2	3.65E+2
2.71E-1	1.88E+3	5.64E-2	3.04E+2
2.63E-1	1.83E+3	5.76E-2	3.86E+2
2.81E-1	1.88E+3	5.57E-2	3.12E+2
2.72E-1	1.92E+3	5.27E-2	3.39E+2
2.81E-1	1.92E+3	5.37E-2	3.44E+2
2.72E-1	1.94E+3	6.05E-2	4.02E+2
2.91E-1	1.97E+3	5.96E-2	4.35E+2
2.73E-1	1.89E+3	5.69E-2	3.90E+2
2.83E-1	2.02E+3	5.18E-2	3.81E+2
2.50E-1	1.73E+3	5.40E-2	3.40E+2
2.83E-1	2.04E+3	4.96E-2	3.78E+2
2.88E-1	1.88E+3	5.13E-2	3.32E+2
2.85E-1	1.90E+3	5.08E-2	3.37E+2
3.01E-1	2.00E+3	6.05E-2	3.96E+2
2.91E-1	2.04E+3	5.59E-2	4.38E+2
2.78E-1	1.96E+3	4.96E-2	3.19E+2
2.88E-1	1.92E+3	5.15E-2	3.23E+2
2.79E-1	1.92E+3	5.66E-2	3.74E+2
2.79E-1	1.92E+3	5.27E-2	3.56E+2
8.30E-3	9.91E+0	1.56E-1	9.77E+2
2.70E-1	1.93E+3	5.81E-2	3.95E+2
2.70E-1	1.91E+3	5.83E-2	3.48E+2
2.77E-1	1.96E+3	5.69E-2	4.24E+2
2.77E-1	1.86E+3	4.91E-2	3.16E+2
2.77E-1	2.00E+3	4.93E-2	3.24E+2
2.79E-1	1.90E+3	5.49E-2	3.29E+2
2.73E-1	1.91E+3	6.05E-2	3.97E+2
2.82E-1	1.87E+3	5.98E-2	4.41E+2
2.70E-1	1.89E+3	5.62E-2	4.02E+2
2.56E-1	1.83E+3	5.27E-2	4.10E+2
2.71E-1	1.89E+3	6.18E-2	3.43E+2
2.72E-1	1.89E+3	5.86E-2	4.08E+2
2.70E-1	1.90E+3	5.08E-2	3.60E+2
2.74E-1	1.91E+3	4.96E-2	2.97E+2
2.79E-1	1.99E+3	4.96E-2	3.40E+2
2.68E-1	1.91E+3	4.93E-2	3.10E+2
2.71E-1	1.92E+3	5.62E-2	3.41E+2
2.77E-1	1.89E+3	5.10E-2	3.90E+2
2.54E-1	1.84E+3	5.96E-2	4.10E+2
2.66E-1	1.84E+3	5.74E-2	3.78E+2
2.78E-1	1.84E+3	5.93E-2	4.55E+2
2.71E-1	1.96E+3	5.20E-2	4.17E+2
2.89E-1	1.92E+3	4.32E-2	3.16E+2
2.72E-1	1.92E+3	5.59E-2	3.81E+2
2.85E-1	2.02E+3	5.18E-2	3.49E+2
2.81E-1	2.00E+3	5.49E-2	4.08E+2
2.90E-1	1.88E+3	5.44E-2	3.57E+2
2.92E-1	1.96E+3	5.40E-2	3.66E+2
2.85E-1	2.03E+3	5.10E-2	3.39E+2
2.93E-1	1.92E+3	5.10E-2	3.50E+2
2.77E-1	1.91E+3	5.88E-2	3.92E+2
2.76E-1	1.93E+3	4.93E-2	3.47E+2
2.78E-1	1.93E+3	5.18E-2	3.98E+2
2.81E-1	1.97E+3	5.64E-2	3.89E+2
2.75E-1	1.95E+3	4.71E-2	3.39E+2
2.71E-1	1.90E+3	5.47E-2	3.83E+2
2.83E-1	1.98E+3	5.35E-2	3.75E+2
2.80E-1	1.89E+3	6.20E-2	3.79E+2
2.60E-1	1.87E+3	5.05E-2	3.86E+2
2.90E-1	2.03E+3	4.86E-2	3.61E+2
3.02E-1	2.07E+3	5.59E-2	3.82E+2
2.84E-1	1.91E+3	5.05E-2	3.83E+2
2.73E-1	1.91E+3	5.86E-2	3.75E+2
2.71E-1	1.87E+3	5.86E-2	3.54E+2
3.03E-1	2.03E+3	5.03E-2	3.19E+2
2.84E-1	1.91E+3	5.49E-2	3.90E+2
2.70E-1	1.94E+3	5.64E-2	3.49E+2
2.81E-1	1.88E+3	4.76E-2	3.42E+2
2.65E-1	1.90E+3	5.10E-2	3.80E+2
2.68E-1	1.87E+3	5.44E-2	3.98E+2
2.75E-1	1.97E+3	5.66E-2	4.40E+2
2.77E-1	1.97E+3	5.27E-2	4.06E+2
2.66E-1	1.91E+3	5.57E-2	4.01E+2
2.78E-1	2.00E+3	4.81E-2	3.71E+2
2.76E-1	1.93E+3	5.27E-2	3.77E+2
2.81E-1	1.86E+3	5.49E-2	4.14E+2
2.71E-1	1.91E+3	5.05E-2	3.49E+2
2.73E-1	1.91E+3	5.30E-2	3.28E+2
2.87E-1	1.94E+3	5.66E-2	3.86E+2
2.87E-1	1.95E+3	5.30E-2	3.90E+2
2.81E-1	2.03E+3	5.13E-2	3.48E+2
2.82E-1	1.99E+3	5.81E-2	4.28E+2
2.79E-1	1.96E+3	4.93E-2	3.60E+2
2.70E-1	1.91E+3	4.88E-2	3.50E+2
2.59E-1	1.83E+3	5.00E-2	3.54E+2
2.84E-1	1.90E+3	4.98E-2	3.84E+2
2.76E-1	1.93E+3	5.54E-2	3.50E+2
2.60E-1	1.90E+3	4.57E-2	3.21E+2
2.70E-1	1.89E+3	5.42E-2	3.56E+2
2.75E-1	1.97E+3	4.93E-2	3.43E+2
2.81E-1	1.99E+3	5.42E-2	3.77E+2
2.88E-1	1.96E+3	5.62E-2	3.97E+2
2.87E-1	2.01E+3	4.91E-2	3.27E+2
2.98E-1	1.91E+3	5.91E-2	3.83E+2
2.57E-1	1.85E+3	4.44E-2	2.90E+2
2.87E-1	1.99E+3	5.40E-2	3.82E+2
2.80E-1	1.86E+3	5.64E-2	3.59E+2
2.87E-1	2.02E+3	5.88E-2	4.06E+2
2.95E-1	2.01E+3	6.25E-2	4.57E+2
2.62E-1	1.92E+3	5.52E-2	3.32E+2
2.62E-1	1.80E+3	5.15E-2	3.89E+2
2.85E-1	2.05E+3	5.05E-2	4.23E+2
2.98E-1	2.04E+3	6.10E-2	4.10E+2
2.84E-1	2.00E+3	5.47E-2	3.52E+2
2.89E-1	2.01E+3	6.71E-2	4.93E+2
2.83E-1	2.00E+3	5.37E-2	4.37E+2
2.87E-1	1.95E+3	5.62E-2	3.73E+2
2.94E-1	1.92E+3	5.62E-2	3.76E+2
2.74E-1	1.93E+3	5.13E-2	3.42E+2
2.89E-1	2.01E+3	5.35E-2	3.03E+2
2.78E-1	1.92E+3	6.08E-2	3.38E+2
2.71E-1	1.89E+3	5.83E-2	3.98E+2
2.94E-1	2.03E+3	5.47E-2	4.04E+2
2.89E-1	1.94E+3	5.10E-2	3.69E+2
2.92E-1	1.97E+3	6.25E-2	3.89E+2
2.59E-1	1.89E+3	5.05E-2	3.60E+2
2.80E-1	1.94E+3	4.83E-2	3.29E+2
2.98E-1	1.99E+3	5.66E-2	3.87E+2
2.86E-1	1.96E+3	5.52E-2	3.79E+2
2.78E-1	1.90E+3	5.54E-2	4.23E+2
2.92E-1	2.00E+3	5.15E-2	3.66E+2
2.78E-1	1.92E+3	5.64E-2	3.87E+2
2.78E-1	1.96E+3	6.20E-2	4.21E+2
2.73E-1	1.94E+3	5.20E-2	3.52E+2
2.72E-1	1.78E+3	4.76E-2	2.89E+2
2.67E-1	1.85E+3	5.76E-2	3.73E+2
2.94E-1	1.95E+3	5.66E-2	3.56E+2
2.68E-1	1.91E+3	5.64E-2	4.01E+2
2.53E-1	1.75E+3	5.27E-2	3.47E+2
2.69E-1	1.94E+3	6.15E-2	3.76E+2
3.00E-1	2.00E+3	6.08E-2	3.67E+2
2.81E-1	1.97E+3	5.88E-2	4.07E+2
2.74E-1	1.86E+3	5.25E-2	3.52E+2
2.81E-1	2.01E+3	5.57E-2	3.72E+2
2.72E-1	1.89E+3	5.40E-2	3.71E+2
2.49E-1	1.82E+3	5.83E-2	4.07E+2
2.68E-1	1.91E+3	4.93E-2	3.67E+2
2.79E-1	1.92E+3	5.08E-2	3.65E+2
2.76E-1	1.94E+3	5.15E-2	3.55E+2
2.75E-1	1.84E+3	5.54E-2	3.54E+2
2.54E-1	1.81E+3	5.08E-2	3.17E+2
2.89E-1	1.94E+3	5.10E-2	3.02E+2
2.70E-1	1.91E+3	5.05E-2	3.25E+2
2.80E-1	1.99E+3	6.20E-2	3.96E+2
2.84E-1	1.93E+3	5.54E-2	3.49E+2
2.88E-1	1.98E+3	5.32E-2	3.43E+2
2.76E-1	1.98E+3	5.57E-2	3.36E+2
2.61E-1	1.87E+3	4.88E-2	3.37E+2
2.56E-1	1.86E+3	6.84E-2	4.43E+2
2.79E-1	1.99E+3	5.44E-2	3.97E+2
2.73E-1	1.93E+3	5.64E-2	4.30E+2
2.98E-1	2.01E+3	5.32E-2	3.76E+2
2.88E-1	1.97E+3	5.59E-2	3.54E+2
2.83E-1	1.98E+3	5.76E-2	3.59E+2
2.90E-1	1.94E+3	5.64E-2	3.72E+2
2.78E-1	1.89E+3	5.27E-2	2.92E+2
2.75E-1	1.89E+3	5.93E-2	3.74E+2
2.75E-1	1.91E+3	6.30E-2	4.17E+2
2.66E-1	1.91E+3	5.79E-2	3.66E+2
2.97E-1	2.03E+3	5.93E-2	3.47E+2
3.07E-1	2.09E+3	5.05E-2	3.29E+2
2.82E-1	1.93E+3	6.86E-2	4.26E+2
2.87E-1	2.01E+3	5.32E-2	3.45E+2
2.75E-1	1.98E+3	6.05E-2	3.96E+2
2.66E-1	1.89E+3	5.08E-2	3.48E+2
3.00E-1	2.09E+3	5.20E-2	3.39E+2
2.92E-1	2.00E+3	5.20E-2	3.68E+2
2.72E-1	1.90E+3	6.32E-2	4.28E+2
2.69E-1	1.84E+3	5.35E-2	3.09E+2
2.62E-1	1.84E+3	5.66E-2	3.60E+2
2.77E-1	1.93E+3	5.66E-2	3.83E+2
2.66E-1	1.88E+3	5.37E-2	3.39E+2
2.68E-1	1.92E+3	5.71E-2	3.50E+2
2.85E-1	2.00E+3	5.27E-2	3.45E+2
2.72E-1	1.98E+3	5.40E-2	3.67E+2
2.72E-1	1.85E+3	5.35E-2	3.38E+2
2.85E-1	1.99E+3	5.35E-2	3.46E+2
2.78E-1	1.94E+3	5.64E-2	3.76E+2
2.89E-1	1.92E+3	5.59E-2	3.61E+2
2.79E-1	1.88E+3	5.08E-2	3.29E+2
2.81E-1	2.03E+3	5.37E-2	3.43E+2
2.74E-1	1.95E+3	4.93E-2	3.66E+2
2.71E-1	1.90E+3	6.05E-2	4.12E+2
2.91E-1	2.06E+3	5.00E-2	3.40E+2
2.76E-1	1.96E+3	5.81E-2	3.38E+2
2.77E-1	1.90E+3	5.98E-2	3.80E+2
2.80E-1	1.87E+3	4.52E-2	2.93E+2
2.75E-1	1.95E+3	6.15E-2	3.96E+2
2.92E-1	1.88E+3	5.62E-2	3.37E+2
2.77E-1	1.90E+3	5.35E-2	3.13E+2
2.76E-1	1.93E+3	5.03E-2	2.82E+2
2.70E-1	1.91E+3	5.42E-2	3.93E+2
2.61E-1	1.85E+3	5.59E-2	3.56E+2
2.76E-1	1.98E+3	4.66E-2	3.04E+2
2.86E-1	1.96E+3	4.93E-2	3.46E+2
2.90E-1	2.02E+3	5.30E-2	3.69E+2
2.91E-1	1.92E+3	5.32E-2	3.84E+2
2.77E-1	1.86E+3	5.66E-2	4.06E+2
2.89E-1	1.89E+3	5.49E-2	3.36E+2
2.84E-1	1.91E+3	5.18E-2	3.29E+2
2.72E-1	1.91E+3	5.59E-2	3.62E+2
2.73E-1	1.86E+3	5.59E-2	4.11E+2
2.79E-1	1.92E+3	6.05E-2	3.87E+2
2.84E-1	1.92E+3	5.08E-2	3.27E+2
2.53E-1	1.77E+3	5.22E-2	3.25E+2
2.95E-1	1.98E+3	5.74E-2	3.53E+2
2.79E-1	1.90E+3	5.93E-2	3.59E+2
2.94E-1	1.99E+3	5.37E-2	3.39E+2
2.69E-1	1.88E+3	5.86E-2	3.71E+2
2.80E-1	1.94E+3	5.47E-2	3.42E+2
2.59E-1	1.87E+3	5.30E-2	3.76E+2
2.81E-1	1.94E+3	5.35E-2	4.50E+2
2.70E-1	1.93E+3	5.44E-2	3.73E+2
2.83E-1	1.84E+3	5.40E-2	3.60E+2
2.61E-1	1.84E+3	5.66E-2	3.65E+2
2.71E-1	1.87E+3	5.54E-2	3.38E+2
2.77E-1	1.90E+3	5.18E-2	3.25E+2
2.81E-1	1.92E+3	5.10E-2	3.94E+2
2.76E-1	1.85E+3	5.66E-2	3.22E+2
2.73E-1	1.90E+3	5.49E-2	3.46E+2
2.79E-1	1.92E+3	5.83E-2	3.65E+2
2.81E-1	1.99E+3	5.13E-2	3.72E+2
2.77E-1	1.95E+3	4.88E-2	3.21E+2
2.62E-1	1.90E+3	4.98E-2	3.48E+2
2.68E-1	1.93E+3	5.52E-2	3.67E+2
2.73E-1	1.93E+3	6.71E-2	4.50E+2
2.75E-1	1.92E+3	5.47E-2	3.72E+2
2.78E-1	1.91E+3	5.10E-2	3.68E+2
2.86E-1	1.93E+3	5.52E-2	3.57E+2
2.89E-1	1.92E+3	5.64E-2	3.75E+2
2.97E-1	1.96E+3	5.15E-2	3.08E+2
2.87E-1	1.95E+3	5.71E-2	3.69E+2
2.84E-1	1.97E+3	5.54E-2	3.70E+2
2.90E-1	1.98E+3	5.66E-2	3.58E+2
2.92E-1	1.98E+3	5.47E-2	3.29E+2
2.93E-1	1.97E+3	5.20E-2	3.07E+2
2.86E-1	1.93E+3	5.71E-2	3.26E+2
2.87E-1	1.97E+3	6.13E-2	3.39E+2
2.80E-1	2.02E+3	6.13E-2	3.98E+2
2.68E-1	1.92E+3	4.98E-2	3.53E+2
7.08E-3	1.23E+1	1.51E-1	9.41E+2
2.71E-1	1.87E+3	5.40E-2	3.79E+2
2.97E-1	2.01E+3	5.69E-2	3.76E+2
2.84E-1	1.97E+3	5.62E-2	3.90E+2
2.71E-1	1.86E+3	5.37E-2	3.52E+2
2.69E-1	1.91E+3	5.79E-2	4.00E+2
2.81E-1	1.91E+3	5.52E-2	3.95E+2
2.75E-1	1.89E+3	5.93E-2	3.79E+2
2.75E-1	1.89E+3	5.76E-2	3.96E+2
2.89E-1	1.96E+3	6.15E-2	3.68E+2
2.85E-1	1.98E+3	6.23E-2	3.96E+2
2.85E-1	2.01E+3	5.57E-2	3.59E+2
2.88E-1	1.99E+3	5.42E-2	3.54E+2
2.67E-1	1.88E+3	5.47E-2	3.26E+2
2.79E-1	1.99E+3	5.54E-2	3.25E+2
2.61E-1	1.86E+3	5.20E-2	3.69E+2
2.82E-1	1.98E+3	5.18E-2	3.56E+2
2.63E-1	1.85E+3	5.37E-2	3.59E+2
2.70E-1	1.96E+3	4.76E-2	3.81E+2
2.94E-1	1.90E+3	5.86E-2	3.84E+2
2.94E-1	1.98E+3	4.81E-2	2.93E+2
2.72E-1	1.88E+3	5.79E-2	3.89E+2
2.70E-1	1.90E+3	5.59E-2	3.84E+2
2.63E-1	1.84E+3	5.10E-2	3.40E+2
2.94E-1	1.99E+3	5.49E-2	3.93E+2
2.77E-1	1.88E+3	4.91E-2	3.24E+2
2.86E-1	2.03E+3	5.74E-2	3.41E+2
2.74E-1	1.99E+3	4.86E-2	3.13E+2
2.80E-1	1.96E+3	6.20E-2	3.68E+2
2.76E-1	1.96E+3	5.47E-2	3.82E+2
2.80E-1	1.88E+3	5.05E-2	3.59E+2
2.84E-1	1.94E+3	5.86E-2	3.98E+2
2.75E-1	1.86E+3	4.91E-2	3.21E+2
2.98E-1	1.96E+3	5.27E-2	3.78E+2
2.76E-1	1.94E+3	5.40E-2	3.45E+2
2.83E-1	1.89E+3	5.66E-2	3.96E+2
2.74E-1	1.92E+3	5.37E-2	3.81E+2
2.80E-1	1.97E+3	5.81E-2	4.40E+2
2.81E-1	1.97E+3	5.74E-2	4.24E+2
2.71E-1	1.90E+3	4.98E-2	3.32E+2
2.98E-1	1.97E+3	5.66E-2	3.24E+2
2.94E-1	2.04E+3	5.66E-2	4.22E+2
2.81E-1	1.98E+3	5.42E-2	3.39E+2
2.75E-1	1.93E+3	5.18E-2	3.51E+2
2.60E-1	1.89E+3	5.98E-2	3.91E+2
2.75E-1	1.94E+3	5.35E-2	4.09E+2
2.83E-1	1.94E+3	5.42E-2	3.62E+2
2.88E-1	1.89E+3	5.57E-2	3.38E+2
2.88E-1	2.03E+3	5.05E-2	3.57E+2
2.78E-1	1.92E+3	4.96E-2	3.49E+2
2.55E-1	1.83E+3	6.05E-2	4.00E+2
2.60E-1	1.84E+3	5.83E-2	3.65E+2
2.84E-1	1.90E+3	5.27E-2	3.61E+2
2.75E-1	1.85E+3	4.81E-2	3.18E+2
3.04E-1	2.06E+3	5.49E-2	3.45E+2
2.76E-1	1.96E+3	5.83E-2	4.07E+2
2.77E-1	1.92E+3	5.05E-2	3.30E+2
3.02E-1	2.04E+3	5.71E-2	3.57E+2
2.78E-1	1.97E+3	4.98E-2	3.90E+2
2.75E-1	1.94E+3	5.22E-2	3.78E+2
2.68E-1	1.91E+3	5.74E-2	3.66E+2
2.82E-1	1.99E+3	4.98E-2	3.88E+2
2.77E-1	1.91E+3	5.40E-2	3.66E+2
2.55E-1	1.80E+3	5.25E-2	3.78E+2
2.85E-1	2.00E+3	6.35E-2	4.47E+2
2.88E-1	1.88E+3	5.35E-2	3.43E+2
2.86E-1	1.88E+3	5.05E-2	3.24E+2
2.70E-1	1.94E+3	5.27E-2	4.26E+2
2.94E-1	2.00E+3	6.03E-2	4.41E+2
2.68E-1	1.91E+3	4.98E-2	3.45E+2
2.80E-1	1.94E+3	5.62E-2	3.95E+2
2.72E-1	1.89E+3	5.05E-2	3.18E+2
2.85E-1	1.90E+3	4.98E-2	3.44E+2
2.77E-1	1.96E+3	5.66E-2	4.03E+2
2.72E-1	1.90E+3	5.76E-2	3.57E+2
2.83E-1	1.95E+3	6.25E-2	4.10E+2
2.71E-1	1.86E+3	5.08E-2	3.96E+2
2.75E-1	1.97E+3	5.08E-2	3.58E+2
2.94E-1	1.98E+3	6.01E-2	4.38E+2
2.71E-1	1.92E+3	4.69E-2	3.31E+2
2.69E-1	1.87E+3	5.69E-2	4.06E+2
2.61E-1	1.84E+3	5.64E-2	4.01E+2
2.82E-1	2.00E+3	5.71E-2	4.14E+2
2.56E-1	1.79E+3	4.74E-2	3.01E+2
2.81E-1	1.99E+3	5.62E-2	4.06E+2
2.87E-1	1.95E+3	6.01E-2	4.04E+2
2.84E-1	1.92E+3	5.35E-2	3.41E+2
2.74E-1	1.96E+3	5.71E-2	3.86E+2
2.83E-1	1.97E+3	5.42E-2	3.44E+2
2.91E-1	1.96E+3	5.76E-2	4.00E+2
2.73E-1	1.94E+3	5.71E-2	4.37E+2
2.86E-1	2.06E+3	5.93E-2	4.22E+2
2.82E-1	1.98E+3	4.93E-2	3.63E+2
2.68E-1	1.84E+3	5.27E-2	3.90E+2
2.82E-1	1.91E+3	5.86E-2	4.01E+2
2.69E-1	1.94E+3	5.81E-2	4.53E+2
2.78E-1	1.96E+3	5.57E-2	3.64E+2
2.93E-1	1.96E+3	4.93E-2	3.37E+2
5.37E-3	-1.07E+0	1.46E-1	9.27E+2
2.84E-1	1.94E+3	5.05E-2	3.06E+2
2.83E-1	1.96E+3	5.40E-2	3.74E+2
2.82E-1	1.95E+3	5.91E-2	3.81E+2
2.69E-1	1.90E+3	5.15E-2	3.08E+2
2.68E-1	1.85E+3	5.20E-2	3.08E+2
2.75E-1	2.02E+3	4.86E-2	3.67E+2
2.84E-1	1.93E+3	6.05E-2	4.37E+2
2.74E-1	1.94E+3	5.03E-2	3.41E+2
2.89E-1	1.97E+3	5.52E-2	4.11E+2
2.75E-1	1.93E+3	5.52E-2	4.16E+2
2.83E-1	1.92E+3	4.83E-2	3.10E+2
2.88E-1	1.94E+3	5.42E-2	3.80E+2
2.80E-1	1.94E+3	5.69E-2	3.60E+2
2.89E-1	1.94E+3	5.35E-2	3.42E+2
2.94E-1	1.99E+3	5.64E-2	3.81E+2
6.10E-2	3.47E+1	1.45E-1	9.19E+2
2.90E-1	2.04E+3	5.57E-2	3.28E+2
2.98E-1	2.04E+3	4.86E-2	3.51E+2
2.73E-1	1.94E+3	5.47E-2	3.36E+2
2.68E-1	1.89E+3	5.83E-2	4.14E+2
2.74E-1	1.84E+3	5.42E-2	3.75E+2
2.99E-1	1.94E+3	5.35E-2	3.55E+2
2.82E-1	2.05E+3	5.79E-2	3.94E+2
2.69E-1	1.86E+3	5.32E-2	3.89E+2
2.69E-1	1.98E+3	5.96E-2	3.90E+2
2.83E-1	2.04E+3	5.49E-2	3.48E+2
2.69E-1	1.85E+3	5.47E-2	3.66E+2
2.84E-1	1.96E+3	5.13E-2	3.77E+2
2.81E-1	1.99E+3	4.71E-2	3.01E+2
2.84E-1	1.98E+3	5.62E-2	3.95E+2
2.93E-1	2.00E+3	5.37E-2	3.41E+2
5.62E-3	5.81E+0	1.46E-1	9.10E+2
2.94E-1	1.96E+3	6.03E-2	3.69E+2
2.75E-1	1.97E+3	5.96E-2	3.55E+2
2.92E-1	1.90E+3	6.01E-2	4.00E+2
2.66E-1	1.91E+3	5.54E-2	4.16E+2
2.82E-1	1.91E+3	5.10E-2	4.07E+2
2.84E-1	1.94E+3	5.52E-2	3.81E+2
3.05E-1	2.04E+3	5.44E-2	4.02E+2
2.63E-1	1.91E+3	4.98E-2	3.85E+2
2.98E-1	1.99E+3	5.30E-2	3.96E+2
2.79E-1	1.93E+3	5.98E-2	4.20E+2
2.87E-1	1.98E+3	5.03E-2	3.48E+2
2.94E-1	2.02E+3	5.57E-2	3.82E+2
2.91E-1	1.96E+3	6.18E-2	4.04E+2
2.82E-1	1.90E+3	5.66E-2	3.84E+2
2.73E-1	1.90E+3	4.91E-2	3.00E+2
2.77E-1	1.99E+3	5.18E-2	2.90E+2
2.75E-1	1.92E+3	5.15E-2	3.37E+2
3.00E-1	2.07E+3	4.98E-2	3.70E+2
6.59E-3	-6.35E-1	1.40E-1	8.31E+2
2.77E-1	1.96E+3	5.13E-2	3.83E+2
2.70E-1	1.93E+3	5.44E-2	4.22E+2
2.53E-1	1.76E+3	5.49E-2	3.82E+2
2.80E-1	2.00E+3	5.52E-2	3.91E+2
2.50E-1	1.80E+3	6.01E-2	4.33E+2
2.77E-1	1.91E+3	5.91E-2	4.14E+2
2.68E-1	1.94E+3	4.64E-2	3.66E+2
3.01E-1	1.92E+3	5.18E-2	3.53E+2
6.10E-3	-6.45E+0	1.39E-1	8.69E+2
2.70E-1	1.91E+3	4.61E-2	3.52E+2
2.99E-1	2.01E+3	5.27E-2	2.92E+2
2.83E-1	1.92E+3	5.27E-2	3.58E+2
2.82E-1	1.97E+3	5.40E-2	4.06E+2
2.84E-1	2.05E+3	5.44E-2	3.69E+2
2.88E-1	2.04E+3	5.30E-2	3.29E+2
2.88E-1	2.00E+3	5.52E-2	3.91E+2
2.71E-1	1.94E+3	5.40E-2	3.67E+2
2.63E-1	1.79E+3	4.71E-2	3.59E+2
2.83E-1	1.96E+3	6.52E-2	4.28E+2
2.84E-1	1.96E+3	5.25E-2	3.63E+2
2.87E-1	2.00E+3	6.08E-2	4.19E+2
2.69E-1	1.96E+3	5.27E-2	3.92E+2
2.77E-1	2.01E+3	5.86E-2	4.44E+2
2.77E-1	1.90E+3	5.35E-2	3.48E+2
2.82E-1	1.95E+3	5.57E-2	3.37E+2
2.94E-1	1.93E+3	5.37E-2	3.22E+2
2.80E-1	1.89E+3	5.25E-2	2.99E+2
2.67E-1	1.91E+3	6.18E-2	3.78E+2
2.79E-1	1.99E+3	5.98E-2	4.06E+2
2.71E-1	1.94E+3	5.49E-2	3.60E+2
2.80E-1	2.00E+3	5.18E-2	3.83E+2
2.62E-1	1.95E+3	6.67E-2	4.66E+2
2.77E-1	1.94E+3	5.69E-2	4.19E+2
2.74E-1	1.95E+3	5.40E-2	3.91E+2
2.67E-1	1.92E+3	5.52E-2	3.70E+2
2.72E-1	1.90E+3	5.22E-2	3.76E+2
2.87E-1	1.99E+3	5.35E-2	4.21E+2
2.82E-1	1.91E+3	5.88E-2	3.80E+2
2.82E-1	1.97E+3	5.37E-2	3.82E+2
2.93E-1	1.91E+3	5.42E-2	3.54E+2
2.74E-1	1.90E+3	5.52E-2	3.37E+2
2.63E-1	1.84E+3	5.30E-2	3.35E+2
2.87E-1	2.00E+3	4.96E-2	3.55E+2
2.58E-1	1.86E+3	5.64E-2	3.51E+2
2.67E-1	1.96E+3	5.71E-2	3.78E+2
2.83E-1	2.02E+3	5.42E-2	4.05E+2
2.67E-1	1.96E+3	4.91E-2	3.39E+2
2.80E-1	1.99E+3	5.30E-2	3.44E+2
2.74E-1	2.02E+3	5.83E-2	4.02E+2
2.66E-1	1.88E+3	5.93E-2	3.95E+2
2.75E-1	2.00E+3	4.81E-2	3.58E+2
2.83E-1	1.88E+3	6.10E-2	4.03E+2
2.87E-1	1.87E+3	5.27E-2	3.66E+2
2.73E-1	1.84E+3	5.54E-2	3.90E+2
2.81E-1	1.95E+3	5.49E-2	2.92E+2
2.70E-1	1.88E+3	5.00E-2	3.25E+2
2.63E-1	1.89E+3	5.91E-2	3.95E+2
2.64E-1	1.84E+3	5.44E-2	3.43E+2
2.85E-1	1.93E+3	5.03E-2	3.61E+2
2.63E-1	1.91E+3	5.42E-2	4.03E+2
2.76E-1	1.98E+3	5.49E-2	3.33E+2
2.66E-1	1.91E+3	5.86E-2	3.87E+2
2.94E-1	2.10E+3	6.05E-2	4.17E+2
2.75E-1	1.95E+3	4.71E-2	3.34E+2
2.72E-1	1.98E+3	5.47E-2	3.91E+2
2.82E-1	1.98E+3	4.86E-2	3.50E+2
2.90E-1	2.02E+3	5.71E-2	4.08E+2
2.71E-1	1.93E+3	5.47E-2	3.78E+2
2.89E-1	1.94E+3	5.47E-2	3.96E+2
2.82E-1	1.94E+3	5.37E-2	3.46E+2
2.89E-1	1.92E+3	5.42E-2	3.69E+2
2.83E-1	2.05E+3	5.40E-2	3.52E+2
2.87E-1	1.92E+3	5.76E-2	3.70E+2
2.87E-1	1.95E+3	5.81E-2	3.70E+2
2.74E-1	1.99E+3	5.42E-2	4.00E+2
2.83E-1	1.93E+3	5.49E-2	3.89E+2
2.86E-1	1.98E+3	5.35E-2	3.43E+2
2.77E-1	1.95E+3	4.81E-2	3.20E+2
2.55E-1	1.83E+3	5.44E-2	3.38E+2
2.64E-1	1.84E+3	5.00E-2	3.43E+2
2.68E-1	1.85E+3	6.25E-2	4.32E+2
2.71E-1	1.88E+3	5.66E-2	3.94E+2
2.55E-1	1.78E+3	5.86E-2	4.23E+2
2.89E-1	1.98E+3	5.25E-2	3.52E+2
2.57E-1	1.77E+3	6.54E-2	3.91E+2
2.72E-1	1.85E+3	6.05E-2	3.42E+2
2.66E-1	1.82E+3	5.22E-2	3.34E+2
2.66E-1	1.91E+3	5.30E-2	3.34E+2
2.86E-1	1.91E+3	5.08E-2	3.65E+2
2.59E-1	1.78E+3	5.35E-2	3.36E+2
2.87E-1	1.98E+3	5.76E-2	3.64E+2
2.84E-1	1.88E+3	5.18E-2	3.35E+2
6.59E-3	-1.22E+1	1.47E-1	9.59E+2
2.76E-1	1.94E+3	6.20E-2	4.39E+2
2.75E-1	1.97E+3	5.62E-2	3.50E+2
2.76E-1	1.93E+3	4.76E-2	3.48E+2
2.73E-1	1.91E+3	5.27E-2	3.87E+2
2.85E-1	1.95E+3	5.03E-2	3.26E+2
2.98E-1	2.05E+3	5.30E-2	2.89E+2
2.78E-1	1.95E+3	4.96E-2	3.25E+2
2.92E-1	1.96E+3	6.15E-2	3.65E+2
2.72E-1	1.90E+3	5.37E-2	3.32E+2
2.72E-1	1.93E+3	5.69E-2	3.87E+2
2.81E-1	1.99E+3	5.32E-2	3.73E+2
2.72E-1	1.87E+3	5.30E-2	3.40E+2
2.92E-1	1.97E+3	5.27E-2	3.46E+2
2.82E-1	1.97E+3	5.76E-2	3.63E+2
2.77E-1	1.90E+3	6.13E-2	3.97E+2
2.96E-1	2.04E+3	5.27E-2	3.30E+2
2.70E-1	1.93E+3	5.81E-2	4.01E+2
2.65E-1	1.91E+3	5.57E-2	4.52E+2
2.93E-1	2.00E+3	6.18E-2	4.53E+2
2.71E-1	1.86E+3	5.44E-2	3.77E+2
2.72E-1	1.91E+3	5.93E-2	3.71E+2
2.84E-1	2.01E+3	5.18E-2	3.53E+2
2.63E-1	1.87E+3	5.54E-2	3.39E+2
2.89E-1	1.96E+3	6.03E-2	3.59E+2
2.93E-1	2.01E+3	5.98E-2	3.75E+2
2.75E-1	1.95E+3	5.71E-2	3.59E+2
2.73E-1	1.92E+3	5.22E-2	3.63E+2
2.87E-1	1.89E+3	5.76E-2	3.64E+2
2.97E-1	1.98E+3	5.20E-2	3.20E+2
2.64E-1	1.89E+3	5.62E-2	3.56E+2
2.68E-1	1.95E+3	5.64E-2	4.43E+2
2.86E-1	1.99E+3	5.76E-2	4.05E+2
2.74E-1	1.89E+3	5.42E-2	3.91E+2
3.02E-1	1.99E+3	6.37E-2	4.25E+2
6.30E-2	4.20E+1	1.43E-1	9.02E+2
2.71E-1	1.85E+3	5.59E-2	3.36E+2
2.92E-1	2.03E+3	5.25E-2	3.12E+2
2.95E-1	1.88E+3	6.08E-2	3.84E+2
2.73E-1	1.93E+3	6.03E-2	3.37E+2
2.85E-1	1.88E+3	5.62E-2	3.80E+2
2.74E-1	1.88E+3	5.81E-2	3.35E+2
2.98E-1	2.04E+3	5.25E-2	3.22E+2
2.67E-1	1.92E+3	5.37E-2	3.17E+2
2.96E-1	1.98E+3	5.76E-2	3.97E+2
2.66E-1	1.89E+3	6.08E-2	4.54E+2
2.83E-1	2.00E+3	5.32E-2	3.68E+2
2.71E-1	1.93E+3	4.98E-2	3.54E+2
2.71E-1	1.94E+3	5.03E-2	3.39E+2
2.84E-1	2.00E+3	5.35E-2	3.61E+2
2.85E-1	1.88E+3	5.47E-2	3.99E+2
2.93E-1	1.99E+3	5.74E-2	4.20E+2
3.00E-1	1.99E+3	5.30E-2	3.69E+2
2.85E-1	1.92E+3	4.71E-2	3.21E+2
2.85E-1	2.01E+3	6.18E-2	4.27E+2
2.74E-1	1.86E+3	5.44E-2	3.68E+2
2.69E-1	1.88E+3	5.59E-2	3.43E+2
3.00E-1	2.03E+3	5.47E-2	3.23E+2
2.97E-1	2.01E+3	5.74E-2	3.62E+2
2.69E-1	1.91E+3	5.18E-2	4.09E+2
2.96E-1	2.04E+3	5.32E-2	3.76E+2
2.74E-1	1.96E+3	5.62E-2	4.15E+2
2.93E-1	1.94E+3	4.91E-2	3.28E+2
2.64E-1	1.86E+3	5.64E-2	3.84E+2
2.82E-1	1.87E+3	5.27E-2	3.50E+2
2.75E-1	1.93E+3	4.93E-2	3.21E+2
2.84E-1	1.91E+3	5.27E-2	3.79E+2
2.87E-1	1.93E+3	4.76E-2	3.31E+2
2.83E-1	1.88E+3	5.08E-2	3.53E+2
2.63E-1	1.84E+3	6.03E-2	3.95E+2
2.81E-1	1.95E+3	5.59E-2	3.63E+2
3.03E-1	1.97E+3	5.83E-2	3.36E+2
2.86E-1	2.04E+3	5.15E-2	3.27E+2
2.75E-1	1.83E+3	4.66E-2	3.01E+2
2.72E-1	1.92E+3	5.69E-2	4.18E+2
2.88E-1	1.96E+3	5.69E-2	4.21E+2
3.01E-1	2.03E+3	5.35E-2	3.59E+2
2.87E-1	1.89E+3	5.74E-2	3.76E+2
2.70E-1	1.84E+3	5.30E-2	3.42E+2
2.92E-1	1.86E+3	5.66E-2	3.78E+2
2.83E-1	1.95E+3	5.03E-2	3.88E+2
2.87E-1	1.96E+3	5.20E-2	3.68E+2
2.84E-1	1.98E+3	5.79E-2	4.10E+2
2.80E-1	1.85E+3	5.18E-2	3.51E+2
2.64E-1	1.84E+3	5.54E-2	3.51E+2
2.70E-1	1.87E+3	5.00E-2	3.42E+2
3.01E-1	2.02E+3	5.62E-2	3.26E+2
2.74E-1	1.95E+3	5.44E-2	3.83E+2
2.85E-1	1.89E+3	5.79E-2	4.49E+2
2.92E-1	2.06E+3	5.37E-2	3.46E+2
2.60E-1	1.80E+3	5.57E-2	3.94E+2
2.84E-1	1.88E+3	5.42E-2	3.10E+2
2.64E-1	1.84E+3	5.25E-2	3.16E+2
2.78E-1	1.89E+3	5.52E-2	4.03E+2
2.57E-1	1.87E+3	6.10E-2	3.61E+2
5.37E-3	-4.25E+0	1.51E-1	9.34E+2
2.86E-1	1.87E+3	5.10E-2	3.64E+2
2.83E-1	1.96E+3	5.71E-2	4.34E+2
2.81E-1	1.95E+3	5.88E-2	4.02E+2
3.02E-1	1.94E+3	4.64E-2	3.19E+2
2.70E-1	1.93E+3	6.10E-2	3.83E+2
2.81E-1	1.95E+3	5.30E-2	3.70E+2
2.90E-1	1.97E+3	4.79E-2	3.09E+2
2.75E-1	1.88E+3	5.69E-2	3.74E+2
2.65E-1	1.91E+3	5.30E-2	3.62E+2
2.74E-1	1.96E+3	5.54E-2	4.18E+2
2.81E-1	1.96E+3	5.00E-2	3.38E+2
2.80E-1	1.98E+3	6.45E-2	3.83E+2
2.81E-1	2.00E+3	5.69E-2	4.02E+2
2.88E-1	1.94E+3	5.40E-2	3.93E+2
2.59E-1	1.86E+3	5.13E-2	3.92E+2
2.82E-1	2.05E+3	5.47E-2	4.24E+2
2.81E-1	1.94E+3	5.71E-2	3.75E+2
2.70E-1	1.84E+3	5.22E-2	3.35E+2
2.69E-1	1.95E+3	5.03E-2	3.40E+2
2.65E-1	1.94E+3	5.57E-2	3.71E+2
2.61E-1	1.89E+3	5.49E-2	4.22E+2
2.70E-1	1.89E+3	5.57E-2	3.97E+2
2.80E-1	1.86E+3	5.88E-2	4.16E+2
2.92E-1	2.04E+3	5.59E-2	4.06E+2
2.87E-1	1.93E+3	5.98E-2	4.37E+2
2.80E-1	2.04E+3	5.79E-2	3.89E+2
2.72E-1	1.91E+3	5.37E-2	3.85E+2
2.83E-1	1.96E+3	4.98E-2	2.95E+2
2.81E-1	2.04E+3	5.35E-2	3.82E+2
2.78E-1	1.97E+3	5.15E-2	3.70E+2
2.99E-1	1.96E+3	5.47E-2	3.97E+2
2.84E-1	1.90E+3	5.25E-2	3.10E+2
2.85E-1	1.97E+3	5.42E-2	3.45E+2
2.75E-1	1.92E+3	5.93E-2	3.88E+2
2.86E-1	2.05E+3	5.42E-2	3.84E+2
2.81E-1	2.02E+3	6.23E-2	4.21E+2
2.66E-1	1.94E+3	5.20E-2	3.43E+2
2.67E-1	1.92E+3	5.13E-2	3.93E+2
2.81E-1	1.93E+3	4.52E-2	3.38E+2
2.72E-1	1.89E+3	4.81E-2	3.70E+2
2.54E-1	1.86E+3	5.96E-2	3.94E+2
2.98E-1	2.08E+3	5.00E-2	3.59E+2
2.83E-1	1.95E+3	5.52E-2	3.57E+2
2.81E-1	1.92E+3	4.93E-2	3.49E+2
2.93E-1	1.91E+3	5.13E-2	3.39E+2
2.68E-1	1.84E+3	5.62E-2	3.65E+2
2.83E-1	1.94E+3	5.57E-2	3.22E+2
2.94E-1	2.06E+3	6.42E-2	4.25E+2
2.87E-1	1.97E+3	5.62E-2	3.19E+2
2.72E-1	1.94E+3	5.42E-2	3.81E+2
3.02E-1	2.10E+3	5.42E-2	3.87E+2
2.85E-1	2.04E+3	5.22E-2	3.68E+2
2.75E-1	1.93E+3	5.27E-2	4.40E+2
2.69E-1	1.94E+3	5.20E-2	3.66E+2
2.87E-1	2.05E+3	5.93E-2	3.89E+2
2.92E-1	1.97E+3	5.22E-2	3.41E+2
2.84E-1	2.02E+3	5.83E-2	4.16E+2
2.97E-1	2.04E+3	4.91E-2	3.29E+2
2.99E-1	1.97E+3	6.03E-2	3.71E+2
2.93E-1	1.96E+3	5.83E-2	3.79E+2
2.84E-1	1.96E+3	5.54E-2	3.76E+2
2.96E-1	1.96E+3	5.49E-2	3.81E+2
3.05E-1	2.05E+3	5.05E-2	3.31E+2
2.84E-1	1.94E+3	5.15E-2	3.28E+2
2.70E-1	1.90E+3	4.79E-2	3.56E+2
2.86E-1	1.99E+3	4.64E-2	3.25E+2
2.82E-1	1.93E+3	5.79E-2	3.85E+2
2.93E-1	1.96E+3	5.30E-2	3.28E+2
2.80E-1	1.88E+3	5.00E-2	3.87E+2
2.57E-1	1.87E+3	4.64E-2	3.44E+2
2.71E-1	1.90E+3	5.57E-2	3.65E+2
2.78E-1	1.93E+3	5.66E-2	3.41E+2
2.92E-1	1.94E+3	6.13E-2	3.87E+2
2.73E-1	1.90E+3	4.32E-2	3.06E+2
2.82E-1	1.91E+3	5.71E-2	3.28E+2
2.54E-1	1.77E+3	5.08E-2	3.19E+2
2.94E-1	1.94E+3	5.20E-2	3.11E+2
2.70E-1	1.82E+3	5.30E-2	3.37E+2
2.81E-1	1.88E+3	5.86E-2	3.61E+2
2.79E-1	1.89E+3	6.03E-2	3.90E+2
2.86E-1	1.99E+3	4.96E-2	3.15E+2
2.72E-1	1.88E+3	5.49E-2	3.71E+2
2.70E-1	1.93E+3	6.93E-2	4.17E+2
6.59E-3	1.36E+1	1.43E-1	9.24E+2
2.87E-1	1.99E+3	5.03E-2	3.25E+2
2.68E-1	1.86E+3	5.57E-2	3.93E+2
2.83E-1	1.89E+3	5.18E-2	3.85E+2
2.83E-1	2.02E+3	5.03E-2	3.60E+2
2.81E-1	1.98E+3	5.88E-2	3.94E+2
2.87E-1	2.00E+3	5.37E-2	3.49E+2
2.77E-1	1.90E+3	4.88E-2	3.38E+2
2.98E-1	2.01E+3	5.74E-2	3.85E+2
2.56E-1	1.86E+3	5.66E-2	3.77E+2
2.72E-1	1.93E+3	5.25E-2	3.65E+2
2.81E-1	2.02E+3	5.03E-2	3.54E+2
2.81E-1	1.99E+3	4.81E-2	3.49E+2
2.72E-1	1.90E+3	5.30E-2	3.46E+2
2.77E-1	1.96E+3	5.20E-2	3.66E+2
2.62E-1	1.89E+3	5.96E-2	3.99E+2
2.92E-1	1.95E+3	5.79E-2	4.16E+2
2.70E-1	1.93E+3	6.10E-2	3.76E+2
2.67E-1	1.86E+3	5.05E-2	3.84E+2
2.81E-1	1.91E+3	5.44E-2	3.68E+2
2.72E-1	1.85E+3	4.91E-2	2.92E+2
2.88E-1	1.93E+3	4.98E-2	2.98E+2
2.79E-1	1.95E+3	5.42E-2	4.01E+2
2.75E-1	1.94E+3	5.18E-2	3.45E+2
2.71E-1	1.92E+3	5.64E-2	3.57E+2
3.08E-1	2.11E+3	5.47E-2	3.61E+2
2.68E-1	1.82E+3	5.98E-2	3.80E+2
2.62E-1	1.86E+3	5.13E-2	3.70E+2
2.64E-1	1.91E+3	5.44E-2	4.10E+2
2.74E-1	1.86E+3	6.20E-2	3.44E+2
2.65E-1	1.93E+3	5.00E-2	3.63E+2
2.78E-1	1.89E+3	4.96E-2	3.67E+2
2.77E-1	1.96E+3	5.52E-2	4.10E+2
2.87E-1	1.96E+3	5.49E-2	3.58E+2
2.80E-1	1.98E+3	6.03E-2	3.83E+2
2.86E-1	2.04E+3	4.93E-2	3.08E+2
2.90E-1	1.94E+3	6.10E-2	3.31E+2
2.90E-1	2.03E+3	5.64E-2	3.76E+2
2.93E-1	2.00E+3	5.74E-2	3.73E+2
2.95E-1	2.00E+3	5.74E-2	3.72E+2
2.88E-1	1.95E+3	5.96E-2	3.71E+2
2.90E-1	2.02E+3	5.47E-2	3.31E+2
2.77E-1	1.97E+3	6.03E-2	3.35E+2
2.74E-1	1.95E+3	5.49E-2	3.66E+2
2.83E-1	1.94E+3	5.54E-2	3.86E+2
2.81E-1	1.98E+3	5.20E-2	3.73E+2
2.91E-1	1.92E+3	6.03E-2	4.36E+2
2.88E-1	2.03E+3	5.37E-2	3.65E+2
2.78E-1	1.91E+3	6.01E-2	3.38E+2
2.94E-1	2.00E+3	5.20E-2	3.27E+2
2.81E-1	1.92E+3	6.54E-2	4.10E+2
2.75E-1	1.85E+3	5.62E-2	3.87E+2
2.84E-1	2.00E+3	5.54E-2	3.59E+2
2.85E-1	2.02E+3	6.18E-2	3.77E+2
2.71E-1	1.87E+3	5.71E-2	3.72E+2
2.84E-1	1.91E+3	5.27E-2	3.25E+2
2.67E-1	1.91E+3	5.42E-2	3.38E+2
2.86E-1	1.94E+3	5.79E-2	3.68E+2
2.75E-1	1.88E+3	5.42E-2	3.21E+2
2.71E-1	1.95E+3	6.05E-2	3.71E+2
2.74E-1	1.88E+3	5.44E-2	4.12E+2
2.85E-1	2.01E+3	4.76E-2	3.31E+2
2.83E-1	1.91E+3	6.10E-2	4.26E+2
2.80E-1	1.92E+3	5.08E-2	3.35E+2
2.92E-1	2.02E+3	5.52E-2	3.16E+2
2.76E-1	1.88E+3	4.88E-2	2.83E+2
2.84E-1	1.90E+3	5.15E-2	3.30E+2
2.79E-1	1.87E+3	5.08E-2	3.11E+2
3.00E-1	2.00E+3	5.64E-2	3.68E+2
2.99E-1	2.06E+3	5.66E-2	3.66E+2
2.80E-1	2.00E+3	4.96E-2	3.08E+2
2.84E-1	2.04E+3	5.64E-2	3.53E+2
2.88E-1	1.92E+3	5.54E-2	3.23E+2
2.84E-1	1.98E+3	5.03E-2	3.64E+2
2.75E-1	1.97E+3	5.25E-2	3.60E+2
2.80E-1	1.87E+3	5.03E-2	3.78E+2
2.66E-1	1.86E+3	5.25E-2	3.82E+2
2.56E-1	1.80E+3	5.54E-2	3.66E+2
2.84E-1	1.96E+3	6.01E-2	3.87E+2
2.83E-1	1.92E+3	5.42E-2	3.77E+2
2.80E-1	1.97E+3	6.30E-2	3.85E+2
2.77E-1	1.87E+3	5.74E-2	3.51E+2
2.98E-1	2.00E+3	6.08E-2	3.98E+2
2.74E-1	1.88E+3	5.74E-2	4.14E+2
2.92E-1	2.02E+3	5.81E-2	3.61E+2
2.95E-1	2.07E+3	5.15E-2	3.21E+2
2.62E-1	1.86E+3	5.96E-2	3.29E+2
2.70E-1	1.94E+3	5.62E-2	3.95E+2
2.69E-1	1.92E+3	5.37E-2	4.09E+2
2.83E-1	1.97E+3	4.93E-2	3.57E+2
2.68E-1	1.91E+3	5.25E-2	4.18E+2
2.82E-1	1.99E+3	5.57E-2	3.92E+2
2.83E-1	1.97E+3	6.08E-2	3.66E+2
2.89E-1	1.96E+3	5.88E-2	3.51E+2
2.84E-1	1.96E+3	5.49E-2	3.49E+2
2.80E-1	1.96E+3	5.52E-2	3.88E+2
3.01E-1	2.04E+3	5.79E-2	3.74E+2
2.87E-1	1.94E+3	5.71E-2	3.52E+2
2.81E-1	1.95E+3	6.01E-2	3.68E+2
2.84E-1	1.91E+3	6.23E-2	4.12E+2
2.76E-1	1.91E+3	5.57E-2	3.62E+2
2.81E-1	2.00E+3	5.69E-2	3.76E+2
2.78E-1	1.95E+3	5.76E-2	3.78E+2
2.81E-1	2.02E+3	6.15E-2	4.43E+2
3.07E-1	2.02E+3	5.59E-2	3.74E+2
2.78E-1	1.95E+3	5.54E-2	3.77E+2
2.76E-1	1.89E+3	4.96E-2	3.18E+2
2.81E-1	1.97E+3	5.49E-2	3.71E+2
2.84E-1	1.88E+3	5.44E-2	3.58E+2
2.88E-1	2.08E+3	5.47E-2	4.57E+2
2.66E-1	1.86E+3	5.13E-2	3.36E+2
2.76E-1	1.93E+3	5.66E-2	3.70E+2
2.93E-1	1.94E+3	5.47E-2	2.99E+2
2.73E-1	1.89E+3	5.59E-2	3.42E+2
2.82E-1	1.95E+3	5.93E-2	3.46E+2
2.81E-1	2.03E+3	5.64E-2	3.63E+2
2.70E-1	1.91E+3	5.86E-2	4.46E+2
2.72E-1	1.93E+3	5.30E-2	3.83E+2
2.67E-1	1.85E+3	4.79E-2	3.29E+2
3.03E-1	1.93E+3	4.76E-2	3.16E+2
2.87E-1	2.02E+3	5.44E-2	4.10E+2
2.85E-1	1.93E+3	6.15E-2	4.37E+2
2.71E-1	1.85E+3	6.15E-2	4.05E+2
2.81E-1	1.95E+3	5.05E-2	3.73E+2
2.87E-1	1.93E+3	5.30E-2	2.98E+2
2.55E-1	1.78E+3	5.71E-2	3.73E+2
2.78E-1	1.97E+3	5.20E-2	3.84E+2
2.99E-1	1.99E+3	5.76E-2	3.63E+2
2.69E-1	1.93E+3	5.40E-2	3.47E+2
2.70E-1	1.90E+3	4.98E-2	3.25E+2
2.79E-1	2.01E+3	5.93E-2	3.75E+2
2.93E-1	2.03E+3	5.40E-2	3.94E+2
2.65E-1	1.91E+3	5.54E-2	3.81E+2
2.79E-1	1.90E+3	5.42E-2	3.41E+2
2.78E-1	1.95E+3	5.44E-2	3.79E+2
2.63E-1	1.82E+3	5.35E-2	3.85E+2
2.65E-1	1.87E+3	6.01E-2	3.46E+2
2.90E-1	1.98E+3	4.69E-2	2.91E+2
2.70E-1	1.83E+3	5.86E-2	3.81E+2
2.70E-1	1.86E+3	5.40E-2	3.77E+2
2.68E-1	1.93E+3	5.35E-2	3.94E+2
2.82E-1	1.90E+3	5.08E-2	3.70E+2
2.72E-1	1.89E+3	5.71E-2	3.64E+2
2.90E-1	1.97E+3	4.79E-2	3.31E+2
2.96E-1	1.98E+3	6.15E-2	3.95E+2
2.74E-1	1.92E+3	5.30E-2	3.30E+2
2.75E-1	1.89E+3	5.18E-2	3.59E+2
2.79E-1	1.91E+3	5.37E-2	3.50E+2
2.80E-1	1.92E+3	5.86E-2	4.00E+2
2.79E-1	1.98E+3	6.23E-2	4.26E+2
2.74E-1	1.87E+3	5.15E-2	3.71E+2
2.77E-1	1.87E+3	5.42E-2	3.87E+2
2.70E-1	1.84E+3	5.27E-2	3.53E+2
2.68E-1	1.95E+3	5.35E-2	4.28E+2
2.79E-1	1.92E+3	5.25E-2	3.39E+2
2.88E-1	1.96E+3	5.49E-2	3.95E+2
2.57E-1	1.89E+3	6.37E-2	3.84E+2
2.74E-1	1.91E+3	5.59E-2	3.57E+2
2.78E-1	1.97E+3	5.18E-2	3.27E+2
2.82E-1	1.97E+3	5.93E-2	4.17E+2
2.74E-1	1.94E+3	5.44E-2	4.20E+2
2.73E-1	1.92E+3	5.62E-2	3.89E+2
2.61E-1	1.86E+3	5.27E-2	3.91E+2
2.70E-1	1.87E+3	4.76E-2	3.50E+2
2.81E-1	1.92E+3	4.81E-2	3.28E+2
2.64E-1	1.88E+3	6.47E-2	4.34E+2
2.86E-1	2.00E+3	6.23E-2	4.28E+2
2.77E-1	1.92E+3	5.83E-2	3.93E+2
2.71E-1	1.98E+3	5.08E-2	3.74E+2
2.81E-1	1.97E+3	5.27E-2	3.47E+2
2.77E-1	1.94E+3	6.18E-2	3.59E+2
2.87E-1	1.92E+3	5.37E-2	3.71E+2
2.80E-1	1.97E+3	5.49E-2	3.66E+2
2.73E-1	1.93E+3	5.76E-2	3.63E+2
2.79E-1	1.98E+3	5.18E-2	3.69E+2
2.84E-1	2.01E+3	5.91E-2	4.19E+2
2.80E-1	1.96E+3	4.86E-2	3.27E+2
