7.37E-1	6.66E+3	2.16E-1	1.43E+3
7.41E-1	6.56E+3	2.29E-1	1.40E+3
7.14E-1	6.42E+3	2.17E-1	1.32E+3
7.39E-1	6.51E+3	2.23E-1	1.35E+3
7.45E-1	6.68E+3	2.05E-1	1.32E+3
7.33E-1	6.58E+3	2.20E-1	1.38E+3
7.37E-1	6.66E+3	2.05E-1	1.26E+3
7.55E-1	6.66E+3	2.24E-1	1.35E+3
7.56E-1	6.56E+3	2.11E-1	1.34E+3
7.47E-1	6.69E+3	2.13E-1	1.36E+3
7.42E-1	6.61E+3	1.99E-1	1.30E+3
7.39E-1	6.66E+3	2.06E-1	1.31E+3
7.17E-1	6.60E+3	2.05E-1	1.35E+3
7.44E-1	6.50E+3	2.17E-1	1.32E+3
7.23E-1	6.49E+3	2.04E-1	1.29E+3
7.17E-1	6.47E+3	2.14E-1	1.35E+3
7.14E-1	6.47E+3	2.19E-1	1.36E+3
7.19E-1	6.56E+3	2.29E-1	1.39E+3
7.28E-1	6.70E+3	2.11E-1	1.35E+3
7.12E-1	6.56E+3	2.19E-1	1.29E+3
7.19E-1	6.50E+3	2.13E-1	1.27E+3
7.50E-1	6.48E+3	2.28E-1	1.37E+3
7.49E-1	6.64E+3	2.09E-1	1.35E+3
7.41E-1	6.70E+3	2.19E-1	1.37E+3
7.32E-1	6.58E+3	2.19E-1	1.43E+3
7.24E-1	6.66E+3	2.22E-1	1.41E+3
7.47E-1	6.58E+3	2.20E-1	1.32E+3
7.47E-1	6.54E+3	2.04E-1	1.28E+3
7.22E-1	6.58E+3	2.14E-1	1.36E+3
7.40E-1	6.57E+3	2.17E-1	1.33E+3
7.24E-1	6.48E+3	2.15E-1	1.32E+3
7.37E-1	6.61E+3	2.04E-1	1.25E+3
7.48E-1	6.53E+3	2.11E-1	1.37E+3
7.40E-1	6.76E+3	2.14E-1	1.31E+3
7.35E-1	6.70E+3	2.16E-1	1.36E+3
7.37E-1	6.76E+3	2.10E-1	1.34E+3
7.51E-1	6.63E+3	2.39E-1	1.38E+3
7.30E-1	6.79E+3	2.09E-1	1.27E+3
7.62E-1	6.61E+3	2.05E-1	1.30E+3
7.42E-1	6.57E+3	2.19E-1	1.34E+3
7.44E-1	6.50E+3	2.22E-1	1.43E+3
7.56E-1	6.57E+3	2.32E-1	1.42E+3
7.39E-1	6.49E+3	2.29E-1	1.36E+3
7.33E-1	6.61E+3	2.17E-1	1.41E+3
7.50E-1	6.68E+3	2.21E-1	1.38E+3
7.25E-1	6.59E+3	2.17E-1	1.28E+3
7.29E-1	6.49E+3	2.13E-1	1.36E+3
7.19E-1	6.54E+3	2.06E-1	1.25E+3
7.33E-1	6.42E+3	2.08E-1	1.31E+3
7.36E-1	6.56E+3	2.12E-1	1.38E+3
7.37E-1	6.71E+3	2.07E-1	1.33E+3
7.34E-1	6.69E+3	2.12E-1	1.28E+3
7.28E-1	6.60E+3	2.21E-1	1.35E+3
7.20E-1	6.57E+3	2.21E-1	1.31E+3
7.45E-1	6.67E+3	2.20E-1	1.39E+3
7.13E-1	6.46E+3	1.98E-1	1.21E+3
7.16E-1	6.48E+3	2.22E-1	1.34E+3
7.57E-1	6.66E+3	2.19E-1	1.39E+3
7.52E-1	6.68E+3	2.05E-1	1.31E+3
7.26E-1	6.56E+3	2.16E-1	1.36E+3
7.37E-1	6.60E+3	2.10E-1	1.28E+3
7.27E-1	6.49E+3	2.20E-1	1.38E+3
7.24E-1	6.52E+3	2.00E-1	1.27E+3
7.51E-1	6.71E+3	2.08E-1	1.39E+3
7.21E-1	6.53E+3	2.17E-1	1.39E+3
7.46E-1	6.67E+3	2.17E-1	1.30E+3
7.49E-1	6.52E+3	2.17E-1	1.31E+3
7.20E-1	6.56E+3	2.15E-1	1.31E+3
7.20E-1	6.68E+3	2.05E-1	1.31E+3
7.36E-1	6.60E+3	2.22E-1	1.33E+3
7.46E-1	6.49E+3	2.25E-1	1.37E+3
7.19E-1	6.48E+3	2.08E-1	1.31E+3
7.29E-1	6.59E+3	2.22E-1	1.39E+3
7.55E-1	6.56E+3	2.23E-1	1.33E+3
7.60E-1	6.63E+3	2.26E-1	1.30E+3
7.38E-1	6.59E+3	2.07E-1	1.18E+3
7.60E-1	6.48E+3	2.29E-1	1.34E+3
7.32E-1	6.66E+3	2.15E-1	1.29E+3
7.53E-1	6.66E+3	2.21E-1	1.28E+3
7.27E-1	6.71E+3	2.12E-1	1.33E+3
7.29E-1	6.66E+3	2.12E-1	1.35E+3
7.23E-1	6.47E+3	2.10E-1	1.36E+3
7.23E-1	6.46E+3	2.19E-1	1.28E+3
7.55E-1	6.62E+3	2.10E-1	1.33E+3
7.22E-1	6.56E+3	2.33E-1	1.48E+3
7.26E-1	6.62E+3	2.10E-1	1.35E+3
7.31E-1	6.71E+3	2.18E-1	1.31E+3
7.18E-1	6.56E+3	2.24E-1	1.38E+3
7.43E-1	6.77E+3	2.07E-1	1.30E+3
7.56E-1	6.72E+3	2.27E-1	1.36E+3
7.47E-1	6.73E+3	1.98E-1	1.23E+3
7.35E-1	6.57E+3	2.10E-1	1.28E+3
7.38E-1	6.68E+3	2.18E-1	1.36E+3
7.42E-1	6.49E+3	2.20E-1	1.41E+3
7.37E-1	6.63E+3	2.17E-1	1.37E+3
7.21E-1	6.46E+3	2.25E-1	1.38E+3
7.39E-1	6.64E+3	2.18E-1	1.42E+3
7.25E-1	6.55E+3	2.24E-1	1.38E+3
7.39E-1	6.72E+3	2.10E-1	1.33E+3
7.29E-1	6.60E+3	2.24E-1	1.37E+3
7.36E-1	6.65E+3	2.18E-1	1.33E+3
7.22E-1	6.56E+3	2.07E-1	1.32E+3
7.68E-1	6.83E+3	2.11E-1	1.21E+3
7.32E-1	6.47E+3	2.07E-1	1.28E+3
7.24E-1	6.65E+3	2.03E-1	1.29E+3
7.46E-1	6.64E+3	2.17E-1	1.39E+3
7.31E-1	6.61E+3	2.29E-1	1.34E+3
7.17E-1	6.48E+3	2.31E-1	1.32E+3
7.51E-1	6.67E+3	2.15E-1	1.30E+3
7.34E-1	6.68E+3	2.12E-1	1.30E+3
7.53E-1	6.63E+3	2.23E-1	1.39E+3
7.47E-1	6.48E+3	2.17E-1	1.34E+3
7.56E-1	6.58E+3	2.17E-1	1.29E+3
7.39E-1	6.57E+3	2.16E-1	1.31E+3
7.43E-1	6.60E+3	2.12E-1	1.31E+3
7.37E-1	6.56E+3	2.17E-1	1.36E+3
7.23E-1	6.60E+3	2.25E-1	1.40E+3
7.18E-1	6.58E+3	2.22E-1	1.36E+3
7.48E-1	6.67E+3	2.34E-1	1.48E+3
7.59E-1	6.60E+3	2.28E-1	1.41E+3
7.37E-1	6.68E+3	2.21E-1	1.35E+3
7.25E-1	6.56E+3	2.21E-1	1.32E+3
7.21E-1	6.53E+3	2.32E-1	1.34E+3
7.37E-1	6.55E+3	2.14E-1	1.38E+3
7.10E-1	6.53E+3	2.12E-1	1.35E+3
7.39E-1	6.55E+3	2.18E-1	1.31E+3
7.65E-1	6.68E+3	2.13E-1	1.39E+3
7.31E-1	6.54E+3	2.05E-1	1.31E+3
7.35E-1	6.53E+3	2.12E-1	1.31E+3
7.44E-1	6.60E+3	2.24E-1	1.38E+3
7.50E-1	6.67E+3	2.25E-1	1.37E+3
7.34E-1	6.74E+3	2.09E-1	1.38E+3
7.29E-1	6.53E+3	2.24E-1	1.32E+3
7.24E-1	6.65E+3	2.11E-1	1.36E+3
7.51E-1	6.65E+3	2.25E-1	1.39E+3
7.50E-1	6.46E+3	2.24E-1	1.37E+3
7.59E-1	6.53E+3	2.22E-1	1.32E+3
7.44E-1	6.66E+3	2.21E-1	1.38E+3
7.45E-1	6.64E+3	2.16E-1	1.33E+3
7.40E-1	6.43E+3	2.12E-1	1.34E+3
7.32E-1	6.74E+3	2.10E-1	1.30E+3
7.32E-1	6.64E+3	2.34E-1	1.40E+3
7.62E-1	6.63E+3	2.24E-1	1.32E+3
7.26E-1	6.60E+3	2.15E-1	1.41E+3
7.50E-1	6.50E+3	2.17E-1	1.33E+3
7.39E-1	6.65E+3	2.09E-1	1.33E+3
7.45E-1	6.70E+3	2.08E-1	1.32E+3
7.10E-1	6.49E+3	2.19E-1	1.38E+3
7.19E-1	6.58E+3	2.21E-1	1.35E+3
7.66E-1	6.52E+3	2.22E-1	1.35E+3
7.35E-1	6.60E+3	2.19E-1	1.28E+3
7.63E-1	6.52E+3	2.11E-1	1.32E+3
7.17E-1	6.47E+3	2.28E-1	1.46E+3
7.23E-1	6.62E+3	2.06E-1	1.32E+3
7.28E-1	6.77E+3	2.20E-1	1.42E+3
7.41E-1	6.65E+3	2.13E-1	1.32E+3
7.45E-1	6.71E+3	2.14E-1	1.34E+3
7.49E-1	6.57E+3	2.11E-1	1.32E+3
7.20E-1	6.45E+3	2.09E-1	1.32E+3
7.26E-1	6.70E+3	2.09E-1	1.30E+3
7.29E-1	6.66E+3	2.30E-1	1.33E+3
7.17E-1	6.47E+3	2.11E-1	1.30E+3
7.59E-1	6.54E+3	2.30E-1	1.45E+3
7.26E-1	6.57E+3	2.06E-1	1.25E+3
7.44E-1	6.70E+3	2.18E-1	1.34E+3
7.30E-1	6.58E+3	2.15E-1	1.27E+3
7.23E-1	6.57E+3	2.18E-1	1.39E+3
7.67E-1	6.59E+3	2.17E-1	1.32E+3
7.23E-1	6.59E+3	2.20E-1	1.36E+3
7.18E-1	6.50E+3	2.15E-1	1.34E+3
7.58E-1	6.78E+3	2.15E-1	1.31E+3
7.54E-1	6.61E+3	2.19E-1	1.35E+3
7.33E-1	6.59E+3	2.19E-1	1.46E+3
7.24E-1	6.70E+3	2.20E-1	1.33E+3
7.35E-1	6.67E+3	2.12E-1	1.38E+3
7.60E-1	6.62E+3	2.21E-1	1.32E+3
7.25E-1	6.64E+3	2.07E-1	1.24E+3
7.21E-1	6.64E+3	2.00E-1	1.21E+3
7.21E-1	6.59E+3	2.26E-1	1.47E+3
7.16E-1	6.49E+3	2.11E-1	1.34E+3
7.24E-1	6.61E+3	2.13E-1	1.36E+3
7.40E-1	6.58E+3	2.09E-1	1.32E+3
7.29E-1	6.53E+3	2.08E-1	1.35E+3
7.44E-1	6.72E+3	2.29E-1	1.46E+3
7.36E-1	6.70E+3	2.21E-1	1.35E+3
7.41E-1	6.67E+3	2.25E-1	1.42E+3
7.53E-1	6.57E+3	2.24E-1	1.41E+3
7.40E-1	6.63E+3	2.34E-1	1.35E+3
7.37E-1	6.66E+3	2.11E-1	1.37E+3
7.22E-1	6.56E+3	2.12E-1	1.25E+3
7.36E-1	6.56E+3	2.27E-1	1.39E+3
7.54E-1	6.59E+3	2.24E-1	1.39E+3
7.40E-1	6.65E+3	2.31E-1	1.42E+3
7.73E-1	6.66E+3	2.08E-1	1.35E+3
7.51E-1	6.66E+3	2.14E-1	1.31E+3
7.26E-1	6.59E+3	2.16E-1	1.35E+3
7.22E-1	6.61E+3	2.07E-1	1.32E+3
7.54E-1	6.60E+3	2.07E-1	1.29E+3
7.40E-1	6.72E+3	2.16E-1	1.36E+3
7.43E-1	6.58E+3	2.10E-1	1.34E+3
7.23E-1	6.60E+3	2.22E-1	1.34E+3
7.53E-1	6.67E+3	2.32E-1	1.36E+3
7.29E-1	6.60E+3	2.15E-1	1.36E+3
7.41E-1	6.59E+3	2.19E-1	1.29E+3
7.28E-1	6.62E+3	2.25E-1	1.33E+3
7.50E-1	6.62E+3	2.19E-1	1.35E+3
7.18E-1	6.63E+3	2.19E-1	1.33E+3
7.18E-1	6.62E+3	2.16E-1	1.32E+3
7.42E-1	6.48E+3	2.41E-1	1.46E+3
7.52E-1	6.66E+3	2.22E-1	1.36E+3
7.43E-1	6.61E+3	2.15E-1	1.36E+3
7.35E-1	6.65E+3	2.17E-1	1.30E+3
7.52E-1	6.62E+3	2.10E-1	1.21E+3
7.36E-1	6.67E+3	2.03E-1	1.30E+3
7.47E-1	6.55E+3	2.20E-1	1.40E+3
7.32E-1	6.54E+3	2.19E-1	1.38E+3
7.38E-1	6.64E+3	2.19E-1	1.37E+3
7.25E-1	6.41E+3	2.16E-1	1.38E+3
7.44E-1	6.64E+3	2.21E-1	1.35E+3
7.48E-1	6.51E+3	2.11E-1	1.37E+3
7.41E-1	6.72E+3	2.08E-1	1.31E+3
7.48E-1	6.44E+3	2.24E-1	1.30E+3
7.37E-1	6.67E+3	2.20E-1	1.36E+3
7.35E-1	6.60E+3	2.16E-1	1.33E+3
7.40E-1	6.48E+3	2.21E-1	1.34E+3
7.31E-1	6.69E+3	2.23E-1	1.38E+3
7.29E-1	6.73E+3	2.28E-1	1.42E+3
7.45E-1	6.66E+3	2.17E-1	1.35E+3
7.26E-1	6.71E+3	2.15E-1	1.35E+3
7.41E-1	6.45E+3	2.31E-1	1.37E+3
7.32E-1	6.47E+3	2.26E-1	1.34E+3
7.34E-1	6.66E+3	2.06E-1	1.27E+3
7.22E-1	6.49E+3	2.22E-1	1.37E+3
7.45E-1	6.60E+3	2.20E-1	1.41E+3
7.30E-1	6.56E+3	2.05E-1	1.29E+3
7.39E-1	6.65E+3	2.11E-1	1.33E+3
7.24E-1	6.39E+3	2.08E-1	1.29E+3
7.50E-1	6.59E+3	2.26E-1	1.43E+3
7.40E-1	6.55E+3	1.99E-1	1.23E+3
7.31E-1	6.69E+3	2.10E-1	1.31E+3
7.46E-1	6.62E+3	2.22E-1	1.29E+3
7.19E-1	6.59E+3	2.35E-1	1.36E+3
7.24E-1	6.44E+3	2.19E-1	1.33E+3
7.57E-1	6.56E+3	2.32E-1	1.29E+3
7.54E-1	6.68E+3	2.12E-1	1.26E+3
7.13E-1	6.48E+3	2.24E-1	1.35E+3
7.46E-1	6.63E+3	2.09E-1	1.30E+3
7.19E-1	6.53E+3	2.08E-1	1.32E+3
7.39E-1	6.59E+3	2.25E-1	1.39E+3
7.50E-1	6.60E+3	2.15E-1	1.27E+3
7.43E-1	6.55E+3	2.19E-1	1.39E+3
7.24E-1	6.66E+3	2.08E-1	1.26E+3
7.42E-1	6.65E+3	2.09E-1	1.32E+3
7.21E-1	6.54E+3	2.15E-1	1.30E+3
7.69E-1	6.76E+3	2.02E-1	1.28E+3
7.61E-1	6.69E+3	2.15E-1	1.34E+3
7.25E-1	6.69E+3	2.06E-1	1.29E+3
7.26E-1	6.56E+3	2.19E-1	1.31E+3
7.15E-1	6.46E+3	2.24E-1	1.37E+3
7.51E-1	6.64E+3	2.14E-1	1.34E+3
7.63E-1	6.59E+3	2.17E-1	1.36E+3
7.38E-1	6.67E+3	2.18E-1	1.40E+3
7.18E-1	6.55E+3	2.08E-1	1.30E+3
7.29E-1	6.50E+3	2.12E-1	1.31E+3
7.43E-1	6.62E+3	2.11E-1	1.29E+3
7.30E-1	6.62E+3	2.19E-1	1.39E+3
7.61E-1	6.65E+3	2.20E-1	1.38E+3
7.36E-1	6.56E+3	2.02E-1	1.28E+3
7.21E-1	6.61E+3	2.05E-1	1.31E+3
7.49E-1	6.57E+3	2.12E-1	1.32E+3
7.41E-1	6.55E+3	2.35E-1	1.35E+3
7.36E-1	6.65E+3	2.02E-1	1.32E+3
7.26E-1	6.65E+3	2.32E-1	1.34E+3
7.31E-1	6.70E+3	2.12E-1	1.34E+3
7.45E-1	6.63E+3	1.98E-1	1.23E+3
7.35E-1	6.65E+3	2.17E-1	1.32E+3
7.38E-1	6.48E+3	2.05E-1	1.32E+3
7.49E-1	6.49E+3	2.35E-1	1.41E+3
7.31E-1	6.62E+3	2.16E-1	1.32E+3
7.19E-1	6.55E+3	2.16E-1	1.35E+3
7.28E-1	6.62E+3	2.11E-1	1.33E+3
7.41E-1	6.56E+3	2.22E-1	1.31E+3
7.43E-1	6.66E+3	2.18E-1	1.34E+3
7.14E-1	6.58E+3	2.11E-1	1.35E+3
7.39E-1	6.58E+3	2.28E-1	1.40E+3
7.18E-1	6.57E+3	2.13E-1	1.34E+3
7.19E-1	6.56E+3	2.07E-1	1.28E+3
7.39E-1	6.84E+3	2.21E-1	1.34E+3
7.50E-1	6.65E+3	2.25E-1	1.45E+3
7.53E-1	6.78E+3	2.14E-1	1.35E+3
7.30E-1	6.55E+3	2.13E-1	1.32E+3
7.31E-1	6.76E+3	2.15E-1	1.27E+3
7.48E-1	6.77E+3	2.23E-1	1.30E+3
7.20E-1	6.58E+3	2.20E-1	1.27E+3
7.20E-1	6.46E+3	2.22E-1	1.37E+3
7.33E-1	6.69E+3	2.17E-1	1.27E+3
7.32E-1	6.66E+3	2.26E-1	1.43E+3
7.22E-1	6.52E+3	2.11E-1	1.32E+3
7.45E-1	6.68E+3	2.18E-1	1.22E+3
7.23E-1	6.59E+3	2.12E-1	1.22E+3
7.23E-1	6.51E+3	1.98E-1	1.22E+3
7.47E-1	6.54E+3	2.27E-1	1.46E+3
7.36E-1	6.74E+3	2.23E-1	1.40E+3
7.36E-1	6.67E+3	2.16E-1	1.39E+3
7.19E-1	6.50E+3	2.16E-1	1.36E+3
7.42E-1	6.55E+3	2.15E-1	1.30E+3
7.12E-1	6.54E+3	2.17E-1	1.40E+3
7.24E-1	6.51E+3	2.05E-1	1.31E+3
7.48E-1	6.73E+3	2.29E-1	1.39E+3
7.30E-1	6.52E+3	2.14E-1	1.33E+3
7.21E-1	6.47E+3	2.18E-1	1.35E+3
7.25E-1	6.49E+3	2.19E-1	1.34E+3
7.54E-1	6.51E+3	2.13E-1	1.26E+3
7.17E-1	6.47E+3	2.13E-1	1.29E+3
7.39E-1	6.45E+3	2.17E-1	1.33E+3
7.27E-1	6.51E+3	2.20E-1	1.30E+3
7.30E-1	6.65E+3	2.13E-1	1.35E+3
7.55E-1	6.70E+3	2.10E-1	1.35E+3
7.14E-1	6.52E+3	2.14E-1	1.32E+3
7.31E-1	6.68E+3	2.05E-1	1.28E+3
7.62E-1	6.79E+3	2.18E-1	1.35E+3
7.28E-1	6.65E+3	2.03E-1	1.25E+3
7.41E-1	6.58E+3	2.18E-1	1.34E+3
7.32E-1	6.68E+3	2.09E-1	1.35E+3
7.17E-1	6.51E+3	2.16E-1	1.33E+3
7.18E-1	6.59E+3	2.34E-1	1.38E+3
7.34E-1	6.80E+3	2.33E-1	1.39E+3
7.59E-1	6.68E+3	2.00E-1	1.24E+3
7.16E-1	6.41E+3	2.10E-1	1.33E+3
7.35E-1	6.67E+3	2.20E-1	1.37E+3
7.41E-1	6.52E+3	2.03E-1	1.30E+3
7.59E-1	6.55E+3	2.09E-1	1.30E+3
7.51E-1	6.70E+3	2.14E-1	1.33E+3
7.37E-1	6.61E+3	2.17E-1	1.34E+3
7.48E-1	6.67E+3	2.34E-1	1.38E+3
7.26E-1	6.51E+3	2.20E-1	1.35E+3
7.49E-1	6.73E+3	2.20E-1	1.33E+3
7.19E-1	6.54E+3	2.23E-1	1.40E+3
7.24E-1	6.62E+3	2.17E-1	1.34E+3
7.23E-1	6.64E+3	2.13E-1	1.29E+3
7.23E-1	6.57E+3	2.27E-1	1.35E+3
7.19E-1	6.55E+3	1.99E-1	1.23E+3
7.44E-1	6.64E+3	2.14E-1	1.32E+3
7.24E-1	6.61E+3	2.17E-1	1.36E+3
7.45E-1	6.58E+3	2.23E-1	1.38E+3
7.39E-1	6.65E+3	2.11E-1	1.29E+3
7.33E-1	6.67E+3	2.18E-1	1.38E+3
7.56E-1	6.54E+3	2.23E-1	1.32E+3
7.54E-1	6.69E+3	2.25E-1	1.34E+3
7.50E-1	6.56E+3	2.17E-1	1.29E+3
7.35E-1	6.64E+3	2.22E-1	1.43E+3
7.19E-1	6.62E+3	2.35E-1	1.39E+3
7.18E-1	6.51E+3	2.15E-1	1.29E+3
7.52E-1	6.74E+3	2.21E-1	1.49E+3
7.55E-1	6.70E+3	2.05E-1	1.28E+3
7.15E-1	6.43E+3	1.98E-1	1.23E+3
7.73E-1	6.65E+3	2.19E-1	1.41E+3
7.46E-1	6.44E+3	2.23E-1	1.41E+3
7.44E-1	6.56E+3	2.07E-1	1.25E+3
7.43E-1	6.72E+3	2.18E-1	1.37E+3
7.57E-1	6.59E+3	2.23E-1	1.35E+3
7.24E-1	6.59E+3	2.20E-1	1.27E+3
7.15E-1	6.42E+3	2.36E-1	1.38E+3
7.15E-1	6.47E+3	2.16E-1	1.34E+3
7.11E-1	6.49E+3	2.22E-1	1.36E+3
7.21E-1	6.55E+3	2.38E-1	1.38E+3
7.14E-1	6.51E+3	2.20E-1	1.34E+3
7.35E-1	6.48E+3	2.15E-1	1.31E+3
7.38E-1	6.56E+3	2.18E-1	1.35E+3
7.35E-1	6.60E+3	2.14E-1	1.33E+3
7.51E-1	6.60E+3	2.19E-1	1.37E+3
7.53E-1	6.55E+3	2.38E-1	1.41E+3
7.44E-1	6.74E+3	2.15E-1	1.33E+3
7.48E-1	6.61E+3	2.12E-1	1.35E+3
7.46E-1	6.65E+3	2.30E-1	1.36E+3
7.30E-1	6.65E+3	2.07E-1	1.33E+3
7.13E-1	6.48E+3	2.25E-1	1.36E+3
7.27E-1	6.61E+3	2.11E-1	1.36E+3
7.29E-1	6.54E+3	2.15E-1	1.28E+3
7.32E-1	6.68E+3	2.25E-1	1.42E+3
7.49E-1	6.54E+3	2.19E-1	1.34E+3
7.20E-1	6.42E+3	2.16E-1	1.31E+3
7.23E-1	6.48E+3	2.22E-1	1.35E+3
7.54E-1	6.70E+3	2.03E-1	1.29E+3
7.35E-1	6.60E+3	2.16E-1	1.26E+3
7.19E-1	6.57E+3	2.18E-1	1.38E+3
7.44E-1	6.52E+3	2.29E-1	1.41E+3
7.32E-1	6.32E+3	2.17E-1	1.38E+3
7.39E-1	6.79E+3	2.04E-1	1.31E+3
7.20E-1	6.62E+3	2.21E-1	1.36E+3
7.28E-1	6.74E+3	2.30E-1	1.38E+3
7.38E-1	6.59E+3	2.24E-1	1.36E+3
7.61E-1	6.75E+3	2.33E-1	1.39E+3
7.21E-1	6.59E+3	2.32E-1	1.27E+3
7.23E-1	6.57E+3	2.20E-1	1.30E+3
7.22E-1	6.50E+3	2.11E-1	1.32E+3
7.36E-1	6.66E+3	2.06E-1	1.24E+3
7.45E-1	6.61E+3	2.09E-1	1.30E+3
7.42E-1	6.56E+3	2.32E-1	1.40E+3
7.34E-1	6.62E+3	2.18E-1	1.31E+3
7.53E-1	6.73E+3	2.25E-1	1.35E+3
7.51E-1	6.64E+3	2.15E-1	1.35E+3
7.39E-1	6.64E+3	2.11E-1	1.33E+3
7.39E-1	6.45E+3	2.09E-1	1.24E+3
7.19E-1	6.53E+3	2.24E-1	1.32E+3
7.20E-1	6.46E+3	2.24E-1	1.37E+3
7.35E-1	6.77E+3	2.19E-1	1.37E+3
7.40E-1	6.66E+3	2.30E-1	1.49E+3
7.15E-1	6.54E+3	2.29E-1	1.38E+3
7.34E-1	6.65E+3	2.17E-1	1.33E+3
7.31E-1	6.72E+3	2.17E-1	1.34E+3
7.38E-1	6.74E+3	2.07E-1	1.28E+3
7.50E-1	6.68E+3	2.24E-1	1.36E+3
7.46E-1	6.58E+3	2.21E-1	1.34E+3
7.21E-1	6.55E+3	2.24E-1	1.35E+3
7.35E-1	6.66E+3	2.15E-1	1.29E+3
7.29E-1	6.61E+3	2.10E-1	1.37E+3
7.62E-1	6.64E+3	2.24E-1	1.33E+3
7.48E-1	6.57E+3	2.28E-1	1.35E+3
7.27E-1	6.71E+3	2.15E-1	1.27E+3
7.20E-1	6.61E+3	2.08E-1	1.31E+3
7.54E-1	6.50E+3	2.19E-1	1.39E+3
7.22E-1	6.51E+3	2.16E-1	1.32E+3
7.27E-1	6.59E+3	2.28E-1	1.46E+3
7.42E-1	6.72E+3	2.13E-1	1.34E+3
7.20E-1	6.63E+3	2.16E-1	1.29E+3
7.50E-1	6.66E+3	2.09E-1	1.32E+3
7.14E-1	6.50E+3	2.07E-1	1.28E+3
7.24E-1	6.58E+3	2.29E-1	1.35E+3
7.22E-1	6.67E+3	2.35E-1	1.40E+3
7.25E-1	6.62E+3	2.18E-1	1.32E+3
7.36E-1	6.49E+3	2.26E-1	1.38E+3
7.20E-1	6.57E+3	1.97E-1	1.21E+3
7.56E-1	6.78E+3	2.01E-1	1.27E+3
7.19E-1	6.49E+3	2.22E-1	1.33E+3
7.24E-1	6.56E+3	2.24E-1	1.36E+3
7.24E-1	6.58E+3	2.12E-1	1.30E+3
7.42E-1	6.61E+3	2.18E-1	1.34E+3
7.56E-1	6.53E+3	2.17E-1	1.35E+3
7.46E-1	6.75E+3	2.31E-1	1.35E+3
7.35E-1	6.69E+3	2.13E-1	1.33E+3
7.58E-1	6.68E+3	2.35E-1	1.41E+3
7.49E-1	6.69E+3	2.32E-1	1.46E+3
7.33E-1	6.49E+3	2.19E-1	1.27E+3
7.20E-1	6.42E+3	2.26E-1	1.41E+3
7.23E-1	6.70E+3	2.20E-1	1.39E+3
7.42E-1	6.57E+3	2.17E-1	1.27E+3
7.43E-1	6.72E+3	2.05E-1	1.26E+3
7.42E-1	6.59E+3	2.22E-1	1.34E+3
7.24E-1	6.57E+3	2.14E-1	1.32E+3
7.28E-1	6.65E+3	2.17E-1	1.32E+3
7.42E-1	6.64E+3	2.19E-1	1.37E+3
7.44E-1	6.53E+3	2.03E-1	1.29E+3
7.60E-1	6.63E+3	2.26E-1	1.39E+3
7.18E-1	6.58E+3	2.04E-1	1.24E+3
7.43E-1	6.60E+3	2.11E-1	1.28E+3
7.09E-1	6.38E+3	2.15E-1	1.36E+3
7.38E-1	6.56E+3	2.25E-1	1.35E+3
7.38E-1	6.50E+3	2.07E-1	1.21E+3
7.19E-1	6.68E+3	2.16E-1	1.36E+3
7.38E-1	6.53E+3	2.25E-1	1.35E+3
7.20E-1	6.57E+3	2.17E-1	1.36E+3
7.54E-1	6.58E+3	2.12E-1	1.40E+3
7.45E-1	6.52E+3	2.15E-1	1.35E+3
7.60E-1	6.55E+3	2.13E-1	1.36E+3
7.50E-1	6.65E+3	2.13E-1	1.36E+3
7.47E-1	6.55E+3	2.27E-1	1.40E+3
7.37E-1	6.60E+3	2.14E-1	1.40E+3
7.44E-1	6.65E+3	2.19E-1	1.36E+3
7.38E-1	6.64E+3	2.21E-1	1.36E+3
7.48E-1	6.69E+3	2.16E-1	1.44E+3
7.23E-1	6.50E+3	2.18E-1	1.38E+3
7.34E-1	6.56E+3	2.14E-1	1.28E+3
7.25E-1	6.54E+3	2.09E-1	1.30E+3
7.33E-1	6.66E+3	2.23E-1	1.35E+3
7.37E-1	6.50E+3	2.23E-1	1.42E+3
7.33E-1	6.69E+3	2.04E-1	1.28E+3
8.79E-3	2.04E+1	5.31E-1	3.34E+3
7.29E-1	6.65E+3	2.19E-1	1.36E+3
7.16E-1	6.58E+3	2.07E-1	1.31E+3
7.39E-1	6.52E+3	2.21E-1	1.31E+3
7.52E-1	6.56E+3	2.16E-1	1.35E+3
7.43E-1	6.54E+3	2.17E-1	1.26E+3
7.55E-1	6.59E+3	2.23E-1	1.31E+3
7.17E-1	6.56E+3	2.13E-1	1.35E+3
7.36E-1	6.59E+3	2.08E-1	1.23E+3
7.56E-1	6.58E+3	2.14E-1	1.32E+3
7.28E-1	6.60E+3	2.23E-1	1.34E+3
7.42E-1	6.53E+3	2.10E-1	1.28E+3
7.60E-1	6.71E+3	2.23E-1	1.29E+3
7.62E-1	6.69E+3	2.27E-1	1.40E+3
7.54E-1	6.60E+3	2.17E-1	1.35E+3
7.58E-1	6.56E+3	2.30E-1	1.41E+3
7.32E-1	6.72E+3	2.20E-1	1.38E+3
7.55E-1	6.53E+3	2.18E-1	1.29E+3
7.40E-1	6.63E+3	2.11E-1	1.38E+3
7.31E-1	6.67E+3	2.24E-1	1.28E+3
7.25E-1	6.53E+3	2.16E-1	1.34E+3
7.40E-1	6.59E+3	2.13E-1	1.33E+3
7.32E-1	6.63E+3	2.03E-1	1.25E+3
7.65E-1	6.60E+3	2.31E-1	1.41E+3
7.33E-1	6.79E+3	2.32E-1	1.45E+3
7.19E-1	6.58E+3	2.17E-1	1.38E+3
7.28E-1	6.54E+3	2.08E-1	1.33E+3
7.52E-1	6.54E+3	2.12E-1	1.38E+3
7.55E-1	6.48E+3	2.07E-1	1.29E+3
7.38E-1	6.66E+3	2.07E-1	1.40E+3
7.35E-1	6.65E+3	2.20E-1	1.46E+3
7.19E-1	6.52E+3	2.16E-1	1.27E+3
7.06E-1	6.46E+3	2.18E-1	1.33E+3
7.26E-1	6.59E+3	2.17E-1	1.37E+3
7.46E-1	6.57E+3	2.14E-1	1.23E+3
7.33E-1	6.57E+3	2.08E-1	1.33E+3
7.11E-1	6.49E+3	2.02E-1	1.23E+3
7.40E-1	6.55E+3	2.21E-1	1.36E+3
7.46E-1	6.67E+3	2.14E-1	1.28E+3
7.28E-1	6.75E+3	2.05E-1	1.26E+3
7.50E-1	6.55E+3	2.17E-1	1.34E+3
7.28E-1	6.53E+3	2.09E-1	1.27E+3
7.44E-1	6.62E+3	2.11E-1	1.34E+3
7.08E-3	8.64E+0	5.46E-1	3.43E+3
7.44E-1	6.56E+3	2.21E-1	1.33E+3
7.54E-1	6.57E+3	2.16E-1	1.24E+3
7.12E-1	6.46E+3	2.23E-1	1.26E+3
7.52E-1	6.72E+3	2.14E-1	1.35E+3
7.18E-1	6.60E+3	2.18E-1	1.44E+3
7.15E-1	6.51E+3	2.22E-1	1.34E+3
7.25E-1	6.60E+3	2.10E-1	1.29E+3
7.35E-1	6.55E+3	2.20E-1	1.24E+3
7.43E-1	6.41E+3	2.12E-1	1.30E+3
7.39E-1	6.79E+3	2.04E-1	1.29E+3
7.24E-1	6.64E+3	2.14E-1	1.43E+3
7.30E-1	6.62E+3	2.13E-1	1.37E+3
7.23E-1	6.53E+3	2.23E-1	1.41E+3
7.17E-1	6.54E+3	2.22E-1	1.35E+3
7.51E-1	6.53E+3	2.15E-1	1.28E+3
7.34E-1	6.54E+3	2.12E-1	1.34E+3
7.55E-1	6.81E+3	2.23E-1	1.33E+3
7.42E-1	6.62E+3	2.07E-1	1.35E+3
7.53E-1	6.63E+3	2.14E-1	1.32E+3
7.47E-1	6.68E+3	2.11E-1	1.36E+3
7.34E-1	6.62E+3	2.14E-1	1.34E+3
7.22E-1	6.62E+3	2.17E-1	1.35E+3
7.54E-1	6.60E+3	2.11E-1	1.25E+3
7.53E-1	6.84E+3	2.35E-1	1.37E+3
7.36E-1	6.62E+3	2.09E-1	1.29E+3
7.36E-1	6.62E+3	2.16E-1	1.39E+3
7.35E-1	6.44E+3	2.26E-1	1.37E+3
7.02E-1	6.41E+3	2.25E-1	1.39E+3
7.22E-1	6.57E+3	2.08E-1	1.31E+3
7.28E-1	6.60E+3	2.09E-1	1.34E+3
7.35E-1	6.73E+3	2.21E-1	1.27E+3
7.20E-1	6.62E+3	2.06E-1	1.26E+3
7.21E-1	6.52E+3	2.01E-1	1.27E+3
7.25E-1	6.60E+3	2.24E-1	1.34E+3
7.34E-1	6.56E+3	2.17E-1	1.34E+3
7.58E-1	6.67E+3	2.12E-1	1.33E+3
7.49E-1	6.66E+3	2.27E-1	1.42E+3
7.23E-1	6.56E+3	2.27E-1	1.37E+3
7.44E-1	6.65E+3	2.13E-1	1.35E+3
7.27E-1	6.60E+3	2.16E-1	1.28E+3
7.28E-1	6.59E+3	2.18E-1	1.33E+3
7.37E-1	6.56E+3	2.23E-1	1.32E+3
7.35E-1	6.77E+3	2.18E-1	1.32E+3
7.29E-1	6.67E+3	2.16E-1	1.34E+3
7.23E-1	6.70E+3	2.09E-1	1.35E+3
7.32E-1	6.44E+3	2.07E-1	1.28E+3
7.37E-1	6.60E+3	2.12E-1	1.27E+3
7.47E-1	6.56E+3	2.18E-1	1.33E+3
7.43E-1	6.61E+3	2.14E-1	1.33E+3
7.36E-1	6.68E+3	2.10E-1	1.38E+3
7.39E-1	6.63E+3	2.15E-1	1.31E+3
7.29E-1	6.70E+3	2.15E-1	1.29E+3
7.46E-1	6.66E+3	2.24E-1	1.31E+3
7.34E-1	6.63E+3	2.06E-1	1.36E+3
7.43E-1	6.54E+3	2.26E-1	1.33E+3
7.38E-1	6.57E+3	2.27E-1	1.43E+3
7.28E-1	6.76E+3	2.15E-1	1.38E+3
7.23E-1	6.56E+3	2.32E-1	1.35E+3
7.39E-1	6.58E+3	2.28E-1	1.36E+3
7.29E-1	6.60E+3	2.22E-1	1.38E+3
7.26E-1	6.60E+3	2.29E-1	1.46E+3
7.42E-1	6.63E+3	2.25E-1	1.37E+3
7.39E-1	6.50E+3	2.13E-1	1.41E+3
7.37E-1	6.50E+3	2.28E-1	1.26E+3
7.45E-1	6.75E+3	2.32E-1	1.46E+3
7.39E-1	6.62E+3	2.24E-1	1.38E+3
7.38E-1	6.53E+3	2.31E-1	1.48E+3
7.38E-1	6.53E+3	2.11E-1	1.29E+3
7.39E-1	6.62E+3	2.19E-1	1.30E+3
7.14E-1	6.50E+3	2.22E-1	1.37E+3
7.20E-1	6.60E+3	2.13E-1	1.30E+3
7.66E-1	6.64E+3	2.14E-1	1.37E+3
7.52E-1	6.67E+3	2.17E-1	1.41E+3
7.18E-1	6.50E+3	2.17E-1	1.38E+3
7.20E-1	6.63E+3	2.21E-1	1.35E+3
7.41E-1	6.62E+3	2.20E-1	1.40E+3
7.23E-1	6.54E+3	2.07E-1	1.27E+3
7.42E-1	6.63E+3	2.17E-1	1.29E+3
7.44E-1	6.62E+3	2.24E-1	1.32E+3
7.28E-1	6.62E+3	2.29E-1	1.38E+3
7.41E-1	6.55E+3	2.20E-1	1.35E+3
7.56E-1	6.55E+3	2.25E-1	1.34E+3
7.25E-1	6.64E+3	2.24E-1	1.34E+3
7.53E-1	6.36E+3	2.19E-1	1.38E+3
7.18E-1	6.53E+3	2.33E-1	1.35E+3
7.53E-1	6.66E+3	2.22E-1	1.32E+3
7.32E-1	6.61E+3	2.06E-1	1.26E+3
7.51E-1	6.54E+3	2.17E-1	1.37E+3
7.28E-1	6.56E+3	2.14E-1	1.34E+3
7.53E-1	6.65E+3	2.28E-1	1.41E+3
7.50E-1	6.71E+3	2.07E-1	1.23E+3
7.66E-1	6.46E+3	2.33E-1	1.39E+3
7.35E-1	6.62E+3	2.23E-1	1.37E+3
7.36E-1	6.58E+3	2.19E-1	1.34E+3
7.46E-1	6.74E+3	2.26E-1	1.34E+3
7.16E-1	6.59E+3	2.08E-1	1.29E+3
7.29E-1	6.49E+3	2.16E-1	1.29E+3
7.57E-1	6.73E+3	2.25E-1	1.35E+3
7.35E-1	6.56E+3	1.98E-1	1.25E+3
7.47E-1	6.55E+3	2.04E-1	1.27E+3
7.25E-1	6.59E+3	2.03E-1	1.29E+3
7.52E-1	6.59E+3	2.14E-1	1.35E+3
7.50E-1	6.57E+3	2.07E-1	1.31E+3
7.34E-1	6.62E+3	2.24E-1	1.41E+3
7.33E-1	6.58E+3	2.10E-1	1.29E+3
1.46E-2	2.46E+1	5.46E-1	3.36E+3
7.43E-1	6.51E+3	2.08E-1	1.30E+3
7.16E-1	6.45E+3	2.11E-1	1.30E+3
7.34E-1	6.50E+3	2.19E-1	1.35E+3
7.60E-1	6.61E+3	2.21E-1	1.32E+3
7.20E-1	6.55E+3	2.36E-1	1.43E+3
7.47E-1	6.56E+3	2.21E-1	1.34E+3
7.51E-1	6.66E+3	2.17E-1	1.30E+3
7.35E-1	6.56E+3	2.01E-1	1.25E+3
7.39E-1	6.56E+3	2.25E-1	1.43E+3
7.53E-1	6.73E+3	2.18E-1	1.42E+3
7.60E-1	6.69E+3	2.26E-1	1.46E+3
7.40E-1	6.58E+3	2.05E-1	1.23E+3
7.59E-1	6.62E+3	2.21E-1	1.30E+3
7.50E-1	6.58E+3	2.16E-1	1.36E+3
7.25E-1	6.60E+3	2.10E-1	1.31E+3
7.62E-1	6.56E+3	2.08E-1	1.26E+3
7.38E-1	6.59E+3	2.19E-1	1.30E+3
7.07E-1	6.40E+3	2.22E-1	1.34E+3
7.45E-1	6.62E+3	2.18E-1	1.36E+3
7.27E-1	6.50E+3	2.24E-1	1.39E+3
7.21E-1	6.48E+3	2.19E-1	1.28E+3
7.17E-1	6.58E+3	2.27E-1	1.36E+3
7.50E-1	6.55E+3	2.11E-1	1.35E+3
7.46E-1	6.51E+3	2.20E-1	1.29E+3
7.42E-1	6.72E+3	2.33E-1	1.43E+3
7.60E-1	6.38E+3	2.27E-1	1.32E+3
7.28E-1	6.64E+3	2.10E-1	1.31E+3
7.49E-1	6.57E+3	2.20E-1	1.38E+3
7.52E-1	6.75E+3	2.12E-1	1.37E+3
7.30E-1	6.43E+3	2.16E-1	1.39E+3
7.20E-1	6.56E+3	2.13E-1	1.34E+3
7.45E-1	6.78E+3	2.17E-1	1.40E+3
7.40E-1	6.69E+3	2.22E-1	1.39E+3
7.60E-1	6.66E+3	2.08E-1	1.29E+3
7.24E-1	6.52E+3	2.12E-1	1.41E+3
7.41E-1	6.45E+3	2.38E-1	1.38E+3
7.54E-1	6.59E+3	2.22E-1	1.41E+3
7.44E-1	6.53E+3	2.22E-1	1.37E+3
7.60E-1	6.83E+3	2.31E-1	1.38E+3
7.42E-1	6.62E+3	2.21E-1	1.32E+3
7.63E-1	6.69E+3	2.33E-1	1.42E+3
7.21E-1	6.67E+3	2.17E-1	1.30E+3
7.22E-1	6.62E+3	2.22E-1	1.36E+3
7.52E-1	6.60E+3	2.10E-1	1.34E+3
7.39E-1	6.67E+3	2.20E-1	1.37E+3
7.68E-1	6.57E+3	1.95E-1	1.18E+3
7.44E-1	6.68E+3	2.36E-1	1.45E+3
7.17E-1	6.50E+3	2.13E-1	1.30E+3
7.39E-1	6.66E+3	2.28E-1	1.39E+3
7.45E-1	6.60E+3	2.18E-1	1.28E+3
7.34E-1	6.62E+3	2.28E-1	1.45E+3
7.39E-1	6.64E+3	2.14E-1	1.33E+3
7.29E-1	6.59E+3	2.13E-1	1.33E+3
7.30E-1	6.55E+3	2.18E-1	1.37E+3
7.35E-1	6.68E+3	2.04E-1	1.31E+3
7.16E-1	6.55E+3	2.31E-1	1.42E+3
7.45E-1	6.66E+3	2.06E-1	1.36E+3
7.27E-1	6.56E+3	2.23E-1	1.43E+3
7.23E-1	6.63E+3	2.24E-1	1.40E+3
7.10E-1	6.44E+3	2.17E-1	1.26E+3
7.56E-1	6.61E+3	2.26E-1	1.32E+3
7.48E-1	6.69E+3	2.10E-1	1.29E+3
7.27E-1	6.55E+3	2.11E-1	1.34E+3
7.42E-1	6.64E+3	2.30E-1	1.46E+3
7.28E-1	6.63E+3	2.15E-1	1.32E+3
7.46E-1	6.51E+3	2.14E-1	1.27E+3
7.53E-1	6.66E+3	2.31E-1	1.40E+3
7.39E-1	6.62E+3	2.16E-1	1.29E+3
7.11E-1	6.49E+3	2.05E-1	1.21E+3
7.41E-1	6.53E+3	2.12E-1	1.29E+3
7.24E-1	6.53E+3	2.32E-1	1.44E+3
7.21E-1	6.56E+3	2.28E-1	1.36E+3
7.44E-1	6.58E+3	2.30E-1	1.32E+3
7.23E-1	6.56E+3	2.07E-1	1.20E+3
7.29E-1	6.57E+3	2.29E-1	1.36E+3
7.34E-1	6.67E+3	2.07E-1	1.37E+3
7.62E-1	6.76E+3	2.21E-1	1.34E+3
7.16E-1	6.55E+3	2.32E-1	1.32E+3
7.16E-1	6.44E+3	2.26E-1	1.38E+3
7.35E-1	6.64E+3	2.21E-1	1.35E+3
7.37E-1	6.64E+3	2.23E-1	1.45E+3
7.45E-1	6.58E+3	2.38E-1	1.51E+3
7.36E-1	6.61E+3	2.23E-1	1.35E+3
7.64E-1	6.56E+3	2.17E-1	1.34E+3
7.19E-1	6.62E+3	2.09E-1	1.26E+3
7.46E-1	6.59E+3	2.22E-1	1.42E+3
7.29E-1	6.71E+3	2.14E-1	1.36E+3
7.23E-1	6.63E+3	2.06E-1	1.29E+3
7.28E-1	6.65E+3	2.32E-1	1.50E+3
7.36E-1	6.53E+3	2.23E-1	1.38E+3
7.53E-1	6.68E+3	2.07E-1	1.27E+3
7.34E-1	6.60E+3	2.31E-1	1.43E+3
7.43E-1	6.52E+3	2.35E-1	1.40E+3
7.15E-1	6.52E+3	2.53E-1	1.46E+3
7.42E-1	6.67E+3	2.11E-1	1.34E+3
7.27E-1	6.56E+3	2.14E-1	1.38E+3
7.21E-1	6.61E+3	2.10E-1	1.32E+3
7.21E-1	6.60E+3	2.01E-1	1.16E+3
7.25E-1	6.62E+3	2.29E-1	1.38E+3
7.50E-1	6.53E+3	2.19E-1	1.30E+3
7.25E-1	6.54E+3	2.08E-1	1.32E+3
7.34E-1	6.45E+3	2.08E-1	1.33E+3
7.52E-1	6.63E+3	2.13E-1	1.34E+3
7.50E-1	6.52E+3	2.26E-1	1.44E+3
7.40E-1	6.54E+3	2.22E-1	1.33E+3
7.49E-1	6.71E+3	2.22E-1	1.33E+3
7.23E-1	6.50E+3	2.23E-1	1.33E+3
7.54E-1	6.62E+3	2.13E-1	1.35E+3
7.40E-1	6.54E+3	2.20E-1	1.48E+3
7.49E-1	6.63E+3	1.99E-1	1.31E+3
7.31E-1	6.71E+3	2.29E-1	1.36E+3
7.32E-1	6.61E+3	2.24E-1	1.36E+3
7.52E-1	6.67E+3	2.04E-1	1.27E+3
7.35E-1	6.57E+3	2.11E-1	1.28E+3
7.40E-1	6.81E+3	2.18E-1	1.35E+3
7.40E-1	6.57E+3	2.13E-1	1.37E+3
7.63E-1	6.79E+3	2.05E-1	1.37E+3
7.53E-1	6.64E+3	2.08E-1	1.32E+3
7.59E-1	6.64E+3	2.26E-1	1.36E+3
7.54E-1	6.57E+3	2.21E-1	1.40E+3
7.33E-1	6.62E+3	2.16E-1	1.30E+3
7.09E-1	6.58E+3	2.03E-1	1.23E+3
7.28E-1	6.66E+3	2.25E-1	1.37E+3
7.19E-1	6.60E+3	2.18E-1	1.42E+3
7.27E-1	6.59E+3	2.15E-1	1.37E+3
7.23E-1	6.44E+3	2.17E-1	1.31E+3
7.24E-1	6.65E+3	2.15E-1	1.32E+3
7.18E-1	6.54E+3	2.12E-1	1.21E+3
7.17E-1	6.70E+3	2.09E-1	1.32E+3
7.46E-1	6.68E+3	2.22E-1	1.31E+3
7.50E-1	6.52E+3	2.40E-1	1.42E+3
7.34E-1	6.53E+3	2.15E-1	1.39E+3
7.23E-1	6.57E+3	2.09E-1	1.24E+3
7.67E-1	6.69E+3	2.28E-1	1.35E+3
7.19E-1	6.56E+3	2.21E-1	1.32E+3
7.53E-1	6.51E+3	2.23E-1	1.33E+3
7.60E-1	6.60E+3	2.22E-1	1.32E+3
7.30E-1	6.71E+3	2.14E-1	1.36E+3
7.46E-1	6.69E+3	2.11E-1	1.29E+3
7.46E-1	6.74E+3	2.19E-1	1.35E+3
7.29E-1	6.63E+3	2.17E-1	1.32E+3
7.44E-1	6.69E+3	2.09E-1	1.30E+3
7.55E-1	6.66E+3	2.00E-1	1.20E+3
1.05E-2	3.28E+1	5.41E-1	3.36E+3
7.34E-1	6.66E+3	1.98E-1	1.30E+3
7.45E-1	6.71E+3	2.35E-1	1.48E+3
7.34E-1	6.66E+3	2.14E-1	1.31E+3
7.30E-1	6.73E+3	2.31E-1	1.34E+3
7.11E-1	6.58E+3	2.28E-1	1.31E+3
7.32E-1	6.57E+3	2.25E-1	1.39E+3
7.41E-1	6.59E+3	2.16E-1	1.41E+3
7.16E-1	6.52E+3	2.22E-1	1.35E+3
7.14E-1	6.51E+3	2.21E-1	1.36E+3
7.31E-1	6.53E+3	2.17E-1	1.35E+3
7.26E-1	6.55E+3	2.18E-1	1.34E+3
7.31E-1	6.77E+3	2.17E-1	1.40E+3
7.27E-1	6.47E+3	2.17E-1	1.42E+3
7.35E-1	6.58E+3	2.17E-1	1.39E+3
7.50E-1	6.69E+3	2.22E-1	1.35E+3
7.55E-1	6.70E+3	2.25E-1	1.39E+3
7.48E-1	6.61E+3	2.15E-1	1.34E+3
7.59E-1	6.65E+3	2.31E-1	1.36E+3
7.23E-1	6.56E+3	2.19E-1	1.34E+3
7.26E-1	6.44E+3	2.17E-1	1.35E+3
7.26E-1	6.70E+3	2.09E-1	1.30E+3
7.48E-1	6.70E+3	2.18E-1	1.33E+3
7.53E-1	6.62E+3	2.20E-1	1.38E+3
7.41E-1	6.69E+3	2.13E-1	1.34E+3
7.50E-1	6.61E+3	2.08E-1	1.33E+3
7.38E-1	6.50E+3	2.04E-1	1.29E+3
7.53E-1	6.63E+3	2.18E-1	1.36E+3
7.47E-1	6.63E+3	2.23E-1	1.38E+3
7.65E-1	6.55E+3	2.27E-1	1.34E+3
7.48E-1	6.67E+3	2.02E-1	1.27E+3
7.33E-1	6.67E+3	2.14E-1	1.30E+3
7.24E-1	6.62E+3	2.22E-1	1.40E+3
7.42E-1	6.72E+3	2.16E-1	1.36E+3
7.61E-1	6.74E+3	2.17E-1	1.31E+3
7.15E-1	6.55E+3	2.11E-1	1.30E+3
7.17E-1	6.53E+3	2.27E-1	1.40E+3
7.49E-1	6.60E+3	2.10E-1	1.32E+3
7.51E-1	6.55E+3	2.19E-1	1.32E+3
7.49E-1	6.68E+3	2.25E-1	1.35E+3
7.30E-1	6.52E+3	2.22E-1	1.34E+3
7.39E-1	6.59E+3	2.20E-1	1.34E+3
7.39E-1	6.46E+3	2.36E-1	1.47E+3
7.40E-1	6.65E+3	2.29E-1	1.45E+3
7.53E-1	6.57E+3	2.40E-1	1.46E+3
7.44E-1	6.69E+3	2.13E-1	1.36E+3
7.46E-1	6.49E+3	2.29E-1	1.36E+3
7.65E-1	6.69E+3	2.25E-1	1.31E+3
7.69E-1	6.63E+3	2.14E-1	1.35E+3
7.25E-1	6.59E+3	2.19E-1	1.36E+3
7.31E-1	6.66E+3	2.10E-1	1.27E+3
7.44E-1	6.51E+3	2.16E-1	1.37E+3
7.54E-1	6.58E+3	2.12E-1	1.37E+3
7.37E-1	6.64E+3	2.26E-1	1.36E+3
7.49E-1	6.56E+3	2.05E-1	1.32E+3
7.54E-1	6.61E+3	2.21E-1	1.30E+3
7.37E-1	6.64E+3	2.02E-1	1.30E+3
7.29E-1	6.69E+3	2.06E-1	1.32E+3
7.08E-1	6.48E+3	2.16E-1	1.30E+3
7.26E-1	6.55E+3	2.17E-1	1.32E+3
7.17E-1	6.61E+3	2.25E-1	1.36E+3
7.56E-1	6.71E+3	2.24E-1	1.36E+3
7.34E-1	6.69E+3	2.20E-1	1.34E+3
7.25E-1	6.60E+3	2.13E-1	1.30E+3
7.27E-1	6.61E+3	2.11E-1	1.27E+3
7.18E-1	6.58E+3	2.14E-1	1.28E+3
7.66E-1	6.67E+3	2.09E-1	1.27E+3
7.37E-1	6.57E+3	2.22E-1	1.42E+3
7.53E-1	6.57E+3	2.03E-1	1.26E+3
7.49E-1	6.76E+3	2.42E-1	1.43E+3
7.38E-1	6.63E+3	2.31E-1	1.40E+3
7.49E-1	6.62E+3	2.33E-1	1.41E+3
7.22E-1	6.47E+3	2.10E-1	1.29E+3
7.26E-1	6.49E+3	2.13E-1	1.31E+3
7.39E-1	6.48E+3	2.13E-1	1.32E+3
7.41E-1	6.71E+3	2.16E-1	1.35E+3
7.42E-1	6.50E+3	2.10E-1	1.25E+3
7.55E-1	6.59E+3	2.13E-1	1.23E+3
7.20E-1	6.50E+3	2.13E-1	1.34E+3
7.45E-1	6.59E+3	2.14E-1	1.30E+3
7.54E-1	6.79E+3	2.04E-1	1.30E+3
7.40E-1	6.70E+3	2.16E-1	1.37E+3
7.21E-1	6.60E+3	2.17E-1	1.29E+3
7.21E-1	6.49E+3	2.20E-1	1.30E+3
7.29E-1	6.56E+3	2.09E-1	1.33E+3
7.41E-1	6.46E+3	2.33E-1	1.42E+3
7.48E-1	6.47E+3	2.31E-1	1.33E+3
7.25E-1	6.53E+3	2.15E-1	1.35E+3
7.38E-1	6.59E+3	2.18E-1	1.39E+3
7.11E-1	6.43E+3	2.19E-1	1.36E+3
7.45E-1	6.60E+3	2.10E-1	1.40E+3
7.39E-1	6.71E+3	2.24E-1	1.40E+3
7.18E-1	6.41E+3	2.12E-1	1.31E+3
7.17E-1	6.64E+3	2.10E-1	1.31E+3
7.47E-1	6.67E+3	2.12E-1	1.34E+3
7.25E-1	6.42E+3	2.24E-1	1.42E+3
7.49E-1	6.62E+3	2.06E-1	1.28E+3
7.50E-1	6.59E+3	2.24E-1	1.35E+3
7.54E-1	6.71E+3	2.24E-1	1.44E+3
7.35E-1	6.40E+3	2.16E-1	1.32E+3
7.17E-1	6.47E+3	2.19E-1	1.38E+3
7.39E-1	6.50E+3	2.13E-1	1.30E+3
7.46E-1	6.59E+3	2.20E-1	1.35E+3
7.30E-1	6.76E+3	2.32E-1	1.37E+3
7.42E-1	6.55E+3	2.13E-1	1.21E+3
7.22E-1	6.59E+3	2.21E-1	1.31E+3
7.34E-1	6.52E+3	2.30E-1	1.47E+3
7.53E-1	6.61E+3	2.27E-1	1.37E+3
7.67E-1	6.79E+3	2.19E-1	1.34E+3
7.43E-1	6.62E+3	2.14E-1	1.34E+3
7.19E-1	6.61E+3	2.11E-1	1.24E+3
7.23E-1	6.43E+3	2.23E-1	1.36E+3
7.52E-1	6.74E+3	2.23E-1	1.42E+3
7.18E-1	6.63E+3	2.18E-1	1.34E+3
7.64E-1	6.57E+3	2.22E-1	1.34E+3
7.20E-1	6.40E+3	2.03E-1	1.29E+3
7.27E-1	6.54E+3	2.18E-1	1.35E+3
7.47E-1	6.73E+3	2.24E-1	1.40E+3
7.60E-1	6.64E+3	2.28E-1	1.41E+3
7.39E-1	6.63E+3	2.14E-1	1.38E+3
7.65E-1	6.64E+3	2.33E-1	1.43E+3
7.63E-1	6.68E+3	2.18E-1	1.42E+3
7.26E-1	6.73E+3	2.10E-1	1.35E+3
7.39E-1	6.72E+3	2.14E-1	1.35E+3
7.36E-1	6.61E+3	2.10E-1	1.31E+3
7.32E-3	1.12E+1	5.39E-1	3.34E+3
7.45E-1	6.48E+3	2.14E-1	1.29E+3
7.34E-1	6.61E+3	2.13E-1	1.41E+3
7.21E-1	6.67E+3	2.16E-1	1.38E+3
7.29E-1	6.48E+3	2.22E-1	1.29E+3
7.18E-1	6.55E+3	2.08E-1	1.35E+3
7.58E-1	6.65E+3	2.19E-1	1.29E+3
7.66E-1	6.57E+3	2.03E-1	1.23E+3
7.37E-1	6.68E+3	2.13E-1	1.32E+3
7.48E-1	6.55E+3	2.11E-1	1.31E+3
7.24E-1	6.56E+3	2.11E-1	1.32E+3
7.27E-1	6.61E+3	2.05E-1	1.33E+3
7.23E-1	6.58E+3	2.22E-1	1.33E+3
7.31E-1	6.48E+3	2.14E-1	1.39E+3
7.41E-1	6.54E+3	2.14E-1	1.29E+3
7.39E-1	6.49E+3	2.26E-1	1.41E+3
7.47E-1	6.45E+3	2.26E-1	1.34E+3
7.09E-1	6.55E+3	2.28E-1	1.32E+3
7.58E-1	6.64E+3	2.16E-1	1.32E+3
7.47E-1	6.47E+3	2.26E-1	1.39E+3
7.38E-1	6.70E+3	2.07E-1	1.31E+3
7.61E-1	6.73E+3	2.08E-1	1.30E+3
7.48E-1	6.68E+3	2.27E-1	1.32E+3
7.43E-1	6.64E+3	1.96E-1	1.17E+3
7.30E-1	6.57E+3	2.08E-1	1.29E+3
7.30E-1	6.58E+3	2.11E-1	1.34E+3
7.14E-1	6.54E+3	2.33E-1	1.41E+3
7.53E-1	6.49E+3	2.21E-1	1.32E+3
7.35E-1	6.60E+3	2.13E-1	1.35E+3
7.37E-1	6.77E+3	2.23E-1	1.43E+3
7.25E-1	6.68E+3	2.12E-1	1.33E+3
7.57E-1	6.63E+3	2.10E-1	1.38E+3
7.38E-1	6.60E+3	2.27E-1	1.37E+3
7.26E-1	6.72E+3	2.30E-1	1.40E+3
7.48E-1	6.63E+3	2.22E-1	1.36E+3
7.37E-1	6.44E+3	2.01E-1	1.35E+3
7.43E-1	6.78E+3	2.07E-1	1.38E+3
7.45E-1	6.50E+3	2.15E-1	1.36E+3
7.28E-1	6.69E+3	2.29E-1	1.38E+3
7.48E-1	6.55E+3	2.16E-1	1.34E+3
7.24E-1	6.64E+3	2.13E-1	1.35E+3
7.23E-1	6.51E+3	2.05E-1	1.21E+3
7.45E-1	6.58E+3	2.38E-1	1.36E+3
7.38E-1	6.53E+3	2.22E-1	1.37E+3
7.48E-1	6.73E+3	2.18E-1	1.35E+3
7.51E-1	6.70E+3	2.16E-1	1.32E+3
7.49E-1	6.75E+3	2.31E-1	1.33E+3
7.32E-1	6.49E+3	2.28E-1	1.43E+3
7.47E-1	6.61E+3	2.11E-1	1.35E+3
7.24E-1	6.52E+3	2.21E-1	1.38E+3
7.38E-1	6.63E+3	2.12E-1	1.41E+3
7.46E-1	6.55E+3	2.24E-1	1.33E+3
7.39E-1	6.62E+3	2.12E-1	1.35E+3
7.47E-1	6.60E+3	2.26E-1	1.42E+3
7.20E-1	6.51E+3	2.09E-1	1.26E+3
7.53E-1	6.65E+3	2.08E-1	1.34E+3
7.56E-1	6.56E+3	2.11E-1	1.34E+3
7.40E-1	6.63E+3	2.09E-1	1.26E+3
7.48E-1	6.68E+3	2.03E-1	1.32E+3
7.64E-1	6.62E+3	2.18E-1	1.37E+3
7.34E-1	6.65E+3	2.24E-1	1.39E+3
7.40E-1	6.54E+3	2.21E-1	1.32E+3
7.20E-1	6.61E+3	2.18E-1	1.35E+3
7.29E-1	6.59E+3	2.09E-1	1.28E+3
7.19E-1	6.59E+3	2.08E-1	1.29E+3
7.67E-1	6.58E+3	2.20E-1	1.30E+3
7.31E-1	6.49E+3	2.20E-1	1.35E+3
7.31E-1	6.49E+3	2.18E-1	1.33E+3
7.25E-1	6.57E+3	2.02E-1	1.28E+3
7.42E-1	6.48E+3	2.16E-1	1.31E+3
7.26E-1	6.66E+3	2.25E-1	1.43E+3
7.41E-1	6.65E+3	2.15E-1	1.38E+3
7.48E-1	6.73E+3	2.17E-1	1.42E+3
7.43E-1	6.67E+3	2.12E-1	1.35E+3
7.26E-1	6.59E+3	2.18E-1	1.32E+3
7.19E-1	6.58E+3	2.28E-1	1.40E+3
7.54E-1	6.66E+3	2.23E-1	1.38E+3
7.28E-1	6.52E+3	2.10E-1	1.31E+3
7.46E-1	6.75E+3	2.17E-1	1.34E+3
7.53E-1	6.64E+3	2.12E-1	1.33E+3
7.48E-1	6.58E+3	2.30E-1	1.38E+3
7.47E-1	6.58E+3	2.08E-1	1.28E+3
7.63E-1	6.58E+3	2.24E-1	1.35E+3
7.58E-1	6.72E+3	2.05E-1	1.31E+3
7.39E-1	6.64E+3	2.21E-1	1.39E+3
7.53E-1	6.65E+3	2.22E-1	1.36E+3
7.33E-1	6.46E+3	2.10E-1	1.28E+3
7.61E-1	6.63E+3	2.35E-1	1.31E+3
7.33E-1	6.63E+3	2.14E-1	1.32E+3
7.45E-1	6.41E+3	2.37E-1	1.39E+3
7.32E-1	6.54E+3	2.23E-1	1.34E+3
7.51E-1	6.61E+3	2.25E-1	1.31E+3
7.45E-1	6.56E+3	2.34E-1	1.43E+3
7.37E-1	6.48E+3	2.17E-1	1.27E+3
7.28E-1	6.71E+3	2.09E-1	1.30E+3
7.43E-1	6.62E+3	2.10E-1	1.33E+3
7.25E-1	6.55E+3	2.23E-1	1.39E+3
7.29E-1	6.66E+3	2.13E-1	1.24E+3
7.45E-1	6.44E+3	2.25E-1	1.42E+3
7.45E-1	6.56E+3	2.19E-1	1.40E+3
7.49E-1	6.62E+3	2.03E-1	1.31E+3
7.47E-1	6.53E+3	2.08E-1	1.27E+3
7.51E-1	6.61E+3	2.25E-1	1.41E+3
7.63E-1	6.70E+3	2.35E-1	1.41E+3
7.38E-1	6.71E+3	2.10E-1	1.34E+3
