6.44E-1	5.37E+3	1.60E-1	1.14E+3
6.68E-1	5.52E+3	1.68E-1	1.13E+3
6.83E-1	5.42E+3	1.56E-1	1.08E+3
6.38E-1	5.36E+3	1.45E-1	1.01E+3
6.50E-1	5.39E+3	1.56E-1	1.11E+3
6.57E-1	5.41E+3	1.55E-1	1.10E+3
6.61E-1	5.44E+3	1.59E-1	1.16E+3
6.51E-1	5.41E+3	1.60E-1	1.15E+3
6.61E-1	5.60E+3	1.57E-1	1.09E+3
6.65E-1	5.42E+3	1.68E-1	1.13E+3
6.56E-1	5.33E+3	1.62E-1	1.15E+3
6.48E-1	5.43E+3	1.51E-1	1.11E+3
6.43E-1	5.43E+3	1.53E-1	1.10E+3
6.63E-1	5.40E+3	1.57E-1	1.18E+3
6.48E-1	5.39E+3	1.63E-1	1.10E+3
6.57E-1	5.31E+3	1.64E-1	1.09E+3
6.44E-1	5.32E+3	1.69E-1	1.20E+3
6.70E-1	5.39E+3	1.66E-1	1.09E+3
6.52E-1	5.41E+3	1.53E-1	1.07E+3
6.55E-1	5.43E+3	1.54E-1	1.08E+3
6.38E-1	5.29E+3	1.76E-1	1.16E+3
6.53E-1	5.39E+3	1.57E-1	1.13E+3
6.80E-1	5.42E+3	1.58E-1	1.17E+3
6.56E-1	5.45E+3	1.62E-1	1.16E+3
6.42E-1	5.40E+3	1.51E-1	1.09E+3
6.52E-1	5.40E+3	1.67E-1	1.22E+3
6.62E-1	5.38E+3	1.62E-1	1.13E+3
6.52E-1	5.45E+3	1.45E-1	1.03E+3
6.71E-1	5.35E+3	1.49E-1	1.03E+3
6.60E-1	5.33E+3	1.51E-1	1.04E+3
6.32E-1	5.34E+3	1.57E-1	1.09E+3
6.67E-1	5.43E+3	1.52E-1	1.05E+3
6.86E-1	5.46E+3	1.58E-1	1.05E+3
6.43E-1	5.42E+3	1.50E-1	1.09E+3
6.60E-1	5.52E+3	1.56E-1	1.15E+3
6.44E-1	5.44E+3	1.69E-1	1.11E+3
6.42E-1	5.32E+3	1.50E-1	1.07E+3
6.40E-1	5.40E+3	1.52E-1	1.07E+3
6.61E-1	5.41E+3	1.56E-1	1.17E+3
6.60E-1	5.48E+3	1.68E-1	1.13E+3
6.64E-1	5.36E+3	1.63E-1	1.09E+3
6.50E-1	5.38E+3	1.76E-1	1.14E+3
6.43E-1	5.31E+3	1.58E-1	1.05E+3
6.45E-1	5.42E+3	1.60E-1	1.16E+3
6.62E-1	5.37E+3	1.60E-1	1.04E+3
6.44E-1	5.39E+3	1.64E-1	1.10E+3
6.54E-1	5.34E+3	1.59E-1	1.11E+3
6.48E-1	5.23E+3	1.72E-1	1.18E+3
6.51E-1	5.40E+3	1.72E-1	1.23E+3
6.40E-1	5.39E+3	1.63E-1	1.18E+3
6.46E-1	5.45E+3	1.64E-1	1.13E+3
6.49E-1	5.29E+3	1.72E-1	1.15E+3
6.51E-1	5.45E+3	1.66E-1	1.12E+3
6.47E-1	5.27E+3	1.65E-1	1.17E+3
6.45E-1	5.41E+3	1.59E-1	1.17E+3
6.42E-1	5.40E+3	1.60E-1	1.12E+3
6.67E-1	5.31E+3	1.63E-1	1.16E+3
6.43E-1	5.34E+3	1.70E-1	1.19E+3
1.27E-2	3.52E+1	3.60E-1	2.61E+3
6.53E-1	5.37E+3	1.64E-1	1.13E+3
6.63E-1	5.39E+3	1.47E-1	1.07E+3
6.35E-1	5.35E+3	1.59E-1	1.16E+3
6.62E-1	5.42E+3	1.71E-1	1.19E+3
6.53E-1	5.42E+3	1.70E-1	1.14E+3
6.61E-1	5.25E+3	1.60E-1	1.23E+3
6.67E-1	5.34E+3	1.56E-1	1.07E+3
6.69E-1	5.31E+3	1.50E-1	1.08E+3
6.76E-1	5.42E+3	1.68E-1	1.19E+3
6.52E-1	5.44E+3	1.64E-1	1.07E+3
6.65E-1	5.29E+3	1.64E-1	1.11E+3
6.53E-1	5.33E+3	1.56E-1	1.09E+3
6.45E-1	5.52E+3	1.62E-1	1.09E+3
6.53E-1	5.47E+3	1.67E-1	1.15E+3
6.59E-1	5.37E+3	1.61E-1	1.11E+3
6.58E-1	5.60E+3	1.56E-1	1.09E+3
6.61E-1	5.38E+3	1.52E-1	9.93E+2
6.42E-1	5.37E+3	1.63E-1	1.14E+3
6.55E-1	5.20E+3	1.54E-1	1.07E+3
6.81E-1	5.39E+3	1.54E-1	1.06E+3
6.55E-1	5.36E+3	1.63E-1	1.13E+3
6.67E-1	5.39E+3	1.55E-1	1.02E+3
6.58E-1	5.28E+3	1.62E-1	1.10E+3
6.65E-1	5.34E+3	1.55E-1	1.06E+3
6.65E-1	5.26E+3	1.56E-1	1.09E+3
6.41E-1	5.37E+3	1.64E-1	1.10E+3
6.60E-1	5.52E+3	1.54E-1	1.10E+3
6.48E-1	5.43E+3	1.52E-1	1.06E+3
6.57E-1	5.55E+3	1.68E-1	1.14E+3
6.57E-1	5.51E+3	1.67E-1	1.14E+3
6.68E-1	5.47E+3	1.63E-1	1.11E+3
6.44E-1	5.34E+3	1.55E-1	1.11E+3
6.55E-1	5.58E+3	1.57E-1	1.12E+3
6.49E-1	5.43E+3	1.54E-1	1.10E+3
6.54E-1	5.43E+3	1.63E-1	1.14E+3
6.52E-1	5.38E+3	1.76E-1	1.18E+3
6.56E-1	5.41E+3	1.68E-1	1.09E+3
6.44E-1	5.36E+3	1.75E-1	1.17E+3
6.52E-1	5.39E+3	1.65E-1	1.14E+3
6.50E-1	5.45E+3	1.66E-1	1.15E+3
6.53E-1	5.23E+3	1.69E-1	1.18E+3
6.59E-1	5.36E+3	1.57E-1	1.03E+3
6.64E-1	5.41E+3	1.57E-1	1.11E+3
6.56E-1	5.41E+3	1.63E-1	1.08E+3
6.29E-1	5.26E+3	1.61E-1	1.06E+3
6.55E-1	5.38E+3	1.57E-1	1.10E+3
6.58E-1	5.32E+3	1.52E-1	1.04E+3
6.62E-1	5.40E+3	1.61E-1	1.10E+3
6.51E-1	5.43E+3	1.64E-1	1.11E+3
6.56E-1	5.30E+3	1.59E-1	1.14E+3
6.46E-1	5.39E+3	1.62E-1	1.08E+3
6.63E-1	5.36E+3	1.68E-1	1.12E+3
1.51E-1	1.16E+2	3.62E-1	2.62E+3
6.61E-1	5.37E+3	1.60E-1	1.12E+3
6.55E-1	5.53E+3	1.53E-1	1.08E+3
6.47E-1	5.35E+3	1.76E-1	1.15E+3
6.53E-1	5.44E+3	1.53E-1	1.06E+3
6.42E-1	5.38E+3	1.62E-1	1.17E+3
6.55E-1	5.50E+3	1.57E-1	1.14E+3
6.53E-1	5.43E+3	1.70E-1	1.09E+3
6.62E-1	5.42E+3	1.51E-1	1.06E+3
6.37E-1	5.34E+3	1.55E-1	1.15E+3
6.47E-1	5.43E+3	1.62E-1	1.15E+3
6.49E-1	5.31E+3	1.69E-1	1.14E+3
6.70E-1	5.48E+3	1.47E-1	9.85E+2
6.48E-1	5.45E+3	1.63E-1	1.06E+3
6.46E-1	5.39E+3	1.52E-1	1.06E+3
6.58E-1	5.44E+3	1.53E-1	1.02E+3
6.48E-1	5.26E+3	1.81E-1	1.20E+3
6.53E-1	5.49E+3	1.57E-1	1.11E+3
6.38E-1	5.35E+3	1.59E-1	1.07E+3
6.64E-1	5.49E+3	1.60E-1	1.15E+3
6.54E-1	5.39E+3	1.78E-1	1.22E+3
6.57E-1	5.38E+3	1.61E-1	1.07E+3
6.64E-1	5.52E+3	1.53E-1	1.00E+3
6.61E-1	5.48E+3	1.67E-1	1.14E+3
6.53E-1	5.45E+3	1.61E-1	1.12E+3
6.76E-1	5.49E+3	1.55E-1	1.10E+3
6.54E-1	5.37E+3	1.64E-1	1.14E+3
6.53E-1	5.36E+3	1.52E-1	1.05E+3
6.64E-1	5.41E+3	1.77E-1	1.16E+3
6.65E-1	5.45E+3	1.60E-1	1.08E+3
6.42E-1	5.33E+3	1.50E-1	1.10E+3
6.53E-1	5.34E+3	1.56E-1	1.13E+3
6.64E-1	5.42E+3	1.70E-1	1.17E+3
6.45E-1	5.38E+3	1.51E-1	1.10E+3
6.67E-1	5.31E+3	1.64E-1	1.19E+3
6.47E-1	5.37E+3	1.56E-1	1.13E+3
6.51E-1	5.22E+3	1.68E-1	1.17E+3
6.38E-1	5.41E+3	1.66E-1	1.09E+3
6.54E-1	5.41E+3	1.60E-1	1.06E+3
6.51E-1	5.42E+3	1.56E-1	1.06E+3
6.45E-1	5.27E+3	1.70E-1	1.12E+3
6.63E-1	5.36E+3	1.52E-1	1.03E+3
6.38E-1	5.37E+3	1.59E-1	1.09E+3
6.38E-1	5.27E+3	1.70E-1	1.15E+3
6.56E-1	5.47E+3	1.61E-1	1.18E+3
6.54E-1	5.46E+3	1.66E-1	1.16E+3
6.65E-1	5.40E+3	1.57E-1	1.09E+3
6.73E-1	5.56E+3	1.51E-1	1.06E+3
6.72E-1	5.37E+3	1.58E-1	1.10E+3
6.67E-1	5.52E+3	1.61E-1	1.15E+3
6.51E-1	5.34E+3	1.62E-1	1.07E+3
6.66E-1	5.35E+3	1.68E-1	1.18E+3
6.66E-1	5.51E+3	1.56E-1	1.07E+3
6.57E-1	5.33E+3	1.65E-1	1.10E+3
6.52E-1	5.31E+3	1.60E-1	1.11E+3
6.50E-1	5.27E+3	1.63E-1	1.04E+3
6.54E-1	5.46E+3	1.63E-1	1.07E+3
6.54E-1	5.36E+3	1.56E-1	1.12E+3
6.56E-1	5.30E+3	1.66E-1	1.13E+3
6.39E-1	5.25E+3	1.60E-1	1.10E+3
6.55E-1	5.39E+3	1.60E-1	1.16E+3
6.61E-1	5.42E+3	1.72E-1	1.17E+3
6.38E-1	5.36E+3	1.52E-1	1.07E+3
6.48E-1	5.43E+3	1.54E-1	1.11E+3
6.70E-1	5.44E+3	1.61E-1	1.14E+3
6.40E-1	5.33E+3	1.55E-1	1.12E+3
6.76E-1	5.53E+3	1.69E-1	1.08E+3
6.59E-1	5.36E+3	1.69E-1	1.12E+3
6.56E-1	5.47E+3	1.52E-1	1.08E+3
6.55E-1	5.45E+3	1.71E-1	1.20E+3
6.41E-1	5.37E+3	1.62E-1	1.13E+3
6.50E-1	5.42E+3	1.72E-1	1.15E+3
6.44E-1	5.37E+3	1.57E-1	1.06E+3
6.50E-1	5.51E+3	1.56E-1	1.11E+3
6.46E-1	5.39E+3	1.54E-1	1.10E+3
6.53E-1	5.31E+3	1.69E-1	1.07E+3
6.59E-1	5.31E+3	1.61E-1	1.09E+3
6.61E-1	5.48E+3	1.63E-1	1.09E+3
6.53E-1	5.50E+3	1.64E-1	1.08E+3
6.51E-1	5.32E+3	1.65E-1	1.12E+3
6.40E-1	5.26E+3	1.61E-1	1.09E+3
6.64E-1	5.28E+3	1.59E-1	1.07E+3
6.65E-1	5.32E+3	1.66E-1	1.08E+3
6.43E-1	5.41E+3	1.75E-1	1.15E+3
6.56E-1	5.31E+3	1.54E-1	1.03E+3
6.49E-1	5.35E+3	1.61E-1	1.12E+3
6.52E-1	5.33E+3	1.52E-1	1.10E+3
6.51E-1	5.35E+3	1.56E-1	1.08E+3
6.79E-1	5.35E+3	1.48E-1	1.07E+3
6.69E-1	5.49E+3	1.63E-1	1.15E+3
6.55E-1	5.50E+3	1.49E-1	1.12E+3
6.44E-1	5.27E+3	1.69E-1	1.22E+3
6.63E-1	5.34E+3	1.52E-1	1.09E+3
6.42E-1	5.26E+3	1.65E-1	1.11E+3
6.69E-1	5.38E+3	1.59E-1	1.07E+3
6.47E-1	5.38E+3	1.54E-1	1.11E+3
6.73E-1	5.39E+3	1.57E-1	1.08E+3
6.65E-1	5.40E+3	1.58E-1	1.11E+3
6.59E-1	5.53E+3	1.56E-1	1.12E+3
6.36E-1	5.35E+3	1.79E-1	1.27E+3
6.53E-1	5.35E+3	1.52E-1	1.10E+3
6.50E-1	5.41E+3	1.68E-1	1.18E+3
6.57E-1	5.29E+3	1.59E-1	1.09E+3
6.39E-1	5.36E+3	1.51E-1	1.11E+3
6.44E-1	5.41E+3	1.71E-1	1.19E+3
6.66E-1	5.37E+3	1.58E-1	1.08E+3
6.61E-1	5.34E+3	1.65E-1	1.12E+3
6.60E-1	5.38E+3	1.66E-1	1.19E+3
6.59E-1	5.44E+3	1.59E-1	1.05E+3
6.59E-1	5.28E+3	1.77E-1	1.14E+3
6.58E-1	5.37E+3	1.56E-1	1.09E+3
6.67E-1	5.36E+3	1.50E-1	1.01E+3
6.40E-1	5.34E+3	1.68E-1	1.13E+3
6.45E-1	5.38E+3	1.50E-1	1.06E+3
6.39E-1	5.31E+3	1.56E-1	1.12E+3
6.47E-1	5.38E+3	1.61E-1	1.14E+3
6.76E-1	5.39E+3	1.59E-1	1.07E+3
6.66E-1	5.31E+3	1.62E-1	1.08E+3
6.70E-1	5.37E+3	1.60E-1	1.11E+3
6.37E-1	5.26E+3	1.66E-1	1.21E+3
7.81E-3	9.08E+0	3.66E-1	2.67E+3
6.48E-1	5.36E+3	1.62E-1	1.09E+3
6.49E-1	5.45E+3	1.54E-1	1.07E+3
6.50E-1	5.35E+3	1.73E-1	1.19E+3
6.48E-1	5.30E+3	1.54E-1	1.05E+3
6.44E-1	5.33E+3	1.68E-1	1.18E+3
6.59E-1	5.25E+3	1.53E-1	9.86E+2
6.80E-1	5.42E+3	1.56E-1	1.12E+3
6.56E-1	5.50E+3	1.46E-1	1.06E+3
6.58E-1	5.35E+3	1.69E-1	1.13E+3
6.46E-1	5.40E+3	1.65E-1	1.13E+3
6.35E-1	5.27E+3	1.64E-1	1.06E+3
6.44E-1	5.47E+3	1.59E-1	1.10E+3
6.51E-1	5.27E+3	1.63E-1	1.16E+3
6.56E-1	5.43E+3	1.72E-1	1.20E+3
6.55E-1	5.27E+3	1.66E-1	1.10E+3
6.66E-1	5.30E+3	1.58E-1	1.12E+3
6.50E-1	5.28E+3	1.72E-1	1.14E+3
6.78E-1	5.54E+3	1.58E-1	1.13E+3
6.48E-1	5.34E+3	1.65E-1	1.14E+3
6.47E-1	5.38E+3	1.53E-1	1.09E+3
6.39E-1	5.30E+3	1.56E-1	1.08E+3
6.63E-1	5.38E+3	1.75E-1	1.16E+3
6.46E-1	5.46E+3	1.59E-1	1.14E+3
6.55E-1	5.49E+3	1.51E-1	1.05E+3
6.52E-1	5.46E+3	1.52E-1	1.03E+3
6.62E-1	5.36E+3	1.62E-1	1.17E+3
6.49E-1	5.44E+3	1.56E-1	1.07E+3
6.76E-1	5.49E+3	1.61E-1	1.07E+3
6.43E-1	5.41E+3	1.69E-1	1.15E+3
6.57E-1	5.36E+3	1.52E-1	1.05E+3
6.52E-1	5.42E+3	1.62E-1	1.10E+3
6.38E-1	5.32E+3	1.60E-1	1.08E+3
6.47E-1	5.27E+3	1.53E-1	1.04E+3
6.68E-1	5.31E+3	1.52E-1	1.07E+3
6.72E-1	5.52E+3	1.65E-1	1.16E+3
6.68E-1	5.28E+3	1.59E-1	1.13E+3
6.76E-1	5.45E+3	1.67E-1	1.15E+3
6.65E-1	5.40E+3	1.61E-1	1.11E+3
6.58E-1	5.34E+3	1.64E-1	1.15E+3
6.29E-1	5.28E+3	1.59E-1	1.05E+3
6.54E-1	5.36E+3	1.54E-1	1.04E+3
6.66E-1	5.51E+3	1.62E-1	1.12E+3
6.70E-1	5.52E+3	1.56E-1	1.06E+3
6.65E-1	5.47E+3	1.61E-1	1.09E+3
6.54E-1	5.39E+3	1.58E-1	1.11E+3
6.63E-1	5.42E+3	1.52E-1	1.05E+3
6.54E-1	5.38E+3	1.59E-1	1.10E+3
6.57E-1	5.39E+3	1.52E-1	1.06E+3
6.34E-1	5.29E+3	1.58E-1	1.10E+3
6.46E-1	5.37E+3	1.57E-1	1.05E+3
6.55E-1	5.31E+3	1.57E-1	1.11E+3
6.64E-1	5.34E+3	1.66E-1	1.18E+3
6.46E-1	5.36E+3	1.49E-1	1.09E+3
6.44E-1	5.33E+3	1.56E-1	1.08E+3
6.42E-1	5.33E+3	1.62E-1	1.12E+3
6.78E-1	5.43E+3	1.76E-1	1.18E+3
6.35E-3	7.62E+0	3.97E-1	2.70E+3
6.40E-1	5.28E+3	1.70E-1	1.15E+3
6.49E-1	5.40E+3	1.63E-1	1.17E+3
6.68E-1	5.37E+3	1.56E-1	1.10E+3
6.56E-1	5.49E+3	1.62E-1	1.21E+3
6.52E-1	5.52E+3	1.54E-1	1.03E+3
6.78E-1	5.40E+3	1.60E-1	1.15E+3
6.67E-1	5.56E+3	1.55E-1	1.07E+3
6.48E-1	5.31E+3	1.65E-1	1.09E+3
6.44E-1	5.21E+3	1.48E-1	1.06E+3
6.69E-1	5.39E+3	1.58E-1	1.09E+3
6.82E-1	5.46E+3	1.63E-1	1.13E+3
6.57E-1	5.31E+3	1.60E-1	1.09E+3
6.53E-1	5.38E+3	1.66E-1	1.12E+3
6.50E-1	5.33E+3	1.63E-1	1.13E+3
6.35E-1	5.35E+3	1.55E-1	1.11E+3
6.79E-1	5.46E+3	1.54E-1	1.06E+3
6.76E-1	5.49E+3	1.55E-1	1.09E+3
6.40E-1	5.53E+3	1.62E-1	1.17E+3
6.50E-1	5.34E+3	1.61E-1	1.12E+3
6.52E-1	5.29E+3	1.64E-1	1.09E+3
6.61E-1	5.35E+3	1.64E-1	1.08E+3
6.56E-1	5.40E+3	1.68E-1	1.19E+3
6.56E-1	5.32E+3	1.63E-1	1.13E+3
6.46E-1	5.42E+3	1.60E-1	1.16E+3
6.62E-1	5.38E+3	1.59E-1	1.05E+3
6.41E-1	5.44E+3	1.62E-1	1.08E+3
6.47E-1	5.41E+3	1.71E-1	1.14E+3
6.70E-1	5.63E+3	1.62E-1	1.11E+3
6.49E-1	5.39E+3	1.56E-1	1.11E+3
6.28E-1	5.24E+3	1.54E-1	1.07E+3
6.55E-1	5.32E+3	1.59E-1	1.10E+3
6.78E-1	5.55E+3	1.52E-1	1.07E+3
6.52E-1	5.35E+3	1.59E-1	1.13E+3
6.52E-1	5.46E+3	1.68E-1	1.11E+3
6.53E-1	5.38E+3	1.49E-1	1.07E+3
6.54E-1	5.44E+3	1.62E-1	1.19E+3
6.74E-1	5.44E+3	1.61E-1	1.12E+3
6.66E-1	5.36E+3	1.65E-1	1.09E+3
6.42E-1	5.39E+3	1.73E-1	1.16E+3
6.66E-1	5.56E+3	1.61E-1	1.13E+3
6.53E-1	5.29E+3	1.71E-1	1.13E+3
6.73E-1	5.47E+3	1.59E-1	1.10E+3
6.69E-1	5.46E+3	1.71E-1	1.14E+3
6.64E-1	5.40E+3	1.60E-1	1.12E+3
6.51E-1	5.50E+3	1.63E-1	1.17E+3
6.30E-1	5.32E+3	1.55E-1	1.13E+3
6.45E-1	5.38E+3	1.48E-1	1.07E+3
6.65E-1	5.31E+3	1.61E-1	1.11E+3
6.55E-1	5.44E+3	1.67E-1	1.15E+3
6.58E-1	5.47E+3	1.58E-1	1.09E+3
6.48E-1	5.32E+3	1.63E-1	1.11E+3
6.86E-1	5.36E+3	1.67E-1	1.14E+3
6.45E-1	5.28E+3	1.50E-1	1.09E+3
6.65E-1	5.45E+3	1.54E-1	1.09E+3
6.58E-1	5.39E+3	1.66E-1	1.10E+3
6.74E-1	5.55E+3	1.68E-1	1.16E+3
6.61E-1	5.44E+3	1.62E-1	1.15E+3
6.58E-1	5.38E+3	1.67E-1	1.16E+3
6.59E-1	5.43E+3	1.64E-1	1.08E+3
6.60E-1	5.44E+3	1.63E-1	1.11E+3
6.70E-1	5.40E+3	1.55E-1	1.08E+3
6.61E-1	5.55E+3	1.53E-1	1.14E+3
6.62E-1	5.44E+3	1.55E-1	1.04E+3
6.40E-1	5.39E+3	1.60E-1	1.11E+3
6.49E-1	5.25E+3	1.60E-1	1.03E+3
6.42E-1	5.37E+3	1.55E-1	1.05E+3
6.57E-1	5.46E+3	1.71E-1	1.14E+3
6.45E-1	5.34E+3	1.59E-1	1.12E+3
6.67E-1	5.46E+3	1.66E-1	1.16E+3
6.64E-1	5.41E+3	1.59E-1	1.02E+3
6.56E-1	5.28E+3	1.61E-1	1.09E+3
6.50E-1	5.33E+3	1.53E-1	1.04E+3
6.50E-1	5.35E+3	1.62E-1	1.09E+3
6.60E-1	5.28E+3	1.55E-1	1.11E+3
6.53E-1	5.54E+3	1.58E-1	1.14E+3
6.65E-1	5.28E+3	1.53E-1	1.06E+3
6.57E-1	5.43E+3	1.72E-1	1.20E+3
6.77E-1	5.39E+3	1.55E-1	1.08E+3
6.45E-1	5.26E+3	1.54E-1	1.03E+3
6.52E-1	5.35E+3	1.54E-1	1.06E+3
6.58E-1	5.30E+3	1.58E-1	1.08E+3
6.51E-1	5.31E+3	1.63E-1	1.08E+3
6.35E-1	5.31E+3	1.48E-1	1.05E+3
6.56E-1	5.54E+3	1.68E-1	1.16E+3
6.43E-1	5.37E+3	1.67E-1	1.08E+3
6.57E-1	5.37E+3	1.64E-1	1.12E+3
6.69E-1	5.41E+3	1.47E-1	1.01E+3
6.58E-1	5.40E+3	1.49E-1	1.08E+3
6.41E-1	5.38E+3	1.55E-1	1.14E+3
6.66E-1	5.42E+3	1.49E-1	1.09E+3
6.63E-1	5.51E+3	1.56E-1	1.11E+3
6.68E-1	5.36E+3	1.49E-1	1.01E+3
6.55E-1	5.35E+3	1.56E-1	1.03E+3
6.72E-1	5.40E+3	1.60E-1	1.10E+3
6.54E-1	5.34E+3	1.53E-1	1.01E+3
6.59E-1	5.42E+3	1.76E-1	1.22E+3
6.66E-1	5.42E+3	1.57E-1	1.11E+3
6.47E-1	5.45E+3	1.81E-1	1.18E+3
6.54E-1	5.39E+3	1.55E-1	1.09E+3
6.38E-1	5.34E+3	1.70E-1	1.13E+3
6.47E-1	5.48E+3	1.66E-1	1.21E+3
6.44E-1	5.43E+3	1.52E-1	1.11E+3
6.58E-1	5.42E+3	1.64E-1	1.11E+3
6.65E-1	5.33E+3	1.57E-1	1.10E+3
6.63E-1	5.42E+3	1.61E-1	1.07E+3
6.72E-1	5.49E+3	1.61E-1	1.05E+3
6.33E-1	5.28E+3	1.69E-1	1.05E+3
6.54E-1	5.39E+3	1.57E-1	1.03E+3
6.57E-1	5.27E+3	1.75E-1	1.09E+3
6.48E-1	5.30E+3	1.54E-1	1.08E+3
6.60E-1	5.35E+3	1.75E-1	1.16E+3
6.51E-1	5.33E+3	1.66E-1	1.16E+3
6.59E-1	5.45E+3	1.63E-1	1.21E+3
6.54E-1	5.39E+3	1.49E-1	1.04E+3
6.52E-1	5.48E+3	1.54E-1	1.13E+3
6.41E-1	5.37E+3	1.53E-1	1.09E+3
6.65E-1	5.39E+3	1.61E-1	1.14E+3
6.51E-1	5.37E+3	1.62E-1	1.11E+3
6.36E-1	5.27E+3	1.56E-1	1.11E+3
6.56E-1	5.31E+3	1.57E-1	1.04E+3
6.42E-1	5.33E+3	1.59E-1	1.13E+3
6.34E-1	5.27E+3	1.59E-1	1.08E+3
6.63E-1	5.51E+3	1.46E-1	9.98E+2
6.58E-1	5.45E+3	1.62E-1	1.16E+3
6.56E-1	5.44E+3	1.73E-1	1.16E+3
6.60E-1	5.37E+3	1.54E-1	1.06E+3
6.53E-1	5.47E+3	1.58E-1	1.13E+3
6.51E-1	5.41E+3	1.57E-1	1.13E+3
6.64E-1	5.47E+3	1.56E-1	1.11E+3
6.45E-1	5.37E+3	1.66E-1	1.16E+3
6.64E-1	5.38E+3	1.64E-1	1.12E+3
6.52E-1	5.32E+3	1.65E-1	1.12E+3
6.53E-1	5.20E+3	1.61E-1	1.08E+3
6.44E-1	5.37E+3	1.56E-1	1.08E+3
6.60E-1	5.40E+3	1.54E-1	1.11E+3
6.37E-1	5.21E+3	1.60E-1	1.10E+3
6.72E-1	5.27E+3	1.56E-1	1.06E+3
6.71E-1	5.30E+3	1.58E-1	1.05E+3
6.46E-1	5.30E+3	1.62E-1	1.10E+3
6.42E-1	5.38E+3	1.63E-1	1.13E+3
6.42E-1	5.31E+3	1.55E-1	1.12E+3
6.83E-1	5.46E+3	1.56E-1	1.07E+3
6.42E-1	5.29E+3	1.64E-1	1.19E+3
6.46E-1	5.27E+3	1.64E-1	1.14E+3
6.55E-1	5.34E+3	1.57E-1	1.10E+3
6.42E-1	5.31E+3	1.65E-1	1.16E+3
6.57E-1	5.41E+3	1.56E-1	1.11E+3
6.44E-1	5.28E+3	1.56E-1	1.08E+3
6.51E-1	5.39E+3	1.49E-1	1.06E+3
6.41E-1	5.41E+3	1.69E-1	1.13E+3
6.49E-1	5.45E+3	1.52E-1	1.15E+3
6.51E-1	5.34E+3	1.55E-1	1.13E+3
6.56E-1	5.52E+3	1.54E-1	1.10E+3
6.69E-1	5.33E+3	1.65E-1	1.17E+3
6.52E-1	5.48E+3	1.60E-1	1.08E+3
6.63E-1	5.41E+3	1.65E-1	1.16E+3
6.47E-1	5.29E+3	1.67E-1	1.18E+3
6.65E-1	5.46E+3	1.58E-1	1.16E+3
6.47E-1	5.25E+3	1.78E-1	1.17E+3
6.72E-1	5.48E+3	1.65E-1	1.09E+3
6.62E-1	5.38E+3	1.77E-1	1.14E+3
6.66E-1	5.35E+3	1.72E-1	1.07E+3
6.65E-1	5.35E+3	1.63E-1	1.09E+3
6.72E-1	5.38E+3	1.67E-1	1.14E+3
6.40E-1	5.32E+3	1.60E-1	1.13E+3
6.38E-1	5.23E+3	1.66E-1	1.12E+3
6.65E-1	5.33E+3	1.64E-1	1.12E+3
6.43E-1	5.44E+3	1.61E-1	1.16E+3
6.44E-1	5.39E+3	1.62E-1	1.12E+3
6.72E-1	5.43E+3	1.61E-1	1.14E+3
6.58E-1	5.30E+3	1.59E-1	1.14E+3
6.60E-1	5.49E+3	1.60E-1	1.13E+3
6.46E-1	5.40E+3	1.57E-1	1.10E+3
6.48E-1	5.40E+3	1.65E-1	1.16E+3
6.52E-1	5.36E+3	1.60E-1	1.07E+3
6.55E-1	5.52E+3	1.64E-1	1.18E+3
6.34E-1	5.33E+3	1.65E-1	1.11E+3
6.46E-1	5.32E+3	1.61E-1	1.13E+3
6.47E-1	5.45E+3	1.56E-1	1.07E+3
6.52E-1	5.49E+3	1.57E-1	1.10E+3
6.50E-1	5.45E+3	1.65E-1	1.17E+3
6.51E-1	5.47E+3	1.60E-1	1.12E+3
6.47E-1	5.33E+3	1.61E-1	1.15E+3
6.49E-1	5.36E+3	1.62E-1	1.15E+3
6.82E-1	5.33E+3	1.47E-1	1.03E+3
6.70E-1	5.50E+3	1.66E-1	1.17E+3
6.54E-1	5.43E+3	1.56E-1	1.08E+3
6.38E-1	5.42E+3	1.69E-1	1.19E+3
6.45E-1	5.38E+3	1.69E-1	1.15E+3
6.48E-1	5.37E+3	1.63E-1	1.05E+3
6.62E-1	5.39E+3	1.50E-1	1.06E+3
6.47E-1	5.37E+3	1.71E-1	1.14E+3
6.56E-1	5.37E+3	1.65E-1	1.05E+3
6.64E-1	5.34E+3	1.69E-1	1.17E+3
6.60E-1	5.47E+3	1.51E-1	1.09E+3
6.48E-1	5.51E+3	1.64E-1	1.18E+3
6.47E-1	5.38E+3	1.53E-1	1.08E+3
6.81E-1	5.44E+3	1.49E-1	1.05E+3
6.56E-1	5.39E+3	1.56E-1	1.08E+3
6.59E-1	5.36E+3	1.58E-1	1.08E+3
6.52E-1	5.34E+3	1.67E-1	1.11E+3
6.84E-1	5.49E+3	1.61E-1	1.12E+3
6.44E-1	5.41E+3	1.68E-1	1.19E+3
6.62E-1	5.33E+3	1.55E-1	1.09E+3
6.31E-1	5.25E+3	1.69E-1	1.14E+3
6.48E-1	5.47E+3	1.59E-1	1.08E+3
6.45E-1	5.44E+3	1.77E-1	1.15E+3
6.54E-1	5.32E+3	1.61E-1	1.11E+3
6.38E-1	5.34E+3	1.50E-1	1.08E+3
6.59E-1	5.39E+3	1.74E-1	1.27E+3
6.63E-1	5.37E+3	1.54E-1	1.13E+3
6.57E-1	5.43E+3	1.71E-1	1.13E+3
6.56E-1	5.42E+3	1.67E-1	1.20E+3
6.47E-1	5.40E+3	1.59E-1	1.15E+3
6.56E-1	5.32E+3	1.60E-1	1.08E+3
6.71E-1	5.51E+3	1.67E-1	1.15E+3
6.76E-1	5.36E+3	1.61E-1	1.10E+3
6.46E-1	5.42E+3	1.67E-1	1.07E+3
6.42E-1	5.41E+3	1.68E-1	1.14E+3
6.67E-1	5.43E+3	1.63E-1	1.11E+3
8.79E-3	1.61E+1	3.65E-1	2.67E+3
6.62E-1	5.38E+3	1.55E-1	1.03E+3
6.44E-1	5.29E+3	1.57E-1	1.12E+3
6.44E-1	5.46E+3	1.60E-1	1.15E+3
6.53E-1	5.43E+3	1.60E-1	1.13E+3
6.53E-1	5.39E+3	1.58E-1	1.13E+3
6.66E-1	5.51E+3	1.64E-1	1.13E+3
6.52E-1	5.28E+3	1.61E-1	1.07E+3
6.48E-1	5.41E+3	1.55E-1	1.07E+3
6.54E-1	5.32E+3	1.55E-1	1.03E+3
6.70E-1	5.43E+3	1.69E-1	1.11E+3
6.47E-1	5.39E+3	1.64E-1	1.14E+3
6.77E-1	5.50E+3	1.51E-1	1.01E+3
6.48E-1	5.40E+3	1.55E-1	1.15E+3
6.69E-1	5.43E+3	1.61E-1	1.17E+3
6.47E-1	5.34E+3	1.67E-1	1.16E+3
6.44E-1	5.33E+3	1.60E-1	1.10E+3
6.42E-1	5.39E+3	1.59E-1	1.13E+3
6.82E-1	5.47E+3	1.51E-1	1.02E+3
6.64E-1	5.53E+3	1.64E-1	1.18E+3
6.70E-1	5.31E+3	1.75E-1	1.25E+3
6.76E-1	5.40E+3	1.56E-1	1.05E+3
6.55E-1	5.30E+3	1.68E-1	1.13E+3
6.72E-1	5.40E+3	1.79E-1	1.14E+3
6.53E-1	5.44E+3	1.69E-1	1.10E+3
6.56E-1	5.51E+3	1.52E-1	1.05E+3
6.64E-1	5.46E+3	1.58E-1	1.13E+3
6.69E-1	5.49E+3	1.52E-1	1.09E+3
6.44E-1	5.35E+3	1.55E-1	1.08E+3
6.47E-1	5.38E+3	1.64E-1	1.14E+3
6.45E-1	5.32E+3	1.48E-1	1.07E+3
6.66E-1	5.45E+3	1.64E-1	1.12E+3
6.71E-1	5.39E+3	1.43E-1	1.06E+3
6.37E-1	5.31E+3	1.74E-1	1.13E+3
6.65E-1	5.34E+3	1.50E-1	1.01E+3
6.70E-1	5.45E+3	1.65E-1	1.12E+3
6.76E-1	5.41E+3	1.67E-1	1.07E+3
6.51E-1	5.37E+3	1.63E-1	1.14E+3
6.70E-1	5.41E+3	1.54E-1	1.04E+3
6.70E-1	5.30E+3	1.57E-1	1.10E+3
6.47E-1	5.37E+3	1.68E-1	1.15E+3
6.43E-1	5.34E+3	1.64E-1	1.16E+3
6.57E-1	5.47E+3	1.48E-1	1.08E+3
6.44E-1	5.41E+3	1.61E-1	1.17E+3
6.74E-1	5.49E+3	1.63E-1	1.14E+3
6.61E-1	5.36E+3	1.67E-1	1.14E+3
6.49E-1	5.37E+3	1.51E-1	1.08E+3
6.54E-1	5.53E+3	1.55E-1	1.13E+3
6.49E-1	5.29E+3	1.69E-1	1.11E+3
6.54E-1	5.40E+3	1.76E-1	1.19E+3
6.58E-1	5.45E+3	1.68E-1	1.15E+3
6.58E-1	5.47E+3	1.59E-1	1.08E+3
6.68E-1	5.52E+3	1.59E-1	1.12E+3
6.55E-1	5.37E+3	1.66E-1	1.15E+3
6.52E-1	5.51E+3	1.65E-1	1.12E+3
6.49E-1	5.42E+3	1.72E-1	1.13E+3
6.45E-1	5.37E+3	1.62E-1	1.13E+3
6.63E-1	5.51E+3	1.63E-1	1.10E+3
6.49E-1	5.32E+3	1.61E-1	1.13E+3
6.58E-1	5.40E+3	1.52E-1	1.06E+3
6.54E-1	5.33E+3	1.68E-1	1.08E+3
6.58E-1	5.41E+3	1.59E-1	1.08E+3
6.57E-1	5.38E+3	1.60E-1	1.16E+3
6.44E-1	5.42E+3	1.62E-1	1.09E+3
6.56E-1	5.30E+3	1.65E-1	1.12E+3
6.58E-1	5.36E+3	1.65E-1	1.11E+3
6.54E-1	5.43E+3	1.63E-1	1.10E+3
6.35E-1	5.30E+3	1.66E-1	1.07E+3
6.78E-1	5.50E+3	1.54E-1	1.07E+3
6.35E-1	5.31E+3	1.58E-1	1.09E+3
6.48E-1	5.17E+3	1.55E-1	1.08E+3
6.69E-1	5.38E+3	1.61E-1	1.13E+3
6.69E-1	5.28E+3	1.55E-1	1.06E+3
6.42E-1	5.31E+3	1.56E-1	1.04E+3
6.55E-1	5.44E+3	1.56E-1	1.13E+3
6.36E-1	5.31E+3	1.65E-1	1.20E+3
6.48E-1	5.44E+3	1.60E-1	1.14E+3
6.62E-1	5.39E+3	1.62E-1	1.13E+3
6.52E-1	5.45E+3	1.58E-1	1.11E+3
6.46E-1	5.39E+3	1.54E-1	1.07E+3
6.49E-1	5.44E+3	1.70E-1	1.19E+3
6.65E-1	5.41E+3	1.51E-1	1.06E+3
6.49E-1	5.44E+3	1.62E-1	1.19E+3
6.40E-1	5.41E+3	1.67E-1	1.15E+3
6.49E-1	5.35E+3	1.56E-1	1.09E+3
6.45E-1	5.31E+3	1.49E-1	1.08E+3
6.59E-1	5.35E+3	1.58E-1	1.11E+3
6.51E-1	5.37E+3	1.69E-1	1.20E+3
6.58E-1	5.39E+3	1.61E-1	1.07E+3
6.53E-1	5.43E+3	1.57E-1	1.13E+3
6.40E-1	5.37E+3	1.43E-1	1.01E+3
6.37E-1	5.35E+3	1.54E-1	1.11E+3
6.43E-1	5.24E+3	1.56E-1	1.04E+3
6.57E-1	5.55E+3	1.61E-1	1.07E+3
6.54E-1	5.46E+3	1.65E-1	1.17E+3
6.55E-1	5.40E+3	1.53E-1	1.06E+3
6.59E-1	5.43E+3	1.53E-1	1.11E+3
6.53E-1	5.43E+3	1.58E-1	1.16E+3
6.48E-1	5.40E+3	1.53E-1	1.08E+3
1.22E-2	2.81E+1	3.62E-1	2.56E+3
6.58E-1	5.40E+3	1.52E-1	1.02E+3
6.63E-1	5.39E+3	1.57E-1	1.09E+3
6.61E-1	5.50E+3	1.66E-1	1.17E+3
6.46E-1	5.31E+3	1.60E-1	1.16E+3
6.47E-1	5.40E+3	1.70E-1	1.13E+3
6.50E-1	5.34E+3	1.75E-1	1.12E+3
6.59E-1	5.48E+3	1.55E-1	1.10E+3
6.61E-1	5.44E+3	1.59E-1	1.15E+3
6.45E-1	5.30E+3	1.70E-1	1.21E+3
6.40E-1	5.36E+3	1.54E-1	1.13E+3
6.69E-1	5.34E+3	1.46E-1	1.01E+3
6.57E-1	5.40E+3	1.57E-1	1.15E+3
6.61E-1	5.40E+3	1.61E-1	1.16E+3
6.39E-1	5.32E+3	1.53E-1	1.15E+3
6.83E-1	5.51E+3	1.56E-1	1.11E+3
6.60E-1	5.36E+3	1.55E-1	1.09E+3
6.66E-1	5.35E+3	1.60E-1	1.08E+3
6.50E-1	5.38E+3	1.49E-1	1.06E+3
6.45E-1	5.47E+3	1.51E-1	1.10E+3
6.61E-1	5.47E+3	1.67E-1	1.11E+3
6.61E-1	5.37E+3	1.78E-1	1.17E+3
6.39E-1	5.27E+3	1.62E-1	1.06E+3
6.56E-1	5.37E+3	1.64E-1	1.12E+3
6.47E-1	5.28E+3	1.73E-1	1.20E+3
6.44E-1	5.35E+3	1.56E-1	1.10E+3
6.32E-1	5.26E+3	1.67E-1	1.12E+3
6.87E-1	5.40E+3	1.62E-1	1.17E+3
6.35E-1	5.32E+3	1.59E-1	1.10E+3
6.59E-1	5.40E+3	1.57E-1	1.08E+3
6.60E-1	5.37E+3	1.64E-1	1.07E+3
6.56E-1	5.41E+3	1.52E-1	1.08E+3
6.53E-1	5.22E+3	1.60E-1	1.10E+3
6.41E-1	5.27E+3	1.49E-1	9.84E+2
6.37E-1	5.29E+3	1.53E-1	1.09E+3
6.53E-1	5.48E+3	1.66E-1	1.16E+3
6.41E-1	5.26E+3	1.62E-1	1.06E+3
6.79E-1	5.44E+3	1.60E-1	1.13E+3
6.56E-1	5.25E+3	1.57E-1	1.10E+3
6.36E-1	5.25E+3	1.47E-1	1.08E+3
6.56E-1	5.44E+3	1.68E-1	1.12E+3
6.64E-1	5.35E+3	1.62E-1	1.15E+3
6.57E-1	5.34E+3	1.49E-1	1.07E+3
6.55E-1	5.32E+3	1.54E-1	1.04E+3
6.80E-1	5.48E+3	1.69E-1	1.07E+3
6.43E-1	5.29E+3	1.46E-1	1.03E+3
6.40E-1	5.31E+3	1.65E-1	1.18E+3
6.50E-1	5.40E+3	1.58E-1	1.11E+3
6.46E-1	5.39E+3	1.58E-1	1.13E+3
6.55E-1	5.38E+3	1.67E-1	1.11E+3
6.59E-1	5.38E+3	1.61E-1	1.10E+3
6.53E-1	5.53E+3	1.70E-1	1.21E+3
6.43E-1	5.37E+3	1.64E-1	1.18E+3
6.42E-1	5.29E+3	1.54E-1	1.07E+3
6.55E-1	5.41E+3	1.58E-1	1.09E+3
6.62E-1	5.25E+3	1.57E-1	1.06E+3
6.75E-1	5.36E+3	1.62E-1	1.09E+3
6.55E-1	5.37E+3	1.62E-1	1.12E+3
6.42E-1	5.31E+3	1.68E-1	1.13E+3
6.54E-1	5.50E+3	1.67E-1	1.10E+3
6.66E-1	5.38E+3	1.56E-1	1.07E+3
6.67E-1	5.43E+3	1.69E-1	1.11E+3
6.58E-1	5.58E+3	1.57E-1	1.05E+3
6.54E-1	5.37E+3	1.67E-1	1.07E+3
6.59E-1	5.46E+3	1.65E-1	1.19E+3
6.54E-1	5.37E+3	1.59E-1	1.12E+3
6.50E-1	5.31E+3	1.64E-1	1.15E+3
6.43E-1	5.32E+3	1.66E-1	1.17E+3
6.31E-1	5.25E+3	1.63E-1	1.13E+3
6.51E-1	5.41E+3	1.57E-1	1.14E+3
6.60E-1	5.59E+3	1.65E-1	1.23E+3
6.40E-1	5.25E+3	1.60E-1	1.07E+3
8.79E-3	1.44E+1	3.63E-1	2.63E+3
6.55E-1	5.44E+3	1.59E-1	1.10E+3
6.46E-1	5.42E+3	1.60E-1	1.08E+3
6.63E-1	5.49E+3	1.48E-1	1.06E+3
6.34E-1	5.27E+3	1.72E-1	1.10E+3
6.43E-1	5.38E+3	1.57E-1	1.05E+3
6.53E-1	5.47E+3	1.57E-1	1.07E+3
6.63E-1	5.49E+3	1.60E-1	1.10E+3
6.51E-1	5.42E+3	1.74E-1	1.22E+3
6.62E-1	5.40E+3	1.63E-1	1.10E+3
6.44E-1	5.30E+3	1.48E-1	1.01E+3
6.63E-1	5.38E+3	1.67E-1	1.12E+3
6.68E-1	5.58E+3	1.62E-1	1.09E+3
6.41E-1	5.31E+3	1.56E-1	1.08E+3
6.47E-1	5.29E+3	1.53E-1	1.04E+3
6.62E-1	5.39E+3	1.67E-1	1.18E+3
6.80E-1	5.52E+3	1.54E-1	1.07E+3
6.39E-1	5.28E+3	1.68E-1	1.23E+3
6.31E-1	5.31E+3	1.55E-1	1.07E+3
6.48E-1	5.38E+3	1.65E-1	1.13E+3
6.67E-1	5.43E+3	1.62E-1	1.19E+3
6.48E-1	5.42E+3	1.62E-1	1.08E+3
6.36E-1	5.34E+3	1.62E-1	1.16E+3
6.62E-1	5.49E+3	1.56E-1	1.12E+3
6.90E-1	5.50E+3	1.53E-1	1.11E+3
6.47E-1	5.41E+3	1.57E-1	1.09E+3
6.71E-1	5.33E+3	1.68E-1	1.15E+3
6.55E-1	5.39E+3	1.61E-1	1.09E+3
6.52E-1	5.32E+3	1.58E-1	1.05E+3
6.52E-1	5.48E+3	1.66E-1	1.16E+3
6.49E-1	5.51E+3	1.68E-1	1.16E+3
6.38E-1	5.29E+3	1.60E-1	1.14E+3
6.51E-1	5.41E+3	1.66E-1	1.12E+3
6.48E-1	5.37E+3	1.74E-1	1.10E+3
6.40E-1	5.34E+3	1.45E-1	9.97E+2
6.47E-1	5.39E+3	1.74E-1	1.12E+3
6.57E-1	5.47E+3	1.55E-1	1.11E+3
6.45E-1	5.43E+3	1.58E-1	1.15E+3
6.53E-1	5.32E+3	1.56E-1	1.01E+3
6.61E-1	5.49E+3	1.52E-1	1.05E+3
6.41E-1	5.34E+3	1.47E-1	1.03E+3
6.60E-1	5.38E+3	1.66E-1	1.10E+3
6.63E-1	5.52E+3	1.64E-1	1.07E+3
6.67E-1	5.35E+3	1.65E-1	1.12E+3
6.46E-1	5.24E+3	1.67E-1	1.13E+3
6.36E-1	5.35E+3	1.54E-1	1.08E+3
6.69E-1	5.35E+3	1.66E-1	1.10E+3
6.69E-1	5.44E+3	1.66E-1	1.11E+3
6.59E-1	5.41E+3	1.62E-1	1.17E+3
6.73E-1	5.52E+3	1.62E-1	1.18E+3
6.48E-1	5.43E+3	1.69E-1	1.19E+3
6.78E-1	5.39E+3	1.52E-1	1.09E+3
6.78E-1	5.46E+3	1.59E-1	1.11E+3
6.77E-1	5.42E+3	1.51E-1	1.08E+3
6.60E-1	5.35E+3	1.67E-1	1.14E+3
6.47E-1	5.39E+3	1.58E-1	1.08E+3
6.49E-1	5.21E+3	1.55E-1	1.04E+3
6.73E-1	5.60E+3	1.71E-1	1.17E+3
6.52E-1	5.36E+3	1.63E-1	1.04E+3
6.77E-1	5.45E+3	1.63E-1	1.09E+3
6.47E-1	5.41E+3	1.68E-1	1.11E+3
6.59E-1	5.25E+3	1.46E-1	9.88E+2
6.53E-1	5.30E+3	1.54E-1	1.08E+3
6.56E-1	5.44E+3	1.66E-1	1.12E+3
6.55E-1	5.32E+3	1.74E-1	1.19E+3
6.47E-1	5.27E+3	1.65E-1	1.11E+3
6.32E-1	5.24E+3	1.58E-1	1.09E+3
6.52E-1	5.33E+3	1.53E-1	1.04E+3
6.51E-1	5.42E+3	1.54E-1	1.01E+3
6.67E-1	5.43E+3	1.63E-1	1.14E+3
6.58E-1	5.50E+3	1.52E-1	1.06E+3
6.64E-1	5.48E+3	1.65E-1	1.09E+3
6.62E-1	5.48E+3	1.60E-1	1.06E+3
6.72E-1	5.40E+3	1.66E-1	1.12E+3
6.48E-1	5.34E+3	1.66E-1	1.14E+3
6.52E-1	5.44E+3	1.55E-1	1.06E+3
6.43E-1	5.37E+3	1.60E-1	1.12E+3
6.63E-1	5.42E+3	1.67E-1	1.11E+3
6.50E-1	5.43E+3	1.51E-1	1.07E+3
6.45E-1	5.39E+3	1.57E-1	1.10E+3
6.49E-1	5.43E+3	1.75E-1	1.18E+3
6.63E-1	5.37E+3	1.55E-1	1.08E+3
6.61E-1	5.31E+3	1.60E-1	1.13E+3
6.59E-1	5.38E+3	1.52E-1	1.09E+3
6.58E-1	5.48E+3	1.52E-1	1.03E+3
6.53E-1	5.27E+3	1.63E-1	1.11E+3
6.48E-1	5.46E+3	1.64E-1	1.14E+3
6.61E-1	5.59E+3	1.63E-1	1.14E+3
6.56E-1	5.49E+3	1.71E-1	1.13E+3
6.44E-1	5.41E+3	1.58E-1	1.07E+3
6.81E-1	5.41E+3	1.66E-1	1.11E+3
6.48E-1	5.38E+3	1.52E-1	1.12E+3
6.50E-1	5.46E+3	1.60E-1	1.17E+3
6.51E-1	5.37E+3	1.66E-1	1.19E+3
6.38E-1	5.34E+3	1.59E-1	1.10E+3
6.44E-1	5.40E+3	1.59E-1	1.11E+3
6.32E-1	5.22E+3	1.57E-1	1.05E+3
6.62E-1	5.38E+3	1.68E-1	1.16E+3
6.30E-1	5.24E+3	1.63E-1	1.11E+3
6.80E-1	5.50E+3	1.55E-1	1.08E+3
6.74E-1	5.48E+3	1.47E-1	1.04E+3
6.49E-1	5.34E+3	1.54E-1	1.07E+3
6.46E-1	5.39E+3	1.56E-1	1.04E+3
6.58E-1	5.43E+3	1.67E-1	1.15E+3
6.60E-1	5.33E+3	1.74E-1	1.22E+3
6.30E-1	5.28E+3	1.64E-1	1.17E+3
6.45E-1	5.40E+3	1.55E-1	1.05E+3
6.56E-1	5.43E+3	1.51E-1	1.07E+3
6.65E-1	5.35E+3	1.56E-1	1.13E+3
6.58E-1	5.40E+3	1.52E-1	1.08E+3
6.57E-1	5.46E+3	1.47E-1	1.03E+3
6.47E-1	5.35E+3	1.69E-1	1.11E+3
6.59E-1	5.39E+3	1.59E-1	1.12E+3
6.67E-1	5.50E+3	1.58E-1	1.11E+3
6.35E-1	5.26E+3	1.53E-1	1.07E+3
6.60E-1	5.35E+3	1.66E-1	1.14E+3
6.60E-1	5.35E+3	1.62E-1	1.09E+3
6.66E-1	5.40E+3	1.64E-1	1.09E+3
6.42E-1	5.45E+3	1.48E-1	1.04E+3
6.54E-1	5.41E+3	1.62E-1	1.13E+3
6.43E-1	5.43E+3	1.54E-1	1.12E+3
6.75E-1	5.32E+3	1.49E-1	1.05E+3
6.58E-1	5.48E+3	1.65E-1	1.10E+3
6.44E-1	5.38E+3	1.61E-1	1.09E+3
6.42E-1	5.38E+3	1.61E-1	1.08E+3
6.69E-1	5.42E+3	1.68E-1	1.18E+3
6.59E-1	5.35E+3	1.45E-1	9.90E+2
6.71E-1	5.46E+3	1.75E-1	1.14E+3
6.53E-1	5.28E+3	1.64E-1	1.13E+3
6.76E-1	5.43E+3	1.63E-1	1.12E+3
6.51E-1	5.38E+3	1.65E-1	1.09E+3
6.53E-1	5.40E+3	1.53E-1	1.08E+3
6.56E-1	5.45E+3	1.68E-1	1.20E+3
6.44E-1	5.40E+3	1.65E-1	1.19E+3
6.51E-1	5.43E+3	1.60E-1	1.15E+3
6.64E-1	5.39E+3	1.66E-1	1.14E+3
6.38E-1	5.35E+3	1.44E-1	1.04E+3
6.49E-1	5.46E+3	1.47E-1	1.05E+3
6.48E-1	5.34E+3	1.60E-1	1.12E+3
6.46E-1	5.37E+3	1.55E-1	1.10E+3
6.69E-1	5.46E+3	1.65E-1	1.12E+3
6.62E-1	5.47E+3	1.58E-1	1.09E+3
6.68E-1	5.48E+3	1.56E-1	1.08E+3
6.46E-1	5.43E+3	1.51E-1	1.07E+3
6.56E-1	5.48E+3	1.60E-1	1.10E+3
6.67E-1	5.43E+3	1.61E-1	1.10E+3
6.51E-1	5.41E+3	1.59E-1	1.10E+3
6.52E-1	5.38E+3	1.69E-1	1.19E+3
6.56E-1	5.41E+3	1.64E-1	1.17E+3
6.61E-1	5.49E+3	1.60E-1	1.13E+3
6.89E-1	5.49E+3	1.58E-1	1.10E+3
6.79E-1	5.39E+3	1.58E-1	1.10E+3
6.63E-1	5.46E+3	1.70E-1	1.14E+3
6.34E-1	5.22E+3	1.51E-1	1.08E+3
6.76E-1	5.53E+3	1.56E-1	1.06E+3
6.64E-1	5.27E+3	1.62E-1	1.10E+3
6.77E-1	5.46E+3	1.58E-1	1.10E+3
6.83E-1	5.53E+3	1.55E-1	1.03E+3
6.59E-1	5.44E+3	1.56E-1	1.07E+3
6.52E-1	5.52E+3	1.69E-1	1.19E+3
6.48E-1	5.51E+3	1.68E-1	1.16E+3
6.41E-1	5.34E+3	1.65E-1	1.24E+3
6.54E-1	5.39E+3	1.60E-1	1.13E+3
6.63E-1	5.38E+3	1.58E-1	1.18E+3
6.73E-1	5.47E+3	1.69E-1	1.17E+3
6.43E-1	5.31E+3	1.54E-1	1.08E+3
6.77E-1	5.49E+3	1.62E-1	1.14E+3
6.44E-1	5.29E+3	1.73E-1	1.12E+3
6.58E-1	5.32E+3	1.54E-1	1.10E+3
6.47E-1	5.39E+3	1.56E-1	1.05E+3
6.61E-1	5.44E+3	1.62E-1	1.12E+3
6.66E-1	5.39E+3	1.40E-1	9.78E+2
6.51E-1	5.36E+3	1.65E-1	1.17E+3
6.49E-1	5.31E+3	1.51E-1	1.01E+3
6.39E-1	5.31E+3	1.53E-1	1.07E+3
6.75E-1	5.42E+3	1.68E-1	1.18E+3
6.57E-1	5.46E+3	1.46E-1	1.03E+3
6.65E-1	5.28E+3	1.59E-1	1.04E+3
6.82E-1	5.43E+3	1.55E-1	1.09E+3
6.81E-1	5.29E+3	1.67E-1	1.19E+3
6.55E-1	5.47E+3	1.55E-1	1.03E+3
6.79E-1	5.42E+3	1.59E-1	1.08E+3
6.45E-1	5.29E+3	1.53E-1	1.04E+3
6.65E-1	5.33E+3	1.52E-1	1.06E+3
8.06E-3	1.52E+1	3.72E-1	2.57E+3
6.47E-1	5.34E+3	1.54E-1	1.02E+3
6.76E-1	5.40E+3	1.54E-1	1.05E+3
6.33E-1	5.29E+3	1.69E-1	1.11E+3
6.42E-1	5.28E+3	1.69E-1	1.17E+3
6.38E-1	5.34E+3	1.54E-1	1.15E+3
6.55E-1	5.46E+3	1.62E-1	1.13E+3
6.51E-1	5.44E+3	1.49E-1	1.10E+3
6.91E-1	5.62E+3	1.50E-1	1.10E+3
6.73E-1	5.39E+3	1.56E-1	1.09E+3
6.39E-1	5.33E+3	1.55E-1	1.10E+3
6.64E-1	5.33E+3	1.69E-1	1.16E+3
6.66E-1	5.38E+3	1.53E-1	1.02E+3
6.70E-1	5.38E+3	1.53E-1	1.05E+3
6.45E-1	5.38E+3	1.81E-1	1.18E+3
6.51E-1	5.48E+3	1.64E-1	1.07E+3
6.59E-1	5.47E+3	1.41E-1	1.04E+3
6.47E-1	5.38E+3	1.65E-1	1.10E+3
6.61E-1	5.37E+3	1.47E-1	1.04E+3
6.44E-1	5.41E+3	1.61E-1	1.18E+3
6.50E-1	5.40E+3	1.46E-1	1.08E+3
6.50E-1	5.43E+3	1.46E-1	1.01E+3
6.51E-1	5.34E+3	1.64E-1	1.12E+3
6.57E-1	5.41E+3	1.49E-1	1.01E+3
6.70E-1	5.45E+3	1.63E-1	1.10E+3
6.58E-1	5.36E+3	1.65E-1	1.09E+3
6.52E-1	5.30E+3	1.59E-1	1.08E+3
6.36E-1	5.32E+3	1.52E-1	1.07E+3
6.77E-1	5.37E+3	1.57E-1	1.07E+3
6.43E-1	5.39E+3	1.60E-1	1.10E+3
6.53E-1	5.36E+3	1.67E-1	1.13E+3
6.48E-1	5.52E+3	1.56E-1	1.03E+3
6.45E-1	5.33E+3	1.50E-1	1.06E+3
6.63E-1	5.47E+3	1.64E-1	1.16E+3
6.58E-1	5.37E+3	1.49E-1	1.01E+3
6.53E-1	5.29E+3	1.49E-1	1.06E+3
6.41E-1	5.29E+3	1.54E-1	1.06E+3
6.57E-1	5.32E+3	1.63E-1	1.09E+3
6.62E-1	5.43E+3	1.69E-1	1.11E+3
6.78E-1	5.43E+3	1.71E-1	1.12E+3
6.54E-1	5.45E+3	1.59E-1	1.10E+3
6.67E-1	5.48E+3	1.66E-1	1.16E+3
6.57E-1	5.38E+3	1.48E-1	1.03E+3
6.47E-1	5.43E+3	1.64E-1	1.10E+3
6.46E-1	5.39E+3	1.65E-1	1.15E+3
6.55E-1	5.39E+3	1.58E-1	1.13E+3
6.48E-1	5.37E+3	1.75E-1	1.22E+3
6.70E-1	5.39E+3	1.55E-1	1.08E+3
6.34E-1	5.24E+3	1.56E-1	1.09E+3
6.69E-1	5.28E+3	1.55E-1	1.10E+3
6.47E-1	5.35E+3	1.75E-1	1.17E+3
6.58E-1	5.25E+3	1.70E-1	1.04E+3
6.56E-1	5.35E+3	1.47E-1	9.71E+2
6.54E-1	5.24E+3	1.67E-1	1.14E+3
6.59E-1	5.36E+3	1.57E-1	1.05E+3
6.84E-1	5.46E+3	1.56E-1	1.11E+3
6.69E-1	5.40E+3	1.53E-1	1.09E+3
6.40E-1	5.28E+3	1.58E-1	1.12E+3
6.73E-1	5.55E+3	1.61E-1	1.13E+3
6.71E-1	5.41E+3	1.64E-1	1.16E+3
6.49E-1	5.36E+3	1.54E-1	1.12E+3
6.80E-1	5.44E+3	1.52E-1	1.07E+3
6.75E-1	5.44E+3	1.70E-1	1.17E+3
6.67E-1	5.38E+3	1.76E-1	1.14E+3
6.48E-1	5.27E+3	1.50E-1	1.04E+3
6.45E-1	5.34E+3	1.65E-1	1.14E+3
6.53E-1	5.28E+3	1.61E-1	1.13E+3
6.68E-1	5.38E+3	1.61E-1	1.08E+3
6.67E-1	5.53E+3	1.59E-1	1.13E+3
6.57E-1	5.54E+3	1.63E-1	1.13E+3
6.39E-1	5.33E+3	1.67E-1	1.12E+3
6.68E-1	5.43E+3	1.61E-1	1.12E+3
6.45E-1	5.42E+3	1.55E-1	1.12E+3
6.41E-1	5.25E+3	1.60E-1	1.05E+3
6.40E-1	5.28E+3	1.70E-1	1.15E+3
6.47E-1	5.43E+3	1.55E-1	1.14E+3
6.45E-1	5.39E+3	1.71E-1	1.22E+3
6.51E-1	5.31E+3	1.57E-1	1.10E+3
9.52E-3	2.49E+1	3.70E-1	2.73E+3
6.59E-1	5.36E+3	1.72E-1	1.17E+3
6.57E-1	5.41E+3	1.53E-1	1.05E+3
6.49E-1	5.30E+3	1.54E-1	1.10E+3
6.53E-1	5.34E+3	1.73E-1	1.13E+3
6.74E-1	5.54E+3	1.62E-1	1.14E+3
6.40E-1	5.28E+3	1.58E-1	1.10E+3
6.60E-1	5.37E+3	1.60E-1	1.13E+3
6.51E-1	5.43E+3	1.68E-1	1.15E+3
6.45E-1	5.38E+3	1.58E-1	1.10E+3
6.70E-1	5.37E+3	1.61E-1	1.10E+3
6.55E-1	5.38E+3	1.64E-1	1.07E+3
6.64E-1	5.43E+3	1.58E-1	1.09E+3
6.77E-1	5.41E+3	1.71E-1	1.09E+3
6.58E-1	5.32E+3	1.62E-1	1.09E+3
6.73E-1	5.38E+3	1.65E-1	1.17E+3
6.50E-1	5.20E+3	1.74E-1	1.12E+3
6.58E-1	5.38E+3	1.57E-1	1.06E+3
6.61E-1	5.39E+3	1.67E-1	1.15E+3
6.60E-1	5.41E+3	1.63E-1	1.12E+3
6.70E-1	5.46E+3	1.58E-1	1.15E+3
6.35E-1	5.28E+3	1.59E-1	1.12E+3
6.68E-1	5.49E+3	1.66E-1	1.15E+3
6.45E-1	5.38E+3	1.60E-1	1.13E+3
6.44E-1	5.31E+3	1.53E-1	1.08E+3
6.49E-1	5.28E+3	1.65E-1	1.15E+3
6.44E-1	5.28E+3	1.71E-1	1.18E+3
6.73E-1	5.35E+3	1.46E-1	1.05E+3
6.58E-1	5.38E+3	1.56E-1	1.04E+3
6.41E-1	5.31E+3	1.60E-1	1.14E+3
6.43E-1	5.25E+3	1.65E-1	1.09E+3
6.35E-1	5.28E+3	1.57E-1	1.10E+3
6.38E-1	5.24E+3	1.73E-1	1.25E+3
6.50E-1	5.47E+3	1.54E-1	1.13E+3
6.66E-1	5.40E+3	1.63E-1	1.14E+3
6.71E-1	5.45E+3	1.47E-1	1.02E+3
6.48E-1	5.48E+3	1.61E-1	1.17E+3
6.44E-1	5.36E+3	1.66E-1	1.16E+3
6.53E-1	5.41E+3	1.54E-1	1.06E+3
6.51E-1	5.29E+3	1.66E-1	1.08E+3
6.68E-1	5.46E+3	1.54E-1	1.05E+3
6.46E-1	5.46E+3	1.60E-1	1.14E+3
6.55E-1	5.41E+3	1.64E-1	1.13E+3
6.92E-1	5.43E+3	1.76E-1	1.17E+3
6.71E-1	5.42E+3	1.56E-1	1.06E+3
1.44E-2	2.92E+1	4.62E-1	2.91E+3
6.56E-1	5.50E+3	1.47E-1	1.04E+3
6.53E-1	5.54E+3	1.48E-1	1.06E+3
6.56E-1	5.38E+3	1.56E-1	1.13E+3
6.69E-1	5.35E+3	1.57E-1	1.06E+3
6.38E-1	5.31E+3	1.56E-1	1.08E+3
6.34E-1	5.32E+3	1.72E-1	1.10E+3
6.47E-1	5.38E+3	1.60E-1	1.12E+3
6.72E-1	5.34E+3	1.73E-1	1.26E+3
6.75E-1	5.29E+3	1.52E-1	1.07E+3
6.46E-1	5.37E+3	1.65E-1	1.10E+3
6.65E-1	5.42E+3	1.68E-1	1.13E+3
6.43E-1	5.37E+3	1.69E-1	1.22E+3
