6.58E-1	5.28E+3	1.87E-1	1.18E+3
6.40E-1	5.17E+3	1.67E-1	1.06E+3
6.55E-1	5.20E+3	1.80E-1	1.12E+3
6.45E-1	5.25E+3	1.64E-1	1.03E+3
6.59E-1	5.24E+3	1.77E-1	1.09E+3
6.74E-1	5.35E+3	1.71E-1	1.11E+3
6.43E-1	5.27E+3	1.74E-1	1.04E+3
6.80E-1	5.25E+3	1.71E-1	1.01E+3
6.66E-1	5.25E+3	1.77E-1	1.07E+3
6.68E-1	5.24E+3	1.77E-1	9.81E+2
6.51E-1	5.34E+3	1.80E-1	1.00E+3
6.63E-1	5.32E+3	1.76E-1	1.12E+3
6.51E-1	5.32E+3	1.74E-1	1.09E+3
6.51E-1	5.27E+3	1.71E-1	1.04E+3
6.48E-1	5.19E+3	1.64E-1	1.01E+3
6.62E-1	5.34E+3	1.71E-1	1.07E+3
6.73E-1	5.14E+3	1.61E-1	1.00E+3
6.74E-1	5.33E+3	1.90E-1	1.15E+3
6.68E-1	5.22E+3	1.72E-1	1.01E+3
6.73E-1	5.23E+3	1.71E-1	1.06E+3
6.64E-1	5.40E+3	1.60E-1	1.03E+3
6.78E-1	5.20E+3	1.66E-1	1.06E+3
6.51E-1	5.22E+3	1.77E-1	1.06E+3
6.82E-1	5.37E+3	1.86E-1	1.14E+3
6.49E-1	5.28E+3	1.73E-1	1.10E+3
6.43E-1	5.21E+3	1.72E-1	1.05E+3
6.53E-1	5.33E+3	1.53E-1	9.50E+2
6.53E-1	5.25E+3	1.60E-1	9.85E+2
6.69E-1	5.36E+3	1.86E-1	1.05E+3
6.74E-1	5.26E+3	1.80E-1	1.13E+3
6.68E-1	5.35E+3	1.89E-1	1.11E+3
6.85E-1	5.29E+3	1.88E-1	1.08E+3
6.38E-1	5.21E+3	1.69E-1	1.02E+3
6.73E-1	5.28E+3	1.72E-1	1.16E+3
6.42E-1	5.14E+3	1.59E-1	9.98E+2
6.41E-1	5.09E+3	1.64E-1	1.00E+3
6.45E-1	5.28E+3	1.85E-1	1.12E+3
6.67E-1	5.24E+3	1.70E-1	1.05E+3
6.51E-1	5.33E+3	1.72E-1	9.83E+2
6.52E-1	5.18E+3	1.72E-1	1.01E+3
6.81E-1	5.30E+3	1.67E-1	9.85E+2
6.54E-1	5.17E+3	1.71E-1	1.06E+3
6.66E-1	5.26E+3	1.60E-1	9.86E+2
6.79E-1	5.40E+3	1.67E-1	1.04E+3
6.52E-1	5.22E+3	1.69E-1	1.04E+3
6.50E-1	5.21E+3	1.73E-1	1.01E+3
6.50E-1	5.29E+3	1.66E-1	1.02E+3
6.70E-1	5.12E+3	1.79E-1	1.05E+3
6.53E-1	5.39E+3	1.85E-1	1.08E+3
6.87E-1	5.29E+3	1.72E-1	1.01E+3
6.60E-1	5.19E+3	1.70E-1	1.07E+3
6.55E-1	5.22E+3	1.85E-1	1.09E+3
6.51E-1	5.24E+3	1.79E-1	1.07E+3
6.54E-1	5.31E+3	1.79E-1	1.04E+3
7.09E-1	5.18E+3	1.67E-1	1.01E+3
6.69E-1	5.26E+3	1.61E-1	9.74E+2
6.53E-1	5.28E+3	1.85E-1	1.16E+3
6.63E-1	5.22E+3	1.58E-1	9.52E+2
6.62E-1	5.38E+3	1.70E-1	1.04E+3
6.79E-1	5.37E+3	1.78E-1	1.06E+3
6.53E-1	5.29E+3	1.70E-1	1.08E+3
6.80E-1	5.26E+3	1.79E-1	1.09E+3
6.68E-1	5.22E+3	1.84E-1	1.15E+3
6.41E-1	5.29E+3	1.85E-1	1.15E+3
6.39E-1	5.19E+3	1.82E-1	1.11E+3
6.63E-1	5.29E+3	1.73E-1	1.05E+3
6.49E-1	5.28E+3	1.66E-1	1.04E+3
6.76E-1	5.28E+3	1.76E-1	1.11E+3
6.66E-1	5.33E+3	1.77E-1	1.12E+3
6.68E-1	5.37E+3	1.81E-1	1.05E+3
6.52E-1	5.20E+3	1.66E-1	1.04E+3
6.83E-1	5.33E+3	1.84E-1	1.13E+3
6.66E-1	5.18E+3	1.86E-1	1.08E+3
6.74E-1	5.17E+3	1.84E-1	1.13E+3
6.56E-1	5.20E+3	1.65E-1	1.04E+3
6.36E-1	5.13E+3	1.82E-1	1.13E+3
6.54E-1	5.18E+3	1.75E-1	1.03E+3
6.85E-1	5.16E+3	1.68E-1	1.01E+3
6.43E-1	5.18E+3	1.67E-1	1.07E+3
6.43E-1	5.19E+3	1.88E-1	1.05E+3
6.37E-1	5.15E+3	1.71E-1	1.03E+3
6.45E-1	5.23E+3	1.64E-1	1.03E+3
6.95E-1	5.35E+3	1.84E-1	1.13E+3
6.58E-1	5.23E+3	1.68E-1	1.06E+3
6.90E-1	5.29E+3	1.81E-1	1.12E+3
6.50E-1	5.15E+3	1.71E-1	1.07E+3
6.74E-1	5.33E+3	1.86E-1	1.15E+3
6.61E-1	5.33E+3	1.58E-1	1.02E+3
6.64E-1	5.24E+3	1.86E-1	1.09E+3
6.82E-1	5.19E+3	1.86E-1	1.20E+3
6.44E-1	5.24E+3	1.83E-1	1.20E+3
6.48E-1	5.26E+3	1.72E-1	1.09E+3
6.40E-1	5.31E+3	1.77E-1	1.04E+3
6.54E-1	5.33E+3	1.71E-1	1.01E+3
6.43E-1	5.26E+3	1.67E-1	9.94E+2
6.79E-1	5.47E+3	1.81E-1	1.11E+3
6.40E-1	5.24E+3	1.75E-1	1.02E+3
6.67E-1	5.26E+3	1.75E-1	1.12E+3
6.85E-1	5.29E+3	1.60E-1	9.59E+2
6.76E-1	5.42E+3	1.67E-1	9.76E+2
6.63E-1	5.31E+3	1.88E-1	1.10E+3
6.86E-1	5.26E+3	1.71E-1	1.02E+3
6.46E-1	5.21E+3	1.81E-1	1.07E+3
6.69E-1	5.17E+3	1.81E-1	1.07E+3
6.50E-1	5.25E+3	1.85E-1	1.09E+3
6.53E-1	5.26E+3	1.80E-1	1.06E+3
6.49E-1	5.18E+3	1.71E-1	9.68E+2
6.33E-1	5.23E+3	1.81E-1	1.05E+3
6.84E-1	5.23E+3	1.78E-1	1.09E+3
6.56E-1	5.34E+3	1.68E-1	9.94E+2
7.21E-1	5.32E+3	1.68E-1	1.02E+3
6.57E-1	5.25E+3	1.59E-1	9.91E+2
6.73E-1	5.31E+3	1.72E-1	9.91E+2
6.84E-1	5.31E+3	1.85E-1	1.14E+3
6.51E-1	5.32E+3	1.68E-1	1.02E+3
6.73E-1	5.24E+3	1.77E-1	1.12E+3
6.90E-1	5.33E+3	1.84E-1	1.16E+3
6.39E-1	5.17E+3	1.71E-1	1.11E+3
6.75E-1	5.21E+3	1.86E-1	1.12E+3
6.54E-1	5.34E+3	1.66E-1	1.08E+3
6.90E-1	5.32E+3	1.80E-1	1.18E+3
6.55E-1	5.29E+3	1.72E-1	1.11E+3
6.56E-1	5.31E+3	1.92E-1	1.17E+3
6.59E-1	5.25E+3	1.91E-1	1.18E+3
6.70E-1	5.26E+3	1.76E-1	1.09E+3
6.46E-1	5.26E+3	1.58E-1	9.41E+2
6.57E-1	5.13E+3	1.79E-1	1.10E+3
6.92E-1	5.26E+3	1.98E-1	1.06E+3
6.44E-1	5.26E+3	1.77E-1	1.11E+3
6.49E-1	5.23E+3	1.70E-1	1.08E+3
1.12E-2	1.28E+1	5.00E-1	2.73E+3
6.50E-1	5.27E+3	1.64E-1	1.03E+3
6.78E-1	5.13E+3	1.66E-1	9.89E+2
6.79E-1	5.26E+3	1.69E-1	1.04E+3
6.39E-1	5.24E+3	1.64E-1	9.81E+2
6.51E-1	5.33E+3	1.89E-1	1.10E+3
6.42E-1	5.21E+3	1.72E-1	1.10E+3
6.56E-1	5.32E+3	1.70E-1	1.08E+3
6.52E-1	5.30E+3	1.76E-1	1.11E+3
6.62E-1	5.36E+3	1.62E-1	9.98E+2
6.85E-1	5.23E+3	1.71E-1	1.07E+3
6.48E-1	5.29E+3	1.66E-1	1.01E+3
6.45E-1	5.29E+3	1.84E-1	1.05E+3
6.40E-1	5.25E+3	1.81E-1	1.12E+3
6.76E-1	5.25E+3	1.59E-1	9.95E+2
6.62E-1	5.31E+3	1.67E-1	1.02E+3
6.52E-1	5.18E+3	1.77E-1	1.10E+3
6.57E-1	5.37E+3	1.65E-1	1.01E+3
6.77E-1	5.32E+3	1.67E-1	9.99E+2
6.95E-1	5.38E+3	1.72E-1	1.08E+3
6.40E-1	5.22E+3	1.73E-1	1.07E+3
6.78E-1	5.27E+3	1.86E-1	1.15E+3
6.86E-1	5.24E+3	1.68E-1	1.04E+3
6.61E-1	5.26E+3	1.67E-1	1.07E+3
6.56E-1	5.34E+3	1.68E-1	1.05E+3
6.44E-1	5.25E+3	1.74E-1	1.10E+3
6.74E-1	5.31E+3	1.84E-1	1.13E+3
6.66E-1	5.15E+3	1.97E-1	1.12E+3
6.58E-1	5.27E+3	1.72E-1	1.02E+3
6.45E-1	5.26E+3	1.77E-1	1.07E+3
9.55E-2	8.24E+1	5.27E-1	2.66E+3
6.68E-1	5.21E+3	1.70E-1	1.03E+3
6.48E-1	5.20E+3	1.78E-1	1.08E+3
6.47E-1	5.29E+3	1.86E-1	1.12E+3
6.53E-1	5.26E+3	1.86E-1	1.10E+3
6.55E-1	5.28E+3	1.68E-1	1.06E+3
6.75E-1	5.35E+3	1.77E-1	1.09E+3
6.69E-1	5.22E+3	1.89E-1	1.09E+3
6.83E-1	5.30E+3	1.83E-1	1.12E+3
6.64E-1	5.21E+3	1.72E-1	1.05E+3
6.79E-1	5.31E+3	1.92E-1	1.23E+3
6.71E-1	5.31E+3	1.76E-1	1.02E+3
6.51E-1	5.34E+3	1.82E-1	1.16E+3
6.75E-1	5.30E+3	1.79E-1	1.09E+3
6.49E-1	5.25E+3	1.77E-1	1.10E+3
6.37E-1	5.24E+3	1.91E-1	1.22E+3
6.56E-1	5.26E+3	1.75E-1	1.03E+3
6.64E-1	5.20E+3	1.74E-1	9.46E+2
6.96E-1	5.34E+3	1.86E-1	1.12E+3
6.81E-1	5.41E+3	1.81E-1	1.08E+3
6.55E-1	5.23E+3	1.70E-1	1.00E+3
6.68E-1	5.24E+3	1.84E-1	1.16E+3
6.59E-1	5.32E+3	1.62E-1	1.03E+3
6.53E-1	5.21E+3	1.78E-1	9.93E+2
6.76E-1	5.17E+3	1.78E-1	1.09E+3
6.73E-1	5.19E+3	1.88E-1	1.11E+3
6.53E-1	5.36E+3	1.82E-1	1.13E+3
6.49E-1	5.14E+3	1.74E-1	1.03E+3
6.82E-1	5.25E+3	1.73E-1	1.06E+3
6.81E-1	5.23E+3	1.67E-1	1.05E+3
6.46E-1	5.22E+3	1.78E-1	1.08E+3
6.65E-1	5.32E+3	1.62E-1	1.02E+3
6.48E-1	5.12E+3	1.75E-1	1.06E+3
6.46E-1	5.27E+3	1.75E-1	1.08E+3
6.84E-1	5.37E+3	1.81E-1	1.09E+3
6.64E-1	5.41E+3	1.86E-1	1.12E+3
6.77E-1	5.22E+3	1.67E-1	1.03E+3
6.74E-1	5.21E+3	1.68E-1	1.08E+3
6.54E-1	5.23E+3	1.75E-1	1.04E+3
6.64E-1	5.28E+3	1.81E-1	1.13E+3
6.50E-1	5.28E+3	1.57E-1	9.70E+2
6.64E-1	5.22E+3	1.83E-1	1.09E+3
6.66E-1	5.26E+3	1.85E-1	1.12E+3
6.76E-1	5.19E+3	1.80E-1	1.04E+3
6.66E-1	5.27E+3	1.70E-1	1.04E+3
6.46E-1	5.27E+3	1.94E-1	1.15E+3
6.56E-1	5.24E+3	1.77E-1	1.12E+3
6.81E-1	5.14E+3	1.74E-1	1.09E+3
6.67E-1	5.16E+3	1.72E-1	1.01E+3
6.75E-1	5.27E+3	1.77E-1	1.15E+3
6.44E-1	5.16E+3	1.66E-1	9.98E+2
6.76E-1	5.17E+3	1.68E-1	1.09E+3
6.62E-1	5.38E+3	1.76E-1	1.08E+3
6.58E-1	5.34E+3	1.70E-1	1.10E+3
6.35E-1	5.02E+3	1.77E-1	1.05E+3
6.47E-1	5.17E+3	1.68E-1	1.05E+3
6.77E-1	5.34E+3	1.72E-1	1.05E+3
6.47E-1	5.25E+3	1.72E-1	1.04E+3
6.67E-1	5.28E+3	1.67E-1	1.08E+3
6.86E-1	5.28E+3	1.81E-1	1.06E+3
6.61E-1	5.35E+3	1.70E-1	1.07E+3
6.73E-1	5.39E+3	1.73E-1	1.06E+3
6.63E-1	5.22E+3	1.79E-1	1.16E+3
6.74E-1	5.22E+3	1.68E-1	1.04E+3
6.76E-1	5.40E+3	1.81E-1	1.13E+3
6.53E-1	5.26E+3	1.85E-1	1.13E+3
6.42E-1	5.28E+3	1.87E-1	1.14E+3
6.44E-1	5.24E+3	1.81E-1	1.09E+3
6.70E-1	5.23E+3	1.62E-1	9.99E+2
6.69E-1	5.31E+3	1.77E-1	1.07E+3
6.57E-1	5.31E+3	1.79E-1	1.09E+3
6.68E-1	5.25E+3	1.65E-1	9.88E+2
6.51E-1	5.31E+3	1.77E-1	1.07E+3
6.66E-1	5.35E+3	1.70E-1	1.02E+3
6.66E-1	5.33E+3	1.80E-1	1.10E+3
6.48E-1	5.35E+3	1.66E-1	1.07E+3
6.74E-1	5.33E+3	1.74E-1	1.06E+3
6.74E-1	5.32E+3	1.77E-1	1.07E+3
6.60E-1	5.26E+3	1.65E-1	1.02E+3
6.37E-1	5.24E+3	1.73E-1	1.09E+3
6.70E-1	5.28E+3	1.72E-1	1.13E+3
6.66E-1	5.44E+3	1.74E-1	1.08E+3
6.65E-1	5.27E+3	1.86E-1	1.14E+3
6.43E-1	5.15E+3	1.74E-1	1.04E+3
6.49E-1	5.27E+3	1.56E-1	9.62E+2
6.46E-1	5.19E+3	1.76E-1	1.05E+3
6.74E-1	5.21E+3	1.76E-1	1.12E+3
6.53E-1	5.22E+3	1.80E-1	1.10E+3
6.72E-1	5.37E+3	1.70E-1	1.08E+3
6.59E-1	5.29E+3	1.79E-1	1.08E+3
6.60E-1	5.28E+3	1.80E-1	1.10E+3
6.84E-1	5.35E+3	1.81E-1	1.10E+3
6.86E-1	5.27E+3	1.72E-1	1.10E+3
6.80E-1	5.25E+3	1.71E-1	1.09E+3
6.51E-1	5.18E+3	1.73E-1	1.01E+3
6.67E-1	5.22E+3	1.68E-1	9.72E+2
6.70E-1	5.27E+3	1.73E-1	1.03E+3
6.38E-1	5.18E+3	1.78E-1	1.06E+3
6.35E-1	5.04E+3	1.75E-1	1.03E+3
6.46E-1	5.16E+3	1.77E-1	1.02E+3
6.51E-1	5.28E+3	1.96E-1	1.18E+3
6.64E-1	5.19E+3	1.71E-1	9.88E+2
6.75E-1	5.39E+3	1.61E-1	1.04E+3
6.58E-1	5.25E+3	1.67E-1	1.05E+3
6.60E-1	5.31E+3	1.97E-1	1.11E+3
6.59E-1	5.26E+3	1.72E-1	1.02E+3
6.54E-1	5.26E+3	1.74E-1	1.06E+3
6.73E-1	5.22E+3	1.71E-1	1.08E+3
6.43E-1	5.24E+3	1.74E-1	1.02E+3
6.52E-1	5.38E+3	1.77E-1	1.09E+3
6.65E-1	5.29E+3	1.76E-1	1.11E+3
6.71E-1	5.24E+3	1.76E-1	1.00E+3
6.72E-1	5.26E+3	1.84E-1	1.09E+3
6.49E-1	5.17E+3	1.85E-1	1.09E+3
6.63E-1	5.39E+3	1.72E-1	1.08E+3
6.75E-1	5.24E+3	1.79E-1	1.07E+3
6.67E-1	5.33E+3	1.65E-1	1.04E+3
6.80E-1	5.39E+3	1.81E-1	1.08E+3
6.70E-1	5.28E+3	1.90E-1	1.12E+3
6.86E-1	5.21E+3	1.73E-1	1.06E+3
6.63E-1	5.21E+3	1.90E-1	1.08E+3
6.66E-1	5.34E+3	1.52E-1	9.79E+2
6.49E-1	5.35E+3	1.76E-1	1.07E+3
6.70E-1	5.23E+3	1.67E-1	9.75E+2
6.53E-1	5.30E+3	1.76E-1	1.05E+3
6.86E-1	5.42E+3	1.80E-1	1.10E+3
6.38E-1	5.20E+3	1.76E-1	1.06E+3
6.31E-1	5.14E+3	1.63E-1	9.98E+2
6.59E-1	5.23E+3	1.89E-1	1.08E+3
6.77E-1	5.31E+3	1.75E-1	1.10E+3
6.45E-1	5.22E+3	1.62E-1	1.01E+3
6.76E-1	5.35E+3	1.76E-1	1.04E+3
6.51E-1	5.13E+3	1.72E-1	1.07E+3
6.57E-1	5.27E+3	1.75E-1	1.10E+3
6.77E-1	5.37E+3	1.72E-1	1.12E+3
6.65E-1	5.19E+3	1.73E-1	1.02E+3
6.47E-1	5.32E+3	1.65E-1	1.06E+3
6.77E-1	5.25E+3	1.69E-1	1.03E+3
6.62E-1	5.36E+3	1.77E-1	1.11E+3
6.41E-1	5.24E+3	1.78E-1	1.07E+3
6.54E-1	5.34E+3	1.82E-1	1.10E+3
6.35E-1	5.15E+3	1.61E-1	1.03E+3
6.56E-1	5.20E+3	1.71E-1	1.10E+3
6.40E-1	5.15E+3	1.74E-1	1.04E+3
6.76E-1	5.33E+3	1.60E-1	1.01E+3
6.79E-1	5.25E+3	1.78E-1	1.14E+3
6.68E-1	5.22E+3	1.86E-1	1.09E+3
6.46E-1	5.25E+3	1.75E-1	1.05E+3
6.77E-1	5.30E+3	1.66E-1	1.02E+3
6.42E-1	5.16E+3	1.84E-1	1.09E+3
6.76E-1	5.30E+3	1.71E-1	1.03E+3
6.41E-1	5.24E+3	1.69E-1	1.02E+3
6.61E-1	5.12E+3	1.64E-1	9.47E+2
6.93E-1	5.25E+3	1.68E-1	1.05E+3
6.70E-1	5.27E+3	1.67E-1	1.03E+3
6.69E-1	5.32E+3	1.87E-1	1.11E+3
6.42E-1	5.30E+3	1.71E-1	1.04E+3
6.64E-1	5.19E+3	1.77E-1	1.05E+3
6.67E-1	5.24E+3	1.71E-1	1.05E+3
6.52E-1	5.18E+3	1.78E-1	1.08E+3
6.73E-1	5.24E+3	1.78E-1	1.10E+3
6.75E-1	5.20E+3	1.84E-1	1.11E+3
7.01E-1	5.37E+3	1.83E-1	1.04E+3
6.40E-1	5.12E+3	1.87E-1	1.09E+3
6.56E-1	5.23E+3	1.72E-1	1.03E+3
6.31E-1	5.16E+3	1.76E-1	1.10E+3
6.52E-1	5.25E+3	1.66E-1	9.89E+2
6.53E-1	5.19E+3	1.57E-1	1.04E+3
6.37E-1	5.21E+3	1.81E-1	1.10E+3
6.50E-1	5.25E+3	1.69E-1	1.08E+3
6.68E-1	5.23E+3	1.67E-1	1.05E+3
6.68E-1	5.27E+3	1.64E-1	1.02E+3
6.71E-1	5.19E+3	1.78E-1	1.09E+3
6.51E-1	5.24E+3	1.66E-1	1.02E+3
6.51E-1	5.30E+3	1.78E-1	1.06E+3
6.67E-1	5.13E+3	1.75E-1	1.06E+3
6.67E-1	5.21E+3	1.68E-1	1.03E+3
6.65E-1	5.34E+3	1.77E-1	1.09E+3
6.67E-1	5.22E+3	1.70E-1	1.13E+3
6.51E-1	5.23E+3	1.64E-1	1.04E+3
6.59E-1	5.24E+3	1.79E-1	1.10E+3
6.44E-1	5.21E+3	1.76E-1	1.03E+3
6.56E-1	5.34E+3	1.66E-1	1.03E+3
6.70E-1	5.27E+3	1.82E-1	1.07E+3
6.61E-1	5.18E+3	1.79E-1	1.11E+3
6.72E-1	5.31E+3	1.75E-1	1.08E+3
6.58E-1	5.32E+3	1.75E-1	1.06E+3
6.74E-1	5.34E+3	1.78E-1	1.05E+3
6.61E-1	5.23E+3	1.73E-1	1.11E+3
6.84E-1	5.25E+3	1.82E-1	1.12E+3
6.50E-1	5.28E+3	1.87E-1	1.10E+3
6.66E-1	5.31E+3	1.74E-1	1.14E+3
6.68E-1	5.30E+3	1.67E-1	1.12E+3
6.85E-1	5.22E+3	1.67E-1	1.04E+3
6.74E-1	5.33E+3	1.64E-1	1.02E+3
6.52E-1	5.22E+3	1.76E-1	1.05E+3
6.87E-1	5.28E+3	1.71E-1	1.06E+3
6.72E-1	5.20E+3	1.71E-1	1.01E+3
6.46E-1	5.24E+3	1.67E-1	1.08E+3
6.65E-1	5.35E+3	1.65E-1	1.02E+3
6.77E-1	5.32E+3	1.79E-1	1.07E+3
6.66E-1	5.37E+3	1.77E-1	1.10E+3
6.54E-1	5.44E+3	1.83E-1	1.17E+3
6.74E-1	5.12E+3	1.75E-1	1.01E+3
6.42E-1	5.19E+3	1.96E-1	1.21E+3
6.66E-1	5.26E+3	1.79E-1	1.09E+3
6.42E-1	5.16E+3	1.78E-1	1.09E+3
6.92E-1	5.29E+3	1.79E-1	1.03E+3
6.56E-1	5.31E+3	1.84E-1	1.07E+3
6.62E-1	5.29E+3	1.75E-1	1.08E+3
6.51E-1	5.30E+3	1.74E-1	1.06E+3
6.57E-1	5.26E+3	1.69E-1	1.02E+3
6.75E-1	5.29E+3	1.73E-1	1.05E+3
6.69E-1	5.20E+3	1.70E-1	1.02E+3
6.56E-1	5.35E+3	1.71E-1	1.09E+3
6.75E-1	5.26E+3	1.76E-1	1.07E+3
6.87E-1	5.31E+3	1.71E-1	1.03E+3
6.66E-1	5.32E+3	1.67E-1	1.05E+3
6.74E-1	5.28E+3	1.79E-1	1.03E+3
6.70E-1	5.28E+3	1.81E-1	1.07E+3
6.60E-1	5.33E+3	1.85E-1	1.13E+3
6.65E-1	5.33E+3	1.74E-1	1.05E+3
6.77E-1	5.31E+3	1.71E-1	1.10E+3
6.54E-1	5.34E+3	1.66E-1	9.88E+2
6.59E-1	5.37E+3	1.65E-1	9.81E+2
6.51E-1	5.23E+3	1.72E-1	9.86E+2
6.67E-1	5.35E+3	1.74E-1	1.10E+3
6.56E-1	5.38E+3	1.73E-1	1.01E+3
6.87E-1	5.28E+3	1.71E-1	1.03E+3
6.65E-1	5.35E+3	1.56E-1	1.02E+3
6.68E-1	5.39E+3	1.81E-1	1.12E+3
6.86E-1	5.31E+3	1.76E-1	1.07E+3
6.38E-1	5.20E+3	1.73E-1	1.04E+3
6.69E-1	5.27E+3	1.74E-1	1.03E+3
6.72E-1	5.29E+3	1.80E-1	1.05E+3
6.73E-1	5.28E+3	1.77E-1	1.04E+3
6.69E-1	5.20E+3	1.77E-1	1.06E+3
6.43E-1	5.10E+3	1.75E-1	1.02E+3
6.50E-1	5.28E+3	1.63E-1	9.83E+2
6.50E-1	5.35E+3	1.66E-1	1.01E+3
6.46E-1	5.31E+3	1.71E-1	1.04E+3
6.55E-1	5.26E+3	1.79E-1	1.14E+3
6.61E-1	5.40E+3	1.69E-1	1.10E+3
6.67E-1	5.35E+3	1.75E-1	1.11E+3
6.83E-1	5.32E+3	1.75E-1	1.07E+3
6.65E-1	5.24E+3	1.81E-1	1.15E+3
1.22E-2	1.02E+1	5.24E-1	2.75E+3
6.71E-1	5.32E+3	1.67E-1	9.72E+2
6.42E-1	5.29E+3	1.75E-1	1.07E+3
6.46E-1	5.19E+3	1.73E-1	1.04E+3
6.62E-1	5.25E+3	1.68E-1	1.02E+3
6.44E-1	5.34E+3	1.69E-1	1.07E+3
6.50E-1	5.32E+3	1.64E-1	1.03E+3
6.86E-1	5.26E+3	1.69E-1	1.08E+3
6.88E-1	5.33E+3	1.64E-1	1.01E+3
6.89E-1	5.23E+3	1.79E-1	1.11E+3
6.83E-1	5.23E+3	1.74E-1	1.09E+3
6.71E-1	5.15E+3	1.85E-1	1.08E+3
6.44E-1	5.30E+3	1.79E-1	1.02E+3
6.38E-1	5.23E+3	1.72E-1	1.04E+3
6.44E-1	5.26E+3	1.57E-1	9.46E+2
6.91E-1	5.35E+3	1.75E-1	1.03E+3
6.55E-1	5.21E+3	1.71E-1	1.07E+3
6.34E-1	5.16E+3	1.75E-1	1.06E+3
6.67E-1	5.34E+3	1.69E-1	1.04E+3
6.51E-1	5.34E+3	1.74E-1	1.10E+3
6.38E-1	5.17E+3	1.68E-1	1.05E+3
9.28E-3	2.05E+1	4.99E-1	2.70E+3
6.74E-1	5.37E+3	1.76E-1	1.06E+3
6.72E-1	5.34E+3	1.78E-1	1.08E+3
6.68E-1	5.31E+3	1.71E-1	1.08E+3
6.58E-1	5.26E+3	1.68E-1	1.03E+3
6.79E-1	5.38E+3	1.75E-1	1.04E+3
6.41E-1	5.29E+3	1.85E-1	1.12E+3
6.63E-1	5.34E+3	1.70E-1	1.07E+3
6.46E-1	5.25E+3	1.92E-1	1.10E+3
6.75E-1	5.23E+3	1.80E-1	1.10E+3
6.55E-1	5.30E+3	1.74E-1	1.06E+3
6.50E-1	5.31E+3	1.70E-1	1.05E+3
6.75E-1	5.25E+3	1.97E-1	1.17E+3
6.63E-1	5.25E+3	1.74E-1	1.03E+3
6.75E-1	5.26E+3	1.77E-1	1.07E+3
6.80E-1	5.15E+3	1.55E-1	9.29E+2
6.36E-1	5.22E+3	1.71E-1	1.07E+3
6.90E-1	5.44E+3	1.83E-1	1.17E+3
6.86E-1	5.31E+3	1.78E-1	1.05E+3
6.54E-1	5.23E+3	1.76E-1	1.11E+3
6.76E-1	5.31E+3	1.77E-1	1.05E+3
6.73E-1	5.24E+3	1.60E-1	9.57E+2
6.70E-1	5.27E+3	1.75E-1	1.05E+3
6.43E-1	5.34E+3	1.76E-1	1.05E+3
6.39E-1	5.21E+3	1.69E-1	1.04E+3
6.40E-1	5.31E+3	1.75E-1	1.03E+3
6.48E-1	5.18E+3	1.75E-1	1.02E+3
6.68E-1	5.28E+3	1.71E-1	1.05E+3
6.62E-1	5.32E+3	1.73E-1	1.12E+3
6.84E-1	5.41E+3	1.69E-1	1.02E+3
6.70E-1	5.31E+3	1.75E-1	1.18E+3
6.54E-1	5.22E+3	1.73E-1	1.09E+3
6.78E-1	5.34E+3	1.85E-1	1.09E+3
6.49E-1	5.31E+3	1.79E-1	1.01E+3
6.59E-1	5.30E+3	1.84E-1	1.10E+3
6.46E-1	5.26E+3	1.73E-1	1.04E+3
6.68E-1	5.29E+3	1.67E-1	1.07E+3
6.46E-1	5.26E+3	1.63E-1	1.00E+3
6.39E-1	5.12E+3	1.64E-1	1.02E+3
6.84E-1	5.20E+3	1.71E-1	1.05E+3
6.71E-1	5.28E+3	1.69E-1	1.03E+3
6.76E-1	5.32E+3	1.87E-1	1.11E+3
6.70E-1	5.43E+3	1.76E-1	1.13E+3
6.73E-1	5.21E+3	1.70E-1	1.07E+3
6.87E-1	5.33E+3	1.84E-1	1.10E+3
6.65E-1	5.30E+3	1.93E-1	1.09E+3
6.77E-1	5.19E+3	1.66E-1	9.82E+2
6.62E-1	5.27E+3	1.54E-1	9.79E+2
6.69E-1	5.09E+3	1.71E-1	9.91E+2
6.58E-1	5.14E+3	1.66E-1	1.00E+3
6.43E-1	5.21E+3	1.67E-1	1.05E+3
6.71E-1	5.37E+3	1.68E-1	1.07E+3
6.51E-1	5.32E+3	1.61E-1	1.03E+3
6.79E-1	5.35E+3	1.71E-1	1.07E+3
6.53E-1	5.33E+3	1.86E-1	1.11E+3
6.66E-1	5.21E+3	1.72E-1	1.10E+3
6.55E-1	5.29E+3	1.69E-1	1.02E+3
6.72E-1	5.34E+3	1.65E-1	9.56E+2
6.56E-1	5.21E+3	1.80E-1	1.07E+3
6.60E-1	5.27E+3	1.68E-1	1.09E+3
6.51E-1	5.32E+3	1.75E-1	1.08E+3
6.77E-1	5.32E+3	1.80E-1	1.09E+3
6.42E-1	5.25E+3	1.68E-1	1.04E+3
6.56E-1	5.19E+3	1.81E-1	1.05E+3
6.48E-1	5.31E+3	1.72E-1	1.01E+3
6.45E-1	5.21E+3	1.52E-1	9.29E+2
6.46E-1	5.26E+3	1.60E-1	1.01E+3
6.55E-1	5.22E+3	1.84E-1	1.04E+3
6.53E-1	5.28E+3	1.69E-1	1.09E+3
6.84E-1	5.35E+3	1.83E-1	1.12E+3
6.67E-1	5.37E+3	1.67E-1	1.05E+3
6.46E-1	5.15E+3	1.70E-1	1.07E+3
6.68E-1	5.24E+3	1.72E-1	1.09E+3
6.81E-1	5.31E+3	1.67E-1	1.09E+3
6.57E-1	5.27E+3	1.67E-1	1.04E+3
6.42E-1	5.29E+3	1.70E-1	1.01E+3
6.62E-1	5.24E+3	1.75E-1	1.08E+3
6.67E-1	5.27E+3	1.88E-1	1.17E+3
6.57E-1	5.27E+3	1.91E-1	1.16E+3
6.51E-1	5.26E+3	1.73E-1	1.09E+3
6.69E-1	5.27E+3	1.70E-1	1.03E+3
6.31E-1	5.19E+3	1.73E-1	1.04E+3
6.45E-1	5.29E+3	1.77E-1	1.06E+3
6.93E-1	5.31E+3	1.63E-1	9.91E+2
6.76E-1	5.15E+3	1.76E-1	1.06E+3
6.76E-1	5.27E+3	1.63E-1	1.08E+3
6.68E-1	5.24E+3	1.78E-1	1.06E+3
6.77E-1	5.30E+3	1.82E-1	1.12E+3
6.46E-1	5.16E+3	1.88E-1	1.14E+3
1.22E-2	2.44E+1	5.00E-1	2.67E+3
6.36E-1	5.15E+3	1.74E-1	1.03E+3
6.69E-1	5.25E+3	1.80E-1	1.11E+3
6.45E-1	5.25E+3	1.76E-1	1.08E+3
6.39E-1	5.18E+3	1.66E-1	9.97E+2
6.38E-1	5.28E+3	1.60E-1	9.93E+2
6.49E-1	5.33E+3	1.92E-1	1.17E+3
6.88E-1	5.32E+3	1.79E-1	1.13E+3
6.67E-1	5.36E+3	1.82E-1	1.07E+3
6.61E-1	5.18E+3	1.77E-1	1.04E+3
6.92E-1	5.22E+3	1.69E-1	1.09E+3
6.44E-1	5.20E+3	1.79E-1	1.06E+3
6.55E-1	5.24E+3	1.70E-1	1.06E+3
6.61E-1	5.26E+3	1.77E-1	1.09E+3
6.49E-1	5.34E+3	1.78E-1	1.10E+3
6.72E-1	5.32E+3	1.67E-1	1.01E+3
6.52E-1	5.36E+3	1.67E-1	1.02E+3
6.67E-1	5.30E+3	1.79E-1	1.09E+3
6.60E-1	5.25E+3	1.76E-1	1.06E+3
6.76E-1	5.46E+3	1.72E-1	1.03E+3
6.52E-1	5.28E+3	1.67E-1	9.74E+2
6.89E-1	5.20E+3	1.84E-1	1.08E+3
6.71E-1	5.26E+3	1.75E-1	1.09E+3
6.81E-1	5.26E+3	1.76E-1	1.05E+3
6.57E-1	5.26E+3	1.63E-1	9.57E+2
6.62E-1	5.29E+3	1.72E-1	1.11E+3
6.49E-1	5.28E+3	1.77E-1	1.14E+3
6.37E-1	5.24E+3	1.85E-1	1.07E+3
6.49E-1	5.24E+3	1.82E-1	1.13E+3
6.50E-1	5.18E+3	1.72E-1	1.01E+3
6.60E-1	5.13E+3	1.76E-1	1.08E+3
6.56E-1	5.21E+3	1.80E-1	1.09E+3
6.60E-1	5.21E+3	1.77E-1	1.08E+3
6.55E-1	5.23E+3	1.57E-1	9.94E+2
6.68E-1	5.32E+3	1.62E-1	1.02E+3
6.63E-1	5.39E+3	1.62E-1	1.07E+3
6.71E-1	5.31E+3	1.79E-1	1.10E+3
6.46E-1	5.20E+3	1.72E-1	1.09E+3
6.73E-1	5.24E+3	1.86E-1	1.08E+3
6.63E-1	5.20E+3	1.87E-1	1.16E+3
6.42E-1	5.20E+3	1.79E-1	1.14E+3
6.51E-1	5.28E+3	1.82E-1	1.06E+3
6.66E-1	5.15E+3	1.83E-1	1.11E+3
6.43E-1	5.23E+3	1.78E-1	1.05E+3
6.47E-1	5.16E+3	1.60E-1	1.02E+3
6.50E-1	5.31E+3	1.83E-1	1.13E+3
6.79E-1	5.34E+3	1.76E-1	1.08E+3
6.60E-1	5.19E+3	1.91E-1	1.09E+3
6.75E-1	5.28E+3	1.66E-1	1.03E+3
6.69E-1	5.24E+3	1.65E-1	1.02E+3
6.78E-1	5.10E+3	1.88E-1	1.15E+3
6.60E-1	5.10E+3	1.61E-1	1.02E+3
6.66E-1	5.21E+3	1.78E-1	1.07E+3
6.46E-1	5.36E+3	1.77E-1	1.08E+3
6.50E-1	5.29E+3	1.60E-1	1.00E+3
6.49E-1	5.33E+3	1.75E-1	1.02E+3
6.42E-1	5.18E+3	1.76E-1	1.09E+3
6.65E-1	5.41E+3	1.59E-1	1.01E+3
6.76E-1	5.27E+3	1.93E-1	1.12E+3
6.70E-1	5.26E+3	1.73E-1	1.08E+3
6.55E-1	5.28E+3	1.74E-1	1.08E+3
6.42E-1	5.28E+3	1.71E-1	1.00E+3
6.65E-1	5.19E+3	1.75E-1	1.04E+3
6.54E-1	5.16E+3	1.56E-1	9.75E+2
6.82E-1	5.43E+3	1.72E-1	1.07E+3
6.70E-1	5.12E+3	1.59E-1	1.04E+3
6.58E-1	5.27E+3	1.66E-1	1.06E+3
6.74E-1	5.27E+3	1.71E-1	1.07E+3
6.87E-1	5.38E+3	1.79E-1	1.11E+3
6.82E-1	5.34E+3	1.72E-1	1.09E+3
6.82E-1	5.18E+3	1.75E-1	1.10E+3
6.45E-1	5.31E+3	1.76E-1	1.03E+3
6.77E-1	5.28E+3	1.65E-1	1.03E+3
6.64E-1	5.29E+3	1.74E-1	1.10E+3
6.52E-1	5.44E+3	1.70E-1	1.02E+3
6.61E-1	5.25E+3	1.76E-1	1.11E+3
6.60E-1	5.27E+3	1.77E-1	1.10E+3
6.38E-1	5.14E+3	1.75E-1	1.11E+3
6.56E-1	5.42E+3	1.69E-1	1.01E+3
1.27E-2	1.87E+1	5.16E-1	2.72E+3
6.59E-1	5.27E+3	1.85E-1	1.12E+3
6.66E-1	5.30E+3	1.68E-1	1.04E+3
6.47E-1	5.25E+3	1.73E-1	1.05E+3
6.49E-1	5.21E+3	1.70E-1	1.04E+3
6.72E-1	5.26E+3	1.74E-1	1.08E+3
6.68E-1	5.23E+3	1.74E-1	1.08E+3
6.67E-1	5.32E+3	1.87E-1	1.08E+3
6.54E-1	5.23E+3	1.74E-1	1.04E+3
6.73E-1	5.09E+3	1.83E-1	1.07E+3
6.48E-1	5.35E+3	1.75E-1	1.08E+3
6.69E-1	5.31E+3	1.67E-1	1.08E+3
6.78E-1	5.33E+3	1.72E-1	1.15E+3
1.22E-2	2.36E+1	5.15E-1	2.74E+3
6.84E-1	5.32E+3	1.80E-1	1.10E+3
6.76E-1	5.23E+3	1.64E-1	1.06E+3
6.66E-1	5.25E+3	1.60E-1	1.01E+3
6.67E-1	5.28E+3	1.93E-1	1.17E+3
6.64E-1	5.20E+3	1.76E-1	1.11E+3
6.93E-1	5.36E+3	1.85E-1	1.11E+3
6.41E-1	5.26E+3	1.65E-1	1.07E+3
6.31E-1	5.11E+3	1.70E-1	1.07E+3
6.44E-1	5.29E+3	1.73E-1	1.05E+3
6.55E-1	5.12E+3	1.76E-1	1.10E+3
6.88E-1	5.35E+3	1.63E-1	1.00E+3
6.46E-1	5.34E+3	1.73E-1	1.09E+3
6.68E-1	5.25E+3	1.69E-1	1.03E+3
6.52E-1	5.27E+3	1.84E-1	1.05E+3
6.58E-1	5.27E+3	1.69E-1	1.02E+3
6.50E-1	5.30E+3	1.70E-1	1.10E+3
6.50E-1	5.17E+3	1.74E-1	1.02E+3
6.45E-1	5.31E+3	1.82E-1	1.10E+3
6.52E-1	5.21E+3	1.67E-1	1.01E+3
6.71E-1	5.28E+3	1.87E-1	1.14E+3
6.48E-1	5.35E+3	1.78E-1	1.06E+3
6.86E-1	5.11E+3	1.72E-1	1.04E+3
6.56E-1	5.31E+3	1.62E-1	1.06E+3
6.49E-1	5.24E+3	1.68E-1	1.06E+3
6.74E-1	5.24E+3	1.70E-1	1.04E+3
6.43E-1	5.27E+3	1.70E-1	1.06E+3
6.78E-1	5.28E+3	1.79E-1	1.09E+3
6.82E-1	5.30E+3	1.81E-1	1.14E+3
6.58E-1	5.30E+3	1.76E-1	1.05E+3
6.55E-1	5.36E+3	1.74E-1	1.14E+3
6.68E-1	5.28E+3	1.77E-1	1.11E+3
6.64E-1	5.36E+3	1.84E-1	1.13E+3
6.63E-1	5.22E+3	1.68E-1	1.06E+3
6.42E-1	5.24E+3	1.84E-1	1.11E+3
6.42E-1	5.12E+3	1.74E-1	1.04E+3
6.47E-1	5.31E+3	1.71E-1	1.03E+3
6.53E-1	5.24E+3	1.67E-1	1.02E+3
6.67E-1	5.22E+3	1.66E-1	9.92E+2
6.53E-1	5.29E+3	1.76E-1	1.07E+3
1.66E-2	4.66E+1	5.17E-1	2.76E+3
6.64E-1	5.19E+3	1.72E-1	1.05E+3
6.80E-1	5.20E+3	1.71E-1	1.07E+3
6.74E-1	5.29E+3	1.73E-1	1.08E+3
6.79E-1	5.17E+3	1.69E-1	1.06E+3
6.80E-1	5.31E+3	1.69E-1	1.11E+3
6.70E-1	5.18E+3	1.94E-1	1.12E+3
6.50E-1	5.22E+3	1.69E-1	1.09E+3
6.44E-1	5.26E+3	1.76E-1	1.04E+3
6.64E-1	5.31E+3	1.67E-1	1.06E+3
6.58E-1	5.10E+3	1.77E-1	1.01E+3
4.83E-2	6.12E+1	5.31E-1	2.73E+3
6.79E-1	5.32E+3	1.75E-1	1.07E+3
6.67E-1	5.29E+3	1.78E-1	1.10E+3
6.44E-1	5.22E+3	1.67E-1	1.01E+3
6.81E-1	5.24E+3	1.62E-1	1.02E+3
6.73E-1	5.26E+3	1.73E-1	1.10E+3
6.72E-1	5.34E+3	1.86E-1	1.12E+3
6.56E-1	5.29E+3	1.81E-1	1.13E+3
6.51E-1	5.16E+3	1.59E-1	1.00E+3
6.50E-1	5.39E+3	1.78E-1	1.11E+3
6.62E-1	5.26E+3	1.76E-1	1.16E+3
6.41E-1	5.15E+3	1.78E-1	1.05E+3
6.47E-1	5.26E+3	1.80E-1	1.06E+3
6.38E-1	5.32E+3	1.77E-1	1.06E+3
6.61E-1	5.23E+3	1.65E-1	1.01E+3
6.94E-1	5.37E+3	1.71E-1	1.10E+3
6.61E-1	5.11E+3	1.71E-1	1.06E+3
7.00E-1	5.20E+3	1.64E-1	1.01E+3
6.45E-1	5.24E+3	1.83E-1	1.11E+3
6.55E-1	5.24E+3	1.64E-1	1.04E+3
6.48E-1	5.26E+3	1.66E-1	9.99E+2
6.68E-1	5.39E+3	1.65E-1	1.03E+3
6.51E-1	5.33E+3	1.74E-1	1.09E+3
6.57E-1	5.30E+3	1.69E-1	1.03E+3
6.58E-1	5.17E+3	1.64E-1	1.05E+3
6.53E-1	5.22E+3	1.77E-1	1.11E+3
6.41E-1	5.29E+3	1.73E-1	1.03E+3
6.81E-1	5.23E+3	1.81E-1	1.15E+3
6.43E-1	5.26E+3	1.68E-1	1.01E+3
6.43E-1	5.16E+3	1.64E-1	1.01E+3
6.38E-1	5.25E+3	1.77E-1	1.08E+3
6.79E-1	5.35E+3	1.78E-1	1.04E+3
6.70E-1	5.29E+3	1.71E-1	1.03E+3
6.45E-1	5.15E+3	1.66E-1	1.02E+3
6.56E-1	5.22E+3	1.78E-1	1.08E+3
6.46E-1	5.13E+3	1.85E-1	1.12E+3
6.78E-1	5.27E+3	1.85E-1	1.14E+3
6.66E-1	5.33E+3	1.69E-1	1.09E+3
6.63E-1	5.28E+3	1.62E-1	1.05E+3
6.78E-1	5.21E+3	1.73E-1	1.08E+3
6.73E-1	5.33E+3	1.75E-1	1.03E+3
6.50E-1	5.26E+3	1.55E-1	9.60E+2
6.72E-1	5.34E+3	1.68E-1	1.05E+3
6.90E-1	5.39E+3	1.72E-1	1.04E+3
6.80E-1	5.24E+3	1.89E-1	1.12E+3
6.41E-1	5.24E+3	1.73E-1	1.04E+3
6.83E-1	5.22E+3	1.66E-1	1.05E+3
6.48E-1	5.35E+3	1.70E-1	1.06E+3
6.57E-1	5.25E+3	1.81E-1	1.13E+3
6.62E-1	5.28E+3	1.77E-1	1.15E+3
6.46E-1	5.27E+3	1.88E-1	1.13E+3
6.39E-1	5.22E+3	1.73E-1	1.05E+3
6.47E-1	5.30E+3	1.78E-1	1.07E+3
6.77E-1	5.20E+3	1.76E-1	1.04E+3
6.45E-1	5.16E+3	1.78E-1	1.04E+3
6.80E-1	5.33E+3	1.81E-1	1.08E+3
6.33E-1	5.19E+3	1.80E-1	1.09E+3
6.44E-1	5.31E+3	1.76E-1	1.08E+3
6.33E-1	5.25E+3	1.72E-1	1.07E+3
6.81E-1	5.40E+3	1.67E-1	1.03E+3
6.69E-1	5.19E+3	1.66E-1	1.06E+3
6.58E-1	5.23E+3	1.81E-1	1.07E+3
6.70E-1	5.26E+3	1.74E-1	1.10E+3
6.96E-1	5.40E+3	1.71E-1	1.06E+3
6.71E-1	5.28E+3	1.87E-1	1.17E+3
6.47E-1	5.21E+3	1.73E-1	1.04E+3
6.67E-1	5.29E+3	1.75E-1	1.11E+3
6.66E-1	5.31E+3	1.71E-1	1.10E+3
6.37E-1	5.22E+3	1.63E-1	1.05E+3
6.49E-1	5.27E+3	1.61E-1	1.01E+3
6.71E-1	5.41E+3	1.81E-1	1.11E+3
6.44E-1	5.27E+3	1.84E-1	1.10E+3
6.40E-1	5.17E+3	1.62E-1	1.06E+3
6.55E-1	5.27E+3	1.74E-1	1.04E+3
6.74E-1	5.16E+3	1.78E-1	1.10E+3
6.64E-1	5.17E+3	1.77E-1	1.09E+3
6.54E-1	5.25E+3	1.81E-1	1.15E+3
6.68E-1	5.25E+3	1.75E-1	1.08E+3
6.50E-1	5.25E+3	1.76E-1	1.11E+3
6.47E-1	5.22E+3	1.64E-1	1.10E+3
6.68E-1	5.38E+3	1.85E-1	1.16E+3
6.51E-1	5.26E+3	1.67E-1	1.06E+3
6.47E-1	5.32E+3	1.89E-1	1.12E+3
6.75E-1	5.33E+3	1.81E-1	1.06E+3
6.46E-1	5.21E+3	1.84E-1	1.13E+3
6.45E-1	5.27E+3	1.80E-1	1.07E+3
6.46E-1	5.26E+3	1.58E-1	9.89E+2
6.75E-1	5.33E+3	1.69E-1	1.09E+3
7.00E-1	5.42E+3	1.62E-1	1.01E+3
6.95E-1	5.28E+3	1.58E-1	1.06E+3
6.53E-1	5.34E+3	1.62E-1	1.02E+3
6.51E-1	5.15E+3	1.74E-1	1.06E+3
6.50E-1	5.21E+3	1.70E-1	1.02E+3
6.80E-1	5.26E+3	1.92E-1	1.14E+3
6.73E-1	5.41E+3	1.61E-1	1.05E+3
6.84E-1	5.39E+3	1.82E-1	1.13E+3
6.45E-1	5.26E+3	1.65E-1	1.07E+3
6.60E-1	5.20E+3	1.83E-1	1.03E+3
6.44E-1	5.26E+3	1.66E-1	1.04E+3
6.45E-1	5.31E+3	1.94E-1	1.17E+3
6.56E-1	5.25E+3	1.85E-1	1.12E+3
6.59E-1	5.17E+3	1.88E-1	1.10E+3
6.47E-1	5.26E+3	1.81E-1	1.10E+3
6.59E-1	5.25E+3	1.69E-1	1.05E+3
6.84E-1	5.41E+3	1.81E-1	1.10E+3
6.69E-1	5.19E+3	1.84E-1	1.12E+3
6.62E-1	5.18E+3	1.64E-1	1.05E+3
6.91E-1	5.35E+3	1.92E-1	1.11E+3
6.87E-1	5.24E+3	1.84E-1	1.10E+3
6.38E-1	5.24E+3	1.79E-1	1.12E+3
6.63E-1	5.25E+3	1.65E-1	1.02E+3
6.72E-1	5.14E+3	1.74E-1	1.11E+3
6.63E-1	5.19E+3	1.81E-1	1.09E+3
6.64E-1	5.20E+3	1.72E-1	1.08E+3
6.44E-1	5.25E+3	1.74E-1	1.08E+3
6.65E-1	5.28E+3	1.71E-1	1.06E+3
6.49E-1	5.21E+3	1.70E-1	1.07E+3
6.60E-1	5.16E+3	1.69E-1	1.02E+3
6.77E-1	5.23E+3	1.88E-1	1.04E+3
6.53E-1	5.31E+3	1.68E-1	1.03E+3
6.81E-1	5.19E+3	1.79E-1	1.05E+3
6.76E-1	5.38E+3	1.87E-1	1.06E+3
6.57E-1	5.21E+3	1.69E-1	1.09E+3
6.88E-1	5.27E+3	1.67E-1	1.01E+3
6.38E-1	5.25E+3	1.84E-1	1.12E+3
6.69E-1	5.27E+3	1.73E-1	1.03E+3
6.46E-1	5.24E+3	1.84E-1	1.09E+3
6.76E-1	5.25E+3	1.70E-1	1.04E+3
6.45E-1	5.36E+3	1.87E-1	1.11E+3
6.55E-1	5.25E+3	1.71E-1	1.07E+3
6.60E-1	5.26E+3	1.71E-1	1.03E+3
6.97E-1	5.29E+3	1.67E-1	1.05E+3
6.82E-1	5.21E+3	1.82E-1	1.13E+3
6.60E-1	5.40E+3	1.70E-1	1.17E+3
6.68E-1	5.35E+3	1.75E-1	1.05E+3
6.62E-1	5.32E+3	1.74E-1	1.09E+3
6.43E-1	5.18E+3	1.80E-1	1.05E+3
6.49E-1	5.24E+3	1.84E-1	1.07E+3
6.81E-1	5.39E+3	1.66E-1	1.10E+3
6.59E-1	5.23E+3	1.67E-1	1.03E+3
6.45E-1	5.14E+3	1.76E-1	1.07E+3
6.51E-1	5.43E+3	1.73E-1	1.12E+3
6.40E-1	5.23E+3	1.77E-1	1.11E+3
6.53E-1	5.15E+3	1.67E-1	9.88E+2
6.45E-1	5.31E+3	1.73E-1	1.08E+3
6.74E-1	5.26E+3	1.64E-1	1.05E+3
6.70E-1	5.37E+3	1.85E-1	1.10E+3
6.74E-1	5.17E+3	1.72E-1	1.06E+3
7.03E-1	5.26E+3	1.54E-1	9.65E+2
6.69E-1	5.34E+3	1.98E-1	1.19E+3
6.44E-1	5.27E+3	1.83E-1	1.13E+3
6.37E-1	5.22E+3	1.81E-1	1.07E+3
6.42E-1	5.31E+3	1.67E-1	1.05E+3
6.54E-1	5.20E+3	1.81E-1	1.05E+3
6.48E-1	5.21E+3	1.67E-1	1.07E+3
6.60E-1	5.24E+3	1.76E-1	1.02E+3
6.45E-1	5.25E+3	1.88E-1	1.12E+3
6.69E-1	5.24E+3	1.74E-1	1.09E+3
6.70E-1	5.18E+3	1.77E-1	1.07E+3
6.60E-1	5.34E+3	1.78E-1	1.05E+3
6.76E-1	5.31E+3	1.63E-1	1.01E+3
6.75E-1	5.23E+3	1.72E-1	1.05E+3
6.63E-1	5.23E+3	1.80E-1	1.09E+3
6.59E-1	5.35E+3	1.62E-1	1.03E+3
6.72E-1	5.27E+3	1.76E-1	1.05E+3
6.57E-1	5.35E+3	1.79E-1	1.14E+3
6.65E-1	5.30E+3	1.87E-1	1.11E+3
6.61E-1	5.37E+3	1.95E-1	1.18E+3
6.50E-1	5.25E+3	1.76E-1	1.11E+3
6.41E-1	5.19E+3	1.91E-1	1.14E+3
6.28E-1	5.08E+3	1.73E-1	1.09E+3
6.50E-1	5.30E+3	1.87E-1	1.12E+3
6.55E-1	5.15E+3	1.74E-1	1.07E+3
6.65E-1	5.32E+3	1.75E-1	1.15E+3
6.62E-1	5.16E+3	1.71E-1	1.05E+3
6.45E-1	5.33E+3	1.72E-1	1.09E+3
6.86E-1	5.30E+3	1.86E-1	1.08E+3
6.84E-1	5.28E+3	1.84E-1	1.09E+3
6.53E-1	5.33E+3	1.75E-1	1.04E+3
6.48E-1	5.31E+3	1.84E-1	1.10E+3
6.59E-1	5.33E+3	1.82E-1	1.10E+3
6.44E-1	5.36E+3	1.69E-1	1.09E+3
6.44E-1	5.22E+3	1.70E-1	1.07E+3
6.93E-1	5.31E+3	1.77E-1	1.07E+3
6.58E-1	5.21E+3	1.68E-1	1.00E+3
6.56E-1	5.37E+3	1.66E-1	9.96E+2
6.79E-1	5.32E+3	1.74E-1	1.10E+3
6.59E-1	5.32E+3	1.66E-1	1.01E+3
6.66E-1	5.27E+3	1.77E-1	1.07E+3
6.75E-1	5.35E+3	1.71E-1	1.06E+3
6.52E-1	5.27E+3	1.70E-1	1.10E+3
6.60E-1	5.18E+3	1.95E-1	1.14E+3
6.58E-1	5.26E+3	1.77E-1	1.11E+3
6.61E-1	5.23E+3	1.76E-1	1.09E+3
6.63E-1	5.46E+3	1.70E-1	1.05E+3
9.47E-2	1.05E+2	5.03E-1	2.68E+3
6.68E-1	5.29E+3	1.78E-1	1.04E+3
6.51E-1	5.11E+3	1.84E-1	1.07E+3
6.78E-1	5.28E+3	1.82E-1	1.09E+3
6.66E-1	5.30E+3	1.73E-1	1.09E+3
6.77E-1	5.32E+3	1.72E-1	1.11E+3
6.73E-1	5.31E+3	1.64E-1	1.03E+3
6.60E-1	5.32E+3	1.78E-1	1.01E+3
6.76E-1	5.28E+3	1.62E-1	1.02E+3
6.56E-1	5.27E+3	1.88E-1	1.21E+3
6.73E-1	5.29E+3	1.87E-1	1.04E+3
6.44E-1	5.21E+3	1.87E-1	1.13E+3
6.61E-1	5.27E+3	1.74E-1	1.04E+3
6.84E-1	5.36E+3	1.77E-1	1.09E+3
6.63E-1	5.20E+3	1.72E-1	1.03E+3
6.52E-1	5.33E+3	1.70E-1	1.00E+3
6.73E-1	5.09E+3	1.81E-1	1.12E+3
6.51E-1	5.40E+3	1.79E-1	1.03E+3
6.60E-1	5.15E+3	1.64E-1	9.72E+2
6.67E-1	5.22E+3	1.76E-1	1.03E+3
6.57E-1	5.30E+3	1.76E-1	1.10E+3
9.52E-3	1.73E+1	5.10E-1	2.71E+3
6.72E-1	5.24E+3	1.89E-1	1.11E+3
6.75E-1	5.38E+3	1.71E-1	1.04E+3
6.80E-1	5.33E+3	1.77E-1	1.14E+3
6.75E-1	5.29E+3	1.69E-1	1.13E+3
6.66E-1	5.23E+3	1.74E-1	1.07E+3
6.78E-1	5.15E+3	1.72E-1	1.00E+3
6.71E-1	5.32E+3	1.67E-1	9.88E+2
6.88E-1	5.20E+3	1.75E-1	1.05E+3
6.54E-1	5.36E+3	1.81E-1	1.00E+3
6.53E-1	5.20E+3	1.70E-1	1.10E+3
6.92E-1	5.30E+3	1.69E-1	1.05E+3
6.55E-1	5.16E+3	1.69E-1	1.08E+3
6.78E-1	5.31E+3	1.60E-1	9.92E+2
6.72E-1	5.35E+3	1.66E-1	9.62E+2
6.68E-1	5.24E+3	1.74E-1	1.08E+3
6.77E-1	5.18E+3	1.83E-1	1.03E+3
6.54E-1	5.17E+3	1.84E-1	1.11E+3
6.55E-1	5.34E+3	1.65E-1	1.02E+3
6.65E-1	5.30E+3	1.67E-1	1.07E+3
6.45E-1	5.18E+3	1.88E-1	1.10E+3
6.68E-1	5.15E+3	1.72E-1	1.03E+3
6.77E-1	5.27E+3	1.81E-1	1.07E+3
6.36E-1	5.13E+3	1.68E-1	1.06E+3
6.38E-1	5.18E+3	1.68E-1	9.97E+2
6.50E-1	5.21E+3	1.79E-1	1.08E+3
6.50E-1	5.20E+3	1.85E-1	1.13E+3
6.71E-1	5.32E+3	1.77E-1	1.10E+3
6.69E-1	5.25E+3	1.60E-1	1.03E+3
6.63E-1	5.32E+3	1.79E-1	1.05E+3
6.70E-1	5.13E+3	1.83E-1	1.12E+3
6.73E-1	5.27E+3	1.55E-1	9.40E+2
6.60E-1	5.14E+3	1.77E-1	1.12E+3
6.52E-1	5.21E+3	1.87E-1	1.07E+3
6.78E-1	5.37E+3	1.75E-1	1.05E+3
6.43E-1	5.26E+3	1.76E-1	1.06E+3
6.40E-1	5.26E+3	1.93E-1	1.20E+3
6.67E-1	5.25E+3	1.72E-1	1.01E+3
6.65E-1	5.14E+3	1.70E-1	1.07E+3
6.64E-1	5.27E+3	1.83E-1	1.03E+3
6.53E-1	5.31E+3	1.72E-1	1.10E+3
6.77E-1	5.22E+3	1.70E-1	1.07E+3
6.62E-1	5.19E+3	1.82E-1	1.11E+3
6.85E-1	5.31E+3	1.73E-1	1.06E+3
6.76E-1	5.18E+3	1.92E-1	1.09E+3
6.67E-1	5.22E+3	1.82E-1	1.09E+3
6.41E-1	5.27E+3	1.77E-1	1.09E+3
1.25E-2	3.95E+1	5.11E-1	2.67E+3
6.56E-1	5.21E+3	1.69E-1	9.55E+2
6.58E-1	5.32E+3	1.80E-1	1.05E+3
6.45E-1	5.28E+3	1.64E-1	1.02E+3
6.69E-1	5.23E+3	1.71E-1	9.90E+2
6.41E-1	5.22E+3	1.65E-1	9.29E+2
6.41E-1	5.16E+3	1.75E-1	1.02E+3
6.71E-1	5.23E+3	1.85E-1	1.12E+3
6.75E-1	5.30E+3	1.71E-1	1.13E+3
6.56E-1	5.26E+3	1.84E-1	1.16E+3
6.64E-1	5.20E+3	1.92E-1	1.08E+3
6.71E-1	5.27E+3	1.84E-1	1.10E+3
6.73E-1	5.36E+3	1.85E-1	1.11E+3
6.44E-1	5.20E+3	1.96E-1	1.14E+3
6.33E-1	5.25E+3	1.77E-1	1.05E+3
6.51E-1	5.37E+3	1.86E-1	1.07E+3
6.65E-1	5.28E+3	1.83E-1	1.04E+3
6.33E-1	5.17E+3	1.79E-1	1.04E+3
6.87E-1	5.31E+3	1.77E-1	1.10E+3
6.67E-1	5.25E+3	1.94E-1	1.17E+3
6.72E-1	5.27E+3	1.75E-1	1.08E+3
6.68E-1	5.18E+3	1.83E-1	1.08E+3
6.73E-1	5.29E+3	1.87E-1	1.10E+3
6.45E-1	5.25E+3	1.80E-1	1.12E+3
6.60E-1	5.21E+3	1.76E-1	1.06E+3
6.53E-1	5.20E+3	1.71E-1	1.08E+3
6.72E-1	5.27E+3	1.77E-1	1.05E+3
6.51E-1	5.41E+3	1.71E-1	1.05E+3
6.45E-1	5.25E+3	1.77E-1	1.05E+3
6.71E-1	5.27E+3	1.65E-1	1.03E+3
6.56E-1	5.26E+3	1.67E-1	1.03E+3
6.56E-1	5.36E+3	1.74E-1	1.09E+3
6.41E-1	5.21E+3	1.77E-1	1.09E+3
6.42E-1	5.18E+3	1.77E-1	1.06E+3
6.78E-1	5.28E+3	1.62E-1	1.02E+3
6.64E-1	5.34E+3	1.82E-1	1.07E+3
6.77E-1	5.27E+3	1.77E-1	1.07E+3
6.77E-1	5.27E+3	1.77E-1	1.13E+3
6.63E-1	5.31E+3	1.66E-1	9.31E+2
6.41E-1	5.18E+3	1.70E-1	9.92E+2
6.64E-1	5.24E+3	1.83E-1	1.09E+3
6.45E-1	5.31E+3	1.64E-1	1.01E+3
6.48E-1	5.27E+3	1.83E-1	1.03E+3
6.60E-1	5.35E+3	1.72E-1	1.07E+3
1.32E-2	4.25E+1	5.19E-1	2.71E+3
2.49E-2	3.46E+1	4.97E-1	2.79E+3
6.81E-1	5.37E+3	1.71E-1	1.06E+3
6.70E-1	5.20E+3	1.63E-1	9.97E+2
6.68E-1	5.28E+3	1.75E-1	1.06E+3
6.45E-1	5.38E+3	1.80E-1	1.14E+3
6.45E-1	5.27E+3	1.69E-1	1.07E+3
6.93E-1	5.33E+3	1.78E-1	1.09E+3
6.71E-1	5.22E+3	1.75E-1	1.06E+3
6.50E-1	5.11E+3	1.73E-1	1.04E+3
6.48E-1	5.36E+3	1.79E-1	1.10E+3
6.35E-1	5.17E+3	1.66E-1	1.03E+3
6.59E-1	5.27E+3	1.86E-1	1.12E+3
6.55E-1	5.20E+3	1.63E-1	1.02E+3
6.57E-1	5.31E+3	1.65E-1	1.04E+3
6.62E-1	5.30E+3	1.66E-1	1.05E+3
6.51E-1	5.21E+3	1.70E-1	1.01E+3
6.58E-1	5.22E+3	1.88E-1	1.12E+3
6.84E-1	5.28E+3	1.67E-1	1.06E+3
6.75E-1	5.20E+3	1.74E-1	1.06E+3
6.48E-1	5.14E+3	1.67E-1	1.03E+3
6.42E-1	5.22E+3	1.89E-1	1.15E+3
6.82E-1	5.23E+3	1.80E-1	1.02E+3
6.81E-1	5.16E+3	1.72E-1	1.05E+3
6.76E-1	5.20E+3	1.59E-1	9.68E+2
6.77E-1	5.23E+3	1.63E-1	1.01E+3
6.47E-1	5.37E+3	1.87E-1	1.09E+3
6.35E-1	5.22E+3	1.72E-1	1.02E+3
6.49E-1	5.28E+3	1.67E-1	1.01E+3
6.43E-1	5.27E+3	1.68E-1	1.09E+3
6.67E-1	5.28E+3	1.73E-1	1.07E+3
6.67E-1	5.23E+3	1.59E-1	1.00E+3
6.41E-1	5.19E+3	1.73E-1	1.12E+3
6.67E-1	5.19E+3	1.75E-1	1.10E+3
6.62E-1	5.27E+3	1.81E-1	1.17E+3
