5.45E-1	4.90E+3	1.33E-1	9.94E+2
5.83E-1	5.07E+3	1.48E-1	1.12E+3
5.60E-1	4.97E+3	1.45E-1	1.03E+3
5.63E-1	4.93E+3	1.40E-1	1.02E+3
5.62E-1	4.93E+3	1.61E-1	1.15E+3
5.45E-1	4.88E+3	1.36E-1	1.03E+3
5.59E-1	4.97E+3	1.48E-1	1.04E+3
5.65E-1	5.00E+3	1.61E-1	1.06E+3
5.67E-1	5.02E+3	1.42E-1	1.02E+3
5.51E-1	4.85E+3	1.48E-1	1.08E+3
5.59E-1	4.89E+3	1.47E-1	1.08E+3
5.67E-1	5.04E+3	1.53E-1	1.07E+3
5.64E-1	5.01E+3	1.43E-1	1.08E+3
5.51E-1	4.89E+3	1.51E-1	1.09E+3
5.56E-1	4.96E+3	1.49E-1	1.09E+3
5.62E-1	5.08E+3	1.50E-1	1.14E+3
5.53E-1	4.88E+3	1.44E-1	1.06E+3
5.77E-1	5.05E+3	1.53E-1	1.09E+3
5.60E-1	4.94E+3	1.51E-1	1.02E+3
5.69E-1	4.98E+3	1.46E-1	9.94E+2
5.60E-1	5.04E+3	1.41E-1	1.03E+3
5.54E-1	5.01E+3	1.40E-1	1.05E+3
5.68E-1	4.91E+3	1.53E-1	1.09E+3
5.80E-1	5.08E+3	1.50E-1	1.05E+3
5.56E-1	5.05E+3	1.53E-1	1.08E+3
5.73E-1	4.99E+3	1.51E-1	1.04E+3
5.71E-1	4.90E+3	1.67E-1	1.19E+3
5.61E-1	5.06E+3	1.53E-1	1.07E+3
5.51E-1	4.96E+3	1.51E-1	1.07E+3
5.53E-1	4.92E+3	1.48E-1	1.07E+3
5.77E-1	4.97E+3	1.55E-1	1.12E+3
5.61E-1	4.95E+3	1.47E-1	1.05E+3
5.42E-1	4.89E+3	1.46E-1	1.07E+3
5.49E-1	4.90E+3	1.50E-1	1.06E+3
5.69E-1	4.89E+3	1.60E-1	1.11E+3
8.30E-3	1.54E+1	3.55E-1	2.69E+3
5.66E-1	4.95E+3	1.51E-1	1.10E+3
5.61E-1	4.98E+3	1.41E-1	1.01E+3
5.79E-1	5.13E+3	1.55E-1	1.08E+3
5.53E-1	4.96E+3	1.41E-1	1.03E+3
5.65E-1	5.03E+3	1.56E-1	1.15E+3
5.51E-1	4.98E+3	1.51E-1	1.11E+3
5.57E-1	4.94E+3	1.37E-1	1.04E+3
5.50E-1	5.01E+3	1.43E-1	1.05E+3
5.76E-1	5.02E+3	1.56E-1	1.06E+3
5.62E-1	5.08E+3	1.61E-1	1.08E+3
5.74E-1	4.97E+3	1.52E-1	1.01E+3
5.59E-1	4.97E+3	1.42E-1	1.00E+3
5.62E-1	4.87E+3	1.58E-1	1.10E+3
5.77E-1	4.92E+3	1.60E-1	1.10E+3
5.56E-1	5.00E+3	1.59E-1	1.09E+3
5.44E-1	4.89E+3	1.42E-1	1.05E+3
5.65E-1	5.12E+3	1.50E-1	1.07E+3
5.76E-1	5.20E+3	1.48E-1	1.13E+3
5.47E-1	4.91E+3	1.52E-1	1.14E+3
5.66E-1	5.06E+3	1.41E-1	9.91E+2
5.54E-1	5.02E+3	1.50E-1	1.03E+3
5.55E-1	5.02E+3	1.52E-1	1.13E+3
5.64E-1	5.02E+3	1.53E-1	1.16E+3
5.57E-1	4.82E+3	1.48E-1	1.07E+3
5.61E-1	4.94E+3	1.58E-1	1.12E+3
5.61E-1	4.95E+3	1.50E-1	1.07E+3
5.63E-1	4.96E+3	1.63E-1	1.13E+3
5.48E-1	4.92E+3	1.56E-1	1.11E+3
5.83E-1	5.03E+3	1.49E-1	1.05E+3
5.50E-1	4.94E+3	1.50E-1	1.04E+3
5.55E-1	5.02E+3	1.60E-1	1.14E+3
5.70E-1	5.03E+3	1.56E-1	1.13E+3
5.69E-1	5.05E+3	1.51E-1	1.07E+3
5.47E-1	4.92E+3	1.45E-1	1.09E+3
5.72E-1	5.00E+3	1.51E-1	1.11E+3
5.60E-1	5.03E+3	1.47E-1	1.11E+3
5.73E-1	4.97E+3	1.39E-1	1.01E+3
5.53E-1	5.03E+3	1.41E-1	1.01E+3
5.72E-1	5.00E+3	1.49E-1	1.05E+3
5.62E-1	4.94E+3	1.57E-1	1.05E+3
5.52E-1	4.98E+3	1.49E-1	1.02E+3
5.67E-1	5.04E+3	1.40E-1	1.02E+3
5.53E-1	4.99E+3	1.64E-1	1.11E+3
5.56E-1	5.04E+3	1.57E-1	1.11E+3
5.60E-1	5.03E+3	1.53E-1	1.09E+3
5.70E-1	5.00E+3	1.50E-1	1.14E+3
5.57E-1	4.99E+3	1.39E-1	1.02E+3
5.69E-1	4.99E+3	1.51E-1	1.10E+3
5.59E-1	4.99E+3	1.52E-1	1.10E+3
5.60E-1	5.00E+3	1.59E-1	1.09E+3
5.62E-1	5.11E+3	1.48E-1	1.08E+3
5.51E-1	4.96E+3	1.51E-1	1.09E+3
5.71E-1	4.95E+3	1.62E-1	1.09E+3
5.60E-1	4.95E+3	1.49E-1	1.06E+3
5.61E-1	5.03E+3	1.61E-1	1.09E+3
5.54E-1	4.98E+3	1.41E-1	1.03E+3
5.59E-1	4.87E+3	1.49E-1	1.04E+3
5.41E-1	4.87E+3	1.48E-1	1.09E+3
5.50E-1	4.98E+3	1.46E-1	1.07E+3
5.47E-1	4.91E+3	1.64E-1	1.08E+3
5.57E-1	4.91E+3	1.45E-1	1.08E+3
5.65E-1	5.00E+3	1.46E-1	1.06E+3
5.50E-1	4.86E+3	1.44E-1	1.03E+3
5.70E-1	5.03E+3	1.58E-1	1.07E+3
5.73E-1	5.02E+3	1.46E-1	1.06E+3
5.44E-1	4.82E+3	1.36E-1	1.00E+3
5.56E-1	4.99E+3	1.65E-1	1.11E+3
5.55E-1	4.97E+3	1.56E-1	1.05E+3
5.79E-1	5.07E+3	1.37E-1	1.01E+3
5.68E-1	5.05E+3	1.53E-1	1.13E+3
5.61E-1	4.99E+3	1.53E-1	1.10E+3
5.57E-1	4.97E+3	1.50E-1	1.10E+3
5.58E-1	5.01E+3	1.64E-1	1.16E+3
5.50E-1	4.92E+3	1.51E-1	1.12E+3
5.75E-1	5.03E+3	1.48E-1	1.10E+3
5.54E-1	4.91E+3	1.39E-1	1.03E+3
5.62E-1	4.90E+3	1.54E-1	1.13E+3
5.59E-1	5.04E+3	1.44E-1	1.12E+3
5.58E-1	4.95E+3	1.46E-1	1.06E+3
5.58E-1	4.88E+3	1.59E-1	1.13E+3
5.56E-1	4.92E+3	1.37E-1	1.00E+3
5.67E-1	4.94E+3	1.56E-1	1.12E+3
5.47E-1	4.92E+3	1.48E-1	1.08E+3
5.72E-1	5.10E+3	1.39E-1	9.94E+2
5.82E-1	5.01E+3	1.44E-1	1.04E+3
5.52E-1	4.97E+3	1.47E-1	1.02E+3
5.54E-1	4.99E+3	1.50E-1	1.05E+3
5.53E-1	5.12E+3	1.42E-1	1.03E+3
5.66E-1	5.10E+3	1.55E-1	1.09E+3
5.50E-1	4.99E+3	1.41E-1	1.02E+3
5.53E-1	4.92E+3	1.55E-1	1.12E+3
5.69E-1	4.92E+3	1.63E-1	1.15E+3
5.69E-1	4.91E+3	1.49E-1	1.10E+3
5.71E-1	4.91E+3	1.51E-1	1.14E+3
5.77E-1	5.07E+3	1.46E-1	1.02E+3
5.66E-1	5.03E+3	1.41E-1	1.02E+3
5.76E-1	5.05E+3	1.61E-1	1.14E+3
5.69E-1	4.97E+3	1.60E-1	1.07E+3
5.66E-1	5.08E+3	1.57E-1	1.08E+3
5.67E-1	4.95E+3	1.53E-1	1.11E+3
5.49E-1	4.95E+3	1.55E-1	1.16E+3
5.49E-1	4.92E+3	1.58E-1	1.12E+3
5.69E-1	4.99E+3	1.55E-1	1.06E+3
5.70E-1	5.02E+3	1.59E-1	1.10E+3
5.73E-1	5.02E+3	1.45E-1	1.07E+3
5.49E-1	4.94E+3	1.67E-1	1.11E+3
5.75E-1	5.04E+3	1.60E-1	1.17E+3
5.62E-1	5.01E+3	1.58E-1	1.13E+3
5.71E-1	4.95E+3	1.40E-1	9.64E+2
5.65E-1	5.08E+3	1.52E-1	1.04E+3
5.56E-1	4.98E+3	1.51E-1	1.09E+3
5.49E-1	4.88E+3	1.55E-1	1.07E+3
5.68E-1	4.92E+3	1.46E-1	1.04E+3
5.61E-1	5.00E+3	1.57E-1	1.13E+3
5.55E-1	4.96E+3	1.50E-1	1.07E+3
5.59E-1	5.05E+3	1.59E-1	1.08E+3
5.62E-1	5.06E+3	1.56E-1	1.16E+3
5.53E-1	4.97E+3	1.38E-1	9.67E+2
5.65E-1	4.89E+3	1.49E-1	1.07E+3
5.62E-1	5.07E+3	1.53E-1	1.10E+3
5.69E-1	4.96E+3	1.57E-1	1.13E+3
5.58E-1	4.90E+3	1.53E-1	1.06E+3
5.67E-1	5.02E+3	1.60E-1	1.17E+3
5.59E-1	4.97E+3	1.55E-1	1.04E+3
5.64E-1	4.95E+3	1.71E-1	1.14E+3
5.64E-1	5.03E+3	1.41E-1	1.07E+3
5.58E-1	5.00E+3	1.52E-1	1.03E+3
5.81E-1	5.05E+3	1.41E-1	1.06E+3
5.60E-1	4.85E+3	1.59E-1	1.22E+3
5.57E-1	4.97E+3	1.54E-1	1.13E+3
5.59E-1	4.98E+3	1.49E-1	1.05E+3
5.59E-1	4.90E+3	1.61E-1	1.13E+3
5.69E-1	5.02E+3	1.36E-1	9.88E+2
5.59E-1	5.09E+3	1.57E-1	1.13E+3
5.58E-1	5.03E+3	1.54E-1	1.15E+3
5.70E-1	4.93E+3	1.52E-1	1.08E+3
5.52E-1	4.92E+3	1.45E-1	1.01E+3
5.52E-1	4.91E+3	1.59E-1	1.14E+3
5.41E-1	4.94E+3	1.48E-1	1.06E+3
5.56E-1	5.06E+3	1.55E-1	1.12E+3
5.74E-1	5.04E+3	1.51E-1	1.01E+3
5.60E-1	5.05E+3	1.57E-1	1.09E+3
5.62E-1	5.07E+3	1.58E-1	1.12E+3
5.79E-1	4.99E+3	1.48E-1	1.06E+3
5.47E-1	4.92E+3	1.76E-1	1.24E+3
5.59E-1	4.89E+3	1.64E-1	1.15E+3
5.50E-1	4.94E+3	1.52E-1	1.05E+3
5.66E-1	4.98E+3	1.64E-1	1.11E+3
5.67E-1	5.02E+3	1.60E-1	1.06E+3
5.65E-1	5.05E+3	1.50E-1	1.08E+3
5.74E-1	4.94E+3	1.49E-1	1.08E+3
5.74E-1	5.18E+3	1.54E-1	1.06E+3
5.62E-1	5.09E+3	1.67E-1	1.15E+3
5.55E-1	4.95E+3	1.47E-1	1.00E+3
5.55E-1	4.92E+3	1.53E-1	1.16E+3
5.41E-1	4.86E+3	1.54E-1	1.14E+3
5.52E-1	4.91E+3	1.56E-1	1.15E+3
5.61E-1	5.05E+3	1.52E-1	1.08E+3
5.69E-1	4.96E+3	1.53E-1	1.15E+3
5.58E-1	4.98E+3	1.53E-1	1.13E+3
5.67E-1	4.92E+3	1.56E-1	1.06E+3
5.63E-1	5.08E+3	1.56E-1	1.15E+3
5.52E-1	4.98E+3	1.54E-1	1.05E+3
5.76E-1	5.08E+3	1.46E-1	1.09E+3
5.73E-1	5.04E+3	1.45E-1	1.06E+3
5.70E-1	5.01E+3	1.52E-1	1.06E+3
5.51E-1	4.98E+3	1.67E-1	1.13E+3
5.55E-1	5.00E+3	1.49E-1	1.12E+3
5.58E-1	5.00E+3	1.49E-1	1.12E+3
5.48E-1	4.94E+3	1.56E-1	1.04E+3
5.49E-1	4.99E+3	1.53E-1	1.10E+3
5.47E-1	5.00E+3	1.63E-1	1.21E+3
5.57E-1	5.03E+3	1.48E-1	1.05E+3
5.60E-1	5.05E+3	1.49E-1	1.09E+3
5.68E-1	5.03E+3	1.54E-1	1.05E+3
5.57E-1	4.95E+3	1.49E-1	1.03E+3
5.50E-1	4.81E+3	1.45E-1	1.04E+3
5.66E-1	4.97E+3	1.51E-1	1.11E+3
5.60E-1	4.97E+3	1.51E-1	1.04E+3
5.77E-1	5.04E+3	1.59E-1	1.09E+3
5.59E-1	5.05E+3	1.42E-1	1.04E+3
5.67E-1	5.03E+3	1.39E-1	1.03E+3
5.80E-1	4.98E+3	1.42E-1	1.06E+3
5.73E-1	5.08E+3	1.53E-1	1.11E+3
5.79E-1	5.00E+3	1.55E-1	1.13E+3
5.42E-1	4.84E+3	1.54E-1	1.13E+3
5.69E-1	5.03E+3	1.57E-1	1.14E+3
5.73E-1	5.09E+3	1.51E-1	1.09E+3
5.55E-1	5.05E+3	1.56E-1	1.17E+3
5.77E-1	4.93E+3	1.63E-1	1.11E+3
5.73E-1	4.94E+3	1.55E-1	1.09E+3
5.59E-1	5.03E+3	1.47E-1	1.07E+3
5.77E-1	5.02E+3	1.49E-1	1.09E+3
5.44E-1	4.92E+3	1.58E-1	1.12E+3
5.61E-1	5.11E+3	1.48E-1	1.08E+3
5.48E-1	4.92E+3	1.41E-1	9.86E+2
5.58E-1	4.97E+3	1.71E-1	1.15E+3
5.54E-1	4.97E+3	1.59E-1	1.16E+3
5.58E-1	4.97E+3	1.46E-1	1.08E+3
5.63E-1	5.01E+3	1.57E-1	1.11E+3
5.50E-1	5.06E+3	1.45E-1	1.07E+3
5.73E-1	5.04E+3	1.44E-1	1.07E+3
5.61E-1	5.04E+3	1.53E-1	1.10E+3
5.67E-1	4.93E+3	1.60E-1	1.14E+3
5.55E-1	4.88E+3	1.46E-1	9.89E+2
5.63E-1	5.05E+3	1.50E-1	1.07E+3
5.57E-1	5.00E+3	1.53E-1	1.13E+3
5.67E-1	4.87E+3	1.60E-1	1.12E+3
5.72E-1	5.03E+3	1.55E-1	1.14E+3
5.49E-1	4.96E+3	1.39E-1	1.08E+3
5.57E-1	4.97E+3	1.56E-1	1.04E+3
5.47E-1	5.03E+3	1.46E-1	1.11E+3
5.45E-1	4.95E+3	1.49E-1	1.08E+3
5.52E-1	4.97E+3	1.50E-1	1.15E+3
5.71E-1	4.96E+3	1.41E-1	1.03E+3
5.48E-1	4.84E+3	1.41E-1	1.09E+3
5.73E-1	4.91E+3	1.53E-1	1.08E+3
5.46E-1	4.85E+3	1.47E-1	1.06E+3
5.49E-1	4.97E+3	1.54E-1	1.11E+3
5.68E-1	4.95E+3	1.44E-1	1.12E+3
5.56E-1	5.01E+3	1.57E-1	1.11E+3
5.53E-1	5.00E+3	1.41E-1	9.96E+2
5.52E-1	4.95E+3	1.59E-1	1.13E+3
5.53E-1	4.98E+3	1.63E-1	1.13E+3
5.59E-1	5.07E+3	1.65E-1	1.15E+3
5.55E-1	5.04E+3	1.55E-1	1.06E+3
5.52E-1	4.94E+3	1.53E-1	1.10E+3
5.52E-1	4.95E+3	1.56E-1	1.11E+3
5.69E-1	5.03E+3	1.55E-1	1.03E+3
5.38E-1	4.83E+3	1.52E-1	1.05E+3
1.78E-2	3.66E+1	3.63E-1	2.67E+3
5.50E-1	4.90E+3	1.45E-1	1.06E+3
5.60E-1	4.95E+3	1.56E-1	1.06E+3
5.66E-1	5.00E+3	1.52E-1	1.05E+3
5.65E-1	4.99E+3	1.55E-1	1.08E+3
5.55E-1	4.94E+3	1.53E-1	1.05E+3
5.77E-1	5.03E+3	1.51E-1	1.00E+3
5.58E-1	4.99E+3	1.41E-1	1.05E+3
5.52E-1	5.01E+3	1.52E-1	1.11E+3
5.70E-1	4.95E+3	1.62E-1	1.11E+3
5.52E-1	4.98E+3	1.44E-1	1.08E+3
5.71E-1	4.94E+3	1.58E-1	1.16E+3
5.57E-1	5.04E+3	1.45E-1	1.11E+3
5.66E-1	5.12E+3	1.54E-1	1.07E+3
5.66E-1	5.06E+3	1.58E-1	1.11E+3
5.69E-1	5.12E+3	1.51E-1	1.02E+3
5.54E-1	4.96E+3	1.48E-1	1.09E+3
5.50E-1	4.97E+3	1.59E-1	1.12E+3
5.61E-1	5.08E+3	1.58E-1	1.15E+3
5.90E-1	5.13E+3	1.60E-1	1.09E+3
5.50E-1	4.98E+3	1.74E-1	1.18E+3
9.28E-3	2.22E+1	3.64E-1	2.73E+3
5.51E-1	4.95E+3	1.55E-1	1.08E+3
5.47E-1	4.88E+3	1.50E-1	1.10E+3
5.55E-1	5.03E+3	1.53E-1	1.17E+3
5.53E-1	4.92E+3	1.51E-1	1.06E+3
5.61E-1	4.95E+3	1.37E-1	9.64E+2
5.55E-1	5.07E+3	1.49E-1	1.10E+3
5.58E-1	4.89E+3	1.54E-1	1.11E+3
5.63E-1	4.89E+3	1.44E-1	1.07E+3
5.78E-1	5.12E+3	1.46E-1	1.03E+3
5.47E-1	4.89E+3	1.56E-1	1.08E+3
5.59E-1	4.99E+3	1.54E-1	1.10E+3
5.54E-1	5.05E+3	1.45E-1	1.07E+3
5.80E-1	5.03E+3	1.55E-1	1.10E+3
5.67E-1	4.97E+3	1.59E-1	1.18E+3
5.50E-1	4.93E+3	1.47E-1	1.08E+3
5.60E-1	4.94E+3	1.47E-1	1.11E+3
5.79E-1	5.10E+3	1.49E-1	1.13E+3
5.58E-1	5.02E+3	1.52E-1	1.16E+3
5.53E-1	4.89E+3	1.52E-1	1.04E+3
5.52E-1	4.99E+3	1.41E-1	1.07E+3
5.62E-1	4.88E+3	1.43E-1	1.04E+3
5.75E-1	4.95E+3	1.58E-1	1.09E+3
5.70E-1	5.07E+3	1.63E-1	1.12E+3
5.53E-1	4.91E+3	1.49E-1	1.05E+3
5.63E-1	5.12E+3	1.50E-1	1.05E+3
5.58E-1	4.95E+3	1.53E-1	1.06E+3
5.45E-1	4.90E+3	1.46E-1	1.05E+3
5.55E-1	4.99E+3	1.69E-1	1.15E+3
5.58E-1	5.03E+3	1.53E-1	1.11E+3
5.58E-1	4.96E+3	1.63E-1	1.16E+3
5.72E-1	5.13E+3	1.51E-1	1.03E+3
5.47E-1	5.00E+3	1.55E-1	1.11E+3
5.48E-1	4.92E+3	1.64E-1	1.17E+3
5.61E-1	5.07E+3	1.53E-1	1.10E+3
5.51E-1	4.81E+3	1.50E-1	1.07E+3
5.63E-1	5.04E+3	1.46E-1	1.05E+3
5.59E-1	4.95E+3	1.37E-1	1.02E+3
5.67E-1	5.03E+3	1.53E-1	1.14E+3
5.45E-1	4.97E+3	1.56E-1	1.13E+3
5.74E-1	5.13E+3	1.56E-1	1.13E+3
5.66E-1	5.04E+3	1.48E-1	1.09E+3
5.86E-1	4.95E+3	1.52E-1	1.13E+3
5.54E-1	4.88E+3	1.56E-1	1.15E+3
5.64E-1	5.08E+3	1.55E-1	1.11E+3
5.54E-1	4.98E+3	1.49E-1	1.11E+3
5.78E-1	5.00E+3	1.53E-1	1.08E+3
5.63E-1	5.04E+3	1.52E-1	1.11E+3
5.50E-1	4.96E+3	1.54E-1	1.12E+3
5.83E-1	5.08E+3	1.59E-1	1.09E+3
5.61E-1	5.04E+3	1.41E-1	1.02E+3
5.54E-1	4.99E+3	1.56E-1	1.14E+3
5.48E-1	4.95E+3	1.50E-1	1.06E+3
5.47E-1	4.93E+3	1.68E-1	1.15E+3
5.54E-1	5.04E+3	1.41E-1	1.05E+3
5.62E-1	4.99E+3	1.44E-1	1.07E+3
5.78E-1	4.86E+3	1.52E-1	1.08E+3
5.58E-1	5.07E+3	1.49E-1	1.14E+3
5.57E-1	5.00E+3	1.49E-1	1.08E+3
5.49E-1	4.93E+3	1.73E-1	1.20E+3
5.50E-1	5.02E+3	1.60E-1	1.14E+3
5.79E-1	4.98E+3	1.92E-1	1.15E+3
5.62E-1	4.86E+3	1.57E-1	1.14E+3
5.42E-1	4.89E+3	1.52E-1	1.03E+3
5.62E-1	4.98E+3	1.60E-1	1.12E+3
5.69E-1	5.08E+3	1.59E-1	1.14E+3
5.76E-1	5.06E+3	1.44E-1	1.06E+3
5.51E-1	4.94E+3	1.60E-1	1.13E+3
5.64E-1	4.95E+3	1.37E-1	1.01E+3
5.52E-1	4.91E+3	1.37E-1	1.05E+3
5.63E-1	5.04E+3	1.62E-1	1.16E+3
5.54E-1	5.00E+3	1.42E-1	1.07E+3
5.64E-1	4.88E+3	1.58E-1	1.16E+3
5.54E-1	5.02E+3	1.47E-1	1.05E+3
5.44E-1	4.87E+3	1.46E-1	1.05E+3
5.65E-1	5.07E+3	1.50E-1	1.11E+3
5.58E-1	5.07E+3	1.55E-1	1.05E+3
5.76E-1	5.07E+3	1.55E-1	1.09E+3
5.55E-1	4.92E+3	1.59E-1	1.11E+3
5.49E-1	4.89E+3	1.56E-1	1.07E+3
5.66E-1	4.91E+3	1.53E-1	1.13E+3
5.62E-1	4.98E+3	1.53E-1	1.09E+3
5.60E-1	4.91E+3	1.61E-1	1.13E+3
5.61E-1	5.02E+3	1.46E-1	1.11E+3
5.53E-1	4.97E+3	1.40E-1	1.05E+3
5.64E-1	4.95E+3	1.46E-1	1.03E+3
5.62E-1	5.03E+3	1.39E-1	1.03E+3
5.48E-1	4.91E+3	1.56E-1	1.13E+3
5.51E-1	4.90E+3	1.43E-1	1.00E+3
5.66E-1	4.91E+3	1.60E-1	1.08E+3
5.75E-1	4.92E+3	1.53E-1	1.07E+3
5.52E-1	5.05E+3	1.36E-1	9.94E+2
5.53E-1	4.91E+3	1.45E-1	1.00E+3
5.62E-1	5.03E+3	1.56E-1	1.08E+3
5.59E-1	5.01E+3	1.41E-1	1.05E+3
5.62E-1	5.01E+3	1.46E-1	1.04E+3
5.85E-1	5.16E+3	1.39E-1	1.08E+3
5.56E-1	5.07E+3	1.53E-1	1.11E+3
5.76E-1	5.03E+3	1.56E-1	1.18E+3
5.77E-1	5.13E+3	1.53E-1	1.13E+3
5.50E-1	4.92E+3	1.52E-1	1.16E+3
5.49E-1	4.97E+3	1.53E-1	1.12E+3
5.65E-1	5.01E+3	1.53E-1	1.07E+3
5.71E-1	4.98E+3	1.53E-1	1.03E+3
5.52E-1	5.03E+3	1.43E-1	1.10E+3
5.66E-1	4.94E+3	1.52E-1	1.08E+3
5.62E-1	4.93E+3	1.55E-1	1.12E+3
5.56E-1	4.99E+3	1.46E-1	1.08E+3
5.63E-1	5.03E+3	1.40E-1	1.03E+3
5.55E-1	4.88E+3	1.74E-1	1.21E+3
5.51E-1	4.92E+3	1.53E-1	1.09E+3
5.65E-1	4.97E+3	1.46E-1	1.13E+3
5.59E-1	5.01E+3	1.50E-1	1.09E+3
5.54E-1	5.01E+3	1.44E-1	1.10E+3
5.55E-1	5.02E+3	1.47E-1	1.03E+3
5.48E-1	4.82E+3	1.62E-1	1.11E+3
5.71E-1	4.90E+3	1.50E-1	1.06E+3
5.66E-1	5.26E+3	1.49E-1	1.07E+3
5.77E-1	5.06E+3	1.52E-1	9.82E+2
5.53E-1	5.00E+3	1.46E-1	9.80E+2
5.66E-1	5.01E+3	1.50E-1	1.10E+3
5.56E-1	5.01E+3	1.56E-1	1.09E+3
5.68E-1	5.02E+3	1.49E-1	1.10E+3
5.64E-1	4.99E+3	1.57E-1	1.14E+3
5.60E-1	5.01E+3	1.51E-1	1.14E+3
5.72E-1	4.92E+3	1.38E-1	9.62E+2
5.61E-1	5.01E+3	1.47E-1	1.14E+3
5.52E-1	4.96E+3	1.44E-1	1.06E+3
5.56E-1	4.93E+3	1.55E-1	1.09E+3
5.65E-1	5.02E+3	1.51E-1	1.14E+3
5.61E-1	5.03E+3	1.50E-1	1.08E+3
5.58E-1	5.08E+3	1.50E-1	1.05E+3
5.58E-1	4.99E+3	1.55E-1	1.16E+3
5.49E-1	4.93E+3	1.43E-1	1.07E+3
5.62E-1	5.01E+3	1.44E-1	1.03E+3
5.52E-1	4.94E+3	1.43E-1	1.05E+3
5.55E-1	4.96E+3	1.46E-1	1.15E+3
5.53E-1	4.96E+3	1.48E-1	1.01E+3
5.77E-1	5.14E+3	1.46E-1	1.11E+3
5.57E-1	4.97E+3	1.62E-1	1.08E+3
5.69E-1	4.97E+3	1.58E-1	1.09E+3
5.52E-1	5.03E+3	1.48E-1	1.02E+3
5.66E-1	5.05E+3	1.48E-1	1.07E+3
5.57E-1	5.04E+3	1.36E-1	9.79E+2
5.50E-1	4.94E+3	1.47E-1	1.06E+3
5.65E-1	4.99E+3	1.54E-1	1.07E+3
5.56E-1	4.99E+3	1.49E-1	1.13E+3
5.56E-1	4.94E+3	1.58E-1	1.09E+3
5.65E-1	5.13E+3	1.61E-1	1.17E+3
5.60E-1	5.10E+3	1.51E-1	1.10E+3
5.66E-1	4.97E+3	1.44E-1	9.80E+2
5.61E-1	4.97E+3	1.42E-1	1.02E+3
5.55E-1	4.97E+3	1.50E-1	1.15E+3
5.57E-1	4.94E+3	1.58E-1	1.15E+3
5.67E-1	5.03E+3	1.68E-1	1.15E+3
5.45E-1	4.91E+3	1.51E-1	1.06E+3
5.61E-1	4.83E+3	1.53E-1	1.08E+3
5.52E-1	4.95E+3	1.58E-1	1.09E+3
5.50E-1	5.07E+3	1.61E-1	1.14E+3
5.63E-1	5.03E+3	1.62E-1	1.19E+3
5.60E-1	5.04E+3	1.56E-1	1.15E+3
5.62E-1	5.03E+3	1.49E-1	1.05E+3
5.44E-1	4.85E+3	1.46E-1	1.06E+3
5.57E-1	5.03E+3	1.49E-1	1.14E+3
5.64E-1	5.01E+3	1.55E-1	1.12E+3
5.70E-1	5.00E+3	1.58E-1	1.14E+3
5.47E-1	4.84E+3	1.53E-1	1.07E+3
5.66E-1	5.01E+3	1.53E-1	1.07E+3
5.66E-1	5.04E+3	1.46E-1	1.03E+3
5.64E-1	4.94E+3	1.55E-1	1.12E+3
5.62E-1	4.92E+3	1.54E-1	1.16E+3
5.65E-1	4.93E+3	1.45E-1	1.04E+3
5.52E-1	5.00E+3	1.58E-1	1.11E+3
5.54E-1	5.01E+3	1.47E-1	1.05E+3
5.49E-1	4.93E+3	1.49E-1	1.13E+3
5.55E-1	4.93E+3	1.43E-1	1.08E+3
5.58E-1	5.05E+3	1.55E-1	1.18E+3
5.83E-1	5.12E+3	1.59E-1	1.15E+3
5.65E-1	5.03E+3	1.57E-1	1.09E+3
5.62E-1	4.82E+3	1.50E-1	1.07E+3
5.76E-1	4.94E+3	1.58E-1	1.03E+3
5.54E-1	4.96E+3	1.41E-1	1.03E+3
5.50E-1	4.91E+3	1.59E-1	1.09E+3
5.60E-1	4.95E+3	1.59E-1	1.11E+3
5.57E-1	4.97E+3	1.54E-1	1.12E+3
5.55E-1	5.03E+3	1.50E-1	1.12E+3
5.46E-1	4.95E+3	1.56E-1	1.12E+3
5.69E-1	5.04E+3	1.54E-1	1.12E+3
5.71E-1	4.95E+3	1.46E-1	1.08E+3
5.58E-1	4.91E+3	1.49E-1	1.08E+3
5.57E-1	5.08E+3	1.44E-1	1.04E+3
5.41E-1	4.88E+3	1.44E-1	1.07E+3
5.83E-1	5.03E+3	1.42E-1	1.08E+3
5.86E-1	5.02E+3	1.54E-1	1.10E+3
5.58E-1	4.92E+3	1.51E-1	1.05E+3
5.72E-1	4.97E+3	1.67E-1	1.16E+3
5.43E-1	4.89E+3	1.54E-1	1.08E+3
5.55E-1	4.98E+3	1.55E-1	1.15E+3
5.69E-1	4.96E+3	1.52E-1	1.06E+3
5.71E-1	5.00E+3	1.44E-1	1.05E+3
5.54E-1	5.06E+3	1.49E-1	1.06E+3
9.77E-3	3.76E+0	3.72E-1	2.69E+3
5.62E-1	5.05E+3	1.43E-1	1.07E+3
5.48E-1	4.89E+3	1.36E-1	1.00E+3
5.65E-1	4.99E+3	1.46E-1	1.08E+3
5.64E-1	4.94E+3	1.61E-1	1.09E+3
5.56E-1	4.98E+3	1.62E-1	1.11E+3
5.61E-1	4.99E+3	1.52E-1	1.10E+3
5.61E-1	4.95E+3	1.54E-1	1.04E+3
5.62E-1	5.03E+3	1.47E-1	1.08E+3
5.66E-1	4.97E+3	1.40E-1	1.01E+3
5.54E-1	4.86E+3	1.60E-1	1.10E+3
5.52E-1	4.97E+3	1.41E-1	1.08E+3
5.56E-1	5.02E+3	1.46E-1	1.09E+3
5.53E-1	5.03E+3	1.55E-1	1.11E+3
5.71E-1	4.91E+3	1.42E-1	9.77E+2
5.74E-1	4.93E+3	1.48E-1	1.10E+3
5.57E-1	4.97E+3	1.40E-1	1.10E+3
5.71E-1	5.15E+3	1.58E-1	1.08E+3
5.60E-1	5.00E+3	1.65E-1	1.11E+3
5.67E-1	5.09E+3	1.58E-1	1.09E+3
5.71E-1	5.09E+3	1.53E-1	1.11E+3
5.65E-1	5.02E+3	1.51E-1	1.10E+3
5.55E-1	4.96E+3	1.39E-1	9.94E+2
5.55E-1	5.08E+3	1.65E-1	1.19E+3
5.59E-1	4.98E+3	1.63E-1	1.12E+3
5.52E-1	4.98E+3	1.68E-1	1.18E+3
5.52E-1	4.89E+3	1.49E-1	1.10E+3
5.61E-1	5.09E+3	1.47E-1	1.09E+3
5.54E-1	4.96E+3	1.58E-1	1.18E+3
5.57E-1	5.02E+3	1.50E-1	1.14E+3
5.71E-1	4.92E+3	1.46E-1	1.10E+3
5.76E-1	5.08E+3	1.52E-1	1.05E+3
5.71E-1	5.02E+3	1.61E-1	1.12E+3
5.52E-1	4.94E+3	1.48E-1	1.03E+3
5.59E-1	4.97E+3	1.50E-1	1.05E+3
5.63E-1	5.02E+3	1.48E-1	1.02E+3
5.61E-1	4.99E+3	1.49E-1	1.07E+3
5.63E-1	5.06E+3	1.57E-1	1.12E+3
5.51E-1	5.02E+3	1.57E-1	1.10E+3
5.56E-1	5.00E+3	1.53E-1	1.15E+3
5.58E-1	5.06E+3	1.56E-1	1.15E+3
5.45E-1	4.96E+3	1.51E-1	1.15E+3
5.52E-1	4.99E+3	1.48E-1	1.02E+3
5.53E-1	4.95E+3	1.54E-1	1.17E+3
5.52E-1	4.95E+3	1.56E-1	1.12E+3
5.64E-1	4.92E+3	1.54E-1	1.11E+3
5.48E-1	4.96E+3	1.42E-1	1.06E+3
5.47E-1	4.97E+3	1.56E-1	1.11E+3
5.55E-1	5.02E+3	1.41E-1	1.02E+3
5.79E-1	5.18E+3	1.40E-1	1.02E+3
5.64E-1	4.99E+3	1.41E-1	9.53E+2
5.57E-1	4.97E+3	1.60E-1	1.17E+3
5.49E-1	5.02E+3	1.48E-1	1.09E+3
5.74E-1	5.06E+3	1.56E-1	1.14E+3
5.50E-1	4.82E+3	1.50E-1	1.12E+3
5.67E-1	4.92E+3	1.54E-1	1.10E+3
5.63E-1	4.95E+3	1.55E-1	1.13E+3
5.55E-1	4.91E+3	1.57E-1	1.09E+3
5.61E-1	5.03E+3	1.60E-1	1.15E+3
5.58E-1	4.87E+3	1.49E-1	1.05E+3
5.79E-1	5.04E+3	1.44E-1	1.10E+3
5.60E-1	5.00E+3	1.44E-1	1.01E+3
5.59E-1	5.00E+3	1.49E-1	1.10E+3
5.69E-1	4.96E+3	1.67E-1	1.14E+3
5.65E-1	4.90E+3	1.54E-1	1.14E+3
5.52E-1	4.95E+3	1.54E-1	1.14E+3
5.51E-1	4.94E+3	1.52E-1	1.13E+3
5.49E-1	4.93E+3	1.56E-1	1.13E+3
5.55E-1	4.96E+3	1.48E-1	1.09E+3
5.79E-1	4.97E+3	1.47E-1	1.08E+3
5.53E-1	4.97E+3	1.56E-1	1.12E+3
5.49E-1	4.87E+3	1.64E-1	1.11E+3
5.63E-1	4.96E+3	1.48E-1	1.04E+3
5.80E-1	5.04E+3	1.53E-1	1.11E+3
5.64E-1	4.98E+3	1.56E-1	1.03E+3
5.60E-1	5.02E+3	1.47E-1	1.06E+3
5.57E-1	4.92E+3	1.43E-1	1.09E+3
5.62E-1	5.08E+3	1.52E-1	1.04E+3
5.62E-1	5.01E+3	1.41E-1	1.03E+3
5.58E-1	5.04E+3	1.47E-1	1.03E+3
5.77E-1	5.00E+3	1.64E-1	1.09E+3
5.59E-1	5.09E+3	1.38E-1	1.01E+3
5.49E-1	4.90E+3	1.50E-1	1.07E+3
5.55E-1	4.96E+3	1.73E-1	1.21E+3
5.62E-1	4.96E+3	1.63E-1	1.11E+3
5.68E-1	4.90E+3	1.52E-1	1.10E+3
5.47E-1	4.88E+3	1.54E-1	1.04E+3
5.82E-1	5.02E+3	1.49E-1	1.11E+3
5.50E-1	4.89E+3	1.52E-1	1.11E+3
5.59E-1	5.07E+3	1.50E-1	1.09E+3
5.85E-1	5.03E+3	1.50E-1	1.11E+3
5.47E-1	4.85E+3	1.53E-1	1.06E+3
5.49E-1	4.86E+3	1.46E-1	1.08E+3
5.64E-1	5.06E+3	1.56E-1	1.13E+3
5.82E-1	5.11E+3	1.63E-1	1.13E+3
5.59E-1	4.97E+3	1.48E-1	1.10E+3
5.53E-1	4.96E+3	1.38E-1	1.08E+3
5.67E-1	5.01E+3	1.46E-1	1.07E+3
5.52E-1	4.99E+3	1.48E-1	1.10E+3
5.81E-1	5.02E+3	1.49E-1	1.13E+3
5.54E-1	4.99E+3	1.55E-1	1.12E+3
5.54E-1	4.93E+3	1.46E-1	1.06E+3
5.54E-1	5.03E+3	1.38E-1	1.00E+3
5.61E-1	4.92E+3	1.49E-1	1.05E+3
5.56E-1	4.87E+3	1.67E-1	1.14E+3
5.56E-1	4.96E+3	1.44E-1	1.08E+3
5.53E-1	4.99E+3	1.51E-1	1.13E+3
5.70E-1	4.98E+3	1.43E-1	9.79E+2
5.55E-1	5.04E+3	1.54E-1	1.10E+3
5.59E-1	5.04E+3	1.51E-1	1.10E+3
5.61E-1	4.87E+3	1.60E-1	1.19E+3
5.79E-1	5.08E+3	1.47E-1	1.11E+3
5.81E-1	5.04E+3	1.39E-1	9.56E+2
5.40E-1	4.89E+3	1.48E-1	1.04E+3
5.78E-1	5.05E+3	1.49E-1	1.03E+3
5.69E-1	4.83E+3	1.57E-1	1.06E+3
5.53E-1	4.98E+3	1.42E-1	1.04E+3
5.63E-1	4.89E+3	1.59E-1	1.15E+3
5.77E-1	4.85E+3	1.55E-1	1.05E+3
5.54E-1	5.03E+3	1.62E-1	1.13E+3
5.42E-1	4.81E+3	1.52E-1	9.97E+2
5.61E-1	4.92E+3	1.41E-1	1.07E+3
5.55E-1	5.03E+3	1.59E-1	1.13E+3
5.59E-1	4.94E+3	1.38E-1	9.82E+2
5.70E-1	4.99E+3	1.50E-1	1.10E+3
5.46E-1	4.91E+3	1.48E-1	1.06E+3
5.84E-1	5.08E+3	1.56E-1	1.10E+3
5.62E-1	5.04E+3	1.56E-1	1.13E+3
5.57E-1	5.07E+3	1.45E-1	1.10E+3
5.57E-1	5.00E+3	1.61E-1	1.18E+3
7.81E-3	1.76E+1	3.56E-1	2.63E+3
5.58E-1	5.08E+3	1.51E-1	1.09E+3
5.52E-1	5.05E+3	1.46E-1	1.04E+3
5.57E-1	4.82E+3	1.67E-1	1.11E+3
5.68E-1	4.96E+3	1.47E-1	1.07E+3
5.62E-1	5.13E+3	1.75E-1	1.25E+3
5.58E-1	4.99E+3	1.61E-1	1.16E+3
5.50E-1	4.91E+3	1.52E-1	1.10E+3
5.52E-1	4.94E+3	1.41E-1	9.47E+2
5.51E-1	5.02E+3	1.59E-1	1.11E+3
5.62E-1	4.99E+3	1.65E-1	1.21E+3
5.66E-1	4.98E+3	1.53E-1	1.12E+3
5.62E-1	4.97E+3	1.39E-1	9.82E+2
5.35E-1	4.81E+3	1.38E-1	1.03E+3
5.63E-1	4.93E+3	1.53E-1	1.04E+3
5.43E-1	4.79E+3	1.46E-1	1.01E+3
5.82E-1	5.06E+3	1.60E-1	1.10E+3
5.63E-1	5.11E+3	1.51E-1	1.07E+3
5.52E-1	4.95E+3	1.55E-1	1.15E+3
5.76E-1	4.89E+3	1.49E-1	9.83E+2
5.67E-1	5.02E+3	1.51E-1	1.11E+3
5.69E-1	4.95E+3	1.42E-1	1.05E+3
5.51E-1	4.95E+3	1.62E-1	1.15E+3
5.56E-1	4.94E+3	1.37E-1	9.84E+2
5.58E-1	4.93E+3	1.55E-1	1.13E+3
5.81E-1	5.02E+3	1.49E-1	1.02E+3
5.71E-1	5.04E+3	1.52E-1	1.09E+3
5.53E-1	4.98E+3	1.45E-1	1.01E+3
5.50E-1	4.91E+3	1.46E-1	1.04E+3
5.47E-1	4.94E+3	1.58E-1	1.07E+3
5.60E-1	4.98E+3	1.56E-1	1.13E+3
5.56E-1	4.91E+3	1.55E-1	1.11E+3
5.53E-1	4.94E+3	1.39E-1	9.57E+2
5.55E-1	4.93E+3	1.62E-1	1.19E+3
5.70E-1	5.04E+3	1.38E-1	1.02E+3
5.56E-1	5.04E+3	1.46E-1	1.04E+3
5.60E-1	4.94E+3	1.49E-1	1.04E+3
5.69E-1	5.03E+3	1.65E-1	1.16E+3
5.65E-1	5.02E+3	1.45E-1	1.02E+3
5.68E-1	4.99E+3	1.61E-1	1.09E+3
5.74E-1	5.00E+3	1.46E-1	1.01E+3
5.65E-1	4.95E+3	1.55E-1	1.00E+3
5.71E-1	5.06E+3	1.66E-1	1.11E+3
5.53E-1	4.92E+3	1.55E-1	1.14E+3
5.71E-1	5.18E+3	1.58E-1	1.11E+3
5.55E-1	5.01E+3	1.42E-1	1.06E+3
5.73E-1	5.00E+3	1.57E-1	1.18E+3
5.59E-1	4.89E+3	1.62E-1	1.12E+3
5.83E-1	5.08E+3	1.46E-1	1.07E+3
5.78E-1	5.07E+3	1.55E-1	1.12E+3
5.50E-1	4.96E+3	1.60E-1	1.15E+3
5.80E-1	4.95E+3	1.49E-1	1.09E+3
5.89E-1	5.06E+3	1.54E-1	1.14E+3
5.49E-1	5.02E+3	1.52E-1	1.02E+3
5.71E-1	4.93E+3	1.51E-1	1.02E+3
5.42E-1	4.89E+3	1.66E-1	1.15E+3
5.46E-1	4.88E+3	1.48E-1	1.03E+3
5.55E-1	4.89E+3	1.45E-1	1.05E+3
5.54E-1	4.96E+3	1.64E-1	1.16E+3
5.50E-1	4.98E+3	1.48E-1	1.12E+3
5.46E-1	4.93E+3	1.50E-1	1.07E+3
5.52E-1	4.89E+3	1.53E-1	1.07E+3
5.83E-1	4.93E+3	1.42E-1	1.08E+3
5.43E-1	4.92E+3	1.44E-1	1.06E+3
5.64E-1	4.96E+3	1.43E-1	1.02E+3
5.77E-1	5.05E+3	1.49E-1	1.05E+3
5.67E-1	5.06E+3	1.45E-1	9.72E+2
5.77E-1	5.07E+3	1.49E-1	1.10E+3
5.51E-1	4.95E+3	1.48E-1	1.02E+3
5.63E-1	5.02E+3	1.57E-1	1.12E+3
5.66E-1	4.99E+3	1.61E-1	1.11E+3
5.48E-1	4.98E+3	1.33E-1	1.01E+3
5.55E-1	4.97E+3	1.63E-1	1.15E+3
5.52E-1	4.97E+3	1.53E-1	1.10E+3
5.69E-1	4.93E+3	1.53E-1	1.10E+3
5.52E-1	4.97E+3	1.54E-1	1.08E+3
5.62E-1	5.01E+3	1.45E-1	1.04E+3
5.68E-1	4.89E+3	1.45E-1	1.02E+3
5.44E-1	4.88E+3	1.51E-1	1.06E+3
5.57E-1	4.99E+3	1.55E-1	1.10E+3
5.61E-1	4.93E+3	1.58E-1	1.07E+3
5.57E-1	5.01E+3	1.52E-1	1.11E+3
5.60E-1	5.02E+3	1.43E-1	1.04E+3
5.64E-1	5.04E+3	1.44E-1	1.02E+3
5.62E-1	4.92E+3	1.47E-1	1.05E+3
5.93E-1	5.17E+3	1.66E-1	1.14E+3
5.53E-1	4.93E+3	1.41E-1	1.05E+3
5.42E-1	4.83E+3	1.46E-1	1.09E+3
5.68E-1	5.06E+3	1.62E-1	1.14E+3
5.55E-1	4.93E+3	1.47E-1	1.03E+3
5.57E-1	4.93E+3	1.56E-1	1.07E+3
5.49E-1	4.76E+3	1.54E-1	1.09E+3
5.69E-1	5.13E+3	1.59E-1	1.12E+3
5.79E-1	5.00E+3	1.52E-1	1.08E+3
5.63E-1	4.97E+3	1.62E-1	1.13E+3
5.67E-1	5.03E+3	1.54E-1	1.08E+3
5.59E-1	5.05E+3	1.45E-1	1.05E+3
5.54E-1	5.00E+3	1.46E-1	1.04E+3
5.52E-1	4.95E+3	1.66E-1	1.21E+3
5.57E-1	4.96E+3	1.50E-1	1.15E+3
5.66E-1	5.03E+3	1.47E-1	1.12E+3
5.53E-1	4.98E+3	1.55E-1	1.15E+3
5.66E-1	5.00E+3	1.54E-1	1.13E+3
5.56E-1	5.04E+3	1.48E-1	1.09E+3
5.58E-1	5.01E+3	1.50E-1	1.11E+3
5.73E-1	5.03E+3	1.52E-1	1.10E+3
5.52E-1	4.93E+3	1.56E-1	1.09E+3
5.43E-1	4.94E+3	1.49E-1	1.10E+3
5.69E-1	4.99E+3	1.62E-1	1.15E+3
5.65E-1	5.00E+3	1.49E-1	1.09E+3
5.52E-1	4.97E+3	1.43E-1	1.07E+3
5.58E-1	5.03E+3	1.49E-1	1.16E+3
5.50E-1	4.94E+3	1.56E-1	1.06E+3
5.49E-1	4.88E+3	1.52E-1	1.11E+3
5.56E-1	5.02E+3	1.52E-1	1.12E+3
5.68E-1	4.98E+3	1.47E-1	1.08E+3
5.44E-1	4.93E+3	1.50E-1	1.12E+3
5.56E-1	4.96E+3	1.30E-1	9.71E+2
5.64E-1	5.02E+3	1.46E-1	1.03E+3
5.72E-1	5.02E+3	1.48E-1	1.03E+3
5.76E-1	5.01E+3	1.48E-1	1.07E+3
5.50E-1	4.97E+3	1.44E-1	1.06E+3
5.58E-1	4.95E+3	1.52E-1	1.05E+3
5.47E-1	4.97E+3	1.51E-1	1.11E+3
5.65E-1	4.97E+3	1.43E-1	1.06E+3
5.58E-1	5.00E+3	1.58E-1	1.09E+3
5.56E-1	5.03E+3	1.46E-1	1.09E+3
5.61E-1	4.94E+3	1.43E-1	1.06E+3
5.66E-1	5.06E+3	1.56E-1	1.09E+3
5.60E-1	4.99E+3	1.59E-1	1.16E+3
5.58E-1	4.92E+3	1.42E-1	1.05E+3
5.68E-1	5.01E+3	1.43E-1	1.05E+3
5.70E-1	4.97E+3	1.54E-1	1.10E+3
5.73E-1	4.94E+3	1.35E-1	9.52E+2
5.45E-1	4.87E+3	1.47E-1	1.06E+3
5.48E-1	4.95E+3	1.54E-1	1.05E+3
5.46E-1	4.93E+3	1.67E-1	1.14E+3
5.52E-1	4.97E+3	1.60E-1	1.14E+3
5.62E-1	5.10E+3	1.38E-1	1.01E+3
5.69E-1	5.07E+3	1.51E-1	1.09E+3
5.57E-1	4.90E+3	1.48E-1	1.10E+3
5.60E-1	5.03E+3	1.47E-1	1.09E+3
5.67E-1	5.03E+3	1.44E-1	1.08E+3
5.63E-1	5.00E+3	1.43E-1	1.03E+3
5.70E-1	4.99E+3	1.60E-1	1.09E+3
5.61E-1	4.99E+3	1.59E-1	1.03E+3
5.51E-1	4.94E+3	1.55E-1	1.14E+3
5.44E-1	4.93E+3	1.48E-1	1.04E+3
5.58E-1	4.99E+3	1.58E-1	1.15E+3
5.53E-1	4.94E+3	1.62E-1	1.17E+3
5.71E-1	4.98E+3	1.36E-1	9.60E+2
5.72E-1	5.00E+3	1.61E-1	1.14E+3
5.54E-1	4.95E+3	1.50E-1	1.06E+3
5.54E-1	4.99E+3	1.60E-1	1.18E+3
5.49E-1	4.88E+3	1.61E-1	1.14E+3
5.65E-1	4.92E+3	1.46E-1	1.06E+3
5.64E-1	4.94E+3	1.38E-1	9.90E+2
5.70E-1	4.91E+3	1.57E-1	1.14E+3
5.58E-1	4.87E+3	1.54E-1	1.06E+3
5.57E-1	5.00E+3	1.54E-1	1.08E+3
5.51E-1	4.92E+3	1.46E-1	1.01E+3
5.49E-1	4.87E+3	1.51E-1	1.06E+3
5.64E-1	4.95E+3	1.60E-1	1.11E+3
5.58E-1	5.00E+3	1.46E-1	1.05E+3
5.71E-1	4.99E+3	1.46E-1	1.04E+3
5.69E-1	5.10E+3	1.52E-1	1.06E+3
5.53E-1	4.92E+3	1.68E-1	1.19E+3
5.37E-1	4.91E+3	1.60E-1	1.17E+3
5.53E-1	4.97E+3	1.49E-1	1.11E+3
5.76E-1	5.02E+3	1.51E-1	1.10E+3
5.74E-1	4.99E+3	1.57E-1	1.10E+3
5.60E-1	4.93E+3	1.54E-1	1.13E+3
5.56E-1	4.82E+3	1.54E-1	1.06E+3
5.58E-1	4.99E+3	1.52E-1	1.10E+3
5.62E-1	5.03E+3	1.51E-1	1.02E+3
5.48E-1	4.98E+3	1.51E-1	1.04E+3
5.68E-1	5.10E+3	1.51E-1	1.13E+3
5.76E-1	4.99E+3	1.50E-1	1.09E+3
5.59E-1	4.90E+3	1.47E-1	1.09E+3
5.55E-1	4.91E+3	1.40E-1	1.01E+3
5.74E-1	5.06E+3	1.64E-1	1.09E+3
5.57E-1	4.95E+3	1.46E-1	1.07E+3
5.61E-1	4.99E+3	1.56E-1	1.13E+3
5.61E-1	4.84E+3	1.41E-1	9.95E+2
5.53E-1	5.01E+3	1.47E-1	1.08E+3
5.72E-1	5.03E+3	1.59E-1	1.06E+3
5.47E-1	4.87E+3	1.61E-1	1.15E+3
5.63E-1	4.97E+3	1.58E-1	1.15E+3
5.52E-1	4.89E+3	1.53E-1	1.09E+3
5.73E-1	5.10E+3	1.61E-1	1.15E+3
5.53E-1	4.93E+3	1.73E-1	1.19E+3
5.51E-1	4.93E+3	1.57E-1	1.11E+3
5.76E-1	4.97E+3	1.39E-1	1.01E+3
5.54E-1	5.03E+3	1.47E-1	1.09E+3
5.56E-1	4.99E+3	1.55E-1	1.16E+3
5.49E-1	4.84E+3	1.46E-1	1.06E+3
5.59E-1	4.96E+3	1.57E-1	1.09E+3
5.64E-1	4.90E+3	1.51E-1	1.03E+3
5.74E-1	4.96E+3	1.60E-1	1.19E+3
5.54E-1	4.96E+3	1.43E-1	1.06E+3
5.49E-1	4.80E+3	1.52E-1	1.08E+3
5.70E-1	5.00E+3	1.44E-1	1.01E+3
5.46E-1	4.93E+3	1.45E-1	1.09E+3
5.52E-1	4.99E+3	1.58E-1	1.14E+3
5.46E-1	4.90E+3	1.57E-1	1.02E+3
5.75E-1	5.14E+3	1.50E-1	1.09E+3
5.61E-1	4.99E+3	1.48E-1	1.07E+3
5.52E-1	4.96E+3	1.52E-1	1.12E+3
5.60E-1	4.87E+3	1.49E-1	1.10E+3
5.77E-1	5.00E+3	1.49E-1	1.08E+3
5.62E-1	5.05E+3	1.60E-1	1.12E+3
5.61E-1	5.09E+3	1.51E-1	1.09E+3
5.60E-1	4.88E+3	1.51E-1	1.01E+3
5.61E-1	5.02E+3	1.48E-1	1.08E+3
5.52E-1	4.85E+3	1.52E-1	1.08E+3
5.57E-1	4.96E+3	1.39E-1	9.69E+2
5.60E-1	5.06E+3	1.66E-1	1.15E+3
5.45E-1	4.96E+3	1.52E-1	1.09E+3
5.50E-1	5.00E+3	1.56E-1	1.19E+3
5.60E-1	4.93E+3	1.28E-1	9.10E+2
5.55E-1	4.90E+3	1.54E-1	1.09E+3
5.68E-1	4.94E+3	1.44E-1	1.03E+3
5.52E-1	5.07E+3	1.47E-1	1.08E+3
5.74E-1	5.02E+3	1.50E-1	1.15E+3
5.76E-1	5.01E+3	1.43E-1	1.09E+3
5.61E-1	4.89E+3	1.48E-1	1.03E+3
5.69E-1	4.95E+3	1.50E-1	1.05E+3
5.65E-1	4.90E+3	1.54E-1	1.05E+3
5.60E-1	5.06E+3	1.62E-1	1.13E+3
5.54E-1	5.00E+3	1.41E-1	1.00E+3
5.61E-1	5.00E+3	1.57E-1	1.08E+3
5.55E-1	5.00E+3	1.67E-1	1.14E+3
5.77E-1	5.02E+3	1.51E-1	1.03E+3
5.63E-1	4.86E+3	1.59E-1	1.17E+3
5.71E-1	4.99E+3	1.56E-1	1.18E+3
5.63E-1	4.90E+3	1.49E-1	1.12E+3
5.73E-1	5.03E+3	1.56E-1	1.12E+3
5.64E-1	4.95E+3	1.55E-1	1.08E+3
5.71E-1	4.94E+3	1.50E-1	1.08E+3
5.46E-1	4.87E+3	1.47E-1	1.06E+3
5.74E-1	4.98E+3	1.54E-1	1.04E+3
5.62E-1	5.02E+3	1.54E-1	1.07E+3
5.53E-1	4.89E+3	1.55E-1	1.13E+3
5.53E-1	4.82E+3	1.56E-1	1.10E+3
5.46E-1	4.82E+3	1.43E-1	1.05E+3
5.48E-1	4.90E+3	1.56E-1	1.17E+3
5.67E-1	4.99E+3	1.48E-1	1.14E+3
5.49E-1	4.93E+3	1.37E-1	1.03E+3
5.51E-1	4.93E+3	1.47E-1	9.92E+2
5.62E-1	5.03E+3	1.65E-1	1.14E+3
5.49E-1	4.90E+3	1.52E-1	1.04E+3
5.52E-1	4.92E+3	1.50E-1	1.14E+3
5.53E-1	4.90E+3	1.51E-1	1.11E+3
5.62E-1	4.95E+3	1.58E-1	1.07E+3
5.63E-1	4.99E+3	1.63E-1	1.10E+3
5.73E-1	5.05E+3	1.42E-1	1.08E+3
5.60E-1	5.08E+3	1.54E-1	1.11E+3
5.57E-1	5.03E+3	1.59E-1	1.08E+3
5.55E-1	4.99E+3	1.62E-1	1.17E+3
5.73E-1	5.01E+3	1.49E-1	1.02E+3
5.68E-1	4.98E+3	1.50E-1	1.08E+3
5.59E-1	5.04E+3	1.40E-1	1.11E+3
5.58E-1	5.02E+3	1.56E-1	1.11E+3
5.61E-1	5.08E+3	1.47E-1	1.11E+3
5.57E-1	4.98E+3	1.53E-1	1.12E+3
5.76E-1	5.10E+3	1.45E-1	9.88E+2
5.80E-1	5.07E+3	1.49E-1	1.09E+3
5.58E-1	4.97E+3	1.37E-1	1.04E+3
5.49E-1	4.96E+3	1.54E-1	1.13E+3
5.62E-1	4.94E+3	1.53E-1	1.13E+3
5.61E-1	5.01E+3	1.53E-1	1.10E+3
5.81E-1	5.19E+3	1.57E-1	1.08E+3
5.60E-1	4.98E+3	1.56E-1	1.08E+3
5.67E-1	5.04E+3	1.50E-1	1.01E+3
5.67E-1	4.92E+3	1.40E-1	1.08E+3
5.69E-1	5.02E+3	1.46E-1	1.10E+3
5.54E-1	5.00E+3	1.41E-1	1.03E+3
5.76E-1	5.04E+3	1.52E-1	1.17E+3
5.53E-1	4.94E+3	1.67E-1	1.12E+3
5.62E-1	4.93E+3	1.50E-1	1.13E+3
5.53E-1	4.90E+3	1.43E-1	1.06E+3
5.68E-1	4.95E+3	1.50E-1	1.04E+3
5.60E-1	5.05E+3	1.51E-1	1.08E+3
5.61E-1	5.08E+3	1.55E-1	1.07E+3
5.55E-1	4.95E+3	1.56E-1	1.10E+3
5.74E-1	4.91E+3	1.46E-1	1.02E+3
5.58E-1	4.99E+3	1.48E-1	1.07E+3
5.74E-1	4.90E+3	1.40E-1	9.71E+2
5.61E-1	5.00E+3	1.52E-1	1.12E+3
5.66E-1	5.05E+3	1.51E-1	1.04E+3
5.60E-1	5.00E+3	1.51E-1	1.12E+3
7.57E-3	1.33E+1	3.91E-1	2.68E+3
5.58E-1	5.00E+3	1.45E-1	1.06E+3
5.57E-1	4.96E+3	1.54E-1	1.09E+3
5.56E-1	4.93E+3	1.57E-1	1.04E+3
5.55E-1	5.00E+3	1.47E-1	1.01E+3
5.54E-1	4.98E+3	1.56E-1	1.09E+3
5.47E-1	4.98E+3	1.60E-1	1.17E+3
5.42E-1	4.96E+3	1.44E-1	1.08E+3
5.51E-1	4.91E+3	1.68E-1	1.15E+3
5.54E-1	5.04E+3	1.46E-1	1.08E+3
5.55E-1	4.97E+3	1.53E-1	1.11E+3
5.85E-1	5.02E+3	1.54E-1	1.13E+3
5.61E-1	5.01E+3	1.55E-1	1.13E+3
5.75E-1	5.01E+3	1.52E-1	1.07E+3
5.51E-1	5.01E+3	1.59E-1	1.10E+3
5.53E-1	5.02E+3	1.39E-1	1.08E+3
5.67E-1	4.99E+3	1.55E-1	1.09E+3
5.56E-1	5.00E+3	1.56E-1	1.05E+3
5.62E-1	5.01E+3	1.53E-1	1.04E+3
5.82E-1	5.12E+3	1.41E-1	1.01E+3
5.49E-1	4.91E+3	1.52E-1	1.12E+3
5.56E-1	4.95E+3	1.57E-1	1.15E+3
5.62E-1	5.05E+3	1.56E-1	1.09E+3
5.66E-1	5.04E+3	1.59E-1	1.17E+3
5.77E-1	4.97E+3	1.59E-1	1.11E+3
5.88E-1	5.12E+3	1.44E-1	1.09E+3
5.70E-1	5.02E+3	1.42E-1	1.07E+3
5.69E-1	4.99E+3	1.50E-1	1.06E+3
5.58E-1	4.93E+3	1.71E-1	1.16E+3
5.65E-1	5.05E+3	1.50E-1	1.06E+3
5.51E-1	5.01E+3	1.59E-1	1.09E+3
5.66E-1	5.06E+3	1.35E-1	9.56E+2
5.60E-1	4.97E+3	1.49E-1	1.04E+3
5.73E-1	4.97E+3	1.62E-1	1.11E+3
5.44E-1	4.89E+3	1.53E-1	1.06E+3
5.64E-1	5.01E+3	1.52E-1	1.13E+3
5.72E-1	4.99E+3	1.50E-1	1.11E+3
5.78E-1	4.94E+3	1.47E-1	1.03E+3
5.62E-1	5.01E+3	1.58E-1	1.11E+3
5.57E-1	4.89E+3	1.64E-1	1.12E+3
5.61E-1	4.95E+3	1.63E-1	1.15E+3
5.57E-1	5.03E+3	1.45E-1	1.13E+3
5.65E-1	4.96E+3	1.51E-1	1.08E+3
5.72E-1	4.95E+3	1.37E-1	1.04E+3
5.66E-1	4.98E+3	1.57E-1	1.05E+3
5.81E-1	5.00E+3	1.52E-1	1.12E+3
5.60E-1	5.04E+3	1.47E-1	1.03E+3
5.61E-1	4.97E+3	1.63E-1	1.17E+3
5.57E-1	4.97E+3	1.49E-1	1.09E+3
5.60E-1	4.99E+3	1.58E-1	1.10E+3
5.50E-1	4.92E+3	1.48E-1	1.12E+3
5.61E-1	5.01E+3	1.61E-1	1.08E+3
5.81E-1	5.01E+3	1.50E-1	1.10E+3
5.68E-1	4.98E+3	1.42E-1	1.05E+3
5.59E-1	4.94E+3	1.50E-1	1.06E+3
5.47E-1	4.95E+3	1.52E-1	1.13E+3
5.47E-1	4.88E+3	1.50E-1	1.09E+3
5.78E-1	5.08E+3	1.50E-1	1.11E+3
5.64E-1	4.92E+3	1.57E-1	1.10E+3
5.73E-1	5.09E+3	1.53E-1	1.01E+3
5.65E-1	4.91E+3	1.44E-1	1.06E+3
5.57E-1	5.04E+3	1.47E-1	1.06E+3
5.62E-1	5.00E+3	1.32E-1	9.84E+2
5.86E-1	5.06E+3	1.49E-1	1.07E+3
5.52E-1	5.01E+3	1.53E-1	1.06E+3
5.58E-1	4.93E+3	1.48E-1	1.04E+3
5.79E-1	4.99E+3	1.49E-1	1.09E+3
5.49E-1	4.86E+3	1.59E-1	1.12E+3
5.64E-1	4.97E+3	1.50E-1	1.13E+3
5.73E-1	5.15E+3	1.65E-1	1.15E+3
5.60E-1	4.94E+3	1.36E-1	9.55E+2
5.73E-1	4.94E+3	1.62E-1	1.10E+3
5.64E-1	4.96E+3	1.59E-1	1.09E+3
5.52E-1	4.88E+3	1.62E-1	1.13E+3
5.68E-1	5.08E+3	1.46E-1	1.08E+3
5.66E-1	5.06E+3	1.53E-1	1.13E+3
5.62E-1	5.02E+3	1.51E-1	1.14E+3
5.64E-1	4.86E+3	1.58E-1	1.10E+3
5.64E-1	5.07E+3	1.50E-1	1.12E+3
5.63E-1	5.06E+3	1.57E-1	1.12E+3
5.46E-1	4.89E+3	1.51E-1	1.07E+3
5.42E-1	4.82E+3	1.45E-1	1.03E+3
5.61E-1	5.01E+3	1.51E-1	1.08E+3
5.66E-1	4.93E+3	1.62E-1	1.12E+3
5.75E-1	5.12E+3	1.52E-1	1.12E+3
5.66E-1	4.99E+3	1.40E-1	9.96E+2
5.73E-1	5.04E+3	1.60E-1	1.16E+3
5.75E-1	5.11E+3	1.53E-1	1.11E+3
5.32E-1	4.87E+3	1.55E-1	1.13E+3
5.42E-1	4.90E+3	1.58E-1	1.16E+3
5.82E-1	5.15E+3	1.56E-1	1.11E+3
