7.13E-1	5.92E+3	1.83E-1	1.10E+3
7.02E-1	5.88E+3	1.72E-1	1.09E+3
7.00E-1	5.96E+3	1.96E-1	1.13E+3
7.30E-1	5.99E+3	1.90E-1	1.12E+3
6.86E-1	5.85E+3	1.80E-1	1.13E+3
6.96E-1	5.90E+3	2.02E-1	1.20E+3
6.82E-1	5.74E+3	1.75E-1	1.07E+3
6.86E-1	5.90E+3	1.83E-1	1.15E+3
6.98E-1	5.84E+3	1.82E-1	1.13E+3
7.15E-1	6.01E+3	1.77E-1	1.12E+3
7.43E-1	6.02E+3	1.79E-1	1.13E+3
7.24E-1	6.05E+3	1.92E-1	1.20E+3
7.20E-1	5.99E+3	1.94E-1	1.14E+3
7.09E-1	6.12E+3	1.89E-1	1.26E+3
7.19E-1	5.85E+3	2.01E-1	1.25E+3
7.02E-1	5.99E+3	1.87E-1	1.23E+3
7.12E-1	5.94E+3	1.71E-1	1.06E+3
7.28E-1	5.99E+3	1.89E-1	1.12E+3
7.01E-1	5.93E+3	1.87E-1	1.15E+3
6.93E-1	6.05E+3	1.88E-1	1.14E+3
7.00E-1	5.90E+3	1.89E-1	1.15E+3
6.98E-1	5.95E+3	1.84E-1	1.08E+3
6.84E-1	5.90E+3	1.85E-1	1.12E+3
6.87E-1	5.82E+3	2.04E-1	1.22E+3
7.12E-1	6.08E+3	1.83E-1	1.20E+3
7.09E-1	5.92E+3	1.89E-1	1.21E+3
6.84E-1	5.86E+3	1.89E-1	1.22E+3
6.88E-1	5.95E+3	1.92E-1	1.23E+3
7.17E-1	5.96E+3	1.94E-1	1.22E+3
6.92E-1	5.91E+3	1.81E-1	1.13E+3
6.94E-1	5.89E+3	1.99E-1	1.21E+3
6.81E-1	5.94E+3	2.01E-1	1.19E+3
6.91E-1	5.98E+3	1.88E-1	1.10E+3
7.10E-1	5.95E+3	1.91E-1	1.09E+3
7.19E-1	5.78E+3	1.95E-1	1.16E+3
1.17E-2	2.67E+1	5.28E-1	3.00E+3
7.12E-1	6.01E+3	1.84E-1	1.14E+3
7.32E-1	5.86E+3	1.86E-1	1.15E+3
7.29E-1	5.90E+3	1.93E-1	1.27E+3
7.14E-1	5.96E+3	1.86E-1	1.22E+3
7.21E-1	5.81E+3	1.88E-1	1.18E+3
7.14E-1	5.87E+3	1.86E-1	1.19E+3
7.33E-1	5.99E+3	1.97E-1	1.18E+3
7.01E-1	5.98E+3	1.87E-1	1.16E+3
6.82E-1	5.91E+3	1.85E-1	1.12E+3
7.00E-1	5.96E+3	1.73E-1	1.04E+3
6.89E-1	5.90E+3	1.86E-1	1.18E+3
7.30E-1	6.02E+3	1.91E-1	1.14E+3
7.01E-1	5.92E+3	1.84E-1	1.12E+3
7.04E-1	5.91E+3	1.86E-1	1.12E+3
7.11E-1	5.81E+3	1.87E-1	1.14E+3
7.14E-1	5.90E+3	1.87E-1	1.18E+3
6.97E-1	6.00E+3	1.94E-1	1.19E+3
7.21E-1	5.90E+3	1.98E-1	1.18E+3
6.94E-1	5.95E+3	1.87E-1	1.18E+3
6.89E-1	5.95E+3	1.94E-1	1.20E+3
6.91E-1	5.89E+3	2.00E-1	1.18E+3
6.99E-1	5.91E+3	1.92E-1	1.17E+3
7.21E-1	5.86E+3	1.91E-1	1.18E+3
7.17E-1	5.86E+3	1.99E-1	1.20E+3
6.98E-1	5.93E+3	1.87E-1	1.22E+3
6.88E-1	6.01E+3	1.87E-1	1.11E+3
6.90E-1	5.95E+3	1.86E-1	1.15E+3
6.99E-1	5.97E+3	1.86E-1	1.19E+3
6.87E-1	5.97E+3	1.85E-1	1.15E+3
6.99E-1	5.91E+3	1.85E-1	1.19E+3
7.00E-1	5.94E+3	1.85E-1	1.15E+3
7.12E-1	5.99E+3	2.07E-1	1.23E+3
7.38E-1	5.97E+3	1.91E-1	1.22E+3
6.92E-1	5.85E+3	1.83E-1	1.14E+3
7.27E-1	6.08E+3	1.97E-1	1.22E+3
7.24E-1	5.91E+3	2.02E-1	1.25E+3
6.99E-1	5.82E+3	1.88E-1	1.15E+3
7.09E-1	5.76E+3	1.74E-1	1.07E+3
7.01E-1	6.02E+3	1.83E-1	1.10E+3
6.84E-1	5.93E+3	1.85E-1	1.13E+3
6.85E-1	5.87E+3	1.84E-1	1.13E+3
7.07E-1	5.93E+3	1.85E-1	1.10E+3
6.90E-1	5.76E+3	1.81E-1	1.14E+3
7.29E-1	5.82E+3	1.81E-1	1.21E+3
6.94E-1	5.91E+3	1.79E-1	1.09E+3
7.14E-1	5.93E+3	1.99E-1	1.22E+3
6.96E-1	5.94E+3	1.98E-1	1.18E+3
7.01E-1	5.93E+3	1.80E-1	1.15E+3
6.87E-1	5.91E+3	1.87E-1	1.19E+3
7.02E-1	6.03E+3	1.86E-1	1.22E+3
6.87E-1	5.96E+3	1.95E-1	1.12E+3
6.92E-1	5.92E+3	1.89E-1	1.18E+3
6.96E-1	5.93E+3	1.77E-1	1.08E+3
7.00E-1	5.88E+3	1.85E-1	1.15E+3
7.27E-1	5.98E+3	1.84E-1	1.09E+3
6.92E-1	5.96E+3	1.90E-1	1.18E+3
7.15E-1	5.91E+3	1.98E-1	1.21E+3
6.89E-1	5.92E+3	1.89E-1	1.22E+3
7.12E-1	5.90E+3	1.81E-1	1.12E+3
6.90E-1	5.97E+3	1.86E-1	1.15E+3
7.04E-1	5.93E+3	1.83E-1	1.14E+3
6.96E-1	5.76E+3	1.85E-1	1.17E+3
6.87E-1	5.85E+3	1.99E-1	1.21E+3
7.00E-1	5.92E+3	1.76E-1	1.10E+3
6.96E-1	5.83E+3	1.93E-1	1.17E+3
7.09E-1	5.91E+3	1.78E-1	1.13E+3
6.80E-1	5.99E+3	1.81E-1	1.08E+3
6.82E-1	5.99E+3	1.94E-1	1.17E+3
7.13E-1	5.84E+3	2.04E-1	1.22E+3
7.17E-1	6.01E+3	1.83E-1	1.18E+3
7.31E-1	5.91E+3	1.77E-1	1.09E+3
7.26E-1	5.92E+3	2.06E-1	1.26E+3
7.22E-1	5.90E+3	1.93E-1	1.14E+3
7.38E-1	5.91E+3	1.94E-1	1.17E+3
7.26E-1	6.01E+3	1.94E-1	1.16E+3
7.24E-1	5.95E+3	2.00E-1	1.24E+3
7.04E-1	5.92E+3	1.97E-1	1.12E+3
7.12E-1	5.88E+3	1.86E-1	1.14E+3
7.04E-1	5.81E+3	1.84E-1	1.18E+3
6.98E-1	5.97E+3	1.77E-1	1.10E+3
7.00E-1	5.87E+3	1.88E-1	1.15E+3
7.04E-1	5.82E+3	1.88E-1	1.14E+3
7.18E-1	5.87E+3	1.84E-1	1.13E+3
7.08E-1	5.90E+3	1.82E-1	1.18E+3
7.25E-1	5.87E+3	2.15E-1	1.26E+3
7.21E-1	5.89E+3	1.89E-1	1.15E+3
7.04E-1	6.12E+3	1.82E-1	1.10E+3
7.05E-1	5.89E+3	1.95E-1	1.22E+3
7.28E-1	6.08E+3	1.88E-1	1.19E+3
7.26E-1	5.96E+3	1.78E-1	1.17E+3
6.81E-1	5.80E+3	2.05E-1	1.17E+3
6.95E-1	5.93E+3	1.91E-1	1.15E+3
7.05E-1	5.85E+3	1.98E-1	1.19E+3
6.85E-1	5.74E+3	1.89E-1	1.12E+3
6.85E-1	5.87E+3	1.94E-1	1.17E+3
6.99E-1	5.77E+3	1.93E-1	1.17E+3
6.82E-1	5.85E+3	1.95E-1	1.08E+3
7.17E-1	5.95E+3	1.86E-1	1.15E+3
7.22E-1	6.01E+3	1.85E-1	1.09E+3
6.96E-1	5.89E+3	1.82E-1	1.17E+3
7.02E-1	5.91E+3	1.88E-1	1.26E+3
7.19E-1	5.90E+3	2.02E-1	1.19E+3
6.87E-1	5.94E+3	1.80E-1	1.14E+3
6.98E-1	6.12E+3	1.82E-1	1.16E+3
7.19E-1	6.01E+3	1.89E-1	1.15E+3
7.10E-1	5.91E+3	1.89E-1	1.20E+3
7.27E-1	5.90E+3	2.00E-1	1.19E+3
7.14E-1	5.82E+3	1.83E-1	1.10E+3
7.05E-1	5.83E+3	1.81E-1	1.11E+3
7.10E-1	5.94E+3	2.00E-1	1.23E+3
6.92E-1	5.97E+3	1.82E-1	1.11E+3
6.92E-1	5.85E+3	1.87E-1	1.17E+3
7.10E-1	6.05E+3	1.88E-1	1.14E+3
7.08E-1	5.91E+3	1.84E-1	1.17E+3
7.42E-1	5.99E+3	1.86E-1	1.19E+3
7.00E-1	6.11E+3	1.79E-1	1.16E+3
7.29E-1	5.91E+3	1.98E-1	1.21E+3
7.18E-1	5.91E+3	1.98E-1	1.13E+3
7.04E-1	5.88E+3	1.94E-1	1.15E+3
7.03E-1	5.83E+3	1.87E-1	1.13E+3
6.96E-1	5.80E+3	1.87E-1	1.17E+3
6.87E-1	5.82E+3	1.88E-1	1.14E+3
6.94E-1	5.84E+3	1.87E-1	1.20E+3
6.87E-1	5.80E+3	1.81E-1	1.19E+3
7.14E-1	5.94E+3	1.83E-1	1.12E+3
7.11E-1	5.94E+3	1.77E-1	1.11E+3
7.29E-1	6.03E+3	1.85E-1	1.19E+3
6.89E-1	5.86E+3	1.90E-1	1.16E+3
7.19E-1	5.87E+3	1.99E-1	1.24E+3
7.08E-1	5.93E+3	1.80E-1	1.15E+3
7.38E-1	5.93E+3	1.95E-1	1.20E+3
7.04E-1	5.89E+3	1.80E-1	1.12E+3
7.14E-1	5.91E+3	1.90E-1	1.14E+3
6.87E-1	5.78E+3	1.85E-1	1.09E+3
7.09E-1	6.13E+3	1.90E-1	1.22E+3
7.01E-1	5.95E+3	1.82E-1	1.15E+3
6.96E-1	5.88E+3	1.83E-1	1.14E+3
6.91E-1	5.94E+3	1.81E-1	1.14E+3
6.83E-1	5.98E+3	1.80E-1	1.13E+3
6.98E-1	5.88E+3	1.92E-1	1.25E+3
7.05E-1	6.08E+3	1.81E-1	1.11E+3
7.03E-1	5.83E+3	1.79E-1	1.10E+3
7.12E-1	5.87E+3	1.92E-1	1.22E+3
7.11E-1	5.97E+3	1.88E-1	1.21E+3
7.14E-1	5.91E+3	1.81E-1	1.18E+3
7.05E-1	5.87E+3	1.90E-1	1.22E+3
6.87E-1	5.74E+3	1.87E-1	1.12E+3
6.88E-1	6.03E+3	1.81E-1	1.15E+3
7.19E-1	5.87E+3	1.89E-1	1.13E+3
6.95E-1	5.84E+3	1.83E-1	1.11E+3
7.18E-1	5.95E+3	1.88E-1	1.15E+3
6.86E-1	5.91E+3	1.75E-1	1.08E+3
7.29E-1	5.99E+3	1.94E-1	1.19E+3
6.99E-1	5.91E+3	1.84E-1	1.13E+3
7.34E-1	5.96E+3	1.89E-1	1.13E+3
7.32E-1	5.84E+3	1.99E-1	1.18E+3
6.88E-1	5.90E+3	2.00E-1	1.24E+3
6.91E-1	5.90E+3	1.95E-1	1.15E+3
7.04E-1	5.98E+3	1.85E-1	1.18E+3
7.28E-1	5.94E+3	2.03E-1	1.30E+3
6.97E-1	5.93E+3	1.87E-1	1.15E+3
7.24E-1	6.02E+3	1.90E-1	1.15E+3
6.99E-1	5.96E+3	1.90E-1	1.13E+3
7.25E-1	5.87E+3	1.79E-1	1.13E+3
7.37E-1	6.02E+3	1.76E-1	1.05E+3
6.90E-1	5.92E+3	1.81E-1	1.09E+3
7.12E-1	5.90E+3	1.87E-1	1.18E+3
7.16E-1	5.92E+3	1.77E-1	1.09E+3
7.25E-1	5.86E+3	1.98E-1	1.12E+3
6.76E-1	5.78E+3	1.89E-1	1.15E+3
7.03E-1	5.88E+3	1.85E-1	1.14E+3
7.16E-1	5.94E+3	1.97E-1	1.20E+3
7.25E-1	5.96E+3	2.02E-1	1.21E+3
7.38E-1	6.02E+3	1.87E-1	1.14E+3
6.89E-1	5.87E+3	1.84E-1	1.10E+3
6.84E-1	5.72E+3	1.85E-1	1.16E+3
6.86E-1	5.86E+3	2.08E-1	1.19E+3
7.00E-1	5.78E+3	1.90E-1	1.19E+3
6.93E-1	5.89E+3	1.88E-1	1.20E+3
6.84E-1	5.95E+3	1.83E-1	1.13E+3
7.23E-1	6.00E+3	1.84E-1	1.16E+3
7.38E-1	5.89E+3	1.96E-1	1.23E+3
6.79E-1	5.68E+3	1.91E-1	1.06E+3
6.96E-1	5.99E+3	1.86E-1	1.17E+3
7.11E-1	5.85E+3	1.86E-1	1.14E+3
6.89E-1	5.81E+3	1.90E-1	1.15E+3
6.89E-1	5.87E+3	1.89E-1	1.22E+3
6.95E-1	5.80E+3	1.91E-1	1.22E+3
6.98E-1	5.86E+3	1.86E-1	1.15E+3
6.92E-1	5.92E+3	1.89E-1	1.25E+3
7.08E-1	5.88E+3	1.73E-1	1.10E+3
6.94E-1	5.92E+3	1.81E-1	1.22E+3
7.20E-1	6.03E+3	1.93E-1	1.12E+3
7.06E-1	5.85E+3	1.86E-1	1.17E+3
7.16E-1	5.89E+3	1.84E-1	1.17E+3
6.85E-1	5.69E+3	1.76E-1	1.07E+3
7.55E-1	5.97E+3	1.84E-1	1.21E+3
7.41E-1	6.05E+3	1.94E-1	1.13E+3
7.04E-1	5.92E+3	1.86E-1	1.12E+3
7.15E-1	6.01E+3	1.87E-1	1.14E+3
6.88E-1	5.84E+3	1.98E-1	1.21E+3
7.19E-1	5.94E+3	1.89E-1	1.14E+3
6.95E-1	5.84E+3	1.87E-1	1.16E+3
6.90E-1	5.98E+3	1.95E-1	1.19E+3
6.98E-1	5.78E+3	1.91E-1	1.17E+3
6.79E-1	5.76E+3	1.93E-1	1.18E+3
7.16E-1	5.90E+3	1.97E-1	1.18E+3
6.78E-1	5.79E+3	1.85E-1	1.18E+3
7.13E-1	5.95E+3	1.82E-1	1.11E+3
7.04E-1	5.80E+3	1.95E-1	1.19E+3
6.77E-1	5.81E+3	1.93E-1	1.16E+3
6.75E-1	5.85E+3	1.96E-1	1.22E+3
6.84E-1	5.89E+3	1.86E-1	1.10E+3
7.29E-1	6.20E+3	1.88E-1	1.20E+3
7.08E-1	5.79E+3	1.87E-1	1.16E+3
7.04E-1	5.80E+3	1.85E-1	1.16E+3
6.88E-1	5.91E+3	2.03E-1	1.15E+3
6.85E-1	5.77E+3	1.77E-1	1.09E+3
7.09E-1	5.76E+3	1.83E-1	1.21E+3
7.58E-1	6.07E+3	1.85E-1	1.18E+3
6.97E-1	5.93E+3	1.90E-1	1.21E+3
7.15E-1	5.84E+3	1.82E-1	1.13E+3
7.08E-1	6.06E+3	1.88E-1	1.19E+3
7.03E-1	5.89E+3	1.81E-1	1.13E+3
6.92E-1	5.85E+3	1.86E-1	1.19E+3
6.95E-1	6.02E+3	1.94E-1	1.23E+3
6.93E-1	5.92E+3	1.98E-1	1.19E+3
7.45E-1	6.18E+3	1.78E-1	1.13E+3
6.94E-1	5.90E+3	1.81E-1	1.11E+3
6.86E-1	5.85E+3	1.97E-1	1.22E+3
8.45E-2	5.86E+1	5.08E-1	3.03E+3
6.98E-1	6.01E+3	2.02E-1	1.24E+3
6.74E-1	5.73E+3	1.81E-1	1.18E+3
6.95E-1	5.97E+3	1.98E-1	1.21E+3
6.86E-1	5.85E+3	1.79E-1	1.13E+3
7.28E-1	5.99E+3	1.73E-1	1.01E+3
7.26E-1	5.92E+3	1.95E-1	1.18E+3
7.25E-1	6.00E+3	2.00E-1	1.19E+3
7.06E-1	5.80E+3	1.95E-1	1.15E+3
7.12E-1	5.99E+3	1.96E-1	1.21E+3
7.16E-1	5.96E+3	1.84E-1	1.12E+3
7.27E-1	6.03E+3	2.05E-1	1.17E+3
6.90E-1	5.80E+3	1.82E-1	1.15E+3
7.31E-1	5.84E+3	1.89E-1	1.13E+3
7.33E-1	5.91E+3	1.90E-1	1.16E+3
6.87E-1	5.91E+3	1.89E-1	1.19E+3
7.00E-1	5.92E+3	1.95E-1	1.16E+3
6.83E-1	5.71E+3	1.78E-1	1.14E+3
6.79E-1	5.62E+3	1.94E-1	1.16E+3
7.03E-1	6.07E+3	1.88E-1	1.20E+3
7.37E-1	5.97E+3	1.88E-1	1.19E+3
9.52E-3	2.81E+1	5.24E-1	2.96E+3
6.99E-1	5.92E+3	1.89E-1	1.18E+3
7.17E-1	6.10E+3	1.94E-1	1.27E+3
7.21E-1	5.97E+3	1.94E-1	1.12E+3
6.79E-1	5.78E+3	2.04E-1	1.18E+3
7.13E-1	5.74E+3	1.96E-1	1.18E+3
6.87E-1	5.94E+3	1.90E-1	1.17E+3
6.88E-1	5.78E+3	1.84E-1	1.19E+3
7.11E-1	5.83E+3	2.09E-1	1.19E+3
7.33E-1	5.96E+3	1.99E-1	1.18E+3
6.98E-1	5.84E+3	1.93E-1	1.12E+3
7.15E-1	5.99E+3	1.81E-1	1.22E+3
6.84E-1	5.88E+3	1.86E-1	1.17E+3
7.24E-1	5.82E+3	1.95E-1	1.19E+3
7.03E-1	5.93E+3	1.89E-1	1.19E+3
7.06E-1	5.97E+3	1.88E-1	1.23E+3
7.18E-1	5.93E+3	1.96E-1	1.19E+3
7.18E-1	5.92E+3	1.93E-1	1.19E+3
7.30E-1	5.95E+3	1.90E-1	1.19E+3
7.18E-1	5.89E+3	2.00E-1	1.16E+3
6.86E-1	5.76E+3	2.02E-1	1.18E+3
6.96E-1	5.91E+3	1.96E-1	1.18E+3
7.01E-1	5.80E+3	1.97E-1	1.23E+3
7.19E-1	6.00E+3	1.94E-1	1.19E+3
6.89E-1	5.89E+3	1.77E-1	1.06E+3
6.95E-1	6.01E+3	1.97E-1	1.22E+3
7.07E-1	5.93E+3	1.80E-1	1.17E+3
7.03E-1	5.86E+3	1.83E-1	1.11E+3
7.01E-1	5.88E+3	1.86E-1	1.18E+3
6.99E-1	6.03E+3	1.84E-1	1.13E+3
7.10E-1	6.04E+3	2.02E-1	1.16E+3
6.92E-1	5.88E+3	1.84E-1	1.16E+3
7.10E-1	5.88E+3	1.95E-1	1.24E+3
6.92E-1	5.96E+3	2.00E-1	1.18E+3
7.08E-1	6.01E+3	1.93E-1	1.17E+3
7.06E-1	5.87E+3	1.88E-1	1.11E+3
6.99E-1	5.80E+3	1.95E-1	1.16E+3
6.83E-1	5.90E+3	1.96E-1	1.21E+3
7.34E-1	5.92E+3	1.96E-1	1.17E+3
7.07E-1	6.04E+3	1.92E-1	1.20E+3
7.03E-1	5.93E+3	1.85E-1	1.16E+3
7.20E-1	5.84E+3	1.75E-1	1.14E+3
7.10E-1	5.93E+3	1.84E-1	1.14E+3
7.12E-1	5.93E+3	1.83E-1	1.16E+3
7.29E-1	5.84E+3	1.98E-1	1.19E+3
7.08E-1	5.86E+3	1.95E-1	1.21E+3
7.18E-1	5.98E+3	2.00E-1	1.20E+3
6.97E-1	6.05E+3	1.91E-1	1.15E+3
6.86E-1	6.00E+3	1.85E-1	1.16E+3
6.86E-1	5.87E+3	1.85E-1	1.19E+3
7.03E-1	5.90E+3	1.88E-1	1.17E+3
7.18E-1	5.97E+3	1.93E-1	1.15E+3
7.21E-1	5.94E+3	1.82E-1	1.17E+3
7.18E-1	6.04E+3	1.82E-1	1.17E+3
7.04E-1	5.82E+3	1.89E-1	1.19E+3
7.29E-1	5.94E+3	2.01E-1	1.19E+3
7.20E-1	6.00E+3	1.81E-1	1.12E+3
7.13E-1	6.04E+3	1.94E-1	1.20E+3
7.06E-1	6.03E+3	2.05E-1	1.22E+3
6.96E-1	5.93E+3	1.93E-1	1.15E+3
7.37E-1	5.92E+3	1.87E-1	1.18E+3
6.88E-1	5.80E+3	1.83E-1	1.21E+3
6.85E-1	5.81E+3	2.08E-1	1.23E+3
6.83E-1	5.78E+3	1.88E-1	1.13E+3
7.03E-1	5.94E+3	1.85E-1	1.14E+3
7.19E-1	5.90E+3	1.89E-1	1.18E+3
7.11E-1	5.95E+3	1.81E-1	1.11E+3
7.07E-1	6.05E+3	2.00E-1	1.29E+3
7.23E-1	6.08E+3	1.93E-1	1.18E+3
7.26E-1	5.93E+3	1.90E-1	1.15E+3
7.03E-1	5.98E+3	1.90E-1	1.14E+3
7.35E-1	6.04E+3	1.91E-1	1.09E+3
7.13E-1	5.87E+3	1.79E-1	1.13E+3
7.02E-1	6.09E+3	1.87E-1	1.23E+3
7.15E-1	6.04E+3	1.85E-1	1.22E+3
6.93E-1	5.90E+3	1.93E-1	1.15E+3
6.83E-1	5.82E+3	1.95E-1	1.14E+3
7.36E-1	6.14E+3	1.81E-1	1.16E+3
7.07E-1	5.86E+3	1.84E-1	1.18E+3
7.08E-1	5.87E+3	1.73E-1	1.08E+3
7.06E-1	5.93E+3	1.90E-1	1.13E+3
6.98E-1	5.95E+3	1.85E-1	1.12E+3
6.89E-1	5.82E+3	1.86E-1	1.15E+3
7.38E-1	5.94E+3	1.94E-1	1.13E+3
7.27E-1	5.92E+3	1.99E-1	1.17E+3
7.40E-1	6.08E+3	1.94E-1	1.17E+3
7.05E-1	5.92E+3	1.83E-1	1.24E+3
7.22E-1	5.75E+3	1.95E-1	1.19E+3
7.08E-1	5.92E+3	2.02E-1	1.23E+3
6.92E-1	5.82E+3	1.81E-1	1.16E+3
6.98E-1	5.88E+3	1.87E-1	1.17E+3
6.92E-1	5.86E+3	1.76E-1	1.08E+3
6.82E-1	5.72E+3	1.83E-1	1.06E+3
6.99E-1	5.95E+3	1.89E-1	1.20E+3
7.23E-1	6.01E+3	1.91E-1	1.23E+3
7.05E-1	5.83E+3	1.76E-1	1.13E+3
6.94E-1	5.86E+3	2.04E-1	1.23E+3
7.07E-1	5.96E+3	1.82E-1	1.10E+3
6.98E-1	5.72E+3	1.92E-1	1.16E+3
6.92E-1	5.89E+3	1.87E-1	1.16E+3
7.06E-1	5.81E+3	1.84E-1	1.10E+3
7.29E-1	6.05E+3	1.79E-1	1.15E+3
7.05E-1	5.77E+3	1.87E-1	1.22E+3
6.82E-1	5.92E+3	1.79E-1	1.11E+3
7.14E-1	5.88E+3	1.90E-1	1.23E+3
7.01E-1	5.79E+3	1.85E-1	1.12E+3
7.16E-1	5.84E+3	1.90E-1	1.22E+3
7.23E-1	5.97E+3	1.79E-1	1.15E+3
7.02E-1	5.94E+3	1.83E-1	1.11E+3
7.27E-1	6.02E+3	1.94E-1	1.24E+3
6.90E-1	5.99E+3	1.81E-1	1.18E+3
7.12E-1	5.90E+3	1.83E-1	1.03E+3
7.20E-1	5.98E+3	1.96E-1	1.26E+3
6.92E-1	5.92E+3	1.88E-1	1.21E+3
6.90E-1	5.81E+3	1.91E-1	1.10E+3
6.87E-1	5.92E+3	1.86E-1	1.20E+3
7.16E-1	5.95E+3	1.82E-1	1.13E+3
7.09E-1	5.96E+3	1.94E-1	1.18E+3
6.87E-1	5.85E+3	1.87E-1	1.14E+3
6.89E-1	6.03E+3	1.98E-1	1.18E+3
7.06E-1	5.84E+3	1.90E-1	1.18E+3
6.94E-1	5.82E+3	1.90E-1	1.17E+3
7.46E-1	5.87E+3	2.05E-1	1.20E+3
6.86E-1	5.92E+3	1.81E-1	1.22E+3
6.92E-1	5.98E+3	1.96E-1	1.16E+3
7.18E-1	5.83E+3	1.83E-1	1.09E+3
7.11E-1	6.02E+3	1.89E-1	1.27E+3
7.14E-1	5.95E+3	1.87E-1	1.15E+3
6.98E-1	5.81E+3	1.85E-1	1.14E+3
7.10E-1	5.98E+3	1.80E-1	1.19E+3
6.95E-1	5.88E+3	1.85E-1	1.15E+3
7.19E-1	5.84E+3	1.81E-1	1.17E+3
7.16E-1	5.96E+3	1.94E-1	1.26E+3
7.14E-1	6.04E+3	1.90E-1	1.12E+3
7.03E-1	5.86E+3	1.80E-1	1.12E+3
6.81E-1	5.89E+3	1.77E-1	1.14E+3
7.21E-1	5.87E+3	1.89E-1	1.19E+3
7.29E-1	6.10E+3	1.86E-1	1.16E+3
7.10E-1	5.91E+3	1.90E-1	1.19E+3
6.87E-1	5.78E+3	1.89E-1	1.14E+3
6.83E-1	5.78E+3	1.94E-1	1.16E+3
6.99E-1	6.00E+3	1.76E-1	1.14E+3
7.16E-1	6.01E+3	1.90E-1	1.17E+3
7.41E-1	5.92E+3	1.75E-1	1.07E+3
7.26E-1	5.96E+3	1.80E-1	1.13E+3
6.91E-1	5.85E+3	1.88E-1	1.15E+3
6.99E-1	5.97E+3	1.85E-1	1.19E+3
7.17E-1	5.90E+3	1.90E-1	1.16E+3
7.01E-1	5.94E+3	1.79E-1	1.13E+3
6.93E-1	5.93E+3	1.83E-1	1.14E+3
6.97E-1	5.85E+3	1.80E-1	1.04E+3
7.03E-1	6.01E+3	1.86E-1	1.15E+3
7.12E-1	5.92E+3	1.99E-1	1.24E+3
6.93E-1	5.92E+3	1.93E-1	1.22E+3
6.98E-1	5.90E+3	1.80E-1	1.03E+3
7.16E-1	5.88E+3	2.04E-1	1.18E+3
7.11E-1	5.98E+3	1.86E-1	1.12E+3
7.10E-1	5.88E+3	1.86E-1	1.10E+3
7.08E-1	5.91E+3	1.95E-1	1.21E+3
6.87E-1	5.96E+3	2.01E-1	1.24E+3
7.29E-1	6.10E+3	1.90E-1	1.20E+3
6.96E-1	5.84E+3	1.92E-1	1.15E+3
7.10E-1	5.85E+3	1.87E-1	1.18E+3
7.26E-1	5.98E+3	1.99E-1	1.21E+3
7.24E-1	6.04E+3	1.94E-1	1.15E+3
7.05E-1	5.98E+3	1.94E-1	1.19E+3
6.91E-1	5.76E+3	1.91E-1	1.12E+3
6.98E-1	5.85E+3	1.83E-1	1.07E+3
6.79E-1	5.76E+3	1.91E-1	1.19E+3
7.14E-1	5.99E+3	1.88E-1	1.13E+3
7.16E-1	5.94E+3	1.91E-1	1.19E+3
7.37E-1	5.86E+3	1.89E-1	1.11E+3
7.41E-1	6.09E+3	1.91E-1	1.20E+3
7.11E-1	6.00E+3	1.92E-1	1.29E+3
7.18E-1	5.93E+3	1.97E-1	1.17E+3
6.96E-1	5.92E+3	1.92E-1	1.19E+3
6.99E-1	5.98E+3	1.94E-1	1.14E+3
6.96E-1	5.88E+3	1.87E-1	1.21E+3
6.90E-1	5.86E+3	1.90E-1	1.18E+3
7.24E-1	5.92E+3	1.89E-1	1.13E+3
6.79E-1	5.80E+3	1.87E-1	1.18E+3
7.10E-1	5.83E+3	1.83E-1	1.10E+3
6.77E-1	5.87E+3	1.75E-1	1.12E+3
6.92E-1	5.83E+3	1.90E-1	1.16E+3
7.14E-1	5.98E+3	1.86E-1	1.18E+3
7.15E-1	5.95E+3	1.95E-1	1.13E+3
6.94E-1	5.99E+3	1.86E-1	1.16E+3
7.20E-1	5.96E+3	2.08E-1	1.26E+3
6.90E-1	5.77E+3	1.90E-1	1.11E+3
7.09E-1	5.86E+3	1.81E-1	1.15E+3
6.90E-1	5.87E+3	1.94E-1	1.20E+3
6.99E-1	5.92E+3	1.81E-1	1.14E+3
7.26E-1	5.76E+3	1.82E-1	1.10E+3
6.93E-1	5.98E+3	1.75E-1	1.12E+3
6.89E-1	5.86E+3	1.85E-1	1.15E+3
6.83E-1	5.79E+3	1.91E-1	1.14E+3
7.09E-1	5.90E+3	1.93E-1	1.23E+3
7.19E-1	6.07E+3	1.94E-1	1.25E+3
7.26E-1	5.75E+3	1.94E-1	1.16E+3
6.95E-1	5.95E+3	1.88E-1	1.16E+3
7.09E-1	5.97E+3	1.85E-1	1.19E+3
7.57E-3	1.09E+1	5.29E-1	2.95E+3
7.29E-1	5.95E+3	1.78E-1	1.15E+3
7.07E-1	5.83E+3	1.92E-1	1.25E+3
7.11E-1	6.02E+3	1.92E-1	1.23E+3
7.00E-1	5.83E+3	1.85E-1	1.16E+3
6.96E-1	5.87E+3	1.95E-1	1.17E+3
7.13E-1	5.90E+3	1.81E-1	1.10E+3
6.88E-1	5.89E+3	1.88E-1	1.19E+3
7.29E-1	5.89E+3	1.89E-1	1.12E+3
7.00E-1	5.82E+3	1.90E-1	1.14E+3
7.26E-1	5.94E+3	1.87E-1	1.20E+3
7.08E-1	5.90E+3	1.97E-1	1.18E+3
7.13E-1	5.98E+3	1.80E-1	1.21E+3
6.92E-1	5.98E+3	1.97E-1	1.24E+3
7.07E-1	5.92E+3	1.97E-1	1.19E+3
7.00E-1	5.77E+3	1.84E-1	1.18E+3
7.32E-1	5.93E+3	1.91E-1	1.19E+3
7.33E-1	5.97E+3	2.04E-1	1.20E+3
7.01E-1	6.02E+3	2.05E-1	1.23E+3
6.97E-1	5.98E+3	1.82E-1	1.11E+3
6.84E-1	5.91E+3	2.03E-1	1.22E+3
7.08E-1	6.09E+3	1.77E-1	1.09E+3
6.97E-1	5.98E+3	1.92E-1	1.17E+3
6.87E-1	5.90E+3	1.94E-1	1.24E+3
6.95E-1	6.07E+3	1.93E-1	1.20E+3
7.24E-1	5.93E+3	1.79E-1	1.18E+3
6.94E-1	5.94E+3	1.78E-1	1.17E+3
7.12E-1	5.83E+3	1.80E-1	1.15E+3
7.13E-1	5.84E+3	2.01E-1	1.21E+3
7.22E-1	5.93E+3	1.85E-1	1.19E+3
6.96E-1	5.81E+3	1.91E-1	1.23E+3
6.94E-1	5.93E+3	1.84E-1	1.13E+3
6.87E-1	5.75E+3	1.81E-1	1.07E+3
7.06E-1	5.88E+3	1.78E-1	1.05E+3
6.92E-1	5.95E+3	1.95E-1	1.18E+3
6.77E-1	5.82E+3	1.81E-1	1.17E+3
7.04E-1	5.85E+3	1.82E-1	1.10E+3
6.98E-1	5.83E+3	1.78E-1	1.12E+3
6.85E-1	5.87E+3	1.85E-1	1.17E+3
6.94E-1	5.95E+3	1.94E-1	1.24E+3
7.07E-1	6.02E+3	2.03E-1	1.20E+3
7.08E-1	6.03E+3	1.98E-1	1.21E+3
6.98E-1	5.89E+3	1.98E-1	1.19E+3
7.25E-1	6.00E+3	1.89E-1	1.10E+3
7.22E-1	5.86E+3	1.94E-1	1.19E+3
6.92E-1	5.97E+3	1.98E-1	1.23E+3
7.27E-1	5.83E+3	1.85E-1	1.13E+3
7.07E-1	5.92E+3	2.03E-1	1.21E+3
6.95E-1	5.99E+3	1.84E-1	1.14E+3
7.25E-1	5.96E+3	1.87E-1	1.08E+3
7.23E-1	6.01E+3	1.89E-1	1.11E+3
7.07E-1	5.98E+3	1.94E-1	1.17E+3
7.05E-1	5.93E+3	1.79E-1	1.15E+3
7.12E-1	5.93E+3	1.81E-1	1.04E+3
7.41E-1	6.05E+3	1.84E-1	1.15E+3
6.87E-1	5.92E+3	1.82E-1	1.12E+3
6.94E-1	5.83E+3	1.82E-1	1.12E+3
6.87E-1	5.81E+3	1.96E-1	1.19E+3
7.19E-1	5.87E+3	1.92E-1	1.19E+3
6.98E-1	5.95E+3	1.81E-1	1.05E+3
7.02E-1	5.71E+3	1.98E-1	1.20E+3
7.20E-1	5.87E+3	1.84E-1	1.07E+3
6.95E-1	6.01E+3	1.80E-1	1.11E+3
7.13E-1	5.88E+3	1.99E-1	1.23E+3
7.12E-1	5.94E+3	1.92E-1	1.18E+3
7.06E-1	5.94E+3	1.76E-1	1.13E+3
6.93E-1	5.94E+3	1.83E-1	1.16E+3
7.15E-1	5.89E+3	1.77E-1	1.11E+3
7.04E-1	5.97E+3	1.90E-1	1.24E+3
6.89E-1	5.88E+3	1.89E-1	1.20E+3
6.95E-1	5.88E+3	1.92E-1	1.10E+3
6.87E-1	5.89E+3	1.81E-1	1.10E+3
7.29E-1	6.15E+3	1.97E-1	1.20E+3
6.94E-1	6.07E+3	2.07E-1	1.25E+3
6.84E-1	5.75E+3	1.84E-1	1.17E+3
6.86E-1	5.80E+3	1.88E-1	1.12E+3
7.14E-1	5.91E+3	1.93E-1	1.20E+3
7.00E-1	6.00E+3	1.84E-1	1.21E+3
6.95E-1	5.83E+3	1.91E-1	1.20E+3
6.72E-1	5.77E+3	1.78E-1	1.10E+3
6.99E-1	5.99E+3	1.94E-1	1.21E+3
6.90E-1	6.06E+3	1.83E-1	1.16E+3
7.23E-1	5.94E+3	1.85E-1	1.08E+3
7.16E-1	5.89E+3	2.08E-1	1.27E+3
7.23E-1	5.92E+3	2.08E-1	1.21E+3
6.88E-1	5.82E+3	1.88E-1	1.14E+3
6.97E-1	5.92E+3	1.94E-1	1.20E+3
7.19E-1	6.05E+3	1.98E-1	1.17E+3
7.20E-1	6.00E+3	2.03E-1	1.22E+3
6.88E-1	5.93E+3	2.01E-1	1.27E+3
6.91E-1	5.84E+3	2.00E-1	1.20E+3
7.03E-1	6.00E+3	1.86E-1	1.16E+3
6.92E-1	5.88E+3	1.82E-1	1.10E+3
7.24E-1	5.98E+3	1.83E-1	1.17E+3
7.14E-1	5.89E+3	1.98E-1	1.20E+3
6.89E-1	5.85E+3	1.87E-1	1.16E+3
7.00E-1	5.88E+3	1.89E-1	1.23E+3
7.17E-1	5.95E+3	1.96E-1	1.16E+3
6.99E-1	5.87E+3	1.79E-1	1.18E+3
7.14E-1	5.92E+3	1.90E-1	1.13E+3
7.10E-1	5.82E+3	1.93E-1	1.22E+3
7.14E-1	6.02E+3	1.94E-1	1.26E+3
7.13E-1	5.89E+3	1.79E-1	1.08E+3
7.02E-1	5.97E+3	1.83E-1	1.14E+3
6.85E-1	5.88E+3	1.88E-1	1.17E+3
7.19E-1	5.98E+3	1.85E-1	1.16E+3
7.12E-1	5.99E+3	1.92E-1	1.24E+3
6.93E-1	5.91E+3	2.04E-1	1.24E+3
7.08E-1	5.90E+3	1.93E-1	1.22E+3
7.05E-1	5.81E+3	1.96E-1	1.28E+3
6.82E-1	5.91E+3	1.90E-1	1.18E+3
7.11E-1	5.90E+3	2.06E-1	1.29E+3
7.21E-1	5.78E+3	1.84E-1	1.12E+3
6.96E-1	5.93E+3	2.04E-1	1.13E+3
6.92E-1	5.89E+3	2.06E-1	1.19E+3
6.89E-1	5.87E+3	1.89E-1	1.20E+3
6.87E-1	5.92E+3	1.91E-1	1.17E+3
6.92E-1	5.97E+3	1.91E-1	1.16E+3
7.12E-1	5.84E+3	1.92E-1	1.16E+3
6.95E-1	5.83E+3	1.81E-1	1.16E+3
6.96E-1	5.95E+3	1.89E-1	1.18E+3
7.27E-1	5.95E+3	2.08E-1	1.27E+3
7.18E-1	6.08E+3	1.77E-1	1.09E+3
6.83E-1	5.77E+3	1.84E-1	1.08E+3
7.04E-1	5.91E+3	1.71E-1	1.09E+3
6.86E-1	5.86E+3	1.87E-1	1.19E+3
7.18E-1	5.91E+3	1.97E-1	1.18E+3
6.95E-1	5.89E+3	1.91E-1	1.16E+3
6.94E-1	5.86E+3	1.95E-1	1.16E+3
7.12E-1	5.90E+3	1.96E-1	1.14E+3
1.05E-2	3.33E+1	5.26E-1	2.98E+3
7.18E-1	6.04E+3	1.94E-1	1.22E+3
7.10E-1	5.94E+3	1.85E-1	1.19E+3
7.01E-1	6.11E+3	1.89E-1	1.22E+3
7.15E-1	5.75E+3	1.85E-1	1.17E+3
7.02E-1	6.03E+3	1.96E-1	1.30E+3
6.87E-1	5.86E+3	1.90E-1	1.22E+3
7.05E-1	5.93E+3	1.91E-1	1.21E+3
7.07E-1	5.78E+3	1.80E-1	1.08E+3
6.96E-1	5.92E+3	1.95E-1	1.11E+3
7.00E-1	5.81E+3	1.95E-1	1.24E+3
7.13E-1	5.75E+3	1.92E-1	1.22E+3
7.04E-1	5.81E+3	1.88E-1	1.12E+3
7.17E-1	5.98E+3	1.90E-1	1.17E+3
6.88E-1	5.76E+3	1.89E-1	1.14E+3
7.13E-1	5.80E+3	1.75E-1	1.05E+3
6.93E-1	5.98E+3	1.95E-1	1.18E+3
6.98E-1	5.91E+3	1.96E-1	1.24E+3
7.22E-1	5.91E+3	1.90E-1	1.15E+3
7.33E-1	5.97E+3	1.97E-1	1.21E+3
6.87E-1	5.87E+3	1.90E-1	1.17E+3
7.19E-1	5.99E+3	2.05E-1	1.28E+3
6.97E-1	5.91E+3	2.07E-1	1.19E+3
6.90E-1	5.88E+3	2.00E-1	1.13E+3
6.97E-1	5.79E+3	1.88E-1	1.16E+3
6.87E-1	5.78E+3	1.71E-1	1.01E+3
6.98E-1	6.01E+3	1.97E-1	1.21E+3
6.93E-1	5.99E+3	1.85E-1	1.15E+3
6.99E-1	5.86E+3	1.82E-1	1.15E+3
7.05E-1	5.74E+3	1.88E-1	1.18E+3
7.22E-1	5.86E+3	2.12E-1	1.24E+3
7.54E-1	5.96E+3	1.74E-1	1.10E+3
6.90E-1	5.93E+3	1.86E-1	1.12E+3
7.24E-1	5.86E+3	1.84E-1	1.10E+3
7.34E-1	5.82E+3	1.89E-1	1.22E+3
6.96E-1	5.94E+3	2.06E-1	1.18E+3
6.98E-1	5.91E+3	1.86E-1	1.16E+3
6.89E-1	5.89E+3	1.78E-1	1.11E+3
7.08E-1	5.83E+3	1.86E-1	1.11E+3
6.78E-1	5.90E+3	1.80E-1	1.13E+3
6.93E-1	5.84E+3	1.93E-1	1.17E+3
6.95E-1	5.85E+3	1.81E-1	1.15E+3
6.89E-1	5.77E+3	1.92E-1	1.12E+3
7.03E-1	5.96E+3	1.89E-1	1.20E+3
7.61E-1	5.95E+3	1.82E-1	1.16E+3
7.09E-1	5.82E+3	2.01E-1	1.22E+3
7.19E-1	5.98E+3	1.96E-1	1.15E+3
7.12E-1	5.89E+3	1.88E-1	1.14E+3
7.09E-1	5.90E+3	1.89E-1	1.16E+3
7.00E-1	6.00E+3	1.88E-1	1.23E+3
6.92E-1	6.03E+3	1.95E-1	1.19E+3
7.09E-1	5.90E+3	1.96E-1	1.23E+3
7.11E-1	5.88E+3	2.01E-1	1.21E+3
6.77E-1	5.76E+3	1.90E-1	1.14E+3
7.05E-1	5.76E+3	1.82E-1	1.18E+3
6.82E-1	5.80E+3	1.84E-1	1.07E+3
7.01E-1	5.92E+3	1.81E-1	1.14E+3
7.18E-1	5.97E+3	1.84E-1	1.16E+3
7.25E-1	6.04E+3	1.79E-1	1.14E+3
7.16E-1	5.95E+3	1.87E-1	1.18E+3
7.08E-1	5.88E+3	1.94E-1	1.21E+3
7.02E-1	5.87E+3	1.81E-1	1.06E+3
6.89E-1	5.86E+3	1.85E-1	1.08E+3
6.92E-1	5.92E+3	2.04E-1	1.21E+3
7.13E-1	5.97E+3	1.95E-1	1.21E+3
7.12E-1	5.92E+3	1.87E-1	1.16E+3
6.99E-1	5.82E+3	1.83E-1	1.08E+3
7.19E-1	6.07E+3	1.95E-1	1.17E+3
6.87E-1	5.83E+3	1.88E-1	1.14E+3
6.83E-1	5.88E+3	1.85E-1	1.16E+3
6.78E-1	5.79E+3	1.82E-1	1.12E+3
7.28E-1	6.03E+3	1.89E-1	1.12E+3
7.25E-1	5.90E+3	1.88E-1	1.21E+3
6.99E-1	6.04E+3	1.97E-1	1.19E+3
7.18E-1	5.93E+3	1.81E-1	1.17E+3
7.01E-1	6.02E+3	1.82E-1	1.15E+3
7.14E-1	6.05E+3	1.83E-1	1.19E+3
7.33E-1	6.08E+3	1.86E-1	1.13E+3
7.16E-1	5.77E+3	1.87E-1	1.15E+3
7.03E-1	6.14E+3	1.87E-1	1.18E+3
6.88E-1	5.68E+3	1.82E-1	1.02E+3
7.05E-1	5.88E+3	1.84E-1	1.07E+3
7.06E-1	6.06E+3	1.84E-1	1.13E+3
7.22E-1	5.99E+3	2.02E-1	1.24E+3
7.23E-1	5.96E+3	1.96E-1	1.18E+3
7.21E-1	5.98E+3	2.01E-1	1.18E+3
7.20E-1	5.97E+3	2.12E-1	1.29E+3
7.15E-1	5.88E+3	2.00E-1	1.24E+3
7.24E-1	5.87E+3	1.85E-1	1.12E+3
7.32E-1	5.95E+3	1.93E-1	1.10E+3
6.88E-1	5.90E+3	1.88E-1	1.16E+3
6.86E-1	5.88E+3	1.74E-1	1.03E+3
6.90E-1	5.82E+3	1.77E-1	1.11E+3
6.91E-1	5.82E+3	1.87E-1	1.13E+3
6.88E-1	5.95E+3	1.80E-1	1.10E+3
7.26E-1	5.82E+3	1.84E-1	1.14E+3
6.95E-1	5.82E+3	1.92E-1	1.17E+3
6.97E-1	5.95E+3	1.81E-1	1.14E+3
7.17E-1	5.93E+3	1.98E-1	1.23E+3
7.21E-1	5.89E+3	1.86E-1	1.14E+3
7.13E-1	5.91E+3	1.91E-1	1.16E+3
7.05E-1	5.88E+3	1.87E-1	1.17E+3
6.96E-1	5.81E+3	1.84E-1	1.13E+3
7.34E-1	6.01E+3	1.85E-1	1.14E+3
7.22E-1	6.04E+3	1.89E-1	1.14E+3
7.06E-1	5.90E+3	1.99E-1	1.20E+3
6.94E-1	5.90E+3	1.83E-1	1.09E+3
6.77E-1	5.72E+3	1.78E-1	1.11E+3
6.77E-1	5.86E+3	1.84E-1	1.15E+3
7.30E-1	5.99E+3	1.89E-1	1.23E+3
6.99E-1	5.95E+3	1.78E-1	1.15E+3
7.31E-1	5.95E+3	1.94E-1	1.20E+3
7.34E-1	5.98E+3	1.86E-1	1.17E+3
7.29E-1	6.00E+3	1.91E-1	1.14E+3
6.99E-1	5.91E+3	2.01E-1	1.29E+3
7.08E-1	6.03E+3	1.83E-1	1.15E+3
7.06E-1	5.88E+3	1.85E-1	1.15E+3
7.06E-1	5.95E+3	1.93E-1	1.20E+3
6.93E-1	5.93E+3	1.84E-1	1.12E+3
7.08E-1	5.78E+3	1.84E-1	1.10E+3
7.15E-1	5.89E+3	1.84E-1	1.10E+3
7.09E-1	5.86E+3	1.91E-1	1.20E+3
6.99E-1	5.95E+3	1.85E-1	1.19E+3
7.13E-1	5.90E+3	1.75E-1	1.14E+3
7.38E-1	6.04E+3	1.83E-1	1.15E+3
6.97E-1	5.96E+3	1.82E-1	1.11E+3
7.25E-1	5.95E+3	1.98E-1	1.27E+3
7.21E-1	6.03E+3	1.74E-1	1.13E+3
6.88E-1	5.83E+3	1.80E-1	9.99E+2
7.07E-1	5.92E+3	1.96E-1	1.20E+3
7.15E-1	5.88E+3	1.88E-1	1.14E+3
7.23E-1	5.98E+3	1.76E-1	1.15E+3
6.95E-1	5.81E+3	1.85E-1	1.16E+3
7.10E-1	5.94E+3	1.84E-1	1.11E+3
7.25E-1	6.02E+3	1.84E-1	1.13E+3
6.87E-1	5.81E+3	1.87E-1	1.09E+3
7.45E-1	6.03E+3	1.87E-1	1.23E+3
6.98E-1	5.97E+3	1.82E-1	1.07E+3
7.17E-1	5.96E+3	1.98E-1	1.24E+3
6.79E-1	5.70E+3	1.83E-1	1.14E+3
7.19E-1	5.79E+3	1.93E-1	1.09E+3
7.29E-1	5.88E+3	1.94E-1	1.15E+3
7.18E-1	6.00E+3	1.98E-1	1.19E+3
7.10E-1	5.93E+3	1.80E-1	1.13E+3
6.89E-1	5.83E+3	1.90E-1	1.10E+3
6.99E-1	6.00E+3	1.96E-1	1.18E+3
6.91E-1	5.90E+3	1.78E-1	1.14E+3
6.78E-1	5.85E+3	1.85E-1	1.17E+3
7.19E-1	5.93E+3	1.84E-1	1.17E+3
7.10E-1	5.85E+3	1.97E-1	1.18E+3
7.05E-1	5.84E+3	1.87E-1	1.17E+3
7.10E-1	5.92E+3	1.90E-1	1.16E+3
6.92E-1	5.81E+3	1.84E-1	1.12E+3
6.95E-1	5.89E+3	1.91E-1	1.22E+3
6.92E-1	5.84E+3	1.88E-1	1.18E+3
6.95E-1	5.82E+3	1.79E-1	1.10E+3
7.07E-1	5.91E+3	1.95E-1	1.22E+3
6.76E-1	5.82E+3	2.01E-1	1.26E+3
6.80E-1	5.75E+3	1.82E-1	1.17E+3
6.91E-1	5.83E+3	1.79E-1	1.11E+3
6.91E-1	5.89E+3	1.82E-1	1.12E+3
7.02E-1	5.91E+3	1.77E-1	1.09E+3
6.89E-1	6.01E+3	1.85E-1	1.14E+3
7.28E-1	5.95E+3	1.89E-1	1.17E+3
7.41E-1	5.89E+3	1.79E-1	1.11E+3
7.33E-1	6.06E+3	1.88E-1	1.18E+3
7.24E-1	5.91E+3	1.96E-1	1.16E+3
7.14E-1	5.96E+3	1.90E-1	1.27E+3
7.24E-1	5.85E+3	1.97E-1	1.20E+3
6.83E-1	5.79E+3	1.88E-1	1.21E+3
6.97E-1	5.99E+3	1.95E-1	1.15E+3
6.98E-1	5.92E+3	1.98E-1	1.26E+3
6.94E-1	5.74E+3	1.84E-1	1.04E+3
6.83E-1	5.92E+3	1.86E-1	1.13E+3
7.14E-1	5.80E+3	1.88E-1	1.19E+3
7.27E-1	5.87E+3	1.89E-1	1.18E+3
7.01E-1	5.84E+3	1.78E-1	1.16E+3
6.75E-1	5.79E+3	1.90E-1	1.13E+3
7.44E-1	5.99E+3	1.78E-1	1.14E+3
7.36E-1	5.82E+3	1.90E-1	1.27E+3
6.91E-1	6.00E+3	1.78E-1	1.07E+3
6.90E-1	5.85E+3	1.93E-1	1.20E+3
7.38E-1	5.94E+3	1.82E-1	1.22E+3
7.03E-1	5.93E+3	1.86E-1	1.10E+3
7.06E-1	5.94E+3	1.94E-1	1.22E+3
7.04E-1	5.92E+3	1.87E-1	1.16E+3
7.22E-1	5.80E+3	1.81E-1	1.08E+3
7.06E-1	5.79E+3	1.95E-1	1.21E+3
7.08E-1	6.02E+3	1.85E-1	1.11E+3
7.07E-1	5.93E+3	1.82E-1	1.18E+3
7.38E-1	5.93E+3	1.79E-1	1.17E+3
7.20E-1	5.98E+3	1.90E-1	1.15E+3
7.01E-1	5.87E+3	2.00E-1	1.18E+3
7.09E-1	5.95E+3	1.89E-1	1.16E+3
7.24E-1	5.84E+3	2.09E-1	1.31E+3
6.85E-1	5.95E+3	1.90E-1	1.18E+3
7.24E-1	5.98E+3	1.94E-1	1.10E+3
6.90E-1	5.90E+3	1.80E-1	1.11E+3
6.97E-1	5.93E+3	1.87E-1	1.18E+3
7.05E-1	5.79E+3	1.87E-1	1.16E+3
7.18E-1	5.90E+3	1.92E-1	1.14E+3
7.05E-1	6.06E+3	1.85E-1	1.19E+3
7.12E-1	5.80E+3	1.86E-1	1.18E+3
7.11E-1	5.98E+3	1.93E-1	1.19E+3
7.32E-1	5.96E+3	1.82E-1	1.14E+3
6.70E-1	5.82E+3	1.96E-1	1.19E+3
7.03E-1	5.91E+3	1.88E-1	1.15E+3
7.16E-1	5.90E+3	1.96E-1	1.23E+3
6.72E-1	5.75E+3	1.99E-1	1.19E+3
6.81E-1	5.69E+3	2.03E-1	1.23E+3
7.25E-1	6.01E+3	1.83E-1	1.05E+3
7.24E-1	6.04E+3	1.87E-1	1.10E+3
6.87E-1	5.83E+3	1.84E-1	1.11E+3
6.87E-1	5.76E+3	1.89E-1	1.13E+3
6.89E-1	5.92E+3	1.87E-1	1.14E+3
6.96E-1	5.99E+3	1.82E-1	1.14E+3
6.91E-1	5.87E+3	1.84E-1	1.19E+3
7.05E-1	5.89E+3	1.73E-1	1.09E+3
7.17E-1	5.93E+3	1.86E-1	1.20E+3
6.99E-1	5.95E+3	1.91E-1	1.24E+3
6.90E-1	5.90E+3	1.94E-1	1.25E+3
6.99E-1	5.98E+3	2.03E-1	1.31E+3
6.87E-1	5.77E+3	1.83E-1	1.11E+3
7.17E-1	5.77E+3	1.90E-1	1.19E+3
7.07E-1	5.86E+3	1.82E-1	1.22E+3
6.87E-1	5.92E+3	1.90E-1	1.22E+3
7.18E-1	5.93E+3	1.78E-1	1.12E+3
6.87E-1	5.94E+3	1.76E-1	1.12E+3
6.98E-1	5.89E+3	1.93E-1	1.17E+3
6.99E-1	6.10E+3	1.91E-1	1.19E+3
7.37E-1	6.14E+3	1.88E-1	1.24E+3
7.37E-1	5.92E+3	1.84E-1	1.19E+3
6.88E-1	5.84E+3	1.88E-1	1.17E+3
7.09E-1	6.00E+3	1.87E-1	1.17E+3
7.04E-1	5.85E+3	2.00E-1	1.08E+3
6.88E-1	5.99E+3	2.05E-1	1.22E+3
6.94E-1	6.02E+3	1.97E-1	1.23E+3
6.99E-1	5.89E+3	1.96E-1	1.20E+3
7.06E-1	5.87E+3	1.84E-1	1.19E+3
7.26E-1	5.82E+3	1.95E-1	1.19E+3
6.87E-1	5.93E+3	1.74E-1	1.11E+3
7.18E-1	5.87E+3	1.87E-1	1.11E+3
6.98E-1	5.91E+3	2.00E-1	1.27E+3
6.98E-1	5.93E+3	1.78E-1	1.11E+3
6.99E-1	5.90E+3	1.87E-1	1.12E+3
7.23E-1	5.95E+3	2.08E-1	1.29E+3
7.23E-1	5.92E+3	1.91E-1	1.17E+3
7.13E-1	5.93E+3	1.89E-1	1.25E+3
7.11E-1	5.81E+3	1.92E-1	1.15E+3
7.24E-1	5.98E+3	1.92E-1	1.19E+3
6.87E-1	5.84E+3	1.93E-1	1.13E+3
7.16E-1	5.88E+3	1.92E-1	1.15E+3
6.94E-1	5.96E+3	1.81E-1	1.17E+3
6.90E-1	5.95E+3	1.94E-1	1.15E+3
6.97E-1	5.92E+3	1.99E-1	1.21E+3
7.26E-1	5.87E+3	1.87E-1	1.12E+3
6.82E-1	5.95E+3	1.92E-1	1.21E+3
6.92E-1	5.87E+3	1.92E-1	1.22E+3
7.29E-1	5.87E+3	1.76E-1	1.09E+3
6.89E-1	5.95E+3	1.89E-1	1.14E+3
7.28E-1	5.93E+3	1.76E-1	1.07E+3
7.20E-1	5.84E+3	1.91E-1	1.15E+3
7.31E-1	6.01E+3	1.99E-1	1.23E+3
7.37E-1	5.93E+3	1.84E-1	1.10E+3
7.20E-1	5.83E+3	1.88E-1	1.21E+3
6.98E-1	5.85E+3	1.79E-1	1.09E+3
6.88E-1	5.80E+3	2.04E-1	1.13E+3
6.94E-1	5.85E+3	1.89E-1	1.11E+3
6.75E-1	5.83E+3	2.00E-1	1.19E+3
6.94E-1	5.88E+3	1.82E-1	1.08E+3
7.07E-1	5.86E+3	1.85E-1	1.10E+3
7.21E-1	5.82E+3	1.88E-1	1.05E+3
7.02E-1	5.99E+3	1.87E-1	1.19E+3
6.95E-1	5.99E+3	1.93E-1	1.20E+3
6.98E-1	5.79E+3	1.89E-1	1.20E+3
6.88E-1	5.84E+3	1.83E-1	1.18E+3
6.86E-1	5.79E+3	1.86E-1	1.12E+3
7.24E-1	5.92E+3	2.01E-1	1.29E+3
7.01E-1	6.01E+3	1.83E-1	1.22E+3
7.19E-1	5.97E+3	2.09E-1	1.29E+3
7.11E-1	5.96E+3	1.97E-1	1.11E+3
7.09E-1	5.92E+3	1.89E-1	1.17E+3
7.11E-1	6.03E+3	1.90E-1	1.18E+3
7.00E-1	5.91E+3	1.93E-1	1.21E+3
6.87E-1	5.78E+3	1.91E-1	1.21E+3
7.23E-1	5.96E+3	1.92E-1	1.15E+3
7.21E-1	6.04E+3	1.76E-1	1.07E+3
7.15E-1	5.89E+3	1.75E-1	1.14E+3
7.15E-1	5.88E+3	1.85E-1	1.15E+3
7.32E-1	5.88E+3	1.89E-1	1.18E+3
7.01E-1	5.77E+3	1.88E-1	1.13E+3
1.34E-2	2.59E+1	4.86E-1	2.87E+3
6.83E-1	5.88E+3	2.00E-1	1.19E+3
6.94E-1	5.96E+3	1.93E-1	1.17E+3
7.01E-1	5.94E+3	1.96E-1	1.18E+3
6.97E-1	5.94E+3	2.00E-1	1.24E+3
6.75E-1	5.78E+3	1.93E-1	1.16E+3
6.96E-1	5.97E+3	1.99E-1	1.15E+3
7.00E-1	6.03E+3	1.78E-1	1.03E+3
7.26E-1	5.73E+3	2.10E-1	1.26E+3
7.08E-1	5.93E+3	2.02E-1	1.28E+3
7.20E-1	5.90E+3	1.85E-1	1.19E+3
7.02E-1	5.96E+3	1.86E-1	1.17E+3
7.08E-1	5.81E+3	1.90E-1	1.23E+3
7.19E-1	5.84E+3	1.95E-1	1.18E+3
7.25E-1	5.94E+3	1.87E-1	1.16E+3
7.19E-1	5.98E+3	1.98E-1	1.14E+3
6.83E-1	5.90E+3	1.92E-1	1.25E+3
7.21E-1	5.84E+3	1.86E-1	1.17E+3
6.94E-1	6.02E+3	1.87E-1	1.14E+3
6.92E-1	6.02E+3	1.92E-1	1.25E+3
7.04E-1	6.03E+3	1.84E-1	1.22E+3
6.98E-1	5.94E+3	1.88E-1	1.17E+3
7.24E-1	6.00E+3	1.70E-1	1.06E+3
7.24E-1	5.83E+3	1.96E-1	1.23E+3
7.14E-1	5.93E+3	1.87E-1	1.24E+3
7.22E-1	5.91E+3	1.95E-1	1.21E+3
7.25E-1	5.94E+3	1.90E-1	1.21E+3
7.01E-1	5.85E+3	1.83E-1	1.05E+3
6.80E-1	5.78E+3	1.85E-1	1.14E+3
6.76E-1	5.73E+3	1.93E-1	1.23E+3
7.33E-1	5.80E+3	1.77E-1	1.11E+3
7.28E-1	5.97E+3	1.77E-1	1.07E+3
7.05E-1	5.89E+3	1.88E-1	1.12E+3
6.97E-1	5.91E+3	1.95E-1	1.16E+3
6.95E-1	5.84E+3	1.95E-1	1.16E+3
7.31E-1	5.96E+3	1.96E-1	1.12E+3
7.25E-1	6.01E+3	1.96E-1	1.12E+3
6.83E-1	5.79E+3	1.92E-1	1.16E+3
7.26E-1	5.82E+3	1.96E-1	1.18E+3
6.98E-1	5.95E+3	1.86E-1	1.20E+3
7.16E-1	6.01E+3	1.96E-1	1.19E+3
7.33E-1	5.98E+3	1.99E-1	1.24E+3
6.89E-1	5.95E+3	2.06E-1	1.21E+3
6.93E-1	5.90E+3	1.82E-1	1.11E+3
6.91E-1	5.91E+3	1.78E-1	1.06E+3
6.91E-1	5.75E+3	1.95E-1	1.15E+3
6.87E-1	6.02E+3	1.82E-1	1.09E+3
7.23E-1	5.98E+3	2.06E-1	1.27E+3
7.23E-1	5.90E+3	1.79E-1	1.12E+3
7.11E-1	5.95E+3	1.92E-1	1.19E+3
6.80E-1	5.74E+3	1.79E-1	1.11E+3
7.32E-1	5.87E+3	1.98E-1	1.14E+3
7.28E-1	5.95E+3	1.94E-1	1.13E+3
6.96E-1	5.94E+3	1.89E-1	1.19E+3
7.02E-1	5.96E+3	1.89E-1	1.20E+3
7.12E-1	5.92E+3	1.92E-1	1.18E+3
6.86E-1	5.92E+3	1.99E-1	1.28E+3
7.10E-1	5.97E+3	1.92E-1	1.21E+3
7.07E-1	5.96E+3	1.92E-1	1.15E+3
6.82E-1	5.83E+3	1.84E-1	1.16E+3
6.91E-1	5.97E+3	2.00E-1	1.20E+3
7.12E-1	5.88E+3	1.83E-1	1.11E+3
6.98E-1	5.79E+3	1.77E-1	1.12E+3
7.04E-1	5.84E+3	1.89E-1	1.22E+3
6.95E-1	5.85E+3	2.02E-1	1.15E+3
6.99E-1	6.05E+3	1.82E-1	1.15E+3
7.29E-1	6.03E+3	1.95E-1	1.16E+3
7.10E-1	5.89E+3	1.78E-1	1.16E+3
6.82E-1	5.89E+3	1.92E-1	1.19E+3
6.85E-1	5.83E+3	2.00E-1	1.25E+3
6.97E-1	5.93E+3	1.96E-1	1.20E+3
6.81E-1	5.81E+3	1.81E-1	1.12E+3
6.96E-1	5.99E+3	1.83E-1	1.16E+3
7.06E-1	5.98E+3	1.85E-1	1.18E+3
7.32E-1	5.90E+3	2.01E-1	1.20E+3
7.47E-1	6.12E+3	1.98E-1	1.19E+3
7.12E-1	5.88E+3	2.02E-1	1.23E+3
7.19E-1	6.02E+3	1.89E-1	1.18E+3
7.02E-1	5.91E+3	1.88E-1	1.09E+3
6.86E-1	5.84E+3	1.90E-1	1.18E+3
6.92E-1	5.94E+3	1.88E-1	1.15E+3
7.04E-1	5.92E+3	2.00E-1	1.20E+3
6.83E-1	5.81E+3	1.96E-1	1.20E+3
6.91E-1	5.86E+3	1.84E-1	1.19E+3
7.07E-1	5.93E+3	1.89E-1	1.19E+3
7.01E-1	5.84E+3	1.92E-1	1.16E+3
7.12E-1	5.75E+3	2.05E-1	1.20E+3
6.91E-1	5.74E+3	1.88E-1	1.11E+3
7.04E-1	5.88E+3	1.77E-1	1.13E+3
7.29E-1	5.89E+3	1.81E-1	1.15E+3
7.41E-1	5.95E+3	1.83E-1	1.10E+3
