1.93E-2	1.31E+2	1.03E-2	5.96E+1
1.90E-2	1.09E+2	9.03E-3	2.51E+1
2.05E-2	1.09E+2	9.28E-3	3.38E+1
1.93E-2	1.56E+2	6.84E-3	5.05E+1
1.73E-2	1.30E+2	7.81E-3	5.77E+1
1.78E-2	1.21E+2	6.10E-3	4.54E+0
1.78E-2	1.45E+2	8.30E-3	6.32E+1
1.93E-2	1.44E+2	6.84E-3	3.96E+0
2.00E-2	1.56E+2	8.79E-3	4.75E+1
1.93E-2	1.76E+2	6.59E-3	3.64E+1
2.00E-2	1.30E+2	1.07E-2	5.77E+1
1.93E-2	1.23E+2	8.54E-3	7.96E+1
1.59E-2	1.14E+2	6.59E-3	-8.30E-1
1.56E-2	1.13E+2	7.08E-3	-1.31E+1
1.54E-2	1.17E+2	6.59E-3	3.41E+1
1.95E-2	1.28E+2	6.10E-3	9.81E+0
1.83E-2	1.40E+2	8.06E-3	-7.23E+0
2.25E-2	1.41E+2	7.08E-3	6.59E+0
1.86E-2	1.39E+2	7.57E-3	3.08E+1
2.05E-2	1.36E+2	7.08E-3	5.82E+1
1.54E-2	6.88E+1	8.30E-3	5.23E+1
1.71E-2	6.75E+1	8.30E-3	8.79E-1
1.56E-2	8.60E+1	1.00E-2	4.24E+1
1.73E-2	9.74E+1	9.03E-3	4.42E+1
2.08E-2	1.11E+2	8.79E-3	6.09E+1
1.71E-2	1.20E+2	6.84E-3	9.33E+0
1.73E-2	1.13E+2	6.10E-3	3.03E+0
1.86E-2	7.31E+1	9.03E-3	3.96E+0
2.15E-2	1.21E+2	6.35E-3	-2.27E+1
1.73E-2	1.00E+2	9.03E-3	3.46E+1
1.98E-2	1.59E+2	8.79E-3	5.42E+1
1.86E-2	1.67E+2	8.06E-3	5.67E+1
1.81E-2	1.23E+2	7.81E-3	7.52E+0
2.22E-2	1.60E+2	6.35E-3	2.93E-1
1.76E-2	1.04E+2	8.30E-3	2.44E+1
1.83E-2	1.09E+2	9.03E-3	3.73E+1
1.98E-2	8.83E+1	7.08E-3	-3.81E+1
1.64E-2	1.16E+2	7.57E-3	6.92E+1
2.00E-2	1.01E+2	7.08E-3	3.42E-1
1.81E-2	1.43E+2	7.57E-3	1.27E+1
1.95E-2	1.29E+2	7.08E-3	6.15E+1
1.83E-2	1.11E+2	7.32E-3	-3.12E+0
1.86E-2	1.38E+2	6.35E-3	1.70E+1
1.68E-2	1.05E+2	9.03E-3	2.01E+1
1.90E-2	1.21E+2	6.10E-3	4.94E+1
2.03E-2	1.37E+2	8.54E-3	3.86E+1
1.59E-2	1.17E+2	8.06E-3	5.17E+1
1.86E-2	1.02E+2	9.52E-3	-1.95E-1
1.83E-2	1.03E+2	8.79E-3	7.71E+1
1.71E-2	1.09E+2	6.35E-3	4.61E+1
2.08E-2	9.61E+1	8.06E-3	-1.56E+1
1.81E-2	1.39E+2	7.57E-3	6.35E+0
1.81E-2	1.14E+2	6.59E-3	-7.08E+0
1.90E-2	1.30E+2	6.10E-3	-1.36E+1
1.90E-2	1.29E+2	1.07E-2	7.85E+1
1.68E-2	1.19E+2	6.10E-3	1.93E+1
1.59E-2	1.12E+2	5.13E-3	2.22E+1
1.88E-2	1.51E+2	6.35E-3	3.63E+1
1.78E-2	6.58E+1	7.08E-3	2.29E+1
1.59E-2	1.10E+2	7.32E-3	-2.25E+0
2.08E-2	9.27E+1	7.08E-3	4.63E+1
1.73E-2	1.38E+2	7.57E-3	2.15E+1
2.15E-2	1.57E+2	7.08E-3	2.94E+1
1.88E-2	1.15E+2	7.32E-3	-1.48E+1
1.78E-2	1.01E+2	7.57E-3	1.39E+1
1.73E-2	1.06E+2	6.10E-3	3.37E+1
1.59E-2	1.36E+2	6.59E-3	7.96E+0
1.86E-2	1.28E+2	6.84E-3	4.14E+1
1.68E-2	1.19E+2	6.59E-3	2.21E+1
1.93E-2	7.79E+1	6.35E-3	1.73E+1
1.71E-2	7.19E+1	5.62E-3	7.37E+0
1.86E-2	1.50E+2	9.03E-3	4.78E+1
2.00E-2	9.95E+1	6.10E-3	2.70E+1
2.05E-2	1.45E+2	8.06E-3	6.76E+1
1.73E-2	9.82E+1	9.03E-3	1.32E+1
1.93E-2	1.03E+2	7.08E-3	9.72E+0
1.83E-2	1.44E+2	6.84E-3	1.55E+1
1.86E-2	1.49E+2	6.59E-3	5.81E+0
1.93E-2	1.09E+2	6.10E-3	-1.83E+1
2.10E-2	1.50E+2	7.08E-3	1.36E+1
2.03E-2	1.28E+2	7.57E-3	3.34E+1
1.73E-2	1.45E+2	8.79E-3	6.01E+1
1.64E-2	8.49E+1	8.30E-3	3.08E+1
1.64E-2	1.51E+2	6.84E-3	4.52E+1
3.17E-2	8.76E+1	8.30E-3	1.68E+1
1.95E-2	1.47E+2	5.37E-3	-6.01E+0
1.81E-2	1.11E+2	5.62E-3	-1.07E+1
1.83E-2	1.13E+2	9.28E-3	4.47E+1
7.32E-3	-2.73E+0	1.22E-2	3.78E+1
1.93E-2	1.44E+2	7.08E-3	1.26E+1
1.71E-2	1.30E+2	7.57E-3	3.37E+1
1.49E-2	1.33E+2	6.84E-3	6.32E+1
2.00E-2	1.01E+2	5.86E-3	-7.86E+0
1.95E-2	1.24E+2	7.57E-3	5.98E+1
1.71E-2	1.31E+2	1.20E-2	6.46E+1
2.39E-2	1.74E+2	9.03E-3	7.88E+1
1.86E-2	8.96E+1	5.86E-3	7.28E+0
1.88E-2	8.93E+1	9.77E-3	2.92E+1
6.10E-3	4.39E-1	1.51E-2	4.00E+1
1.95E-2	1.75E+2	6.59E-3	2.88E+1
1.71E-2	1.40E+2	5.86E-3	8.64E+0
1.95E-2	1.46E+2	7.08E-3	-1.85E+1
1.46E-2	1.04E+2	7.32E-3	1.67E+1
1.90E-2	1.37E+2	5.62E-3	3.10E+1
1.83E-2	1.52E+2	5.62E-3	1.40E+1
2.15E-2	1.75E+2	6.35E-3	1.33E+1
1.90E-2	1.34E+2	8.79E-3	4.73E+1
1.76E-2	1.10E+2	9.03E-3	1.92E+1
1.71E-2	1.38E+2	6.84E-3	3.53E+1
1.81E-2	9.17E+1	8.06E-3	4.85E+1
1.68E-2	8.91E+1	6.35E-3	5.76E+0
1.76E-2	8.60E+1	9.77E-3	3.76E+1
1.68E-2	9.81E+1	6.10E-3	-2.00E+1
1.90E-2	1.32E+2	6.84E-3	2.96E+1
1.73E-2	1.21E+2	6.35E-3	4.55E+1
1.88E-2	1.14E+2	6.35E-3	-1.60E+1
2.03E-2	1.39E+2	7.32E-3	4.65E+1
1.61E-2	1.12E+2	6.35E-3	4.76E+1
2.00E-2	1.49E+2	7.08E-3	1.85E+1
2.05E-2	1.25E+2	6.59E-3	-8.30E+0
1.88E-2	1.11E+2	7.08E-3	4.10E+1
1.78E-2	7.98E+1	7.08E-3	8.94E+0
1.59E-2	9.00E+1	7.57E-3	2.69E+1
2.25E-2	1.52E+2	7.08E-3	3.65E+1
1.98E-2	9.91E+1	6.84E-3	1.49E+1
1.88E-2	1.23E+2	6.84E-3	1.50E+1
2.08E-2	1.46E+2	6.35E-3	3.92E+1
1.86E-2	1.33E+2	6.10E-3	-9.33E+0
1.93E-2	1.46E+2	7.08E-3	1.66E+0
1.98E-2	1.31E+2	7.57E-3	2.70E+1
1.76E-2	1.22E+2	9.77E-3	6.93E+1
1.54E-2	6.04E+1	8.30E-3	2.21E+1
1.78E-2	8.73E+1	7.08E-3	4.46E+1
1.76E-2	1.00E+2	7.08E-3	3.31E+1
1.66E-2	5.78E+1	8.30E-3	3.75E+1
1.88E-2	9.98E+1	6.35E-3	-1.86E+0
2.08E-2	1.19E+2	9.03E-3	2.42E+1
2.00E-2	1.00E+2	7.81E-3	-1.67E+1
7.08E-3	4.88E+0	1.07E-2	7.40E+1
1.81E-2	1.20E+2	8.79E-3	5.23E+1
1.59E-2	9.15E+1	9.03E-3	3.35E+1
1.86E-2	1.04E+2	9.28E-3	1.87E+1
1.95E-2	1.34E+2	7.81E-3	1.45E+1
1.93E-2	1.38E+2	9.77E-3	3.35E+1
2.10E-2	1.24E+2	1.00E-2	6.72E+1
1.56E-2	1.08E+2	7.57E-3	4.02E+1
1.66E-2	1.04E+2	7.81E-3	1.59E+1
7.81E-3	1.78E+1	1.59E-2	8.69E+1
2.10E-2	1.18E+2	6.59E-3	-1.12E+1
1.88E-2	1.04E+2	8.54E-3	3.25E+1
1.49E-2	1.01E+2	7.81E-3	3.08E+0
1.90E-2	1.30E+2	5.13E-3	-4.39E+0
1.90E-2	1.20E+2	8.54E-3	2.82E+1
1.86E-2	1.59E+2	6.35E-3	6.67E+1
1.86E-2	1.58E+2	7.08E-3	2.50E+1
1.86E-2	1.06E+2	6.59E-3	2.24E+1
1.59E-2	9.98E+1	8.30E-3	2.19E+1
1.98E-2	1.48E+2	6.84E-3	2.31E+1
1.73E-2	1.19E+2	6.59E-3	3.95E+1
1.90E-2	8.49E+1	8.30E-3	2.36E+1
2.17E-2	1.05E+2	9.77E-3	2.34E+1
1.71E-2	9.80E+1	5.86E-3	-5.27E+0
1.78E-2	1.19E+2	7.57E-3	1.24E+1
1.76E-2	1.47E+2	6.59E-3	1.48E+1
1.73E-2	1.11E+2	7.57E-3	4.03E+1
1.76E-2	1.11E+2	6.35E-3	-1.34E+1
1.76E-2	1.38E+2	8.30E-3	3.60E+1
2.00E-2	1.29E+2	8.30E-3	5.65E+1
1.81E-2	1.28E+2	9.52E-3	5.02E+1
1.73E-2	5.56E+1	8.30E-3	7.62E+0
2.03E-2	1.09E+2	8.30E-3	3.73E+1
1.68E-2	1.16E+2	6.84E-3	-8.40E+0
1.78E-2	1.51E+2	8.79E-3	6.70E+1
1.86E-2	9.86E+1	7.08E-3	3.44E+1
2.22E-2	1.25E+2	7.81E-3	2.53E+1
1.64E-2	1.19E+2	5.37E-3	9.72E+0
2.05E-2	1.51E+2	6.35E-3	6.10E+0
1.88E-2	1.49E+2	8.06E-3	4.53E+1
1.66E-2	7.85E+1	9.52E-3	3.04E+1
2.03E-2	1.49E+2	6.84E-3	1.77E+1
1.86E-2	1.09E+2	6.59E-3	4.69E+1
1.76E-2	1.07E+2	8.79E-3	3.72E+1
1.78E-2	1.09E+2	9.52E-3	2.25E+1
1.93E-2	1.20E+2	8.54E-3	6.62E+1
1.93E-2	1.02E+2	8.06E-3	2.69E+0
1.59E-2	8.07E+1	6.84E-3	-4.00E+0
2.03E-2	1.48E+2	7.57E-3	2.14E+1
1.81E-2	1.33E+2	6.35E-3	-1.46E-1
1.93E-2	1.56E+2	7.32E-3	3.33E+1
2.03E-2	1.19E+2	8.30E-3	-6.93E+0
1.56E-2	1.22E+2	8.30E-3	7.18E+1
1.88E-2	1.38E+2	6.10E-3	3.35E+1
1.95E-2	1.46E+2	8.06E-3	4.99E+1
1.88E-2	7.27E+1	7.81E-3	-6.35E-1
1.71E-2	9.20E+1	6.10E-3	-1.96E+1
1.83E-2	1.17E+2	8.06E-3	4.84E+1
1.93E-2	1.11E+2	7.32E-3	-4.83E+0
1.98E-2	8.65E+1	7.81E-3	8.64E+0
1.95E-2	1.47E+2	9.28E-3	1.12E+1
1.73E-2	1.06E+2	6.59E-3	2.51E+1
2.22E-2	1.66E+2	5.86E-3	8.30E-1
2.00E-2	1.42E+2	6.10E-3	3.97E+1
2.05E-2	1.49E+2	7.08E-3	1.89E+1
1.78E-2	1.60E+2	9.28E-3	8.77E+1
2.05E-2	1.38E+2	6.59E-3	6.01E+0
1.78E-2	1.33E+2	8.30E-3	-1.64E+1
1.83E-2	9.90E+1	8.30E-3	2.23E+1
1.90E-2	8.57E+1	8.30E-3	3.58E+1
2.03E-2	1.53E+2	7.57E-3	4.55E+1
2.12E-2	1.48E+2	6.10E-3	3.73E+1
2.29E-2	1.30E+2	6.10E-3	-2.65E+1
2.03E-2	1.38E+2	7.32E-3	8.40E+0
1.73E-2	1.32E+2	6.35E-3	-6.54E+0
1.66E-2	1.38E+2	5.37E-3	-1.97E+1
2.15E-2	1.53E+2	8.54E-3	3.28E+1
1.73E-2	1.25E+2	6.84E-3	3.17E+0
1.95E-2	1.34E+2	7.57E-3	6.21E+1
1.93E-2	1.29E+2	7.32E-3	4.79E+1
1.68E-2	1.11E+2	8.54E-3	4.72E+1
1.88E-2	1.44E+2	7.08E-3	-1.25E+1
1.86E-2	1.02E+2	6.35E-3	1.24E+1
1.76E-2	1.08E+2	7.08E-3	3.81E+1
1.86E-2	1.24E+2	8.30E-3	2.41E+1
2.08E-2	1.56E+2	9.03E-3	2.09E+1
1.59E-2	1.34E+2	7.57E-3	1.98E+1
1.54E-2	1.06E+2	7.57E-3	1.33E+1
1.73E-2	1.40E+2	5.86E-3	5.82E+1
1.83E-2	1.25E+2	7.57E-3	5.00E+1
1.78E-2	1.42E+2	8.30E-3	5.66E+1
1.95E-2	1.22E+2	8.79E-3	3.08E+1
2.03E-2	1.24E+2	8.06E-3	3.56E+1
1.64E-2	1.27E+2	6.59E-3	5.27E+1
1.93E-2	1.19E+2	8.30E-3	3.24E+1
1.61E-2	1.08E+2	6.84E-3	9.42E+0
1.66E-2	1.46E+2	6.10E-3	1.46E+1
1.73E-2	1.24E+2	7.08E-3	-2.88E+0
1.68E-2	9.91E+1	6.35E-3	-2.54E+1
2.03E-2	1.22E+2	7.08E-3	2.62E+1
1.98E-2	1.43E+2	8.06E-3	2.30E+1
1.95E-2	1.34E+2	7.57E-3	-1.74E+1
2.15E-2	1.44E+2	8.79E-3	2.58E+1
1.76E-2	7.37E+1	8.30E-3	1.50E+1
1.68E-2	8.92E+1	8.30E-3	4.98E+1
2.08E-2	1.31E+2	7.57E-3	4.92E+1
1.73E-2	1.32E+2	6.35E-3	7.71E+0
1.64E-2	1.40E+2	9.52E-3	2.37E+1
2.22E-2	1.46E+2	7.08E-3	2.63E+1
1.86E-2	1.33E+2	8.06E-3	4.12E+1
1.95E-2	1.56E+2	7.32E-3	1.38E+1
1.93E-2	1.33E+2	6.84E-3	-4.49E+0
1.61E-2	1.32E+2	6.35E-3	9.81E+0
1.98E-2	1.49E+2	7.32E-3	5.27E+0
1.78E-2	1.30E+2	9.28E-3	4.62E+1
1.88E-2	1.15E+2	8.54E-3	4.38E+1
1.81E-2	1.77E+2	6.59E-3	3.94E+1
1.98E-2	1.35E+2	8.30E-3	6.84E+1
1.88E-2	1.36E+2	8.06E-3	6.41E+1
1.56E-2	5.22E+1	6.59E-3	-1.72E+1
1.56E-2	8.31E+1	8.06E-3	1.35E+1
1.61E-2	1.40E+2	8.30E-3	1.53E+1
1.56E-2	9.38E+1	5.37E-3	-4.15E+0
1.61E-2	5.22E+1	7.57E-3	-4.23E+1
1.88E-2	1.24E+2	5.62E-3	-2.83E+0
1.66E-2	1.37E+2	9.52E-3	1.92E+1
1.86E-2	1.33E+2	8.54E-3	4.28E+1
1.64E-2	1.08E+2	9.77E-3	5.59E+1
1.83E-2	8.85E+1	8.06E-3	4.87E+1
2.03E-2	1.03E+2	9.28E-3	3.03E+1
1.98E-2	1.21E+2	7.08E-3	3.53E+1
1.73E-2	1.34E+2	9.52E-3	5.87E+1
1.81E-2	1.21E+2	9.03E-3	6.24E+1
2.00E-2	9.38E+1	6.35E-3	2.42E+1
1.71E-2	7.87E+1	5.62E-3	-3.33E+1
1.93E-2	1.35E+2	6.59E-3	5.52E+0
1.81E-2	9.73E+1	6.10E-3	-1.23E+1
1.86E-2	1.37E+2	5.62E-3	1.04E+1
2.10E-2	1.51E+2	9.52E-3	2.35E+1
2.08E-2	1.76E+2	7.57E-3	4.22E+1
1.90E-2	1.12E+2	7.08E-3	8.25E+0
1.44E-2	9.28E+1	9.77E-3	1.78E+1
1.68E-2	8.63E+1	7.57E-3	2.02E+1
1.88E-2	9.64E+1	8.79E-3	1.82E+1
1.83E-2	1.30E+2	6.59E-3	2.56E+1
1.95E-2	1.52E+2	5.86E-3	1.08E+1
1.61E-2	6.97E+1	6.10E-3	1.27E+1
1.93E-2	8.90E+1	6.59E-3	-1.31E+1
2.17E-2	1.28E+2	7.57E-3	3.23E+1
1.86E-2	1.18E+2	6.59E-3	3.27E+0
2.03E-2	1.67E+2	7.32E-3	1.29E+1
2.10E-2	1.54E+2	7.81E-3	4.58E+1
1.71E-2	1.60E+2	8.79E-3	6.95E+1
1.76E-2	1.14E+2	6.59E-3	6.98E+0
1.93E-2	1.04E+2	9.52E-3	1.75E+1
1.76E-2	1.50E+2	6.35E-3	2.72E+1
1.61E-2	8.36E+1	8.54E-3	2.05E+1
1.64E-2	8.67E+1	8.54E-3	4.27E+1
2.17E-2	1.05E+2	7.08E-3	-1.42E+1
1.78E-2	1.33E+2	5.86E-3	-3.06E+1
1.71E-2	1.31E+2	6.10E-3	1.77E+1
1.93E-2	1.39E+2	7.57E-3	1.11E+1
2.29E-2	1.62E+2	7.08E-3	3.03E+1
1.90E-2	1.04E+2	6.10E-3	1.88E+1
1.98E-2	1.50E+2	7.32E-3	4.15E+0
1.98E-2	1.24E+2	8.06E-3	5.41E+1
1.81E-2	1.25E+2	1.05E-2	6.31E+1
1.86E-2	1.47E+2	7.81E-3	4.81E+1
1.78E-2	1.21E+2	7.32E-3	3.37E+1
1.68E-2	8.54E+1	7.57E-3	8.30E+0
1.88E-2	1.12E+2	9.77E-3	2.67E+1
1.86E-2	1.24E+2	8.30E-3	2.83E+1
1.90E-2	1.25E+2	7.81E-3	3.53E+1
1.86E-2	9.82E+1	5.86E-3	2.15E+0
2.05E-2	1.31E+2	6.59E-3	2.69E+0
1.44E-2	9.87E+1	6.35E-3	2.56E+1
1.93E-2	1.42E+2	7.81E-3	5.70E+1
2.05E-2	1.09E+2	5.86E-3	-2.92E+1
1.61E-2	1.10E+2	7.57E-3	9.77E-1
1.86E-2	1.30E+2	8.79E-3	6.28E+1
1.95E-2	1.44E+2	1.03E-2	5.65E+1
1.64E-2	9.64E+1	7.32E-3	1.84E+1
1.83E-2	1.30E+2	5.86E-3	1.66E+1
1.81E-2	1.23E+2	8.30E-3	6.25E+1
1.54E-2	1.10E+2	6.84E-3	-2.61E+1
1.61E-2	1.05E+2	6.84E-3	-2.78E+1
1.81E-2	9.06E+1	7.32E-3	2.92E+1
2.15E-2	1.24E+2	6.10E-3	1.27E+0
1.76E-2	1.61E+2	6.84E-3	2.04E+1
2.17E-2	1.80E+2	6.84E-3	2.42E+1
2.08E-2	2.00E+2	7.81E-3	9.30E+1
1.90E-2	1.02E+2	8.30E-3	2.48E+1
1.76E-2	1.15E+2	6.10E-3	3.71E+0
1.73E-2	1.06E+2	8.06E-3	3.65E+1
1.93E-2	1.17E+2	6.10E-3	1.68E+1
2.00E-2	1.22E+2	8.54E-3	3.49E+1
1.73E-2	7.51E+1	9.03E-3	5.81E+0
1.59E-2	1.30E+2	9.03E-3	1.94E+1
7.57E-3	-7.28E+0	1.15E-2	2.97E+1
1.81E-2	1.39E+2	6.84E-3	-6.30E+0
1.78E-2	1.71E+2	5.62E-3	1.78E+1
1.73E-2	1.10E+2	6.84E-3	1.18E+1
1.95E-2	1.27E+2	6.10E-3	-2.91E+1
1.86E-2	1.55E+2	6.10E-3	1.32E+0
1.66E-2	8.21E+1	9.28E-3	3.24E+1
1.71E-2	1.04E+2	7.81E-3	3.01E+1
1.73E-2	5.83E+1	8.54E-3	2.41E+1
1.98E-2	1.45E+2	7.32E-3	1.14E+1
2.12E-2	1.19E+2	1.00E-2	2.78E+1
1.66E-2	1.02E+2	6.35E-3	4.18E+1
1.71E-2	7.12E+1	7.57E-3	1.02E+1
1.51E-2	9.40E+1	7.57E-3	1.25E+1
1.90E-2	1.16E+2	6.59E-3	3.76E+1
1.90E-2	1.31E+2	7.08E-3	6.40E+0
1.71E-2	1.52E+2	6.84E-3	4.16E+1
1.78E-2	1.32E+2	9.77E-3	5.24E+1
1.73E-2	1.15E+2	7.08E-3	2.29E+1
1.88E-2	1.80E+2	7.57E-3	5.88E+1
1.98E-2	1.19E+2	8.06E-3	4.97E+1
1.95E-2	1.12E+2	9.77E-3	4.20E+1
1.59E-2	7.42E+1	9.77E-3	1.76E+0
1.76E-2	1.16E+2	7.57E-3	2.64E+0
2.00E-2	1.29E+2	6.10E-3	2.05E+1
1.88E-2	1.32E+2	6.84E-3	3.42E+0
1.81E-2	9.68E+1	6.10E-3	-7.08E+0
1.86E-2	1.52E+2	6.59E-3	2.12E+1
1.76E-2	1.22E+2	6.84E-3	1.32E+0
1.61E-2	1.21E+2	7.57E-3	3.61E+1
2.05E-2	1.60E+2	5.86E-3	4.36E+1
1.76E-2	9.05E+1	9.03E-3	5.20E+1
1.95E-2	1.28E+2	8.79E-3	5.04E+1
2.00E-2	1.21E+2	7.08E-3	2.05E+0
2.10E-2	1.14E+2	7.81E-3	3.03E+1
1.59E-2	1.06E+2	5.62E-3	3.95E+1
1.90E-2	9.73E+1	7.57E-3	1.67E+1
1.71E-2	1.10E+2	5.13E-3	-6.93E+0
1.73E-2	1.06E+2	6.59E-3	5.03E+0
1.90E-2	1.28E+2	7.81E-3	4.07E+1
1.98E-2	1.45E+2	4.64E-3	1.24E+1
1.71E-2	1.07E+2	8.30E-3	4.75E+1
1.90E-2	1.46E+2	6.59E-3	3.71E+0
1.71E-2	1.20E+2	4.39E-3	-6.20E+0
1.73E-2	1.04E+2	5.86E-3	-1.05E+1
2.12E-2	1.26E+2	7.32E-3	3.61E+0
1.76E-2	6.60E+1	6.59E-3	1.81E+1
1.73E-2	7.69E+1	8.06E-3	2.28E+1
1.81E-2	8.40E+1	7.32E-3	2.53E+1
1.98E-2	1.34E+2	9.03E-3	1.94E+1
1.90E-2	1.19E+2	6.35E-3	9.86E+0
1.76E-2	1.02E+2	7.57E-3	-1.17E+1
1.76E-2	1.24E+2	8.06E-3	1.46E-1
1.73E-2	1.30E+2	7.32E-3	2.71E+1
2.00E-2	1.39E+2	6.35E-3	-4.30E+0
1.78E-2	1.05E+2	7.32E-3	1.19E+1
1.93E-2	8.66E+1	8.06E-3	4.54E+0
2.15E-2	1.32E+2	8.30E-3	1.49E+1
2.00E-2	1.35E+2	9.52E-3	6.73E+1
1.93E-2	1.13E+2	8.54E-3	5.72E+1
2.03E-2	7.56E+1	7.32E-3	3.91E+0
1.71E-2	1.33E+2	5.86E-3	-1.26E+1
2.00E-2	1.81E+2	6.59E-3	3.03E+1
1.81E-2	1.18E+2	7.32E-3	2.39E+1
1.78E-2	1.22E+2	6.35E-3	2.50E+1
2.27E-2	1.46E+2	7.81E-3	4.10E+0
1.83E-2	1.59E+2	6.35E-3	1.33E+1
1.81E-2	1.14E+2	6.35E-3	-9.33E+0
1.86E-2	1.69E+2	7.08E-3	1.80E+1
1.83E-2	1.32E+2	7.81E-3	5.37E+1
1.93E-2	9.11E+1	6.59E-3	4.38E+1
2.27E-2	1.02E+2	1.05E-2	3.27E+1
2.37E-2	1.21E+2	7.32E-3	1.12E+0
2.00E-2	8.52E+1	8.54E-3	-3.42E+0
1.68E-2	4.72E+1	8.06E-3	-2.28E+1
1.81E-2	9.07E+1	6.84E-3	2.48E+1
1.71E-2	1.42E+2	5.62E-3	1.20E+1
1.86E-2	1.13E+2	6.59E-3	-1.17E+0
2.00E-2	1.67E+2	6.35E-3	3.63E+1
1.59E-2	7.29E+1	7.57E-3	4.01E+1
2.17E-2	1.35E+2	1.05E-2	2.56E+1
1.88E-2	1.31E+2	7.57E-3	7.06E+1
2.34E-2	1.73E+2	6.59E-3	2.53E+1
1.81E-2	1.18E+2	6.84E-3	4.70E+1
2.05E-2	1.48E+2	8.06E-3	5.10E+1
1.59E-2	9.42E+1	7.81E-3	-2.05E+1
1.66E-2	6.83E+1	7.57E-3	6.54E+0
1.71E-2	1.26E+2	8.30E-3	-3.91E-1
1.83E-2	1.15E+2	5.86E-3	-3.14E+1
1.73E-2	1.19E+2	5.37E-3	-2.18E+1
1.78E-2	1.16E+2	6.84E-3	-5.86E-1
1.90E-2	1.38E+2	7.57E-3	-3.29E+1
1.83E-2	1.81E+2	6.84E-3	4.17E+1
1.90E-2	1.40E+2	5.62E-3	1.84E+1
2.03E-2	8.02E+1	8.54E-3	3.53E+1
1.93E-2	1.25E+2	7.57E-3	3.08E+1
1.83E-2	1.21E+2	8.79E-3	7.09E+1
2.00E-2	1.12E+2	7.32E-3	3.62E+1
1.61E-2	1.18E+2	8.79E-3	3.52E+1
1.81E-2	1.01E+2	7.81E-3	3.94E+1
1.88E-2	1.11E+2	6.59E-3	1.65E+1
1.61E-2	1.27E+2	8.79E-3	2.05E+0
1.86E-2	1.25E+2	7.81E-3	4.90E+1
2.20E-2	1.45E+2	7.32E-3	1.78E+1
2.00E-2	1.31E+2	5.13E-3	-2.78E+0
2.00E-2	1.29E+2	7.32E-3	1.12E+0
1.90E-2	1.53E+2	7.32E-3	3.54E+1
1.98E-2	1.48E+2	8.06E-3	7.00E+1
2.10E-2	1.11E+2	7.32E-3	4.41E+1
1.71E-2	5.36E+1	7.81E-3	-1.17E+0
1.73E-2	8.59E+1	6.10E-3	6.20E+1
1.76E-2	9.14E+1	6.35E-3	3.04E+1
1.76E-2	1.04E+2	7.57E-3	2.22E+1
1.93E-2	1.25E+2	6.59E-3	6.87E+1
1.71E-2	1.12E+2	6.84E-3	7.47E+0
1.81E-2	1.14E+2	6.59E-3	4.06E+1
2.12E-2	1.16E+2	6.10E-3	-2.08E+1
1.86E-2	1.46E+2	6.35E-3	1.14E+1
1.66E-2	1.37E+2	9.28E-3	6.46E+1
2.00E-2	9.21E+1	8.54E-3	1.28E+1
1.93E-2	1.20E+2	9.52E-3	4.38E+1
2.20E-2	1.72E+2	8.54E-3	3.15E+1
2.12E-2	1.33E+2	6.10E-3	-4.04E+1
2.05E-2	1.16E+2	7.57E-3	4.64E+0
1.66E-2	1.06E+2	7.57E-3	-2.90E+1
1.59E-2	7.63E+1	7.57E-3	-1.44E+1
1.76E-2	1.44E+2	7.32E-3	3.86E+0
1.88E-2	1.05E+2	5.86E-3	-1.53E+1
1.81E-2	1.23E+2	7.81E-3	1.58E+1
1.88E-2	1.24E+2	6.35E-3	-7.23E+0
1.98E-2	1.78E+2	6.10E-3	4.26E+1
1.61E-2	1.25E+2	8.79E-3	3.55E+1
1.98E-2	1.16E+2	7.32E-3	4.58E+1
2.00E-2	1.17E+2	8.30E-3	8.11E+0
1.76E-2	9.99E+1	8.06E-3	5.18E+1
1.86E-2	1.08E+2	6.10E-3	2.51E+1
1.88E-2	8.79E+1	8.06E-3	1.06E+1
1.59E-2	9.24E+1	8.30E-3	6.59E+0
1.81E-2	6.56E+1	7.32E-3	-1.96E+1
1.93E-2	1.09E+2	6.35E-3	-2.77E+1
1.83E-2	1.24E+2	5.62E-3	1.12E+1
1.88E-2	1.41E+2	7.08E-3	1.57E+1
1.76E-2	1.17E+2	8.30E-3	1.50E+1
1.68E-2	1.59E+2	8.79E-3	6.24E+1
1.64E-2	1.09E+2	6.59E-3	2.73E+1
2.05E-2	1.65E+2	6.84E-3	2.36E+1
1.68E-2	1.49E+2	6.10E-3	3.86E+1
1.71E-2	5.95E+1	8.30E-3	2.94E+1
2.12E-2	1.19E+2	7.57E-3	4.83E+1
2.12E-2	8.29E+1	8.54E-3	-2.29E+0
2.12E-2	1.53E+2	9.28E-3	3.05E+1
1.46E-2	1.42E+2	6.10E-3	9.33E+0
1.49E-2	1.06E+2	5.86E-3	5.03E+0
2.03E-2	1.26E+2	7.81E-3	6.74E+0
1.71E-2	1.45E+2	6.10E-3	-5.42E+0
1.95E-2	1.08E+2	9.28E-3	5.23E+1
2.10E-2	1.67E+2	9.28E-3	5.57E+1
1.68E-2	7.98E+1	9.28E-3	2.08E+1
2.10E-2	1.19E+2	1.10E-2	4.69E+1
1.78E-2	9.05E+1	5.86E-3	-1.97E+1
1.86E-2	9.52E+1	8.54E-3	3.93E+1
2.05E-2	7.36E+1	8.06E-3	-1.12E+1
1.66E-2	1.08E+2	5.62E-3	1.22E+1
2.00E-2	1.12E+2	7.32E-3	-6.79E+0
1.46E-2	9.31E+1	6.59E-3	-3.08E+1
2.12E-2	1.39E+2	8.30E-3	5.91E+1
1.93E-2	1.43E+2	8.79E-3	5.67E+1
1.90E-2	1.35E+2	8.30E-3	4.09E+1
2.05E-2	1.48E+2	9.28E-3	2.05E+0
2.22E-2	1.56E+2	7.32E-3	-1.81E+0
1.76E-2	1.28E+2	7.81E-3	5.30E+1
2.03E-2	8.46E+1	8.06E-3	2.95E+1
1.78E-2	1.10E+2	6.59E-3	1.28E+1
1.68E-2	7.45E+1	6.59E-3	-3.32E+0
1.71E-2	1.08E+2	6.35E-3	-1.88E+1
1.83E-2	9.99E+1	6.59E-3	-1.56E+1
1.71E-2	1.06E+2	5.86E-3	-4.44E+0
1.66E-2	1.04E+2	6.35E-3	-3.24E+1
1.86E-2	1.45E+2	6.35E-3	1.42E+1
1.86E-2	1.38E+2	7.57E-3	1.58E+1
1.98E-2	1.19E+2	7.32E-3	3.57E+1
1.86E-2	1.03E+2	6.35E-3	6.13E+1
1.81E-2	1.10E+2	8.06E-3	5.00E+1
2.08E-2	1.27E+2	8.06E-3	2.13E+1
1.76E-2	1.04E+2	1.10E-2	4.52E+1
1.88E-2	1.16E+2	7.32E-3	3.76E+1
1.83E-2	1.24E+2	6.84E-3	4.45E+1
1.59E-2	7.97E+1	7.81E-3	2.39E+0
1.93E-2	1.38E+2	7.08E-3	1.79E+1
1.86E-2	1.31E+2	8.54E-3	6.41E+1
1.95E-2	1.17E+2	8.79E-3	1.27E+1
1.83E-2	1.28E+2	6.10E-3	4.03E+1
1.95E-2	1.87E+2	5.62E-3	3.04E+1
1.81E-2	1.33E+2	7.57E-3	2.85E+1
1.61E-2	1.15E+2	8.30E-3	4.49E+1
1.95E-2	1.19E+2	1.00E-2	5.86E+1
1.68E-2	9.26E+1	7.81E-3	4.40E+1
1.66E-2	5.80E+1	8.06E-3	-6.59E+0
1.71E-2	6.90E+1	6.35E-3	-1.27E+1
1.98E-2	1.04E+2	6.84E-3	-8.40E+0
1.93E-2	1.26E+2	7.08E-3	5.15E+1
2.25E-2	1.24E+2	7.32E-3	1.81E+0
1.83E-2	1.39E+2	6.35E-3	3.03E+1
1.95E-2	1.23E+2	7.57E-3	1.04E+1
1.78E-2	1.17E+2	7.32E-3	4.61E+1
2.20E-2	1.61E+2	7.81E-3	2.01E+1
1.83E-2	1.35E+2	8.54E-3	2.72E+1
2.15E-2	1.43E+2	8.06E-3	1.07E+1
2.03E-2	1.47E+2	8.06E-3	5.62E+1
2.05E-2	1.41E+2	7.32E-3	3.16E+1
1.83E-2	1.04E+2	8.06E-3	1.44E+1
1.93E-2	1.08E+2	7.08E-3	2.76E+1
1.93E-2	1.55E+2	6.10E-3	2.67E+1
1.95E-2	1.34E+2	6.10E-3	6.15E+0
1.93E-2	1.63E+2	5.37E-3	-1.32E+1
1.95E-2	1.45E+2	6.84E-3	5.75E+1
1.54E-2	1.37E+2	8.54E-3	1.22E+1
2.15E-2	1.52E+2	6.35E-3	3.23E+1
2.15E-2	1.18E+2	5.86E-3	-6.35E+0
1.71E-2	8.31E+1	6.35E-3	1.91E+1
1.76E-2	8.69E+1	7.81E-3	2.93E+1
2.15E-2	1.01E+2	8.54E-3	3.76E+1
2.25E-2	9.86E+1	7.81E-3	5.37E-1
1.71E-2	9.67E+1	8.30E-3	1.98E+1
1.76E-2	8.76E+1	8.06E-3	1.43E+1
1.90E-2	1.30E+2	8.06E-3	2.66E+1
1.93E-2	1.44E+2	9.77E-3	8.12E+1
1.83E-2	1.36E+2	6.59E-3	5.42E+0
1.93E-2	1.51E+2	6.35E-3	6.07E+1
1.93E-2	1.36E+2	7.57E-3	2.43E+1
1.76E-2	1.62E+2	8.06E-3	7.18E+1
1.90E-2	1.13E+2	6.84E-3	5.14E+1
1.81E-2	1.05E+2	9.03E-3	3.86E+1
1.76E-2	1.41E+2	6.59E-3	4.38E+1
1.95E-2	6.72E+1	6.35E-3	2.53E+1
1.78E-2	9.05E+1	7.08E-3	3.08E+1
1.88E-2	1.47E+2	7.08E-3	7.13E+0
1.49E-2	1.13E+2	6.59E-3	-3.81E+0
1.71E-2	1.09E+2	8.06E-3	-1.66E+0
1.98E-2	7.76E+1	7.81E-3	3.39E+1
1.78E-2	1.01E+2	6.10E-3	9.28E-1
2.10E-2	1.53E+2	6.35E-3	2.88E+0
1.83E-2	1.34E+2	1.03E-2	5.32E+1
1.93E-2	1.74E+2	9.03E-3	3.88E+1
2.05E-2	1.26E+2	7.32E-3	1.27E+1
1.66E-2	9.87E+1	6.84E-3	-2.44E+1
1.61E-2	1.27E+2	7.81E-3	4.83E+1
1.93E-2	9.67E+1	1.15E-2	4.66E+1
1.71E-2	1.13E+2	7.32E-3	2.39E+1
1.68E-2	8.23E+1	7.32E-3	2.04E+1
2.20E-2	1.09E+2	7.81E-3	-1.71E+1
1.98E-2	1.44E+2	7.08E-3	4.74E+0
1.68E-2	8.12E+1	5.86E-3	-3.33E+1
1.88E-2	1.48E+2	8.06E-3	1.70E+1
1.59E-2	9.56E+1	6.35E-3	-3.61E+1
1.68E-2	1.37E+2	7.32E-3	3.11E+1
1.78E-2	1.17E+2	7.32E-3	-4.20E+0
2.12E-2	1.58E+2	7.81E-3	7.29E+1
1.51E-2	1.15E+2	1.07E-2	2.75E+1
1.83E-2	9.23E+1	6.35E-3	-2.83E+0
1.93E-2	1.06E+2	5.62E-3	-1.22E+1
2.03E-2	1.44E+2	7.32E-3	2.53E+1
1.49E-2	9.18E+1	5.62E-3	-1.01E+1
1.73E-2	8.94E+1	9.03E-3	4.15E+0
1.59E-2	8.91E+1	6.10E-3	-3.03E+0
1.78E-2	1.20E+2	7.57E-3	2.71E+1
1.68E-2	1.28E+2	6.10E-3	6.29E+1
2.05E-2	1.48E+2	6.35E-3	4.10E+1
1.98E-2	1.57E+2	7.57E-3	4.17E+1
2.05E-2	1.28E+2	8.30E-3	6.43E+1
2.03E-2	1.09E+2	8.79E-3	2.32E+1
1.83E-2	1.06E+2	7.57E-3	5.00E+1
2.32E-2	1.60E+2	8.30E-3	4.68E+1
1.93E-2	8.96E+1	5.37E-3	3.07E+1
1.83E-2	9.91E+1	8.54E-3	2.04E+1
1.88E-2	9.20E+1	6.84E-3	4.98E+0
1.76E-2	1.40E+2	6.59E-3	2.10E+0
1.93E-2	1.56E+2	6.84E-3	1.10E+1
2.05E-2	1.32E+2	6.35E-3	2.93E-1
2.08E-2	1.33E+2	7.08E-3	-1.99E+1
1.90E-2	1.36E+2	6.35E-3	-1.81E+1
1.78E-2	1.22E+2	6.10E-3	6.91E+1
1.78E-2	9.63E+1	7.32E-3	4.72E+1
1.86E-2	9.01E+1	7.57E-3	-4.88E-2
1.88E-2	7.72E+1	8.30E-3	1.13E+1
1.78E-2	9.40E+1	5.13E-3	2.49E+0
1.71E-2	8.57E+1	6.84E-3	2.22E+1
1.88E-2	9.26E+1	8.06E-3	-1.61E+1
1.88E-2	6.81E+1	6.35E-3	1.47E+1
1.71E-2	1.05E+2	5.86E-3	1.71E+0
1.93E-2	1.62E+2	6.59E-3	3.49E+1
2.03E-2	1.83E+2	7.32E-3	8.73E+1
1.93E-2	1.59E+2	6.59E-3	5.57E+1
1.95E-2	1.15E+2	6.59E-3	4.60E+1
1.68E-2	1.36E+2	1.10E-2	6.78E+1
1.88E-2	1.39E+2	6.59E-3	4.20E+1
1.90E-2	1.33E+2	8.30E-3	4.49E+1
1.51E-2	1.10E+2	7.81E-3	4.23E+1
1.93E-2	1.06E+2	7.08E-3	3.04E+1
1.56E-2	1.31E+2	6.35E-3	3.74E+1
1.90E-2	1.07E+2	6.84E-3	8.74E+0
1.66E-2	1.57E+2	7.81E-3	2.47E+1
1.93E-2	1.09E+2	5.62E-3	5.22E+0
1.98E-2	9.06E+1	8.06E-3	1.81E+1
2.17E-2	1.22E+2	7.32E-3	3.99E+1
1.90E-2	1.40E+2	6.59E-3	1.47E+1
2.05E-2	1.13E+2	1.00E-2	2.59E+1
1.95E-2	1.13E+2	7.32E-3	1.88E+1
2.10E-2	1.69E+2	1.00E-2	8.64E+1
1.56E-2	7.84E+1	7.81E-3	2.75E+1
1.68E-2	1.24E+2	9.03E-3	2.40E+1
1.59E-2	1.07E+2	7.32E-3	5.23E+1
1.88E-2	9.91E+1	8.79E-3	3.41E+1
1.83E-2	1.54E+2	5.37E-3	1.19E+1
1.81E-2	1.00E+2	7.08E-3	2.35E+1
1.88E-2	1.44E+2	5.86E-3	1.81E+0
2.12E-2	1.25E+2	7.08E-3	1.92E+1
1.56E-2	1.10E+2	5.62E-3	3.86E+1
1.73E-2	1.36E+2	6.84E-3	3.76E+0
1.95E-2	1.39E+2	6.35E-3	-5.03E+0
1.95E-2	1.47E+2	7.57E-3	6.67E+1
1.68E-2	8.92E+1	8.54E-3	3.39E+1
1.95E-2	1.21E+2	8.30E-3	2.38E+1
1.73E-2	8.89E+1	7.32E-3	-4.88E-1
1.81E-2	1.09E+2	6.84E-3	1.60E+1
1.83E-2	1.09E+2	7.57E-3	2.80E+1
1.61E-2	1.02E+2	6.35E-3	1.37E+1
1.78E-2	1.06E+2	8.30E-3	-1.48E+1
2.17E-2	1.23E+2	5.62E-3	7.32E-1
2.03E-2	1.32E+2	9.03E-3	3.03E+0
1.88E-2	6.33E+1	6.84E-3	9.91E+0
1.73E-2	1.13E+2	9.77E-3	2.39E+1
1.61E-2	9.44E+1	6.59E-3	4.63E+1
1.90E-2	1.30E+2	8.06E-3	3.98E+1
7.08E-3	1.85E+1	1.27E-2	1.12E+2
1.81E-2	1.26E+2	7.08E-3	2.09E+1
1.78E-2	8.14E+1	7.57E-3	7.08E+0
1.78E-2	8.73E+1	6.84E-3	1.56E+1
1.98E-2	1.71E+2	6.59E-3	2.65E+1
1.86E-2	1.28E+2	6.10E-3	-7.28E+0
1.68E-2	8.31E+1	7.81E-3	-1.18E+1
1.64E-2	1.22E+2	6.10E-3	1.96E+1
2.15E-2	1.34E+2	6.35E-3	-7.57E+0
1.83E-2	1.24E+2	6.84E-3	3.39E+1
1.93E-2	1.47E+2	9.03E-3	4.68E+1
1.64E-2	9.77E+1	7.32E-3	1.45E+1
2.00E-2	9.91E+1	7.57E-3	2.64E+0
1.68E-2	1.01E+2	8.06E-3	2.49E+0
1.90E-2	1.22E+2	8.54E-3	2.78E+1
1.93E-2	1.26E+2	6.59E-3	2.20E+1
2.15E-2	1.13E+2	9.28E-3	2.62E+1
1.78E-2	1.10E+2	7.81E-3	1.32E+1
2.08E-2	1.64E+2	6.35E-3	-1.17E+0
1.90E-2	1.08E+2	8.79E-3	4.40E+1
1.88E-2	1.17E+2	8.54E-3	4.14E+1
2.00E-2	1.58E+2	6.59E-3	2.63E+1
1.78E-2	9.58E+1	7.08E-3	-6.20E+0
1.90E-2	1.31E+2	7.57E-3	5.05E+1
1.93E-2	1.24E+2	6.35E-3	3.29E+1
2.20E-2	1.22E+2	5.62E-3	3.97E+1
2.00E-2	9.89E+1	7.81E-3	-5.32E+0
1.56E-2	1.21E+2	6.10E-3	1.83E+1
1.98E-2	9.42E+1	7.81E-3	1.18E+1
1.46E-2	1.19E+2	5.86E-3	-2.41E+1
1.68E-2	1.26E+2	8.30E-3	1.48E+1
1.66E-2	1.27E+2	8.30E-3	1.73E+1
1.76E-2	1.17E+2	8.06E-3	5.86E+0
1.81E-2	1.89E+2	7.32E-3	2.86E+1
1.64E-2	7.45E+1	8.30E-3	1.12E+1
5.13E-3	-1.79E+1	1.10E-2	2.29E+1
1.83E-2	1.04E+2	8.06E-3	5.91E+1
2.17E-2	1.08E+2	8.54E-3	4.62E+1
1.86E-2	1.08E+2	8.54E-3	3.26E+1
1.49E-2	7.25E+1	7.08E-3	3.17E+1
2.17E-2	1.72E+2	8.06E-3	5.26E+1
1.51E-2	1.08E+2	6.59E-3	1.71E+0
1.71E-2	1.07E+2	5.37E-3	-3.20E+1
1.66E-2	9.51E+1	7.08E-3	-6.01E+0
2.08E-2	1.38E+2	6.59E-3	-3.22E+0
1.66E-2	1.42E+2	8.54E-3	3.76E+1
1.90E-2	1.66E+2	6.10E-3	2.94E+1
1.66E-2	1.67E+2	8.30E-3	4.86E+1
1.81E-2	1.50E+2	8.06E-3	8.81E+1
1.93E-2	8.62E+1	6.10E-3	3.59E+1
2.17E-2	1.77E+2	6.84E-3	-9.13E+0
1.86E-2	1.06E+2	8.30E-3	1.36E+1
1.73E-2	1.15E+2	7.57E-3	-3.71E+0
1.78E-2	1.17E+2	8.06E-3	2.40E+1
1.78E-2	1.45E+2	5.37E-3	-8.40E+0
1.73E-2	7.90E+1	5.62E-3	-2.96E+1
1.81E-2	1.07E+2	5.86E-3	1.79E+1
1.64E-2	1.54E+2	6.84E-3	2.44E+1
1.93E-2	1.29E+2	7.32E-3	3.22E+0
2.29E-2	1.15E+2	6.59E-3	5.49E+1
1.71E-2	1.16E+2	9.28E-3	6.50E+1
2.03E-2	9.64E+1	8.06E-3	3.59E+1
1.76E-2	9.93E+1	8.54E-3	4.60E+1
2.03E-2	1.25E+2	5.62E-3	2.69E+1
1.98E-2	1.48E+2	6.59E-3	6.26E+1
1.73E-2	9.73E+1	5.62E-3	-1.38E+1
1.86E-2	1.07E+2	6.84E-3	-1.71E+0
1.54E-2	9.08E+1	7.57E-3	3.61E+0
2.00E-2	9.57E+1	5.86E-3	2.06E+1
1.93E-2	1.34E+2	6.59E-3	1.35E+1
1.81E-2	1.36E+2	5.86E-3	4.20E+0
2.00E-2	1.16E+2	5.62E-3	-1.12E+1
1.95E-2	1.27E+2	6.10E-3	2.85E+1
1.78E-2	9.49E+1	9.52E-3	4.49E+0
2.05E-2	1.04E+2	5.13E-3	-3.84E+1
1.66E-2	9.34E+1	8.06E-3	7.42E+0
1.90E-2	9.37E+1	8.79E-3	2.29E+1
1.76E-2	1.43E+2	5.86E-3	1.68E+1
1.93E-2	1.22E+2	8.30E-3	3.43E+1
1.61E-2	9.63E+1	5.62E-3	-3.09E+1
1.95E-2	1.37E+2	7.08E-3	1.10E+1
1.76E-2	1.10E+2	5.62E-3	-2.69E+1
7.32E-3	9.47E+0	1.49E-2	1.11E+2
1.93E-2	1.03E+2	8.79E-3	3.67E+1
1.98E-2	1.50E+2	8.30E-3	6.20E+1
1.88E-2	1.59E+2	8.06E-3	5.28E+1
1.64E-2	1.19E+2	8.06E-3	7.82E+1
1.90E-2	1.25E+2	7.32E-3	7.71E+0
1.83E-2	7.87E+1	7.32E-3	3.49E+1
2.05E-2	1.23E+2	9.03E-3	3.48E+1
1.54E-2	1.31E+2	7.32E-3	5.31E+1
1.71E-2	1.07E+2	8.06E-3	-2.51E+1
1.78E-2	1.23E+2	6.84E-3	2.62E+1
2.05E-2	1.37E+2	6.10E-3	-2.09E+1
2.12E-2	1.13E+2	9.28E-3	5.37E+0
1.90E-2	1.45E+2	5.37E-3	2.86E+1
1.90E-2	1.86E+2	6.84E-3	5.33E+1
2.03E-2	1.32E+2	7.32E-3	1.04E+1
1.59E-2	9.04E+1	7.81E-3	3.50E+1
1.95E-2	1.29E+2	7.08E-3	-1.31E+1
1.76E-2	1.07E+2	8.54E-3	-1.15E+1
1.64E-2	1.00E+2	5.86E-3	5.71E+0
1.73E-2	1.11E+2	9.03E-3	1.43E+1
1.66E-2	6.35E+1	7.32E-3	1.80E+1
2.05E-2	9.75E+1	7.57E-3	-6.59E+0
1.88E-2	1.34E+2	7.81E-3	-6.20E+0
1.61E-2	1.29E+2	9.28E-3	6.94E+1
2.08E-2	1.64E+2	9.28E-3	5.35E+1
1.76E-2	1.42E+2	8.06E-3	2.84E+1
1.66E-2	1.36E+2	6.10E-3	2.23E+1
2.05E-2	1.63E+2	7.81E-3	6.63E+1
1.90E-2	1.73E+2	6.84E-3	7.95E+1
1.78E-2	9.66E+1	9.28E-3	2.86E+1
2.22E-2	8.17E+1	7.57E-3	1.89E+1
1.83E-2	1.44E+2	6.35E-3	4.05E+0
1.71E-2	1.24E+2	7.57E-3	3.12E+1
1.95E-2	1.34E+2	6.10E-3	1.88E+1
1.93E-2	1.28E+2	6.84E-3	-4.74E+0
1.78E-2	1.04E+2	8.06E-3	-1.42E+1
6.10E-3	6.01E+0	1.27E-2	6.30E+1
2.03E-2	1.51E+2	7.08E-3	1.03E+0
2.03E-2	1.26E+2	8.79E-3	1.37E+1
1.78E-2	9.44E+1	6.84E-3	2.75E+1
1.59E-2	7.91E+1	8.79E-3	1.04E+1
1.86E-2	5.75E+1	7.81E-3	4.36E+1
1.90E-2	1.20E+2	8.06E-3	3.63E+1
1.61E-2	1.05E+2	1.17E-2	5.19E+1
1.76E-2	1.35E+2	9.52E-3	3.22E+1
1.73E-2	8.35E+1	6.84E-3	-3.03E+0
2.08E-2	1.39E+2	8.06E-3	-5.42E+0
1.73E-2	1.32E+2	6.59E-3	3.71E+0
1.78E-2	1.51E+2	7.81E-3	1.83E+1
1.73E-2	1.01E+2	6.84E-3	4.57E+1
1.90E-2	1.59E+2	6.10E-3	-1.36E+1
2.27E-2	1.41E+2	7.08E-3	4.03E+1
1.76E-2	1.15E+2	1.00E-2	8.26E+1
1.73E-2	7.39E+1	8.79E-3	3.66E+0
2.12E-2	1.39E+2	9.77E-3	5.00E+1
1.78E-2	8.98E+1	7.57E-3	-1.71E+0
1.86E-2	1.23E+2	7.57E-3	-5.37E-1
1.81E-2	8.86E+1	7.57E-3	7.28E+0
1.51E-2	1.01E+2	6.35E-3	2.77E+1
1.76E-2	1.01E+2	7.57E-3	2.51E+1
1.78E-2	1.29E+2	7.08E-3	4.09E+1
1.76E-2	1.45E+2	7.32E-3	2.66E+1
1.90E-2	1.41E+2	7.32E-3	1.53E+1
1.95E-2	1.17E+2	6.84E-3	2.65E+1
2.05E-2	1.38E+2	1.29E-2	4.81E+1
1.61E-2	1.45E+2	9.28E-3	8.22E+1
1.76E-2	9.63E+1	8.79E-3	2.93E+0
1.83E-2	1.38E+2	6.59E-3	5.40E+1
1.64E-2	4.71E+1	7.08E-3	-5.42E+0
1.68E-2	8.45E+1	6.84E-3	2.65E+1
1.68E-2	1.42E+2	6.84E-3	2.45E+1
1.88E-2	1.38E+2	1.00E-2	7.71E+0
1.61E-2	1.18E+2	7.81E-3	1.56E+1
1.90E-2	1.32E+2	7.08E-3	9.96E+0
1.78E-2	1.40E+2	7.57E-3	2.05E+0
1.93E-2	1.25E+2	5.62E-3	-1.94E+1
1.81E-2	1.08E+2	7.81E-3	4.47E+1
1.78E-2	1.31E+2	6.10E-3	3.04E+1
1.95E-2	7.79E+1	7.32E-3	2.11E+1
1.88E-2	1.11E+2	7.08E-3	2.02E+1
1.98E-2	1.01E+2	7.08E-3	2.07E+1
2.08E-2	1.81E+2	8.54E-3	4.65E+1
1.59E-2	4.51E+1	6.84E-3	-2.63E+1
1.78E-2	1.36E+2	6.35E-3	2.36E+1
1.90E-2	1.65E+2	7.32E-3	2.93E-1
2.10E-2	1.74E+2	5.86E-3	3.84E+1
1.61E-2	1.16E+2	8.30E-3	4.10E+1
1.83E-2	1.33E+2	1.12E-2	5.62E+1
2.29E-2	1.41E+2	6.84E-3	6.34E+1
1.59E-2	1.29E+2	7.57E-3	1.87E+1
2.17E-2	1.45E+2	8.79E-3	6.89E+1
1.86E-2	8.11E+1	8.06E-3	4.01E+1
1.88E-2	8.67E+1	7.57E-3	3.96E+0
2.05E-2	1.18E+2	7.08E-3	1.21E+1
1.93E-2	1.34E+2	8.06E-3	1.07E+1
1.68E-2	1.23E+2	8.06E-3	2.26E+1
1.83E-2	9.93E+1	7.81E-3	-1.33E+1
1.86E-2	1.08E+2	5.86E-3	-5.37E+0
1.90E-2	1.06E+2	6.10E-3	-7.32E+0
1.81E-2	1.37E+2	9.77E-3	7.87E+1
1.90E-2	1.65E+2	5.62E-3	5.44E+1
1.73E-2	9.47E+1	6.84E-3	3.94E+1
2.12E-2	1.24E+2	7.32E-3	3.46E+1
1.73E-2	1.18E+2	8.06E-3	5.35E+1
2.05E-2	1.08E+2	7.81E-3	5.07E+1
2.05E-2	1.02E+2	8.30E-3	4.49E+0
1.76E-2	1.09E+2	7.08E-3	1.07E+0
2.15E-2	1.24E+2	7.08E-3	3.45E+1
1.90E-2	1.45E+2	6.10E-3	1.42E+1
1.86E-2	1.36E+2	8.79E-3	2.28E+1
2.20E-2	1.98E+2	1.03E-2	5.33E+1
1.76E-2	1.48E+2	7.57E-3	1.29E+1
1.81E-2	1.57E+2	6.35E-3	2.25E+0
1.42E-2	8.74E+1	7.81E-3	-1.03E+1
1.76E-2	1.24E+2	7.81E-3	4.58E+1
2.08E-2	1.70E+2	8.30E-3	7.71E+1
1.76E-2	1.05E+2	7.81E-3	5.12E+1
1.90E-2	7.13E+1	5.86E-3	-2.93E+1
1.88E-2	1.16E+2	7.32E-3	4.36E+1
1.95E-2	1.17E+2	8.06E-3	2.59E+1
2.00E-2	1.29E+2	7.81E-3	2.58E+1
1.78E-2	1.28E+2	6.35E-3	-4.49E+0
2.12E-2	1.57E+2	6.59E-3	-8.20E+0
1.88E-2	1.25E+2	6.59E-3	-9.52E+0
2.44E-2	1.67E+2	6.10E-3	3.94E+1
1.78E-2	1.05E+2	9.28E-3	3.68E+1
1.88E-2	1.16E+2	1.00E-2	5.00E+1
2.05E-2	1.30E+2	9.03E-3	-1.37E+0
1.83E-2	1.01E+2	1.00E-2	4.90E+1
2.22E-2	1.23E+2	8.06E-3	4.01E+1
1.81E-2	1.21E+2	6.84E-3	3.68E+1
1.83E-2	1.13E+2	5.62E-3	-3.02E+1
2.22E-2	1.33E+2	8.79E-3	1.61E+1
1.81E-2	1.26E+2	8.06E-3	4.53E+1
2.10E-2	1.65E+2	1.05E-2	7.72E+1
1.81E-2	1.18E+2	6.35E-3	0.00E+0
2.00E-2	1.24E+2	7.81E-3	-6.88E+0
1.86E-2	1.50E+2	6.84E-3	1.47E+1
1.66E-2	1.28E+2	7.81E-3	3.29E+1
1.73E-2	1.04E+2	7.81E-3	5.28E+1
1.78E-2	1.26E+2	8.06E-3	2.14E+1
1.86E-2	1.22E+2	8.30E-3	5.31E+1
1.90E-2	1.40E+2	8.79E-3	5.34E+1
2.03E-2	8.39E+1	7.08E-3	6.64E+0
1.59E-2	6.63E+1	9.77E-3	1.33E+1
1.78E-2	7.20E+1	8.54E-3	5.96E+0
1.76E-2	1.35E+2	7.57E-3	1.63E+1
2.12E-2	1.13E+2	7.32E-3	1.85E+1
1.78E-2	1.24E+2	7.08E-3	4.15E+0
1.49E-2	1.31E+2	1.00E-2	4.22E+1
1.78E-2	1.22E+2	8.54E-3	5.41E+1
1.98E-2	1.60E+2	5.86E-3	-2.11E+1
1.68E-2	1.31E+2	6.59E-3	4.34E+1
1.76E-2	1.06E+2	8.06E-3	4.58E+1
1.73E-2	9.61E+1	7.32E-3	2.31E+1
1.88E-2	6.40E+1	7.08E-3	6.84E-1
1.68E-2	9.04E+1	6.59E-3	-1.33E+1
1.56E-2	7.14E+1	7.08E-3	-1.98E+1
1.90E-2	1.14E+2	7.32E-3	-2.69E+0
1.98E-2	1.55E+2	7.08E-3	1.04E+1
1.61E-2	8.37E+1	7.81E-3	1.98E+1
1.93E-2	1.25E+2	6.10E-3	-2.90E+1
2.91E-2	1.80E+2	6.84E-3	7.23E+0
1.98E-2	1.27E+2	5.13E-3	2.48E+1
1.93E-2	1.50E+2	5.37E-3	4.28E+1
1.95E-2	8.16E+1	7.32E-3	4.11E+1
1.66E-2	1.26E+2	8.30E-3	7.32E+1
2.08E-2	1.36E+2	7.32E-3	6.86E+1
1.78E-2	7.60E+1	7.08E-3	1.85E+1
1.90E-2	9.08E+1	6.35E-3	-4.11E+1
1.76E-2	1.44E+2	7.32E-3	3.83E+1
1.86E-2	1.29E+2	7.57E-3	3.22E+0
1.83E-2	1.22E+2	6.10E-3	5.47E+0
1.98E-2	1.13E+2	5.62E-3	-9.52E+0
1.76E-2	1.15E+2	8.06E-3	2.10E+1
1.88E-2	1.47E+2	8.06E-3	2.28E+1
2.15E-2	1.17E+2	7.08E-3	3.99E+1
2.00E-2	1.21E+2	6.84E-3	4.81E+1
2.03E-2	1.15E+2	7.57E-3	2.07E+1
1.76E-2	8.09E+1	6.84E-3	7.67E+0
1.93E-2	9.59E+1	8.06E-3	2.09E+1
1.59E-2	7.83E+1	8.30E-3	-1.15E+1
2.29E-2	1.24E+2	7.57E-3	2.71E+1
1.83E-2	1.24E+2	6.59E-3	5.02E+1
1.83E-2	1.26E+2	8.54E-3	3.63E+1
1.88E-2	1.43E+2	7.08E-3	1.54E+1
1.98E-2	1.21E+2	6.84E-3	2.37E+1
1.83E-2	1.14E+2	8.06E-3	3.49E+1
1.81E-2	1.12E+2	1.15E-2	4.60E+1
1.83E-2	1.06E+2	6.10E-3	4.83E+0
1.71E-2	1.18E+2	8.79E-3	5.66E+1
1.86E-2	1.50E+2	7.57E-3	6.59E+1
1.90E-2	1.68E+2	6.35E-3	5.74E+1
2.32E-2	1.16E+2	9.03E-3	3.26E+1
1.71E-2	1.08E+2	7.08E-3	1.01E+1
8.06E-3	7.13E+0	1.10E-2	7.89E+1
1.90E-2	1.24E+2	8.54E-3	3.71E+0
2.25E-2	1.56E+2	5.62E-3	-1.48E+1
1.93E-2	1.31E+2	5.86E-3	-1.51E+0
1.95E-2	1.61E+2	6.35E-3	-5.66E+0
1.90E-2	1.60E+2	6.10E-3	6.88E+0
2.12E-2	1.14E+2	9.77E-3	2.71E+1
1.68E-2	1.13E+2	7.57E-3	2.28E+1
2.05E-2	7.16E+1	6.59E-3	1.58E+1
1.59E-2	5.73E+1	7.32E-3	-2.92E+1
1.81E-2	1.29E+2	7.32E-3	5.34E+1
2.25E-2	1.31E+2	9.77E-3	3.36E+1
1.90E-2	1.49E+2	6.84E-3	6.04E+1
2.00E-2	1.04E+2	8.30E-3	7.03E+0
1.81E-2	1.40E+2	6.59E-3	2.76E+1
1.59E-2	1.27E+2	7.57E-3	-1.20E+1
1.95E-2	1.26E+2	1.05E-2	5.34E+1
1.54E-2	1.25E+2	6.35E-3	2.77E+1
1.90E-2	9.77E+1	9.28E-3	-6.79E+0
1.93E-2	1.54E+2	5.62E-3	2.01E+1
1.88E-2	1.42E+2	7.08E-3	4.12E+1
1.78E-2	1.29E+2	6.10E-3	3.00E+1
1.66E-2	6.86E+1	8.79E-3	2.91E+1
1.78E-2	9.30E+1	8.54E-3	-4.88E-2
1.95E-2	1.36E+2	8.06E-3	3.89E+1
1.93E-2	1.17E+2	5.37E-3	-2.37E+1
1.76E-2	1.36E+2	7.08E-3	3.38E+1
1.81E-2	1.39E+2	5.37E-3	-8.06E+0
2.00E-2	1.49E+2	6.10E-3	-1.92E+1
2.22E-2	1.53E+2	8.06E-3	3.57E+1
3.39E-2	1.16E+2	7.57E-3	8.52E+1
1.61E-2	1.04E+2	8.30E-3	4.84E+1
1.88E-2	1.28E+2	1.07E-2	4.31E+1
2.10E-2	9.71E+1	6.84E-3	-7.32E-1
2.27E-2	1.19E+2	9.03E-3	4.64E+0
2.12E-2	1.50E+2	9.77E-3	4.87E+1
1.86E-2	9.29E+1	6.84E-3	1.67E+1
1.98E-2	1.31E+2	7.57E-3	1.98E+1
1.73E-2	1.49E+2	6.84E-3	4.17E+1
2.03E-2	1.11E+2	9.03E-3	4.16E+1
1.71E-2	1.46E+2	6.35E-3	5.19E+1
1.73E-2	1.50E+2	8.06E-3	2.90E+1
1.86E-2	1.80E+2	8.30E-3	3.11E+1
1.66E-2	1.08E+2	6.10E-3	9.96E+0
2.05E-2	1.54E+2	4.88E-3	3.00E+1
1.93E-2	1.40E+2	9.52E-3	5.67E+1
1.68E-2	1.38E+2	8.06E-3	4.56E+1
1.88E-2	1.21E+2	7.81E-3	3.28E+1
2.00E-2	1.31E+2	5.62E-3	-8.98E+0
1.88E-2	1.15E+2	9.28E-3	8.98E+0
1.66E-2	9.91E+1	7.32E-3	1.21E+1
1.95E-2	9.99E+1	8.06E-3	-7.96E+0
