7.15E-2	4.91E+2	1.81E-2	1.29E+2
7.25E-2	4.57E+2	1.81E-2	8.52E+1
7.30E-2	4.57E+2	1.61E-2	9.17E+1
7.86E-2	5.48E+2	1.44E-2	7.59E+1
8.08E-2	5.30E+2	1.61E-2	1.03E+2
7.13E-2	4.87E+2	1.73E-2	9.56E+1
6.98E-2	4.98E+2	1.22E-2	7.26E+1
7.52E-2	4.93E+2	1.46E-2	8.16E+1
7.89E-2	5.04E+2	1.15E-2	4.49E+1
7.01E-2	4.58E+2	1.66E-2	9.68E+1
7.89E-2	5.43E+2	1.61E-2	1.22E+2
6.93E-2	4.44E+2	1.59E-2	1.50E+2
7.52E-2	4.87E+2	1.76E-2	1.24E+2
7.25E-2	4.44E+2	1.66E-2	9.07E+1
6.47E-2	4.11E+2	1.66E-2	1.00E+2
7.69E-2	5.32E+2	1.49E-2	8.23E+1
7.30E-2	4.94E+2	1.39E-2	8.43E+1
7.74E-2	4.62E+2	1.61E-2	7.04E+1
7.74E-2	5.50E+2	1.37E-2	7.99E+1
7.50E-2	5.00E+2	1.51E-2	8.54E+1
7.59E-2	4.79E+2	1.71E-2	1.07E+2
7.37E-2	4.73E+2	1.64E-2	1.22E+2
7.50E-2	5.27E+2	1.93E-2	1.16E+2
7.50E-2	5.21E+2	1.42E-2	7.75E+1
7.37E-2	4.83E+2	1.76E-2	1.15E+2
7.28E-2	4.37E+2	1.90E-2	7.13E+1
8.08E-2	5.25E+2	1.51E-2	9.23E+1
6.86E-2	4.54E+2	1.81E-2	8.36E+1
7.15E-2	4.99E+2	1.46E-2	6.81E+1
7.54E-2	4.70E+2	1.61E-2	5.11E+1
7.18E-2	5.06E+2	1.59E-2	9.06E+1
7.32E-2	4.70E+2	1.64E-2	6.81E+1
7.57E-2	5.14E+2	1.54E-2	6.59E+1
7.57E-2	4.71E+2	1.54E-2	8.46E+1
7.13E-2	4.74E+2	1.81E-2	8.54E+1
7.20E-2	4.36E+2	1.51E-2	9.52E+1
7.10E-2	4.48E+2	1.76E-2	1.12E+2
7.13E-2	5.12E+2	1.44E-2	1.09E+2
6.96E-2	4.74E+2	1.66E-2	8.85E+1
7.32E-2	4.52E+2	1.64E-2	8.54E+1
7.13E-2	4.23E+2	1.34E-2	6.37E+1
7.59E-2	5.08E+2	1.39E-2	6.55E+1
7.59E-2	5.23E+2	1.66E-2	9.70E+1
7.76E-2	5.43E+2	1.51E-2	9.01E+1
7.03E-2	4.62E+2	1.78E-2	1.15E+2
7.52E-2	4.62E+2	1.64E-2	6.62E+1
6.79E-2	5.01E+2	1.27E-2	5.04E+1
6.88E-2	4.27E+2	1.37E-2	9.79E+1
7.32E-2	4.81E+2	1.86E-2	9.02E+1
7.86E-2	5.12E+2	1.71E-2	8.23E+1
7.50E-2	5.02E+2	1.44E-2	6.39E+1
7.79E-2	5.32E+2	1.56E-2	5.08E+1
6.93E-2	4.46E+2	1.49E-2	2.57E+1
7.06E-2	4.56E+2	1.59E-2	4.52E+1
7.40E-2	4.66E+2	1.78E-2	7.67E+1
7.15E-2	4.82E+2	1.42E-2	7.80E+1
7.35E-2	4.79E+2	1.46E-2	5.09E+1
7.67E-2	4.88E+2	1.44E-2	1.20E+2
7.25E-2	4.32E+2	1.59E-2	8.81E+1
6.67E-2	4.67E+2	1.66E-2	9.33E+1
7.23E-2	5.16E+2	1.71E-2	1.26E+2
7.30E-2	5.00E+2	1.66E-2	1.10E+2
7.64E-2	5.34E+2	1.78E-2	1.43E+2
6.86E-2	4.56E+2	1.73E-2	8.70E+1
7.03E-2	4.89E+2	1.51E-2	9.82E+1
7.86E-2	5.03E+2	1.54E-2	5.43E+1
7.59E-2	4.94E+2	1.49E-2	6.23E+1
7.47E-2	5.02E+2	1.46E-2	4.05E+1
7.42E-2	4.67E+2	1.39E-2	5.86E+1
8.25E-2	5.28E+2	1.44E-2	6.36E+1
7.23E-2	5.05E+2	1.64E-2	7.21E+1
7.59E-2	5.02E+2	1.76E-2	1.19E+2
6.96E-2	4.31E+2	1.81E-2	1.16E+2
7.76E-2	4.86E+2	1.68E-2	8.94E+1
7.52E-2	4.88E+2	1.83E-2	1.25E+2
8.47E-2	4.82E+2	1.39E-2	1.03E+2
7.69E-2	4.58E+2	1.76E-2	6.07E+1
7.18E-2	4.46E+2	1.61E-2	9.23E+1
7.79E-2	5.16E+2	1.59E-2	5.14E+1
8.45E-2	4.94E+2	1.76E-2	8.48E+1
8.03E-2	5.15E+2	1.86E-2	1.10E+2
7.25E-2	4.65E+2	1.51E-2	5.75E+1
7.25E-2	5.20E+2	1.54E-2	9.14E+1
6.93E-2	4.45E+2	1.93E-2	5.60E+1
6.88E-2	4.26E+2	1.64E-2	1.18E+2
7.10E-2	4.42E+2	1.59E-2	1.11E+2
7.64E-2	4.67E+2	1.42E-2	8.20E+1
7.23E-2	4.35E+2	1.54E-2	6.36E+1
7.20E-2	4.61E+2	1.66E-2	8.23E+1
6.67E-2	4.41E+2	1.54E-2	5.25E+1
6.96E-2	4.62E+2	1.78E-2	8.24E+1
7.42E-2	4.73E+2	1.54E-2	6.32E+1
8.08E-2	4.77E+2	1.81E-2	7.55E+1
6.96E-2	4.27E+2	1.42E-2	5.80E+1
6.88E-2	4.51E+2	1.68E-2	1.23E+2
7.84E-2	5.45E+2	1.83E-2	1.20E+2
7.30E-2	4.89E+2	1.54E-2	1.08E+2
7.40E-2	5.00E+2	1.81E-2	1.23E+2
7.32E-2	4.88E+2	2.08E-2	1.39E+2
6.71E-2	4.49E+2	1.90E-2	1.44E+2
7.37E-2	4.59E+2	1.93E-2	9.17E+1
7.23E-2	5.01E+2	1.44E-2	7.36E+1
7.15E-2	4.75E+2	1.56E-2	9.89E+1
7.81E-3	4.39E+0	5.13E-2	2.20E+2
7.62E-2	5.02E+2	1.61E-2	7.38E+1
6.96E-2	4.44E+2	1.73E-2	8.52E+1
8.03E-2	5.20E+2	1.71E-2	8.03E+1
6.79E-2	4.72E+2	1.64E-2	1.05E+2
6.84E-2	4.64E+2	1.66E-2	1.24E+2
6.84E-2	4.44E+2	1.81E-2	1.21E+2
6.86E-2	4.31E+2	1.95E-2	1.25E+2
7.10E-2	4.71E+2	1.71E-2	1.14E+2
7.01E-2	4.85E+2	1.51E-2	4.26E+1
7.79E-2	5.36E+2	1.61E-2	8.47E+1
7.20E-2	4.45E+2	1.44E-2	5.92E+1
7.35E-2	4.58E+2	1.86E-2	5.41E+1
7.93E-2	5.46E+2	1.32E-2	4.93E+1
7.54E-2	4.96E+2	1.73E-2	8.40E+1
7.93E-2	5.29E+2	1.81E-2	7.41E+1
7.84E-2	5.27E+2	1.71E-2	1.48E+2
7.76E-2	4.85E+2	1.46E-2	8.78E+1
7.35E-2	5.10E+2	1.46E-2	2.71E+1
6.93E-2	4.66E+2	1.32E-2	8.00E+1
7.13E-2	4.12E+2	1.81E-2	1.09E+2
7.62E-2	4.92E+2	1.83E-2	1.25E+2
7.50E-2	4.85E+2	1.64E-2	2.86E+1
7.25E-2	5.07E+2	1.81E-2	9.63E+1
7.40E-2	5.31E+2	1.88E-2	1.20E+2
7.25E-2	4.83E+2	1.61E-2	4.25E+1
6.98E-2	4.49E+2	1.66E-2	6.31E+1
7.25E-2	4.70E+2	1.49E-2	6.40E+1
7.79E-2	5.34E+2	1.71E-2	9.65E+1
7.52E-2	5.06E+2	1.68E-2	9.79E+1
7.18E-2	4.37E+2	1.76E-2	6.68E+1
8.18E-2	4.71E+2	1.83E-2	8.06E+1
7.57E-2	5.16E+2	1.86E-2	1.36E+2
7.98E-2	4.89E+2	1.37E-2	8.55E+1
7.71E-2	4.88E+2	1.42E-2	7.85E+1
7.37E-2	4.91E+2	1.73E-2	1.10E+2
6.81E-2	4.90E+2	1.56E-2	8.06E+1
7.13E-2	4.88E+2	1.88E-2	1.36E+2
7.10E-2	4.61E+2	1.32E-2	5.17E+1
7.79E-2	5.31E+2	1.56E-2	9.04E+1
7.01E-2	4.68E+2	1.54E-2	3.46E+1
7.93E-2	5.14E+2	1.51E-2	8.48E+1
7.74E-2	5.09E+2	1.90E-2	1.13E+2
7.64E-2	4.73E+2	1.61E-2	9.37E+1
7.47E-2	4.48E+2	1.54E-2	4.77E+1
8.59E-2	5.46E+2	1.66E-2	8.45E+1
5.37E-3	4.98E+0	5.35E-2	1.93E+2
6.74E-2	4.72E+2	1.61E-2	7.84E+1
7.69E-2	4.81E+2	1.71E-2	7.75E+1
7.25E-2	5.11E+2	1.68E-2	9.58E+1
7.03E-2	4.67E+2	1.59E-2	4.74E+1
7.42E-2	5.10E+2	1.66E-2	1.11E+2
7.42E-2	5.09E+2	1.73E-2	6.09E+1
7.71E-2	4.91E+2	1.71E-2	9.88E+1
7.42E-2	5.04E+2	1.51E-2	9.15E+1
7.28E-2	4.82E+2	1.76E-2	9.62E+1
6.64E-2	3.95E+2	1.39E-2	7.44E+1
7.23E-2	4.31E+2	1.78E-2	1.12E+2
7.28E-2	4.62E+2	1.61E-2	8.93E+1
7.20E-2	4.62E+2	1.73E-2	7.61E+1
7.45E-2	4.83E+2	1.64E-2	6.43E+1
7.25E-2	4.67E+2	1.78E-2	6.81E+1
7.64E-2	5.03E+2	1.51E-2	8.98E+1
6.96E-2	4.45E+2	1.61E-2	1.15E+2
7.57E-2	5.17E+2	1.51E-2	5.78E+1
7.59E-2	5.20E+2	1.37E-2	6.15E+1
7.62E-2	5.36E+2	1.68E-2	1.22E+2
8.08E-2	5.35E+2	1.95E-2	1.33E+2
7.52E-2	4.76E+2	1.68E-2	1.11E+2
7.64E-2	4.74E+2	1.66E-2	6.42E+1
8.01E-2	4.70E+2	1.42E-2	6.93E+1
7.10E-2	4.40E+2	1.68E-2	9.15E+1
7.47E-2	4.43E+2	1.42E-2	5.88E+1
7.45E-2	4.65E+2	1.76E-2	1.15E+2
7.62E-2	4.63E+2	1.81E-2	6.73E+1
7.18E-2	4.70E+2	1.54E-2	7.81E+1
7.52E-2	5.01E+2	1.51E-2	1.20E+2
7.08E-2	4.48E+2	1.59E-2	1.37E+2
7.18E-2	5.00E+2	1.90E-2	1.76E+2
7.06E-2	4.79E+2	1.56E-2	8.41E+1
7.15E-2	4.54E+2	1.49E-2	4.06E+1
7.20E-2	4.63E+2	1.86E-2	1.22E+2
6.40E-2	4.03E+2	1.86E-2	9.92E+1
7.35E-2	5.24E+2	1.51E-2	4.55E+1
6.84E-2	4.24E+2	1.56E-2	3.58E+1
7.30E-2	5.24E+2	1.49E-2	5.52E+1
7.47E-2	4.52E+2	1.46E-2	3.74E+1
7.52E-2	4.92E+2	1.51E-2	7.84E+1
7.10E-2	5.27E+2	1.54E-2	8.03E+1
7.54E-2	4.66E+2	1.46E-2	7.57E+1
7.15E-2	5.17E+2	1.49E-2	1.33E+2
7.45E-2	5.13E+2	1.81E-2	1.42E+2
7.20E-2	4.75E+2	1.66E-2	8.17E+1
7.01E-2	4.64E+2	1.83E-2	1.32E+2
7.13E-2	4.51E+2	1.81E-2	1.33E+2
7.76E-2	4.95E+2	1.51E-2	1.47E+2
7.52E-2	4.94E+2	1.83E-2	1.10E+2
7.10E-2	4.90E+2	1.66E-2	5.92E+1
7.71E-2	5.28E+2	1.49E-2	5.65E+1
7.52E-2	5.02E+2	1.46E-2	1.08E+2
7.57E-2	4.91E+2	1.54E-2	1.33E+2
7.76E-2	4.60E+2	1.76E-2	1.12E+2
7.03E-2	4.72E+2	1.83E-2	6.86E+1
7.47E-2	5.16E+2	1.68E-2	1.02E+2
7.86E-2	5.00E+2	1.68E-2	1.10E+2
7.81E-2	4.59E+2	1.88E-2	8.50E+1
6.79E-2	4.15E+2	1.66E-2	1.04E+2
7.15E-2	4.63E+2	1.76E-2	1.13E+2
7.28E-2	4.71E+2	1.95E-2	9.33E+1
6.67E-2	4.29E+2	1.64E-2	6.76E+1
7.69E-2	4.58E+2	1.44E-2	8.97E+1
7.03E-2	4.84E+2	1.66E-2	7.36E+1
7.01E-2	4.80E+2	1.81E-2	6.42E+1
7.96E-2	5.06E+2	1.86E-2	1.62E+2
7.28E-2	4.77E+2	1.68E-2	1.48E+2
6.81E-2	4.94E+2	2.00E-2	1.21E+2
8.06E-2	5.19E+2	1.61E-2	1.27E+2
6.10E-3	-1.17E+0	5.44E-2	2.33E+2
7.08E-2	4.35E+2	1.59E-2	7.57E+1
7.13E-2	4.50E+2	1.78E-2	9.04E+1
7.54E-2	5.08E+2	1.42E-2	6.64E+1
8.35E-2	4.77E+2	1.37E-2	4.39E+1
7.86E-2	5.31E+2	1.83E-2	1.23E+2
7.67E-2	5.11E+2	1.68E-2	9.93E+1
7.37E-2	5.08E+2	1.76E-2	9.29E+1
7.13E-2	4.77E+2	1.32E-2	6.82E+1
7.67E-2	4.79E+2	1.61E-2	6.94E+1
7.62E-2	5.18E+2	1.25E-2	6.17E+1
7.20E-2	4.45E+2	1.71E-2	1.04E+2
7.69E-2	5.33E+2	1.64E-2	1.16E+2
6.93E-2	4.47E+2	1.39E-2	7.51E+1
6.98E-2	4.70E+2	1.54E-2	7.93E+1
7.23E-2	4.00E+2	2.10E-2	8.88E+1
7.23E-2	4.47E+2	2.00E-2	1.43E+2
6.76E-2	4.15E+2	1.90E-2	1.07E+2
7.91E-2	5.17E+2	1.76E-2	1.09E+2
7.67E-2	5.01E+2	1.54E-2	5.68E+1
6.59E-3	-3.61E+0	5.32E-2	2.29E+2
7.67E-2	5.01E+2	2.03E-2	1.23E+2
7.45E-2	5.31E+2	1.73E-2	1.06E+2
7.10E-2	4.70E+2	1.46E-2	7.81E+1
7.62E-2	4.93E+2	1.66E-2	9.62E+1
7.91E-2	4.98E+2	1.64E-2	9.28E+1
7.35E-2	4.88E+2	1.29E-2	7.92E+1
7.64E-2	4.51E+2	1.54E-2	6.59E+1
7.06E-2	4.34E+2	1.83E-2	1.21E+2
8.81E-2	5.18E+2	1.83E-2	1.04E+2
6.76E-2	4.40E+2	1.44E-2	6.77E+1
7.37E-2	5.25E+2	1.42E-2	9.07E+1
7.52E-2	4.91E+2	1.68E-2	8.29E+1
7.01E-2	5.03E+2	1.64E-2	6.62E+1
7.25E-2	4.64E+2	1.46E-2	9.74E+1
6.98E-2	4.68E+2	1.68E-2	1.10E+2
7.10E-2	4.56E+2	1.73E-2	7.95E+1
7.32E-2	5.08E+2	1.71E-2	9.92E+1
7.23E-2	4.48E+2	1.49E-2	8.27E+1
7.98E-2	5.46E+2	1.68E-2	1.10E+2
7.40E-2	4.53E+2	1.61E-2	9.09E+1
6.54E-2	3.86E+2	1.56E-2	7.88E+1
7.37E-2	5.23E+2	1.51E-2	7.51E+1
7.15E-2	4.80E+2	1.61E-2	6.83E+1
7.57E-2	4.75E+2	1.56E-2	6.01E+1
7.28E-2	5.64E+2	1.73E-2	1.21E+2
7.74E-2	4.82E+2	1.64E-2	7.47E+1
7.62E-2	5.03E+2	1.76E-2	1.13E+2
7.06E-2	4.56E+2	1.81E-2	8.67E+1
6.79E-2	4.33E+2	1.56E-2	1.00E+2
7.57E-2	5.20E+2	1.51E-2	1.37E+2
7.28E-2	4.04E+2	1.88E-2	7.89E+1
7.45E-2	4.95E+2	1.51E-2	6.09E+1
7.28E-2	5.03E+2	1.27E-2	1.20E+2
7.10E-2	4.82E+2	1.59E-2	7.70E+1
7.15E-2	4.71E+2	1.44E-2	7.16E+1
7.54E-2	5.20E+2	1.46E-2	5.59E+1
7.40E-2	4.85E+2	1.56E-2	6.23E+1
7.32E-2	4.73E+2	1.56E-2	8.75E+1
7.20E-2	4.54E+2	1.61E-2	7.80E+1
7.37E-2	4.63E+2	1.76E-2	9.75E+1
7.32E-2	5.25E+2	1.51E-2	1.37E+2
7.23E-2	4.62E+2	1.46E-2	1.00E+2
7.20E-2	4.81E+2	1.78E-2	8.77E+1
7.01E-2	4.50E+2	1.83E-2	1.39E+2
7.10E-2	4.56E+2	1.76E-2	5.44E+1
7.50E-2	5.18E+2	1.59E-2	6.51E+1
6.74E-2	4.22E+2	1.49E-2	5.52E+1
7.06E-2	4.73E+2	1.64E-2	6.35E+1
7.59E-2	4.76E+2	1.86E-2	1.09E+2
7.08E-2	4.87E+2	1.71E-2	6.56E+1
7.40E-2	5.19E+2	1.61E-2	8.70E+1
7.69E-2	4.89E+2	1.81E-2	1.44E+2
7.08E-2	4.64E+2	1.73E-2	1.08E+2
6.91E-2	4.92E+2	1.59E-2	1.08E+2
6.91E-2	5.15E+2	1.34E-2	1.17E+2
7.50E-2	5.04E+2	1.81E-2	1.45E+2
7.59E-2	4.76E+2	1.73E-2	1.32E+2
6.98E-2	4.35E+2	1.81E-2	8.80E+1
7.89E-2	5.03E+2	1.83E-2	7.44E+1
7.08E-2	4.91E+2	1.68E-2	1.25E+2
7.79E-2	4.88E+2	1.64E-2	3.75E+1
7.23E-2	4.87E+2	1.44E-2	2.73E+1
7.37E-2	4.63E+2	1.64E-2	6.52E+1
7.71E-2	4.63E+2	1.73E-2	6.06E+1
7.35E-2	4.81E+2	2.10E-2	1.46E+2
6.96E-2	4.63E+2	1.59E-2	1.19E+2
6.81E-2	4.52E+2	1.39E-2	9.67E+1
7.08E-2	4.75E+2	1.56E-2	7.22E+1
6.91E-2	4.42E+2	1.44E-2	6.67E+1
7.96E-2	5.47E+2	1.49E-2	1.22E+2
7.23E-2	4.56E+2	1.73E-2	7.52E+1
7.06E-2	4.48E+2	1.29E-2	4.39E+1
7.74E-2	4.94E+2	1.42E-2	9.09E+1
8.06E-2	5.67E+2	1.37E-2	6.26E+1
7.50E-2	5.05E+2	2.00E-2	1.01E+2
8.52E-2	5.47E+2	1.86E-2	1.36E+2
7.45E-2	5.27E+2	1.54E-2	3.38E+1
7.84E-2	5.35E+2	1.46E-2	1.32E+2
7.50E-2	4.56E+2	1.51E-2	7.47E+1
7.23E-2	4.39E+2	1.88E-2	1.02E+2
7.91E-2	5.26E+2	1.54E-2	1.17E+2
7.52E-2	5.31E+2	1.66E-2	1.01E+2
6.96E-2	5.33E+2	1.46E-2	1.13E+2
6.27E-2	4.44E+2	1.49E-2	8.99E+1
7.57E-2	5.27E+2	1.76E-2	8.04E+1
7.30E-2	4.80E+2	1.81E-2	8.48E+1
7.69E-2	5.37E+2	1.46E-2	7.84E+1
7.37E-2	5.51E+2	1.66E-2	1.15E+2
7.45E-2	4.75E+2	1.61E-2	1.19E+2
7.37E-2	4.76E+2	1.61E-2	1.55E+2
7.32E-2	4.72E+2	1.56E-2	1.10E+2
7.13E-2	4.79E+2	1.64E-2	9.64E+1
6.96E-2	4.50E+2	1.49E-2	1.23E+2
7.35E-2	4.85E+2	1.54E-2	1.04E+2
6.64E-2	4.15E+2	1.76E-2	7.93E+1
7.37E-2	4.69E+2	1.49E-2	4.71E+1
6.93E-2	4.83E+2	1.64E-2	5.36E+1
6.98E-2	5.12E+2	1.78E-2	1.16E+2
7.25E-2	5.20E+2	1.73E-2	7.04E+1
6.74E-2	4.53E+2	1.61E-2	6.54E+1
7.52E-2	5.60E+2	1.59E-2	9.82E+1
7.47E-2	5.09E+2	1.71E-2	1.15E+2
8.15E-2	5.41E+2	1.73E-2	1.29E+2
7.71E-2	4.52E+2	1.68E-2	6.83E+1
7.20E-2	4.58E+2	1.54E-2	1.05E+2
6.84E-2	4.69E+2	1.51E-2	6.22E+1
7.15E-2	4.60E+2	1.56E-2	5.60E+1
6.86E-2	4.07E+2	1.56E-2	4.47E+1
7.23E-2	4.87E+2	1.64E-2	8.54E+1
6.96E-2	4.38E+2	1.44E-2	6.40E+1
6.96E-2	4.90E+2	1.83E-2	9.65E+1
8.89E-2	5.77E+2	1.49E-2	1.25E+2
7.76E-2	5.05E+2	1.71E-2	1.36E+2
7.18E-2	4.54E+2	1.44E-2	1.03E+2
7.45E-2	4.53E+2	2.00E-2	8.94E+1
7.18E-2	5.04E+2	1.61E-2	1.11E+2
7.42E-2	4.69E+2	1.42E-2	1.07E+2
7.23E-2	4.60E+2	1.73E-2	8.75E+1
7.23E-2	4.31E+2	1.71E-2	6.59E+1
7.35E-2	5.35E+2	1.71E-2	9.61E+1
7.23E-2	5.20E+2	1.54E-2	7.38E+1
7.54E-2	5.23E+2	1.73E-2	5.97E+1
7.62E-2	5.25E+2	1.49E-2	9.68E+1
7.30E-2	4.86E+2	1.68E-2	9.92E+1
7.54E-2	5.38E+2	1.71E-2	8.73E+1
6.74E-2	4.51E+2	1.64E-2	7.70E+1
7.50E-2	4.58E+2	1.71E-2	1.04E+2
7.03E-2	4.60E+2	1.73E-2	1.04E+2
7.28E-2	4.62E+2	1.61E-2	6.20E+1
7.45E-2	4.97E+2	1.61E-2	1.22E+2
7.32E-2	5.17E+2	1.78E-2	1.40E+2
7.59E-2	5.04E+2	1.93E-2	1.35E+2
7.50E-2	4.63E+2	1.95E-2	1.03E+2
7.03E-2	4.30E+2	1.68E-2	7.83E+1
8.11E-2	4.69E+2	1.49E-2	4.14E+1
7.62E-2	5.03E+2	1.61E-2	9.42E+1
8.13E-2	5.54E+2	1.66E-2	1.46E+2
7.28E-2	4.77E+2	1.56E-2	9.05E+1
7.37E-2	4.78E+2	1.86E-2	1.29E+2
7.84E-2	5.11E+2	1.59E-2	1.36E+2
7.71E-2	5.00E+2	2.03E-2	1.13E+2
7.13E-2	4.75E+2	1.27E-2	1.72E+1
7.84E-2	5.59E+2	1.61E-2	8.87E+1
7.28E-2	5.00E+2	1.90E-2	5.73E+1
7.37E-2	4.81E+2	1.32E-2	5.65E+1
7.98E-2	4.92E+2	1.54E-2	5.83E+1
7.23E-2	5.09E+2	1.46E-2	5.66E+1
7.15E-2	4.86E+2	1.39E-2	5.75E+1
7.84E-2	5.27E+2	1.71E-2	1.34E+2
7.52E-2	4.58E+2	1.61E-2	7.67E+1
8.52E-2	5.29E+2	1.90E-2	1.18E+2
7.89E-2	4.99E+2	1.71E-2	1.12E+2
7.50E-2	5.02E+2	1.54E-2	1.32E+2
7.57E-2	4.93E+2	1.59E-2	9.46E+1
6.57E-2	4.53E+2	1.76E-2	1.24E+2
7.40E-2	4.82E+2	1.71E-2	6.60E+1
6.69E-2	4.60E+2	1.42E-2	5.96E+1
7.08E-2	4.82E+2	1.64E-2	4.72E+1
6.98E-2	5.09E+2	1.98E-2	7.08E+1
8.18E-2	5.74E+2	1.54E-2	1.02E+2
7.08E-2	5.12E+2	1.39E-2	6.69E+1
7.32E-2	5.15E+2	1.71E-2	1.09E+2
7.10E-2	4.94E+2	1.81E-2	1.32E+2
7.69E-2	4.58E+2	1.51E-2	6.32E+1
7.06E-2	4.53E+2	1.44E-2	8.69E+1
7.47E-2	4.95E+2	1.54E-2	8.85E+1
7.89E-2	5.23E+2	1.71E-2	7.35E+1
7.06E-2	4.21E+2	1.86E-2	8.53E+1
6.76E-2	4.77E+2	1.71E-2	7.54E+1
6.91E-2	4.10E+2	1.59E-2	1.13E+2
7.32E-2	5.05E+2	1.76E-2	7.80E+1
8.06E-2	5.02E+2	1.66E-2	1.19E+2
7.64E-2	5.15E+2	1.95E-2	7.11E+1
6.69E-2	4.51E+2	1.93E-2	1.34E+2
7.52E-2	5.14E+2	1.73E-2	1.33E+2
6.84E-2	4.36E+2	1.61E-2	7.10E+1
7.37E-2	5.03E+2	1.54E-2	9.99E+1
7.74E-2	5.23E+2	1.81E-2	1.26E+2
7.13E-2	4.93E+2	1.78E-2	8.99E+1
7.10E-2	4.71E+2	1.51E-2	8.38E+1
8.15E-2	5.28E+2	1.73E-2	5.52E+1
7.74E-2	5.24E+2	1.73E-2	7.56E+1
7.54E-2	4.68E+2	1.64E-2	6.35E+1
6.79E-2	4.56E+2	1.59E-2	7.47E+1
8.01E-2	4.60E+2	1.73E-2	6.32E+1
6.86E-2	4.43E+2	1.73E-2	1.48E+2
7.03E-2	5.01E+2	1.66E-2	1.45E+2
7.52E-2	4.71E+2	1.49E-2	1.28E+2
7.91E-2	4.84E+2	1.54E-2	3.90E+1
7.25E-2	5.14E+2	1.46E-2	7.39E+1
6.62E-2	3.94E+2	1.68E-2	9.72E+1
7.84E-2	4.64E+2	1.71E-2	5.98E+1
7.01E-2	4.77E+2	1.86E-2	1.33E+2
6.71E-2	4.29E+2	1.64E-2	3.99E+1
7.86E-2	4.96E+2	1.44E-2	5.96E+1
7.20E-2	4.82E+2	1.88E-2	1.09E+2
7.59E-2	5.26E+2	1.49E-2	8.89E+1
7.67E-2	5.46E+2	1.34E-2	8.54E+1
7.08E-2	4.88E+2	1.68E-2	8.72E+1
7.01E-2	4.98E+2	1.68E-2	1.01E+2
7.71E-2	4.81E+2	1.73E-2	9.61E+1
7.03E-2	4.53E+2	1.66E-2	7.05E+1
7.20E-2	4.78E+2	1.51E-2	8.01E+1
7.37E-2	4.89E+2	2.05E-2	7.67E+1
8.03E-2	5.49E+2	1.39E-2	8.30E+1
7.06E-2	4.87E+2	1.59E-2	5.72E+1
6.96E-2	4.37E+2	1.56E-2	5.04E+1
7.47E-2	4.85E+2	1.44E-2	3.38E+1
7.74E-2	5.05E+2	1.59E-2	8.95E+1
7.18E-2	5.08E+2	1.49E-2	1.11E+2
7.79E-2	5.27E+2	1.64E-2	9.54E+1
7.81E-2	4.62E+2	1.54E-2	6.99E+1
6.84E-2	4.94E+2	1.54E-2	1.28E+2
6.64E-2	4.57E+2	1.93E-2	8.93E+1
7.98E-2	5.34E+2	1.39E-2	1.10E+2
7.59E-2	4.68E+2	1.61E-2	1.12E+2
7.15E-2	4.83E+2	1.76E-2	5.71E+1
6.86E-2	4.90E+2	1.61E-2	8.75E+1
8.37E-2	5.25E+2	1.81E-2	6.84E+1
7.81E-2	4.94E+2	1.39E-2	9.27E+1
6.79E-2	4.54E+2	1.51E-2	6.21E+1
7.40E-2	4.64E+2	2.00E-2	1.43E+2
7.08E-2	4.69E+2	1.81E-2	7.39E+1
6.93E-2	4.88E+2	1.56E-2	4.20E+1
7.59E-2	4.77E+2	1.61E-2	9.38E+1
7.10E-2	4.42E+2	1.46E-2	4.35E+1
7.57E-2	5.01E+2	1.88E-2	9.17E+1
7.35E-2	4.61E+2	1.61E-2	7.23E+1
7.42E-2	5.07E+2	1.90E-2	1.45E+2
7.40E-2	4.57E+2	1.64E-2	9.77E+1
7.71E-2	4.77E+2	1.71E-2	5.73E+1
7.57E-2	4.90E+2	1.54E-2	6.09E+1
7.40E-2	4.90E+2	1.68E-2	6.71E+1
7.76E-2	5.07E+2	1.59E-2	1.18E+2
7.74E-2	4.84E+2	1.39E-2	6.31E+1
7.28E-2	4.98E+2	1.64E-2	1.41E+2
7.18E-2	4.48E+2	1.68E-2	1.10E+2
7.84E-2	4.63E+2	1.54E-2	8.54E+1
7.37E-2	4.65E+2	1.90E-2	7.34E+1
7.15E-2	4.62E+2	1.49E-2	4.04E+1
7.15E-2	4.84E+2	1.51E-2	1.02E+2
7.64E-2	5.23E+2	1.59E-2	1.01E+2
7.64E-2	5.31E+2	1.56E-2	1.12E+2
7.89E-2	5.11E+2	1.34E-2	5.83E+1
7.13E-2	4.90E+2	1.46E-2	9.13E+1
7.25E-2	4.78E+2	1.56E-2	6.41E+1
7.71E-2	4.89E+2	1.71E-2	1.13E+2
7.01E-2	4.25E+2	1.61E-2	9.27E+1
6.96E-2	4.58E+2	1.86E-2	1.18E+2
7.25E-2	4.99E+2	1.61E-2	5.37E+1
7.84E-2	5.00E+2	1.51E-2	1.20E+2
7.32E-2	4.33E+2	1.73E-2	8.58E+1
7.59E-2	5.14E+2	1.64E-2	9.96E+1
7.79E-2	4.52E+2	1.66E-2	5.96E+1
7.13E-2	4.91E+2	1.49E-2	7.92E+1
7.15E-2	5.14E+2	1.81E-2	1.18E+2
7.89E-2	4.99E+2	1.56E-2	9.17E+1
7.69E-2	5.01E+2	2.03E-2	1.49E+2
7.20E-2	4.53E+2	1.83E-2	1.28E+2
6.71E-2	4.48E+2	1.56E-2	8.10E+1
7.18E-2	4.62E+2	1.56E-2	7.70E+1
7.40E-2	4.96E+2	1.68E-2	1.37E+2
7.47E-2	5.07E+2	1.42E-2	8.18E+1
7.59E-2	5.28E+2	1.66E-2	5.61E+1
7.45E-2	5.18E+2	1.86E-2	1.45E+2
7.15E-2	4.81E+2	1.37E-2	4.52E+1
7.84E-2	5.27E+2	1.81E-2	8.44E+1
7.98E-2	5.37E+2	1.73E-2	1.00E+2
7.91E-2	5.44E+2	1.68E-2	4.39E+1
7.18E-2	4.72E+2	1.59E-2	1.33E+2
6.62E-2	4.42E+2	1.27E-2	1.00E+2
7.54E-2	4.80E+2	1.44E-2	1.18E+2
7.37E-2	4.20E+2	1.59E-2	5.08E+1
8.06E-2	5.17E+2	1.88E-2	8.14E+1
7.13E-2	4.60E+2	1.61E-2	6.34E+1
7.67E-2	4.47E+2	1.66E-2	7.91E+1
7.18E-2	4.94E+2	1.71E-2	8.85E+1
7.37E-2	5.10E+2	1.76E-2	9.08E+1
7.28E-2	4.85E+2	1.49E-2	9.18E+1
6.88E-2	4.83E+2	1.71E-2	1.24E+2
7.52E-2	5.01E+2	1.37E-2	1.07E+2
7.32E-2	4.75E+2	1.61E-2	5.71E+1
7.79E-2	5.10E+2	1.88E-2	1.29E+2
7.01E-2	4.54E+2	1.44E-2	8.37E+1
6.98E-2	4.77E+2	1.59E-2	1.19E+2
7.10E-2	4.69E+2	1.25E-2	5.24E+1
7.10E-2	4.28E+2	1.68E-2	7.02E+1
7.03E-2	4.87E+2	1.56E-2	8.36E+1
7.62E-2	4.82E+2	1.64E-2	9.05E+1
7.08E-2	4.48E+2	1.88E-2	6.84E+1
7.42E-2	4.65E+2	1.68E-2	3.40E+1
8.15E-2	5.38E+2	1.81E-2	8.13E+1
8.33E-2	5.53E+2	1.61E-2	1.15E+2
7.79E-2	4.98E+2	1.34E-2	1.35E+2
6.69E-2	4.31E+2	1.61E-2	9.18E+1
8.01E-2	5.48E+2	1.61E-2	7.66E+1
8.01E-2	5.30E+2	1.64E-2	1.08E+2
7.28E-2	4.80E+2	1.59E-2	9.86E+1
7.15E-2	4.96E+2	1.71E-2	1.21E+2
8.18E-2	4.91E+2	1.39E-2	6.15E+1
7.30E-2	4.98E+2	1.59E-2	8.05E+1
7.50E-2	4.74E+2	1.73E-2	8.72E+1
6.96E-2	4.47E+2	1.51E-2	6.36E+1
7.47E-2	4.98E+2	1.49E-2	5.95E+1
7.20E-2	4.43E+2	1.54E-2	7.05E+1
7.52E-2	4.97E+2	2.08E-2	6.52E+1
7.20E-2	4.95E+2	1.71E-2	1.19E+2
7.13E-2	5.30E+2	1.66E-2	8.48E+1
7.52E-2	4.58E+2	1.68E-2	7.98E+1
7.10E-2	4.47E+2	2.08E-2	1.29E+2
8.03E-2	5.22E+2	1.44E-2	9.00E+1
6.76E-2	4.31E+2	1.71E-2	8.94E+1
7.86E-2	5.15E+2	1.81E-2	1.06E+2
7.32E-2	4.80E+2	1.66E-2	6.76E+1
6.96E-2	4.86E+2	1.39E-2	6.20E+1
7.10E-2	4.85E+2	1.46E-2	5.19E+1
7.59E-2	4.88E+2	1.61E-2	8.63E+1
7.64E-2	5.20E+2	1.56E-2	1.03E+2
7.76E-2	5.52E+2	1.61E-2	7.34E+1
6.93E-2	4.61E+2	1.51E-2	1.00E+2
7.57E-2	4.74E+2	1.64E-2	8.88E+1
6.98E-2	4.27E+2	1.42E-2	9.16E+1
6.74E-2	4.93E+2	1.51E-2	1.08E+2
6.81E-2	4.91E+2	1.81E-2	9.90E+1
7.03E-2	4.93E+2	1.39E-2	7.37E+1
7.10E-2	4.28E+2	1.59E-2	9.40E+1
7.15E-2	4.91E+2	1.68E-2	1.09E+2
6.76E-2	4.38E+2	2.00E-2	6.09E+1
7.13E-2	5.48E+2	1.59E-2	9.13E+1
7.79E-2	5.05E+2	1.56E-2	1.23E+2
7.30E-2	4.34E+2	1.86E-2	1.05E+2
7.30E-2	4.70E+2	1.46E-2	1.05E+2
8.40E-2	5.08E+2	1.88E-2	8.18E+1
7.18E-2	4.96E+2	1.73E-2	1.38E+2
7.71E-2	5.00E+2	1.95E-2	1.14E+2
7.03E-2	4.16E+2	1.93E-2	8.80E+1
7.13E-2	4.42E+2	1.42E-2	4.43E+1
7.50E-2	5.04E+2	1.73E-2	7.86E+1
7.59E-2	4.90E+2	1.61E-2	1.03E+2
8.01E-2	5.21E+2	1.56E-2	7.52E+1
7.62E-2	4.98E+2	1.61E-2	8.09E+1
7.57E-2	5.25E+2	1.44E-2	1.02E+2
7.86E-2	5.39E+2	1.88E-2	1.20E+2
6.62E-2	4.08E+2	1.39E-2	8.77E+1
6.54E-2	4.52E+2	1.37E-2	6.59E+1
8.01E-2	5.09E+2	1.27E-2	8.08E+1
7.30E-2	4.74E+2	2.00E-2	9.20E+1
8.11E-2	5.38E+2	1.71E-2	8.91E+1
7.89E-2	4.92E+2	1.44E-2	9.33E+1
6.96E-2	4.10E+2	2.10E-2	9.00E+1
6.98E-2	4.33E+2	1.56E-2	2.74E+1
7.59E-2	4.95E+2	1.51E-2	6.77E+1
7.81E-2	5.07E+2	1.46E-2	1.01E+2
7.57E-2	5.23E+2	1.68E-2	8.84E+1
7.47E-2	4.37E+2	1.68E-2	5.42E+1
7.96E-2	5.05E+2	1.81E-2	9.37E+1
7.35E-2	4.75E+2	1.86E-2	1.19E+2
7.20E-2	4.39E+2	1.71E-2	9.49E+1
7.64E-2	4.66E+2	1.34E-2	9.17E+1
8.08E-2	5.21E+2	1.68E-2	8.08E+1
7.71E-2	5.04E+2	1.73E-2	8.18E+1
8.28E-2	4.91E+2	1.78E-2	8.30E+1
7.08E-2	4.76E+2	1.73E-2	1.02E+2
7.25E-2	4.89E+2	1.42E-2	5.34E+1
7.69E-2	4.89E+2	1.54E-2	3.93E+1
7.13E-2	4.47E+2	1.44E-2	3.79E+1
7.01E-2	4.91E+2	1.73E-2	9.64E+1
7.71E-2	5.28E+2	1.39E-2	8.38E+1
6.69E-2	4.54E+2	1.81E-2	1.09E+2
7.37E-2	4.79E+2	1.56E-2	8.33E+1
6.91E-2	4.21E+2	1.76E-2	7.48E+1
7.18E-2	4.28E+2	1.49E-2	6.42E+1
6.86E-2	4.53E+2	1.83E-2	8.20E+1
6.91E-2	4.52E+2	1.61E-2	1.04E+2
7.45E-2	4.83E+2	1.64E-2	9.30E+1
4.64E-3	5.37E+0	5.15E-2	2.45E+2
6.84E-2	4.79E+2	1.59E-2	7.79E+1
6.81E-2	4.49E+2	1.49E-2	7.37E+1
8.06E-2	5.29E+2	1.81E-2	1.52E+2
7.25E-2	5.10E+2	1.68E-2	1.32E+2
7.91E-2	4.97E+2	1.71E-2	1.03E+2
7.84E-2	5.59E+2	1.90E-2	1.27E+2
7.30E-2	4.86E+2	1.51E-2	4.89E+1
7.45E-2	4.72E+2	1.76E-2	8.33E+1
6.88E-2	4.27E+2	1.88E-2	9.29E+1
7.42E-2	4.57E+2	1.64E-2	9.15E+1
7.20E-2	4.28E+2	1.46E-2	7.04E+1
6.79E-2	4.82E+2	1.46E-2	8.02E+1
8.01E-2	5.67E+2	1.56E-2	7.25E+1
5.37E-3	8.35E+0	4.98E-2	2.49E+2
7.28E-2	4.49E+2	1.73E-2	8.96E+1
7.54E-2	4.49E+2	1.56E-2	1.03E+2
7.59E-2	5.01E+2	1.78E-2	6.35E+1
7.20E-2	4.76E+2	1.56E-2	1.17E+2
6.84E-2	4.50E+2	1.88E-2	9.38E+1
7.01E-2	4.48E+2	1.68E-2	1.04E+2
7.52E-2	5.25E+2	1.83E-2	1.29E+2
7.15E-2	5.22E+2	1.66E-2	8.61E+1
7.42E-2	4.59E+2	1.66E-2	4.36E+1
7.20E-2	4.50E+2	1.25E-2	6.47E+1
7.74E-2	5.15E+2	1.59E-2	6.29E+1
7.47E-2	4.79E+2	1.64E-2	4.89E+1
6.64E-2	4.52E+2	1.44E-2	6.04E+1
7.93E-2	5.47E+2	1.90E-2	1.27E+2
7.06E-2	4.47E+2	1.76E-2	1.04E+2
7.35E-2	4.66E+2	1.51E-2	8.51E+1
6.81E-2	4.64E+2	1.54E-2	9.31E+1
7.93E-2	5.18E+2	1.46E-2	7.50E+1
7.30E-2	4.62E+2	1.46E-2	1.06E+2
7.45E-2	4.53E+2	1.83E-2	1.05E+2
6.84E-2	4.64E+2	1.61E-2	7.68E+1
7.89E-2	5.13E+2	1.76E-2	7.17E+1
8.25E-2	5.67E+2	1.71E-2	8.26E+1
6.84E-2	4.67E+2	1.54E-2	9.72E+1
7.28E-2	5.03E+2	1.83E-2	1.21E+2
7.40E-2	5.21E+2	1.95E-2	1.13E+2
6.98E-2	4.76E+2	1.51E-2	6.25E+1
7.67E-2	5.10E+2	1.98E-2	1.54E+2
7.15E-2	5.24E+2	1.51E-2	7.02E+1
7.76E-2	4.46E+2	1.83E-2	9.16E+1
7.20E-2	4.36E+2	1.42E-2	5.09E+1
7.28E-2	4.51E+2	1.66E-2	6.87E+1
7.40E-2	5.14E+2	1.49E-2	5.78E+1
7.57E-2	4.99E+2	1.68E-2	8.76E+1
7.42E-2	4.90E+2	1.49E-2	2.83E+1
7.74E-2	5.22E+2	1.61E-2	9.45E+1
7.89E-2	5.35E+2	1.56E-2	1.29E+2
7.37E-2	5.17E+2	1.61E-2	5.86E+1
7.28E-2	5.01E+2	1.83E-2	1.25E+2
7.67E-2	5.04E+2	1.29E-2	9.03E+1
6.84E-2	4.70E+2	1.59E-2	6.98E+1
7.10E-2	4.64E+2	1.54E-2	1.19E+2
6.96E-2	4.76E+2	1.44E-2	1.13E+2
7.67E-2	4.27E+2	1.66E-2	6.59E+1
6.81E-2	4.74E+2	1.44E-2	8.15E+1
7.52E-2	4.98E+2	1.76E-2	8.62E+1
7.23E-2	4.90E+2	1.93E-2	8.60E+1
7.57E-2	5.09E+2	1.86E-2	8.78E+1
6.88E-2	4.54E+2	1.68E-2	5.83E+1
7.40E-2	5.11E+2	2.00E-2	4.91E+1
7.50E-2	5.21E+2	1.56E-2	1.05E+2
7.79E-2	5.08E+2	1.56E-2	8.12E+1
7.64E-2	5.14E+2	1.46E-2	1.23E+2
7.52E-2	5.55E+2	2.15E-2	1.98E+2
7.81E-2	4.42E+2	1.71E-2	3.87E+1
7.42E-2	4.61E+2	1.73E-2	9.72E+1
7.23E-2	4.82E+2	1.68E-2	1.23E+2
7.37E-2	4.83E+2	1.93E-2	1.07E+2
8.08E-2	5.51E+2	1.61E-2	7.91E+1
7.32E-2	5.43E+2	1.86E-2	1.28E+2
6.96E-2	4.70E+2	1.66E-2	1.18E+2
7.59E-2	5.17E+2	1.64E-2	1.34E+2
7.62E-2	5.23E+2	1.42E-2	9.17E+1
7.74E-2	5.28E+2	1.68E-2	1.25E+2
7.50E-2	5.23E+2	1.71E-2	1.04E+2
7.20E-2	4.06E+2	1.83E-2	7.81E+1
7.81E-2	5.04E+2	1.76E-2	9.48E+1
7.35E-2	5.01E+2	1.54E-2	8.61E+1
8.08E-2	5.05E+2	1.61E-2	7.71E+1
7.15E-2	5.08E+2	1.54E-2	1.00E+2
6.98E-2	4.73E+2	1.56E-2	4.48E+1
7.35E-2	4.32E+2	1.71E-2	8.77E+1
7.59E-2	5.03E+2	1.56E-2	9.47E+1
7.20E-2	5.15E+2	1.66E-2	8.25E+1
7.89E-2	5.02E+2	1.66E-2	1.22E+2
7.59E-2	4.70E+2	1.86E-2	1.07E+2
8.08E-2	5.39E+2	1.46E-2	9.86E+1
7.71E-2	5.24E+2	1.71E-2	1.18E+2
7.71E-2	4.93E+2	1.54E-2	9.98E+1
7.42E-2	5.03E+2	1.59E-2	9.06E+1
7.57E-2	4.75E+2	1.68E-2	9.52E+1
7.32E-2	4.77E+2	1.39E-2	8.22E+1
7.18E-2	4.63E+2	1.54E-2	6.43E+1
7.81E-2	5.12E+2	1.56E-2	5.83E+1
6.79E-2	4.38E+2	1.46E-2	5.68E+1
7.54E-2	5.18E+2	1.56E-2	6.36E+1
7.25E-2	5.26E+2	1.51E-2	7.87E+1
6.84E-2	4.36E+2	1.68E-2	7.00E+1
6.74E-2	4.15E+2	1.66E-2	9.32E+1
6.52E-2	4.21E+2	1.44E-2	3.90E+1
7.98E-2	5.00E+2	1.37E-2	1.03E+2
7.08E-2	4.64E+2	1.44E-2	5.51E+1
6.98E-2	4.17E+2	1.71E-2	9.61E+1
7.52E-2	5.20E+2	1.73E-2	7.00E+1
7.08E-2	4.56E+2	1.46E-2	9.13E+1
7.01E-2	4.80E+2	1.66E-2	3.02E+1
7.50E-2	5.23E+2	1.51E-2	1.00E+2
7.57E-2	5.15E+2	1.73E-2	8.01E+1
7.52E-2	4.84E+2	1.83E-2	1.23E+2
7.32E-2	4.93E+2	1.76E-2	1.16E+2
7.13E-2	4.74E+2	1.68E-2	9.39E+1
7.20E-2	4.47E+2	1.51E-2	6.78E+1
6.88E-2	4.57E+2	1.44E-2	9.36E+1
7.23E-2	4.38E+2	1.54E-2	6.60E+1
7.93E-2	5.43E+2	1.78E-2	7.14E+1
7.03E-2	4.88E+2	1.49E-2	7.97E+1
7.40E-2	4.69E+2	1.56E-2	5.43E+1
7.25E-2	5.28E+2	1.59E-2	4.54E+1
6.84E-2	4.71E+2	1.90E-2	6.99E+1
6.86E-2	4.62E+2	1.76E-2	6.31E+1
7.25E-2	4.80E+2	1.46E-2	1.26E+2
8.23E-2	5.25E+2	1.68E-2	1.14E+2
7.15E-2	4.58E+2	1.81E-2	5.40E+1
7.64E-2	5.01E+2	1.78E-2	1.73E+2
7.50E-2	4.94E+2	1.76E-2	9.65E+1
7.74E-2	4.34E+2	1.56E-2	7.72E+1
7.32E-2	4.66E+2	1.83E-2	1.36E+2
6.49E-2	4.08E+2	1.78E-2	1.08E+2
6.69E-2	4.68E+2	1.76E-2	8.53E+1
8.01E-2	5.08E+2	1.59E-2	5.22E+1
7.47E-2	5.02E+2	1.81E-2	1.08E+2
7.71E-2	5.17E+2	2.03E-2	1.53E+2
7.45E-2	5.10E+2	1.86E-2	1.39E+2
6.62E-2	4.43E+2	1.49E-2	7.03E+1
7.71E-2	5.10E+2	1.78E-2	1.27E+2
7.10E-2	5.04E+2	1.64E-2	1.44E+2
7.57E-2	4.79E+2	1.61E-2	9.96E+1
7.64E-2	4.35E+2	1.64E-2	5.49E+1
7.13E-2	4.42E+2	1.71E-2	1.01E+2
7.10E-2	4.70E+2	1.73E-2	7.55E+1
7.01E-2	4.67E+2	1.78E-2	6.92E+1
7.54E-2	4.75E+2	1.54E-2	6.06E+1
7.32E-2	5.13E+2	1.61E-2	6.31E+1
6.71E-2	4.89E+2	1.39E-2	1.03E+2
7.81E-2	5.37E+2	1.86E-2	1.47E+2
7.18E-2	4.31E+2	1.76E-2	7.09E+1
7.15E-2	4.76E+2	1.68E-2	1.22E+2
7.59E-2	4.73E+2	1.61E-2	8.27E+1
7.86E-2	4.91E+2	1.81E-2	9.88E+1
7.67E-2	4.75E+2	1.78E-2	1.09E+2
7.40E-2	4.67E+2	1.59E-2	1.27E+2
7.64E-2	4.88E+2	1.78E-2	6.73E+1
7.40E-2	4.56E+2	1.71E-2	4.70E+1
7.42E-2	4.86E+2	1.54E-2	5.84E+1
6.93E-2	4.65E+2	1.76E-2	7.06E+1
7.40E-2	4.75E+2	1.51E-2	5.79E+1
7.86E-2	5.32E+2	1.61E-2	7.74E+1
8.20E-2	5.40E+2	1.61E-2	9.97E+1
7.50E-2	4.49E+2	1.73E-2	7.71E+1
7.08E-2	4.49E+2	1.59E-2	8.52E+1
7.25E-2	5.00E+2	1.68E-2	9.59E+1
8.01E-2	4.88E+2	1.83E-2	9.69E+1
6.64E-2	4.14E+2	1.93E-2	1.25E+2
7.54E-2	4.99E+2	1.66E-2	8.39E+1
7.32E-2	4.89E+2	1.64E-2	5.26E+1
7.25E-2	4.91E+2	1.39E-2	7.03E+1
7.93E-2	4.44E+2	1.61E-2	6.74E+1
8.06E-2	5.51E+2	1.51E-2	1.04E+2
7.93E-2	5.12E+2	1.66E-2	1.21E+2
7.64E-2	5.13E+2	1.42E-2	5.97E+1
7.76E-2	5.10E+2	1.71E-2	1.14E+2
7.03E-2	4.61E+2	1.93E-2	1.43E+2
7.37E-2	5.22E+2	1.32E-2	8.84E+1
7.71E-2	4.21E+2	2.03E-2	8.27E+1
7.91E-2	4.71E+2	1.86E-2	4.61E+1
7.47E-2	5.01E+2	1.66E-2	5.68E+1
7.13E-2	4.68E+2	1.44E-2	5.27E+1
7.13E-2	4.87E+2	1.61E-2	5.73E+1
6.86E-2	5.06E+2	1.54E-2	7.43E+1
6.86E-2	4.20E+2	1.68E-2	4.12E+1
8.03E-2	5.32E+2	1.59E-2	8.63E+1
7.59E-2	4.93E+2	1.51E-2	1.13E+2
7.25E-2	4.64E+2	1.81E-2	1.19E+2
7.42E-2	4.59E+2	1.59E-2	1.32E+2
8.08E-2	5.09E+2	1.71E-2	8.71E+1
6.64E-2	4.15E+2	1.44E-2	1.01E+2
7.86E-2	4.90E+2	1.66E-2	9.72E+1
6.98E-2	4.38E+2	1.76E-2	7.80E+1
6.98E-2	4.90E+2	1.49E-2	9.15E+1
6.76E-2	4.30E+2	1.54E-2	5.09E+1
8.13E-2	4.95E+2	1.56E-2	7.44E+1
7.10E-2	4.90E+2	1.56E-2	8.52E+1
7.57E-2	4.69E+2	1.56E-2	3.02E+1
7.40E-2	4.93E+2	1.54E-2	7.40E+1
8.03E-2	5.17E+2	1.71E-2	4.83E+1
7.25E-2	4.84E+2	1.56E-2	1.03E+2
7.20E-2	4.66E+2	1.73E-2	1.05E+2
6.96E-2	4.38E+2	1.54E-2	4.90E+1
7.32E-2	4.96E+2	2.00E-2	1.00E+2
7.79E-2	4.73E+2	1.68E-2	7.61E+1
7.57E-2	4.71E+2	1.68E-2	5.95E+1
7.32E-2	4.48E+2	1.37E-2	3.76E+1
7.42E-2	4.96E+2	1.76E-2	9.08E+1
7.74E-2	4.90E+2	1.88E-2	4.49E+1
7.37E-2	5.21E+2	1.56E-2	1.27E+2
7.64E-2	4.95E+2	1.56E-2	7.61E+1
6.88E-2	4.75E+2	1.73E-2	9.00E+1
7.06E-2	4.87E+2	1.56E-2	1.26E+2
7.32E-2	4.85E+2	1.56E-2	1.05E+2
7.54E-2	5.43E+2	1.66E-2	1.30E+2
6.67E-2	4.49E+2	1.64E-2	1.06E+2
6.88E-2	4.35E+2	1.51E-2	3.21E+1
7.42E-2	4.70E+2	1.68E-2	9.42E+1
6.84E-2	4.59E+2	1.73E-2	9.23E+1
7.28E-2	4.44E+2	1.54E-2	8.97E+1
7.23E-2	4.97E+2	1.76E-2	8.94E+1
6.93E-2	4.59E+2	1.93E-2	1.04E+2
6.93E-2	4.94E+2	1.66E-2	7.35E+1
7.40E-2	4.71E+2	1.39E-2	9.61E+1
7.81E-2	5.06E+2	1.32E-2	7.67E+1
6.98E-2	4.95E+2	1.68E-2	6.58E+1
7.50E-2	4.90E+2	1.68E-2	9.35E+1
7.54E-2	4.70E+2	1.61E-2	1.05E+2
7.30E-2	4.67E+2	1.76E-2	8.82E+1
7.30E-2	4.32E+2	1.86E-2	8.94E+1
7.67E-2	4.92E+2	1.76E-2	8.51E+1
7.45E-2	4.87E+2	1.46E-2	5.45E+1
7.08E-2	4.75E+2	1.54E-2	1.01E+2
8.03E-2	5.34E+2	1.66E-2	1.26E+2
7.79E-2	5.06E+2	2.10E-2	1.41E+2
7.50E-2	5.26E+2	1.54E-2	3.73E+1
7.93E-2	5.57E+2	1.68E-2	1.01E+2
7.28E-2	4.46E+2	1.56E-2	7.34E+1
6.67E-2	4.28E+2	1.49E-2	4.79E+1
7.06E-2	4.69E+2	1.59E-2	3.64E+1
7.59E-2	4.72E+2	1.71E-2	8.97E+1
7.54E-2	5.19E+2	1.64E-2	7.77E+1
7.01E-2	4.78E+2	1.64E-2	6.36E+1
6.69E-2	4.37E+2	1.81E-2	7.58E+1
7.50E-2	4.79E+2	1.46E-2	8.74E+1
7.20E-2	4.64E+2	1.42E-2	2.77E+1
8.23E-2	4.47E+2	1.56E-2	4.79E+1
7.20E-2	4.90E+2	1.73E-2	1.05E+2
7.03E-2	4.66E+2	1.90E-2	1.43E+2
7.23E-2	4.88E+2	1.68E-2	8.96E+1
6.10E-3	-1.04E+1	5.69E-2	2.44E+2
7.28E-2	4.53E+2	1.93E-2	3.84E+1
7.20E-2	4.81E+2	1.56E-2	8.71E+1
7.52E-2	4.58E+2	1.73E-2	9.90E+1
7.57E-2	4.73E+2	1.64E-2	4.38E+1
7.69E-2	5.54E+2	1.76E-2	8.83E+1
6.71E-2	4.60E+2	1.76E-2	7.73E+1
7.59E-2	4.84E+2	1.78E-2	1.06E+2
7.18E-2	4.73E+2	1.66E-2	7.97E+1
7.52E-2	4.90E+2	1.32E-2	6.04E+1
7.18E-2	5.07E+2	1.32E-2	6.06E+1
7.42E-2	4.82E+2	1.54E-2	8.35E+1
6.86E-2	4.68E+2	1.73E-2	1.35E+2
7.20E-2	4.59E+2	1.66E-2	1.24E+2
6.74E-2	4.51E+2	1.46E-2	5.32E+1
7.06E-2	4.59E+2	1.42E-2	1.06E+2
7.10E-2	4.34E+2	1.68E-2	9.04E+1
7.89E-2	4.68E+2	2.00E-2	6.55E+1
7.18E-2	4.59E+2	1.71E-2	6.20E+1
7.54E-2	5.19E+2	1.95E-2	1.19E+2
7.47E-2	5.48E+2	1.39E-2	1.24E+2
7.13E-2	5.14E+2	1.59E-2	1.76E+2
7.50E-2	5.24E+2	1.61E-2	1.20E+2
7.59E-2	4.91E+2	1.64E-2	1.41E+2
7.86E-2	5.14E+2	1.64E-2	9.78E+1
7.20E-2	4.85E+2	1.66E-2	1.05E+2
7.06E-2	4.63E+2	1.49E-2	1.16E+2
7.93E-2	5.06E+2	1.88E-2	8.87E+1
7.13E-2	4.49E+2	2.08E-2	9.48E+1
7.54E-2	4.87E+2	1.83E-2	1.12E+2
7.30E-2	4.46E+2	1.78E-2	7.62E+1
7.81E-2	4.88E+2	1.44E-2	3.00E+1
7.76E-2	5.20E+2	1.51E-2	7.58E+1
7.64E-2	5.27E+2	1.37E-2	6.04E+1
7.57E-2	4.64E+2	2.00E-2	9.63E+1
7.25E-2	4.63E+2	1.64E-2	9.57E+1
7.10E-2	4.65E+2	1.71E-2	1.11E+2
8.08E-2	5.18E+2	1.46E-2	9.08E+1
7.59E-2	4.61E+2	1.61E-2	9.47E+1
6.86E-2	3.78E+2	1.56E-2	6.21E+1
7.50E-2	4.54E+2	1.54E-2	5.48E+1
7.86E-2	5.16E+2	1.51E-2	7.13E+1
7.98E-2	4.91E+2	1.93E-2	8.60E+1
7.54E-2	5.04E+2	1.54E-2	8.80E+1
8.03E-2	5.22E+2	1.42E-2	5.95E+1
7.06E-2	4.97E+2	1.71E-2	8.93E+1
6.45E-2	4.39E+2	1.93E-2	6.10E+1
8.30E-2	5.05E+2	1.66E-2	8.17E+1
7.59E-2	4.89E+2	1.83E-2	1.31E+2
1.34E-2	4.83E+0	5.59E-2	2.17E+2
7.20E-2	4.40E+2	1.54E-2	8.67E+1
7.57E-2	4.39E+2	1.81E-2	8.40E+1
7.67E-2	4.58E+2	1.68E-2	5.81E+1
7.13E-2	4.39E+2	1.64E-2	6.29E+1
6.81E-2	4.71E+2	1.83E-2	6.15E+1
7.69E-2	5.15E+2	1.56E-2	1.88E+1
7.30E-2	5.15E+2	1.42E-2	6.82E+1
7.69E-2	5.05E+2	1.39E-2	1.24E+2
7.13E-2	4.24E+2	1.88E-2	1.04E+2
6.91E-2	4.74E+2	1.71E-2	1.22E+2
7.01E-2	4.60E+2	1.81E-2	1.52E+2
7.71E-2	5.00E+2	1.90E-2	9.04E+1
7.47E-2	4.72E+2	1.83E-2	1.16E+2
7.50E-2	4.75E+2	1.78E-2	1.50E+2
7.45E-2	4.64E+2	1.56E-2	8.89E+1
7.69E-2	4.90E+2	1.71E-2	1.05E+2
7.45E-2	5.18E+2	1.51E-2	4.64E+1
7.15E-2	4.69E+2	1.42E-2	6.64E+0
8.03E-2	5.36E+2	1.83E-2	6.58E+1
7.47E-2	4.91E+2	1.64E-2	3.26E+1
7.47E-2	5.20E+2	2.00E-2	8.61E+1
7.30E-2	5.15E+2	1.51E-2	1.02E+2
6.76E-2	4.43E+2	1.64E-2	1.13E+2
7.06E-2	4.53E+2	1.78E-2	9.92E+1
7.84E-2	4.29E+2	1.68E-2	5.58E+1
6.98E-2	4.68E+2	1.86E-2	1.05E+2
7.10E-2	4.73E+2	1.56E-2	8.99E+1
6.74E-2	4.59E+2	1.90E-2	1.16E+2
7.79E-2	4.98E+2	1.68E-2	7.57E+1
7.89E-2	5.21E+2	1.54E-2	4.66E+1
7.54E-2	5.36E+2	1.49E-2	1.17E+2
7.50E-2	5.24E+2	1.83E-2	1.46E+2
7.93E-2	5.38E+2	1.71E-2	9.92E+1
7.52E-2	4.96E+2	1.66E-2	1.02E+2
7.50E-2	5.18E+2	1.42E-2	1.33E+2
7.37E-2	4.94E+2	1.42E-2	4.12E+1
7.20E-2	4.95E+2	1.81E-2	1.39E+2
8.28E-2	5.82E+2	1.66E-2	1.20E+2
7.35E-2	4.26E+2	1.68E-2	3.96E+1
6.71E-2	4.65E+2	1.78E-2	9.28E+1
6.79E-2	4.51E+2	1.44E-2	6.50E+1
7.30E-2	5.00E+2	1.46E-2	3.92E+1
7.42E-2	5.03E+2	1.64E-2	6.16E+1
7.67E-2	5.47E+2	1.61E-2	1.27E+2
7.35E-2	4.87E+2	1.68E-2	1.13E+2
7.54E-2	5.01E+2	1.56E-2	1.08E+2
7.50E-2	4.74E+2	1.83E-2	1.12E+2
7.28E-2	4.82E+2	1.90E-2	1.04E+2
7.30E-2	4.79E+2	1.76E-2	9.40E+1
6.84E-2	4.23E+2	2.00E-2	9.36E+1
7.10E-2	4.85E+2	1.54E-2	1.02E+2
6.84E-2	4.44E+2	1.68E-2	5.65E+1
7.23E-2	5.02E+2	1.54E-2	9.53E+1
7.13E-2	4.81E+2	1.46E-2	8.26E+1
6.84E-2	4.77E+2	1.66E-2	8.69E+1
7.45E-2	4.92E+2	1.95E-2	9.15E+1
6.62E-2	4.32E+2	1.59E-2	3.89E+1
7.54E-2	5.10E+2	1.90E-2	6.76E+1
7.47E-2	5.35E+2	1.44E-2	1.39E+2
6.86E-2	4.18E+2	1.44E-2	8.23E+1
7.20E-2	4.27E+2	1.49E-2	8.71E+1
7.08E-2	4.54E+2	1.54E-2	6.85E+1
7.01E-2	4.20E+2	1.44E-2	8.78E+1
6.62E-2	4.32E+2	1.81E-2	1.10E+2
7.50E-2	4.66E+2	1.59E-2	5.69E+1
7.25E-2	4.83E+2	1.54E-2	6.53E+1
7.59E-2	5.22E+2	1.44E-2	9.37E+1
7.28E-2	5.22E+2	1.61E-2	1.09E+2
6.81E-2	4.24E+2	1.78E-2	1.01E+2
6.76E-2	4.48E+2	1.59E-2	1.22E+2
7.25E-2	4.71E+2	1.59E-2	1.18E+2
7.42E-2	5.08E+2	1.66E-2	1.25E+2
6.88E-2	4.59E+2	1.49E-2	7.15E+1
6.74E-2	4.14E+2	1.81E-2	1.04E+2
6.88E-2	4.25E+2	1.46E-2	1.14E+2
7.42E-2	5.23E+2	1.71E-2	8.36E+1
6.08E-2	4.34E+2	1.34E-2	4.54E+1
7.52E-2	4.91E+2	1.81E-2	7.73E+1
7.47E-2	4.89E+2	1.66E-2	9.29E+1
7.18E-2	4.99E+2	1.59E-2	3.92E+1
7.81E-2	5.21E+2	1.51E-2	8.99E+1
7.40E-2	4.66E+2	2.03E-2	1.67E+2
7.57E-2	5.09E+2	1.49E-2	1.07E+2
7.96E-2	5.16E+2	1.37E-2	1.01E+2
