6.30E-2	4.46E+2	1.42E-2	8.13E+1
5.96E-2	4.53E+2	1.66E-2	1.35E+2
6.27E-2	4.46E+2	1.42E-2	8.18E+1
6.84E-2	4.84E+2	1.59E-2	9.82E+1
6.71E-2	4.92E+2	1.46E-2	5.90E+1
6.49E-2	4.71E+2	1.73E-2	1.04E+2
6.13E-2	4.50E+2	1.59E-2	9.40E+1
6.05E-2	4.54E+2	1.37E-2	6.69E+1
6.30E-2	5.13E+2	1.64E-2	8.37E+1
6.52E-2	4.58E+2	1.54E-2	6.66E+1
6.27E-2	5.23E+2	1.61E-2	1.30E+2
6.91E-2	4.84E+2	1.39E-2	9.20E+1
5.69E-2	4.47E+2	1.49E-2	1.00E+2
6.25E-2	4.43E+2	1.59E-2	9.86E+1
6.59E-2	4.42E+2	1.42E-2	9.40E+1
6.62E-2	4.43E+2	1.68E-2	4.57E+1
6.01E-2	4.64E+2	1.64E-2	9.09E+1
6.42E-2	4.83E+2	1.34E-2	1.11E+2
6.10E-2	4.34E+2	1.76E-2	6.49E+1
6.15E-2	4.98E+2	1.59E-2	8.37E+1
6.25E-2	4.76E+2	1.68E-2	1.04E+2
6.91E-2	4.95E+2	1.51E-2	9.62E+1
6.59E-2	4.94E+2	1.61E-2	7.28E+1
5.98E-2	4.78E+2	1.34E-2	6.01E+1
6.23E-2	4.75E+2	1.27E-2	6.63E+1
6.32E-2	4.61E+2	1.54E-2	9.50E+1
6.08E-2	4.50E+2	1.37E-2	8.95E+1
6.23E-2	4.76E+2	2.05E-2	1.16E+2
6.88E-2	4.94E+2	1.29E-2	3.05E+1
5.93E-2	4.46E+2	1.32E-2	6.06E+1
5.88E-2	4.34E+2	1.54E-2	4.66E+1
6.32E-2	4.72E+2	1.44E-2	4.55E+1
6.08E-2	4.49E+2	1.34E-2	8.19E+1
6.54E-2	5.03E+2	1.49E-2	9.57E+1
6.32E-2	4.62E+2	1.44E-2	8.16E+1
6.27E-2	4.91E+2	1.42E-2	1.12E+2
5.86E-2	4.46E+2	1.12E-2	9.46E+1
6.35E-2	4.82E+2	1.42E-2	1.05E+2
6.57E-2	5.08E+2	1.17E-2	1.28E+2
5.59E-2	4.01E+2	1.42E-2	8.28E+1
6.54E-2	4.53E+2	1.51E-2	6.12E+1
5.79E-2	4.23E+2	1.39E-2	3.81E+1
6.71E-2	5.17E+2	1.42E-2	9.53E+1
6.69E-2	4.74E+2	1.34E-2	4.39E+1
6.57E-2	4.54E+2	1.32E-2	2.96E+1
6.01E-2	4.64E+2	1.54E-2	8.14E+1
7.06E-2	5.06E+2	1.42E-2	7.70E+1
6.69E-2	5.17E+2	1.59E-2	1.04E+2
5.96E-2	4.30E+2	1.56E-2	1.01E+2
7.28E-2	4.70E+2	1.49E-2	7.18E+1
5.96E-2	4.85E+2	1.51E-2	9.88E+1
5.83E-2	4.00E+2	1.39E-2	6.85E+1
5.62E-3	7.18E+0	3.56E-2	2.54E+2
6.98E-2	5.18E+2	1.07E-2	8.21E+1
6.64E-2	4.53E+2	1.61E-2	9.30E+1
6.67E-2	4.80E+2	1.34E-2	4.38E+1
6.71E-2	4.64E+2	1.64E-2	4.24E+1
6.88E-2	5.20E+2	1.29E-2	9.26E+1
6.30E-2	4.59E+2	1.34E-2	6.63E+1
5.88E-2	4.59E+2	1.37E-2	5.99E+1
6.37E-2	4.75E+2	1.29E-2	8.78E+1
6.74E-2	5.01E+2	1.34E-2	7.98E+1
6.57E-2	4.49E+2	1.61E-2	7.76E+1
6.57E-2	4.40E+2	1.54E-2	7.90E+1
5.62E-2	4.13E+2	1.37E-2	9.78E+1
6.01E-2	4.45E+2	1.49E-2	9.93E+1
6.64E-2	4.92E+2	1.27E-2	6.63E+1
6.49E-2	4.50E+2	1.73E-2	7.20E+1
5.93E-2	4.37E+2	1.71E-2	7.01E+1
5.71E-2	4.33E+2	1.56E-2	6.67E+1
6.37E-2	4.45E+2	1.34E-2	8.95E+1
5.64E-2	4.59E+2	1.34E-2	1.23E+2
5.62E-2	4.15E+2	1.64E-2	5.10E+1
5.86E-2	4.60E+2	1.61E-2	6.47E+1
6.71E-2	4.90E+2	1.29E-2	1.02E+2
6.13E-2	4.40E+2	1.37E-2	1.07E+2
7.03E-2	4.97E+2	1.39E-2	1.25E+2
6.01E-2	4.91E+2	1.64E-2	9.25E+1
6.15E-2	4.83E+2	1.61E-2	6.60E+1
6.18E-2	4.43E+2	1.39E-2	5.54E+1
6.57E-2	4.35E+2	1.73E-2	6.92E+1
6.76E-2	4.79E+2	1.51E-2	9.04E+1
5.96E-2	4.49E+2	1.32E-2	7.46E+1
6.35E-2	4.48E+2	1.32E-2	9.91E+1
6.20E-2	4.82E+2	1.39E-2	1.26E+2
7.18E-2	5.00E+2	1.27E-2	1.12E+2
5.62E-2	4.21E+2	1.49E-2	9.36E+1
6.03E-2	4.68E+2	1.68E-2	1.29E+2
6.05E-2	4.33E+2	1.29E-2	8.34E+1
6.47E-2	4.89E+2	1.56E-2	7.20E+1
5.83E-2	4.12E+2	1.29E-2	4.60E+1
7.25E-2	4.94E+2	1.61E-2	5.97E+1
6.81E-2	5.51E+2	1.49E-2	9.36E+1
6.59E-3	2.34E+0	3.93E-2	2.52E+2
6.59E-2	4.74E+2	1.95E-2	1.11E+2
6.71E-2	5.21E+2	1.64E-2	8.97E+1
6.32E-2	4.93E+2	1.68E-2	7.78E+1
5.66E-2	4.52E+2	1.61E-2	9.92E+1
7.03E-2	4.72E+2	1.51E-2	9.79E+1
5.93E-2	4.27E+2	1.54E-2	1.09E+2
6.67E-2	4.76E+2	1.42E-2	9.84E+1
6.27E-2	4.41E+2	1.49E-2	9.53E+1
6.32E-2	4.97E+2	1.22E-2	9.73E+1
6.71E-2	4.61E+2	1.59E-2	8.31E+1
6.27E-2	4.62E+2	1.78E-2	9.22E+1
6.79E-2	5.05E+2	1.29E-2	6.92E+1
6.47E-2	4.88E+2	1.34E-2	5.67E+1
6.42E-2	4.64E+2	1.27E-2	7.76E+1
7.20E-2	5.12E+2	1.44E-2	1.20E+2
6.81E-2	5.17E+2	1.44E-2	6.76E+1
5.98E-2	4.58E+2	1.61E-2	1.17E+2
6.27E-2	5.02E+2	1.49E-2	7.85E+1
6.54E-2	4.92E+2	1.56E-2	1.52E+2
6.49E-2	4.56E+2	1.29E-2	6.39E+1
6.35E-2	4.64E+2	1.49E-2	1.02E+2
6.20E-2	3.98E+2	1.54E-2	4.94E+1
6.52E-2	4.64E+2	1.51E-2	5.02E+1
6.76E-2	4.96E+2	1.37E-2	5.40E+1
6.18E-2	4.45E+2	1.81E-2	7.08E+1
5.49E-2	4.40E+2	1.37E-2	5.77E+1
6.54E-2	4.77E+2	1.42E-2	7.09E+1
6.32E-2	4.90E+2	1.22E-2	1.29E+2
6.64E-2	5.08E+2	1.66E-2	1.01E+2
6.79E-2	5.43E+2	1.54E-2	1.24E+2
6.59E-2	5.08E+2	1.54E-2	5.71E+1
6.30E-2	4.69E+2	1.66E-2	1.32E+2
5.74E-2	4.32E+2	1.29E-2	8.82E+1
7.06E-2	4.83E+2	1.32E-2	4.64E+1
6.05E-2	4.16E+2	1.59E-2	6.54E+1
6.40E-2	4.89E+2	1.49E-2	7.33E+1
5.79E-2	4.22E+2	1.42E-2	7.65E+1
6.20E-2	4.68E+2	1.66E-2	9.97E+1
6.54E-2	4.94E+2	1.42E-2	9.78E+1
6.47E-2	5.15E+2	1.81E-2	7.37E+1
6.25E-2	4.55E+2	1.61E-2	9.09E+1
6.20E-2	4.24E+2	1.25E-2	5.51E+1
6.30E-2	4.42E+2	1.46E-2	6.29E+1
6.76E-2	5.10E+2	1.10E-2	5.72E+1
5.86E-2	4.31E+2	1.71E-2	1.27E+2
6.32E-2	4.35E+2	1.32E-2	7.44E+1
7.25E-2	4.75E+2	1.29E-2	7.43E+1
6.32E-2	4.87E+2	1.56E-2	3.30E+1
6.69E-2	4.76E+2	1.66E-2	5.73E+1
6.01E-2	4.92E+2	1.39E-2	7.06E+1
6.93E-2	5.18E+2	1.10E-2	7.03E+1
6.20E-2	4.88E+2	1.49E-2	6.73E+1
6.76E-2	5.23E+2	1.51E-2	5.54E+1
6.32E-2	4.96E+2	1.86E-2	9.79E+1
6.74E-2	4.32E+2	1.39E-2	9.25E+1
6.98E-2	4.05E+2	1.61E-2	8.23E+1
6.10E-2	4.65E+2	1.56E-2	8.48E+1
6.45E-2	4.18E+2	1.64E-2	6.94E+1
6.91E-2	5.06E+2	1.68E-2	8.58E+1
6.08E-2	4.13E+2	1.44E-2	3.91E+1
6.76E-2	4.87E+2	1.39E-2	6.06E+1
6.71E-2	5.03E+2	1.44E-2	5.94E+1
6.18E-2	4.97E+2	1.56E-2	6.17E+1
7.01E-2	5.10E+2	1.68E-2	4.82E+1
6.13E-2	4.68E+2	1.20E-2	1.12E+2
6.52E-2	4.98E+2	1.64E-2	1.03E+2
6.32E-2	4.61E+2	1.37E-2	8.24E+1
6.42E-2	5.00E+2	1.46E-2	7.80E+1
6.10E-2	4.31E+2	1.46E-2	1.04E+2
6.01E-2	4.27E+2	1.86E-2	7.73E+1
6.20E-2	4.46E+2	1.56E-2	3.36E+1
6.79E-2	4.80E+2	1.46E-2	7.78E+1
6.42E-2	4.10E+2	1.49E-2	5.09E+1
5.93E-2	4.35E+2	1.39E-2	6.54E+1
6.15E-2	4.78E+2	1.56E-2	6.77E+1
6.15E-2	4.76E+2	1.27E-2	3.80E+1
6.27E-2	4.89E+2	1.37E-2	1.35E+2
6.64E-2	4.73E+2	1.29E-2	8.15E+1
6.42E-2	4.85E+2	1.42E-2	1.05E+2
6.03E-2	4.60E+2	1.46E-2	1.04E+2
5.88E-2	4.85E+2	1.39E-2	1.07E+2
6.47E-2	4.86E+2	1.37E-2	1.30E+2
6.08E-2	4.14E+2	1.46E-2	7.70E+1
6.59E-2	4.58E+2	1.37E-2	6.72E+1
6.40E-2	4.48E+2	1.39E-2	7.09E+1
6.45E-2	4.60E+2	1.61E-2	7.59E+1
6.47E-2	5.08E+2	1.32E-2	6.88E+1
7.18E-2	5.07E+2	1.59E-2	7.76E+1
6.40E-2	4.74E+2	1.42E-2	5.06E+1
6.76E-2	4.91E+2	1.56E-2	6.77E+1
6.03E-2	4.67E+2	1.34E-2	8.47E+1
6.25E-2	4.57E+2	1.44E-2	1.13E+2
6.47E-2	4.58E+2	1.37E-2	1.07E+2
6.69E-2	4.49E+2	1.64E-2	7.47E+1
6.45E-2	4.33E+2	1.59E-2	8.24E+1
6.86E-2	5.17E+2	1.66E-2	1.20E+2
6.10E-2	4.51E+2	1.46E-2	4.85E+1
6.45E-2	4.76E+2	1.54E-2	8.62E+1
6.37E-2	4.63E+2	1.61E-2	6.03E+1
6.08E-2	4.64E+2	1.46E-2	7.68E+1
6.42E-2	4.62E+2	1.39E-2	7.22E+1
6.01E-2	4.75E+2	1.22E-2	1.16E+2
6.67E-2	4.81E+2	1.32E-2	2.11E+1
7.10E-2	5.08E+2	1.66E-2	5.84E+1
6.27E-2	4.63E+2	1.51E-2	9.03E+1
6.08E-2	4.17E+2	1.49E-2	9.03E+1
6.47E-2	4.52E+2	1.44E-2	1.03E+2
6.20E-2	4.57E+2	1.07E-2	7.43E+1
6.37E-2	4.48E+2	1.27E-2	6.31E+1
6.79E-2	4.61E+2	1.25E-2	3.01E+1
6.27E-2	4.31E+2	1.39E-2	6.29E+1
6.27E-2	4.42E+2	1.49E-2	2.16E+1
6.71E-2	5.01E+2	1.66E-2	6.29E+1
7.03E-2	5.56E+2	1.12E-2	1.29E+2
5.79E-2	4.20E+2	1.90E-2	1.20E+2
6.71E-2	5.07E+2	1.44E-2	1.07E+2
6.20E-2	4.89E+2	1.64E-2	1.10E+2
6.10E-2	5.02E+2	1.56E-2	1.50E+2
6.57E-2	4.97E+2	1.37E-2	1.01E+2
6.13E-2	4.44E+2	1.59E-2	9.65E+1
6.01E-2	4.59E+2	1.22E-2	5.47E+1
5.98E-2	4.57E+2	1.61E-2	8.76E+1
6.37E-2	5.01E+2	1.42E-2	8.35E+1
6.37E-2	4.91E+2	1.34E-2	8.71E+1
6.62E-2	4.79E+2	1.54E-2	1.11E+2
6.76E-2	4.94E+2	1.34E-2	5.93E+1
6.37E-2	4.79E+2	1.56E-2	1.04E+2
6.62E-2	4.37E+2	1.46E-2	8.05E+1
7.15E-2	4.91E+2	1.49E-2	8.75E+1
6.49E-2	4.72E+2	1.76E-2	9.53E+1
6.88E-2	5.10E+2	1.32E-2	9.48E+1
6.64E-2	4.57E+2	1.46E-2	9.04E+1
5.98E-2	4.66E+2	1.39E-2	1.34E+2
6.45E-2	4.77E+2	1.56E-2	8.96E+1
6.15E-2	4.92E+2	1.25E-2	7.39E+1
6.98E-2	5.09E+2	1.42E-2	4.46E+1
6.57E-2	5.18E+2	1.42E-2	6.61E+1
6.64E-2	4.89E+2	1.44E-2	7.53E+1
6.40E-2	4.57E+2	1.73E-2	7.77E+1
6.20E-2	5.09E+2	1.27E-2	7.74E+1
6.27E-2	4.70E+2	1.05E-2	8.01E+1
6.74E-2	5.10E+2	1.27E-2	9.14E+1
6.84E-2	4.51E+2	1.32E-2	7.87E+1
6.42E-2	4.66E+2	1.51E-2	9.04E+1
6.45E-2	4.42E+2	1.49E-2	7.07E+1
6.10E-2	4.25E+2	1.44E-2	1.25E+2
6.74E-2	4.95E+2	1.32E-2	7.50E+1
6.47E-2	4.76E+2	1.37E-2	7.17E+1
7.08E-2	5.04E+2	1.83E-2	6.39E+1
6.18E-2	4.71E+2	1.64E-2	9.48E+1
5.64E-2	4.22E+2	1.46E-2	7.86E+1
6.10E-2	4.64E+2	1.51E-2	7.67E+1
6.76E-2	4.49E+2	1.32E-2	-5.32E+0
6.13E-2	4.60E+2	1.56E-2	8.71E+1
6.76E-2	4.70E+2	1.42E-2	5.47E+1
6.40E-2	5.02E+2	1.34E-2	8.64E+1
6.57E-2	4.63E+2	1.37E-2	9.53E+1
6.10E-2	4.56E+2	1.34E-2	8.09E+1
5.83E-2	4.31E+2	1.32E-2	4.64E+1
5.83E-2	3.99E+2	1.66E-2	1.42E+1
6.05E-2	4.11E+2	1.15E-2	5.02E+1
6.30E-2	4.41E+2	1.46E-2	7.89E+1
6.52E-2	4.63E+2	1.64E-2	9.36E+1
6.01E-2	4.86E+2	1.42E-2	9.30E+1
5.96E-2	4.67E+2	1.46E-2	3.70E+1
6.15E-2	4.88E+2	1.51E-2	9.42E+1
6.47E-2	5.02E+2	1.68E-2	1.33E+2
6.35E-2	5.36E+2	1.71E-2	9.76E+1
6.03E-2	4.55E+2	1.39E-2	1.01E+2
7.10E-2	4.94E+2	1.64E-2	4.67E+1
6.27E-2	4.49E+2	1.49E-2	1.10E+2
7.06E-2	4.93E+2	1.34E-2	5.85E+1
6.91E-2	4.96E+2	1.42E-2	6.25E+1
6.59E-2	4.75E+2	1.71E-2	6.74E+1
6.01E-2	4.36E+2	1.46E-2	7.20E+1
6.35E-2	4.77E+2	1.66E-2	7.37E+1
7.18E-2	4.84E+2	1.29E-2	5.29E+1
6.67E-2	4.87E+2	1.32E-2	1.21E+2
6.08E-2	4.43E+2	1.42E-2	7.54E+1
6.98E-2	4.50E+2	1.59E-2	7.36E+1
6.10E-2	4.23E+2	1.49E-2	7.49E+1
6.59E-2	5.05E+2	1.32E-2	9.10E+1
6.76E-2	4.62E+2	1.66E-2	7.93E+1
6.20E-2	4.30E+2	1.54E-2	6.67E+1
6.86E-2	4.35E+2	1.51E-2	6.71E+1
6.35E-2	4.77E+2	1.25E-2	6.55E+1
6.27E-2	4.71E+2	1.22E-2	3.82E+1
6.42E-2	5.15E+2	1.44E-2	5.80E+1
6.84E-2	5.05E+2	1.17E-2	9.06E+1
7.15E-2	5.18E+2	1.61E-2	5.66E+1
6.47E-2	4.59E+2	1.34E-2	8.94E+1
6.52E-2	4.83E+2	1.37E-2	8.43E+1
6.20E-2	4.53E+2	1.37E-2	8.07E+1
6.57E-2	4.43E+2	1.34E-2	7.10E+1
6.40E-2	4.30E+2	1.61E-2	8.02E+1
6.30E-2	4.51E+2	1.64E-2	8.59E+1
6.74E-2	4.63E+2	1.68E-2	5.37E+1
6.08E-2	4.66E+2	1.34E-2	7.14E+1
6.20E-2	4.56E+2	1.20E-2	4.85E+1
5.79E-2	4.47E+2	1.39E-2	5.78E+1
6.76E-2	4.82E+2	1.68E-2	5.86E+1
5.81E-2	4.52E+2	1.51E-2	6.27E+1
6.52E-2	4.56E+2	1.15E-2	1.04E+2
6.25E-2	4.37E+2	1.27E-2	6.42E+1
6.52E-2	4.25E+2	1.05E-2	4.03E+1
6.47E-2	4.94E+2	1.68E-2	1.38E+2
6.59E-2	4.90E+2	1.78E-2	1.18E+2
6.98E-2	4.73E+2	1.39E-2	6.61E+1
7.50E-2	5.51E+2	1.32E-2	3.53E+1
6.79E-2	5.31E+2	1.66E-2	9.44E+1
6.05E-2	4.52E+2	1.46E-2	7.66E+1
6.10E-2	4.72E+2	1.59E-2	6.77E+1
6.13E-2	4.83E+2	1.12E-2	4.65E+1
6.96E-2	4.53E+2	1.49E-2	7.71E+1
5.88E-2	4.62E+2	1.17E-2	9.65E+1
6.45E-2	4.27E+2	1.27E-2	7.73E+1
6.30E-2	4.63E+2	1.46E-2	1.01E+2
6.52E-2	4.51E+2	1.25E-2	5.51E+1
6.37E-2	4.60E+2	1.34E-2	7.14E+1
6.57E-2	4.64E+2	1.49E-2	4.30E+1
6.69E-2	4.50E+2	1.44E-2	6.06E+1
6.81E-2	4.75E+2	1.32E-2	5.49E+1
6.69E-2	4.48E+2	1.68E-2	7.15E+1
6.52E-2	5.17E+2	1.68E-2	7.30E+1
6.64E-2	4.83E+2	1.29E-2	1.24E+1
6.05E-2	4.55E+2	1.51E-2	8.49E+1
6.32E-2	5.07E+2	1.56E-2	1.54E+2
6.49E-2	5.15E+2	1.51E-2	1.22E+2
6.03E-2	4.51E+2	1.29E-2	7.72E+1
6.45E-2	5.19E+2	1.32E-2	9.55E+1
5.76E-2	4.17E+2	1.49E-2	4.91E+1
6.64E-2	4.66E+2	1.61E-2	7.73E+1
6.86E-2	5.36E+2	1.64E-2	7.94E+1
6.15E-2	4.30E+2	1.32E-2	3.49E+1
6.08E-2	4.77E+2	1.54E-2	1.04E+2
6.47E-2	5.15E+2	1.42E-2	1.10E+2
6.23E-2	4.92E+2	1.22E-2	4.69E+1
6.18E-2	5.10E+2	1.54E-2	9.67E+1
7.01E-2	4.54E+2	1.49E-2	6.78E+1
6.45E-2	4.69E+2	1.54E-2	1.08E+2
6.62E-2	4.31E+2	1.44E-2	5.88E+1
6.05E-2	4.71E+2	1.49E-2	1.01E+2
6.45E-2	4.21E+2	1.51E-2	6.67E+1
6.30E-2	4.42E+2	1.37E-2	7.54E+1
6.59E-2	4.97E+2	1.81E-2	9.13E+1
6.54E-2	4.83E+2	1.49E-2	6.67E+1
6.47E-2	5.02E+2	1.81E-2	1.10E+2
7.03E-2	4.60E+2	1.27E-2	3.68E+1
6.27E-2	4.78E+2	1.56E-2	1.08E+2
6.57E-2	4.64E+2	1.25E-2	6.43E+1
6.15E-2	5.22E+2	1.46E-2	1.22E+2
6.37E-2	5.15E+2	1.37E-2	1.02E+2
6.08E-2	5.00E+2	1.56E-2	1.50E+2
5.62E-3	-3.91E-1	3.59E-2	2.72E+2
6.76E-2	4.92E+2	1.46E-2	9.83E+1
6.37E-2	4.98E+2	1.27E-2	7.05E+1
5.98E-2	4.69E+2	1.54E-2	8.07E+1
6.59E-2	5.19E+2	1.39E-2	9.17E+1
6.37E-2	4.68E+2	1.64E-2	1.06E+2
6.03E-2	4.35E+2	1.34E-2	7.14E+1
6.49E-2	5.13E+2	1.66E-2	1.39E+2
7.15E-2	4.89E+2	1.37E-2	9.54E+1
6.57E-2	4.88E+2	1.49E-2	1.00E+2
6.59E-2	4.75E+2	1.56E-2	1.00E+2
6.69E-2	5.10E+2	1.39E-2	1.19E+2
6.08E-2	4.72E+2	1.49E-2	1.22E+2
6.59E-2	4.54E+2	1.46E-2	6.23E+1
5.54E-2	4.39E+2	1.66E-2	9.52E+1
7.25E-2	5.36E+2	1.61E-2	7.88E+1
6.45E-2	4.94E+2	1.54E-2	7.85E+1
6.76E-2	5.27E+2	1.51E-2	9.75E+1
6.30E-2	4.46E+2	1.56E-2	4.41E+1
6.79E-2	5.15E+2	1.95E-2	1.18E+2
6.86E-2	5.22E+2	1.49E-2	7.93E+1
6.54E-2	4.87E+2	1.51E-2	6.14E+1
6.23E-2	4.71E+2	1.54E-2	1.09E+2
5.86E-2	4.54E+2	1.71E-2	9.03E+1
6.30E-2	4.58E+2	1.44E-2	1.11E+2
6.23E-2	4.53E+2	1.39E-2	1.15E+2
6.79E-2	4.84E+2	1.54E-2	8.33E+1
6.27E-2	4.69E+2	1.22E-2	7.43E+1
6.08E-2	4.32E+2	1.37E-2	7.71E+1
6.93E-2	5.59E+2	1.20E-2	8.64E+1
6.69E-2	4.98E+2	1.20E-2	5.52E+1
6.27E-2	4.77E+2	1.15E-2	8.88E+1
6.37E-2	4.33E+2	1.46E-2	3.42E+1
5.81E-2	4.94E+2	1.34E-2	9.19E+1
6.10E-2	4.70E+2	1.61E-2	1.37E+2
6.37E-2	5.00E+2	1.51E-2	1.17E+2
6.42E-2	4.29E+2	1.34E-2	7.70E+1
5.62E-2	4.26E+2	1.54E-2	1.01E+2
6.35E-2	4.62E+2	1.39E-2	5.26E+1
5.86E-2	3.93E+2	1.54E-2	5.78E+1
6.45E-2	4.13E+2	1.46E-2	5.28E+1
6.57E-2	4.77E+2	1.22E-2	7.40E+1
6.62E-2	4.89E+2	1.68E-2	7.85E+1
6.18E-2	4.68E+2	1.64E-2	8.15E+1
6.54E-2	4.93E+2	1.39E-2	6.74E+1
5.83E-2	4.41E+2	1.59E-2	1.06E+2
6.47E-2	4.44E+2	1.32E-2	6.37E+1
6.08E-2	4.18E+2	1.59E-2	8.81E+1
6.62E-2	5.36E+2	1.34E-2	1.01E+2
6.62E-2	4.46E+2	1.46E-2	8.98E+1
6.98E-2	4.89E+2	1.86E-2	1.07E+2
6.40E-2	4.82E+2	1.51E-2	5.84E+1
6.35E-2	4.95E+2	1.39E-2	5.53E+1
6.27E-2	4.74E+2	1.46E-2	6.72E+1
6.20E-2	4.77E+2	1.49E-2	4.52E+1
7.03E-2	4.99E+2	1.42E-2	9.19E+1
6.91E-2	4.90E+2	1.49E-2	6.80E+1
6.01E-2	4.71E+2	1.46E-2	7.43E+1
6.47E-2	4.93E+2	1.34E-2	8.75E+1
6.13E-2	4.45E+2	1.37E-2	9.49E+1
7.37E-2	5.22E+2	1.42E-2	8.02E+1
6.64E-2	4.67E+2	1.56E-2	1.05E+2
5.25E-2	4.01E+2	1.37E-2	8.30E+1
6.93E-2	5.32E+2	1.51E-2	1.04E+2
7.20E-2	4.98E+2	1.71E-2	8.69E+1
5.91E-2	4.43E+2	1.61E-2	7.89E+1
5.96E-2	4.82E+2	1.20E-2	5.33E+1
5.86E-2	4.67E+2	1.25E-2	1.20E+2
6.01E-2	4.59E+2	1.29E-2	1.02E+2
6.96E-2	5.29E+2	1.34E-2	1.11E+2
5.86E-2	4.57E+2	1.49E-2	1.28E+2
6.20E-2	4.79E+2	1.15E-2	7.47E+1
6.59E-2	4.65E+2	1.32E-2	6.06E+1
6.37E-2	4.50E+2	1.78E-2	1.05E+2
6.25E-2	4.72E+2	1.66E-2	1.03E+2
6.93E-2	4.73E+2	1.68E-2	6.23E+1
6.93E-2	4.69E+2	1.42E-2	2.30E+1
6.49E-2	4.77E+2	1.29E-2	4.98E+1
6.23E-2	3.95E+2	1.37E-2	1.88E+1
6.84E-2	5.09E+2	1.34E-2	9.46E+1
6.47E-2	4.69E+2	1.44E-2	8.84E+1
7.01E-2	5.44E+2	1.37E-2	6.17E+1
6.23E-2	4.79E+2	1.49E-2	1.07E+2
7.08E-2	4.87E+2	1.64E-2	1.02E+2
6.74E-2	5.18E+2	1.61E-2	1.53E+2
6.69E-2	4.86E+2	1.42E-2	1.10E+2
5.62E-2	3.79E+2	1.29E-2	7.24E+1
6.79E-2	4.90E+2	1.32E-2	9.17E+1
6.37E-2	4.51E+2	1.49E-2	1.02E+2
6.69E-2	4.98E+2	1.61E-2	6.43E+1
6.37E-2	4.43E+2	1.42E-2	6.78E+1
6.86E-2	4.79E+2	1.54E-2	7.48E+1
6.20E-2	5.10E+2	1.49E-2	1.29E+2
6.52E-2	4.54E+2	1.32E-2	6.41E+1
6.25E-2	4.80E+2	1.68E-2	1.01E+2
6.40E-2	4.84E+2	1.42E-2	1.19E+2
6.59E-2	4.75E+2	1.25E-2	8.54E+1
6.32E-2	4.36E+2	1.56E-2	8.52E+1
6.10E-2	4.27E+2	1.37E-2	4.83E+1
6.64E-2	4.68E+2	1.59E-2	7.08E+1
6.91E-2	5.19E+2	1.10E-2	7.24E+1
6.59E-2	4.61E+2	1.71E-2	6.50E+1
6.84E-2	4.97E+2	1.46E-2	6.60E+1
5.96E-2	5.02E+2	1.25E-2	7.83E+1
6.37E-2	4.18E+2	1.39E-2	1.07E+2
7.03E-2	5.35E+2	1.03E-2	1.00E+2
6.13E-2	4.59E+2	1.46E-2	7.63E+1
6.25E-2	4.87E+2	1.51E-2	1.24E+2
6.42E-2	4.65E+2	1.59E-2	1.29E+2
6.10E-2	4.30E+2	1.27E-2	8.55E+1
7.15E-2	4.98E+2	1.44E-2	8.63E+1
6.45E-2	4.57E+2	1.32E-2	8.25E+1
6.57E-2	4.74E+2	1.46E-2	5.86E+1
6.03E-2	4.57E+2	1.61E-2	4.48E+1
7.10E-2	4.91E+2	1.34E-2	4.49E+1
6.67E-2	4.86E+2	1.34E-2	8.07E+1
6.25E-2	4.49E+2	1.59E-2	4.83E+1
6.01E-2	4.66E+2	1.34E-2	6.70E+1
6.57E-2	4.69E+2	1.64E-2	9.22E+1
6.01E-2	4.72E+2	1.22E-2	1.00E+2
6.96E-2	4.80E+2	1.42E-2	9.19E+1
6.54E-2	4.45E+2	1.51E-2	7.56E+1
6.81E-2	4.35E+2	1.54E-2	5.51E+1
6.08E-2	4.18E+2	1.73E-2	8.74E+1
6.20E-2	4.92E+2	1.34E-2	8.96E+1
6.96E-2	5.11E+2	1.49E-2	7.29E+1
6.81E-2	5.44E+2	1.00E-2	7.93E+1
6.30E-2	4.47E+2	1.46E-2	6.09E+1
7.20E-2	5.14E+2	1.61E-2	7.27E+1
6.30E-2	4.91E+2	1.64E-2	7.18E+1
6.57E-2	4.83E+2	1.59E-2	7.17E+1
6.18E-2	4.49E+2	1.42E-2	7.47E+1
6.47E-2	5.05E+2	1.51E-2	1.21E+2
6.05E-2	5.04E+2	1.56E-2	1.15E+2
6.08E-2	4.70E+2	1.49E-2	8.02E+1
6.76E-2	4.76E+2	1.51E-2	6.64E+1
6.42E-2	4.96E+2	1.54E-2	7.32E+1
6.79E-2	4.67E+2	1.32E-2	7.27E+1
6.27E-2	4.66E+2	1.37E-2	6.95E+1
6.62E-2	4.76E+2	1.54E-2	6.91E+1
5.86E-2	4.57E+2	1.37E-2	6.11E+1
6.03E-2	4.75E+2	1.42E-2	6.74E+1
6.57E-2	4.59E+2	1.44E-2	5.95E+1
6.25E-2	4.91E+2	1.44E-2	1.06E+2
6.08E-2	4.59E+2	1.64E-2	1.41E+2
7.03E-2	5.18E+2	1.56E-2	1.15E+2
6.30E-2	4.26E+2	1.73E-2	1.08E+2
5.69E-2	4.40E+2	1.83E-2	1.05E+2
6.84E-2	4.89E+2	1.59E-2	5.09E+1
7.03E-2	5.30E+2	1.05E-2	5.86E+1
6.59E-2	5.00E+2	1.44E-2	6.57E+1
5.88E-2	4.40E+2	1.73E-2	8.25E+1
5.96E-2	4.41E+2	1.68E-2	6.46E+1
6.05E-2	4.89E+2	1.54E-2	1.26E+2
6.52E-2	4.83E+2	1.51E-2	7.46E+1
6.57E-2	5.12E+2	1.68E-2	1.10E+2
6.86E-2	4.74E+2	1.15E-2	1.04E+2
5.93E-2	4.47E+2	1.37E-2	1.31E+2
6.15E-2	4.33E+2	1.49E-2	9.01E+1
6.59E-2	4.74E+2	1.46E-2	5.94E+1
6.32E-2	4.45E+2	1.46E-2	2.46E+1
6.42E-2	4.35E+2	1.32E-2	1.01E+2
6.35E-2	4.36E+2	1.59E-2	7.22E+1
6.32E-2	4.72E+2	1.44E-2	6.55E+1
6.67E-2	4.89E+2	1.27E-2	5.65E+1
5.79E-2	4.33E+2	1.56E-2	8.63E+1
6.91E-2	5.00E+2	1.42E-2	1.30E+2
6.25E-2	5.11E+2	1.32E-2	1.35E+2
6.59E-2	4.98E+2	1.54E-2	9.39E+1
6.20E-2	5.02E+2	1.39E-2	1.56E+2
7.20E-2	4.84E+2	1.44E-2	8.50E+1
6.49E-2	4.35E+2	1.66E-2	1.01E+2
6.45E-2	4.66E+2	1.15E-2	3.73E+1
6.27E-2	4.79E+2	1.39E-2	6.87E+1
5.96E-2	4.13E+2	1.34E-2	7.41E+1
7.06E-2	5.10E+2	1.68E-2	8.08E+1
6.27E-2	4.86E+2	1.46E-2	4.95E+1
6.27E-2	4.88E+2	1.44E-2	8.45E+1
5.98E-2	4.94E+2	1.39E-2	7.29E+1
6.35E-2	4.67E+2	1.49E-2	9.17E+1
7.42E-2	4.48E+2	1.49E-2	5.98E+1
6.18E-2	4.44E+2	1.25E-2	8.95E+1
6.49E-2	4.41E+2	1.76E-2	1.27E+2
6.32E-2	4.79E+2	1.66E-2	1.55E+2
6.71E-2	4.71E+2	1.32E-2	6.30E+1
6.69E-2	4.72E+2	1.56E-2	9.39E+1
6.62E-2	4.62E+2	1.61E-2	8.88E+1
5.83E-2	4.92E+2	1.42E-2	1.10E+2
6.93E-2	4.93E+2	1.66E-2	7.45E+1
6.30E-2	4.66E+2	1.37E-2	5.24E+1
6.52E-2	4.88E+2	1.66E-2	5.23E+1
6.57E-2	5.06E+2	1.34E-2	7.28E+1
6.05E-2	5.01E+2	1.34E-2	7.34E+1
6.30E-2	4.56E+2	1.25E-2	1.37E+2
6.10E-2	4.67E+2	1.32E-2	8.92E+1
6.54E-2	4.51E+2	1.49E-2	5.72E+1
6.52E-2	4.68E+2	1.56E-2	1.16E+2
6.76E-2	4.70E+2	1.59E-2	1.11E+2
6.76E-2	4.85E+2	2.08E-2	6.13E+1
6.03E-2	4.61E+2	1.59E-2	9.94E+1
5.96E-2	4.70E+2	1.15E-2	4.54E+1
6.42E-2	4.63E+2	1.59E-2	6.09E+1
6.67E-2	5.02E+2	1.46E-2	1.17E+2
6.25E-2	4.74E+2	1.54E-2	1.14E+2
6.62E-2	5.12E+2	1.76E-2	1.45E+2
6.30E-2	4.87E+2	1.29E-2	1.18E+2
6.35E-2	5.08E+2	1.42E-2	8.85E+1
6.76E-2	5.60E+2	1.49E-2	1.51E+2
6.59E-2	4.29E+2	1.37E-2	5.49E+1
6.91E-2	4.58E+2	1.49E-2	7.70E+1
6.18E-2	4.53E+2	1.34E-2	7.89E+1
6.42E-2	4.32E+2	1.54E-2	5.40E+1
6.03E-2	4.47E+2	1.46E-2	4.02E+1
6.32E-2	4.59E+2	1.44E-2	5.42E+1
6.32E-2	5.15E+2	1.37E-2	8.02E+1
6.64E-2	4.26E+2	1.66E-2	6.80E+1
6.40E-2	5.04E+2	1.44E-2	1.00E+2
6.45E-2	4.80E+2	1.27E-2	1.01E+2
6.81E-2	4.60E+2	1.42E-2	1.00E+2
7.15E-2	4.85E+2	1.44E-2	5.11E+1
6.57E-2	4.46E+2	1.49E-2	6.67E+1
6.47E-2	4.57E+2	1.66E-2	8.84E+1
6.13E-2	4.62E+2	1.54E-2	1.14E+2
6.52E-2	4.39E+2	1.51E-2	7.05E+1
5.91E-2	4.53E+2	1.59E-2	6.78E+1
6.42E-2	4.69E+2	1.51E-2	9.91E+1
5.98E-2	4.22E+2	1.66E-2	9.36E+1
6.62E-2	4.93E+2	1.54E-2	6.97E+1
6.35E-2	5.13E+2	1.22E-2	1.36E+2
7.13E-2	5.27E+2	1.59E-2	1.12E+2
6.37E-2	5.01E+2	1.39E-2	6.85E+1
6.47E-2	4.79E+2	1.54E-2	1.10E+2
6.71E-2	4.87E+2	1.56E-2	8.66E+1
6.93E-2	4.75E+2	1.25E-2	6.21E+1
6.40E-2	4.94E+2	1.42E-2	8.35E+1
6.45E-2	4.38E+2	1.25E-2	3.58E+1
6.40E-2	4.62E+2	1.54E-2	8.93E+1
6.37E-2	4.82E+2	1.39E-2	4.63E+1
6.42E-2	5.24E+2	1.71E-2	8.61E+1
5.98E-2	4.03E+2	1.39E-2	7.08E+1
6.23E-2	5.05E+2	1.51E-2	8.81E+1
6.32E-2	4.83E+2	1.66E-2	1.08E+2
6.93E-2	4.84E+2	1.49E-2	1.01E+2
6.30E-2	4.72E+2	1.56E-2	9.58E+1
6.86E-2	4.92E+2	1.56E-2	1.24E+2
6.67E-2	4.59E+2	1.25E-2	7.05E+1
6.54E-2	5.01E+2	1.61E-2	9.61E+1
6.25E-2	4.03E+2	1.29E-2	6.96E+1
6.01E-2	4.33E+2	1.27E-2	4.31E+1
6.47E-2	4.83E+2	1.51E-2	6.05E+1
6.25E-2	4.53E+2	1.34E-2	4.63E+1
6.98E-2	4.96E+2	1.46E-2	7.29E+1
6.08E-2	4.46E+2	1.42E-2	3.69E+1
5.96E-2	4.01E+2	1.34E-2	5.22E+1
6.37E-2	4.66E+2	1.39E-2	1.07E+2
6.52E-2	4.52E+2	1.54E-2	8.08E+1
7.03E-2	4.92E+2	1.66E-2	7.97E+1
6.71E-2	4.37E+2	1.17E-2	2.33E+1
5.79E-2	4.48E+2	1.64E-2	1.42E+2
6.47E-2	4.38E+2	1.42E-2	1.05E+2
6.57E-2	4.33E+2	1.42E-2	4.88E+1
6.01E-2	4.71E+2	1.86E-2	1.08E+2
6.15E-2	4.78E+2	1.54E-2	1.03E+2
6.15E-2	4.62E+2	1.49E-2	1.26E+2
6.32E-2	4.85E+2	1.39E-2	1.03E+2
6.27E-2	4.88E+2	1.20E-2	8.95E+1
6.45E-2	5.10E+2	1.25E-2	8.59E+1
6.79E-2	4.94E+2	1.46E-2	1.05E+2
6.18E-2	4.44E+2	1.66E-2	1.14E+2
6.27E-2	4.24E+2	1.42E-2	5.53E+1
6.47E-2	4.71E+2	1.56E-2	7.02E+1
6.45E-2	5.07E+2	1.27E-2	7.72E+1
6.30E-2	4.96E+2	1.39E-2	7.45E+1
6.96E-2	5.10E+2	1.20E-2	5.19E+1
6.52E-2	5.04E+2	1.59E-2	6.07E+1
6.45E-2	4.88E+2	1.32E-2	8.01E+1
5.71E-2	4.73E+2	1.64E-2	1.28E+2
6.18E-2	4.19E+2	1.44E-2	5.07E+1
6.30E-2	4.34E+2	1.83E-2	1.11E+2
6.49E-2	4.85E+2	1.54E-2	1.23E+2
6.64E-2	5.05E+2	1.59E-2	1.07E+2
6.42E-2	4.90E+2	1.66E-2	9.88E+1
6.47E-2	4.53E+2	1.44E-2	1.17E+2
6.59E-2	4.26E+2	1.73E-2	7.29E+1
6.40E-2	4.53E+2	1.44E-2	7.96E+1
6.45E-2	4.89E+2	1.34E-2	5.84E+1
6.96E-2	4.99E+2	1.42E-2	1.08E+2
6.37E-2	4.53E+2	1.76E-2	1.12E+2
6.57E-2	4.96E+2	1.39E-2	4.88E+1
6.54E-2	4.83E+2	1.71E-2	6.21E+1
6.23E-2	4.69E+2	1.54E-2	1.45E+2
5.64E-2	4.40E+2	1.34E-2	9.17E+1
6.76E-2	4.62E+2	1.54E-2	4.12E+1
6.67E-2	4.69E+2	1.17E-2	1.08E+2
6.74E-2	4.84E+2	1.51E-2	5.24E+1
6.59E-2	4.63E+2	1.37E-2	6.45E+1
6.25E-2	4.33E+2	1.68E-2	8.17E+1
6.37E-2	4.47E+2	1.54E-2	8.85E+1
6.64E-2	5.11E+2	1.66E-2	8.11E+1
6.67E-2	4.72E+2	1.39E-2	4.99E+1
6.45E-2	4.74E+2	1.37E-2	9.88E+1
6.49E-2	4.79E+2	1.73E-2	1.21E+2
6.93E-2	5.29E+2	1.44E-2	1.11E+2
6.62E-2	5.33E+2	1.61E-2	1.16E+2
6.08E-2	4.68E+2	1.39E-2	1.13E+2
6.10E-2	3.98E+2	1.37E-2	8.44E+1
6.57E-2	4.66E+2	1.78E-2	9.76E+1
6.30E-2	4.60E+2	1.49E-2	7.11E+1
6.47E-2	4.68E+2	1.71E-2	7.15E+1
6.40E-2	4.57E+2	1.49E-2	5.46E+1
6.69E-2	4.73E+2	1.51E-2	9.82E+1
7.15E-2	5.27E+2	1.46E-2	7.71E+1
6.57E-2	4.24E+2	1.44E-2	4.72E+1
6.25E-2	4.58E+2	1.64E-2	9.30E+1
5.81E-2	4.31E+2	1.34E-2	8.70E+1
6.18E-2	4.69E+2	1.46E-2	9.05E+1
6.40E-2	4.56E+2	1.37E-2	1.08E+2
6.10E-2	4.62E+2	1.42E-2	6.37E+1
7.15E-2	4.69E+2	1.25E-2	7.61E+1
6.27E-2	4.50E+2	1.44E-2	1.13E+2
6.23E-2	3.75E+2	1.56E-2	7.29E+1
6.18E-2	4.42E+2	1.51E-2	5.14E+1
6.27E-2	4.35E+2	1.20E-2	4.80E+1
6.86E-2	5.33E+2	1.49E-2	6.62E+1
7.06E-2	5.10E+2	1.29E-2	9.72E+1
6.74E-2	4.85E+2	1.49E-2	9.14E+1
6.54E-2	4.93E+2	1.66E-2	8.25E+1
6.71E-2	4.85E+2	1.49E-2	7.99E+1
6.05E-2	4.63E+2	1.32E-2	1.08E+2
6.74E-2	4.73E+2	1.54E-2	9.94E+1
5.96E-2	4.33E+2	1.15E-2	5.97E+1
6.42E-2	4.74E+2	1.22E-2	3.25E+1
6.32E-2	4.74E+2	1.34E-2	8.31E+1
6.47E-2	4.84E+2	1.56E-2	4.89E+1
6.40E-2	4.57E+2	1.32E-2	8.16E+1
5.91E-2	4.30E+2	1.76E-2	9.35E+1
6.27E-2	4.50E+2	1.59E-2	8.23E+1
5.86E-2	4.58E+2	1.34E-2	6.68E+1
6.25E-2	5.29E+2	1.25E-2	1.35E+2
6.27E-2	4.67E+2	1.51E-2	6.07E+1
7.03E-2	4.75E+2	1.17E-2	8.21E+1
6.32E-2	4.52E+2	1.51E-2	9.79E+1
6.52E-2	4.92E+2	1.42E-2	8.82E+1
6.03E-2	4.59E+2	1.34E-2	1.12E+2
5.98E-2	4.40E+2	1.34E-2	7.36E+1
6.62E-2	5.00E+2	1.42E-2	7.38E+1
6.25E-2	4.95E+2	1.20E-2	3.96E+1
6.30E-2	4.50E+2	1.44E-2	7.95E+1
6.03E-2	4.44E+2	1.71E-2	1.12E+2
6.64E-2	4.90E+2	1.71E-2	9.54E+1
6.32E-2	4.14E+2	1.86E-2	9.02E+1
6.20E-2	4.48E+2	1.42E-2	1.08E+2
6.49E-2	4.14E+2	1.56E-2	7.68E+1
6.35E-2	4.80E+2	1.20E-2	7.62E+1
7.40E-2	4.92E+2	1.51E-2	8.20E+1
7.59E-2	5.51E+2	1.51E-2	6.34E+1
6.35E-2	4.63E+2	1.49E-2	6.85E+1
6.32E-2	4.52E+2	1.46E-2	5.98E+1
7.01E-2	4.81E+2	1.25E-2	6.87E+1
6.69E-2	4.79E+2	1.56E-2	8.91E+1
7.23E-2	5.17E+2	1.71E-2	7.87E+1
5.52E-2	4.17E+2	1.56E-2	9.26E+1
6.79E-2	5.17E+2	1.32E-2	7.30E+1
7.01E-2	5.23E+2	1.32E-2	1.24E+2
6.57E-2	4.80E+2	1.46E-2	1.03E+2
6.03E-2	4.78E+2	1.54E-2	1.27E+2
6.42E-2	4.81E+2	1.61E-2	9.32E+1
6.01E-2	4.20E+2	1.29E-2	7.64E+1
6.10E-2	4.48E+2	1.81E-2	8.58E+1
6.62E-2	4.95E+2	1.49E-2	7.93E+1
5.98E-2	4.57E+2	1.37E-2	8.91E+1
6.64E-2	5.21E+2	1.51E-2	7.16E+1
6.84E-2	4.92E+2	1.42E-2	5.41E+1
6.81E-2	4.90E+2	1.34E-2	7.90E+1
6.20E-2	4.49E+2	1.49E-2	6.30E+1
6.05E-2	4.94E+2	1.49E-2	1.26E+2
5.81E-2	4.00E+2	1.34E-2	1.03E+2
6.62E-2	4.74E+2	1.66E-2	8.75E+1
6.40E-2	4.43E+2	1.29E-2	7.37E+1
7.13E-2	5.48E+2	1.59E-2	1.13E+2
6.67E-2	4.80E+2	1.10E-2	7.98E+1
6.40E-2	4.29E+2	1.42E-2	6.46E+1
6.13E-2	3.98E+2	1.34E-2	6.33E+1
7.01E-2	5.10E+2	1.27E-2	6.16E+1
6.54E-2	5.00E+2	1.44E-2	7.22E+1
6.54E-2	4.47E+2	1.29E-2	7.50E+1
6.05E-2	4.86E+2	1.51E-2	1.26E+2
6.18E-2	4.71E+2	1.51E-2	1.24E+2
6.69E-2	4.99E+2	1.49E-2	1.04E+2
6.54E-2	4.51E+2	1.76E-2	1.18E+2
6.84E-2	4.58E+2	1.39E-2	9.66E+1
6.49E-2	4.47E+2	1.44E-2	7.21E+1
6.67E-2	4.43E+2	1.49E-2	1.31E+1
6.35E-2	4.15E+2	1.29E-2	6.62E+1
6.08E-2	4.30E+2	1.51E-2	2.99E+1
6.10E-2	4.83E+2	1.51E-2	5.68E+1
7.15E-2	5.09E+2	1.95E-2	8.58E+1
6.05E-2	4.55E+2	1.42E-2	6.03E+1
6.45E-2	4.80E+2	1.71E-2	5.85E+1
6.71E-2	5.32E+2	1.42E-2	1.65E+2
6.52E-2	4.38E+2	1.56E-2	8.22E+1
6.10E-2	4.50E+2	1.44E-2	1.23E+2
5.83E-2	4.68E+2	1.44E-2	1.52E+2
6.20E-2	4.55E+2	1.88E-2	1.06E+2
6.13E-2	4.57E+2	1.42E-2	1.11E+2
6.98E-2	4.58E+2	1.15E-2	5.20E+1
6.57E-2	4.62E+2	1.68E-2	8.72E+1
5.81E-2	4.93E+2	1.20E-2	6.99E+1
6.45E-2	4.77E+2	1.49E-2	7.32E+1
6.05E-2	4.82E+2	1.42E-2	1.13E+2
5.83E-2	4.78E+2	1.66E-2	1.04E+2
7.06E-2	4.93E+2	1.54E-2	9.71E+1
6.52E-2	4.77E+2	1.32E-2	1.09E+2
5.83E-2	4.49E+2	1.64E-2	8.32E+1
6.69E-2	4.98E+2	1.46E-2	6.90E+1
6.27E-2	4.23E+2	1.46E-2	6.04E+1
7.03E-2	4.71E+2	1.46E-2	6.84E+1
6.40E-2	4.49E+2	1.37E-2	8.24E+1
6.30E-2	4.38E+2	1.76E-2	7.66E+1
5.98E-2	4.62E+2	1.46E-2	9.93E+1
6.64E-2	4.78E+2	1.44E-2	4.01E+1
6.71E-2	5.05E+2	1.49E-2	6.77E+1
6.79E-2	4.46E+2	1.29E-2	6.41E+1
6.69E-2	4.80E+2	1.20E-2	1.02E+2
6.86E-2	5.30E+2	1.59E-2	7.57E+1
6.47E-2	5.25E+2	1.61E-2	1.40E+2
6.49E-2	5.05E+2	1.20E-2	9.65E+1
5.62E-3	1.14E+1	3.71E-2	2.77E+2
6.69E-2	4.57E+2	1.37E-2	7.55E+1
6.30E-2	4.43E+2	1.22E-2	5.48E+1
7.08E-2	4.84E+2	1.27E-2	5.54E+1
6.57E-2	4.79E+2	1.64E-2	5.39E+1
6.57E-2	4.69E+2	1.54E-2	5.55E+1
6.64E-2	4.80E+2	1.59E-2	5.08E+1
6.13E-2	4.88E+2	1.46E-2	1.20E+2
7.13E-2	5.64E+2	1.51E-2	7.08E+1
5.98E-2	4.54E+2	1.54E-2	1.05E+2
6.49E-2	5.01E+2	1.44E-2	1.19E+2
6.45E-2	4.45E+2	1.51E-2	8.13E+1
6.20E-2	4.03E+2	1.46E-2	6.88E+1
5.86E-2	4.87E+2	1.39E-2	1.44E+2
6.81E-2	4.75E+2	1.39E-2	8.75E+1
6.57E-2	4.61E+2	1.22E-2	6.71E+1
6.59E-2	4.51E+2	1.64E-2	8.10E+1
6.69E-2	4.77E+2	1.17E-2	4.59E+1
5.88E-2	4.91E+2	1.78E-2	1.05E+2
6.93E-2	5.33E+2	1.34E-2	1.06E+2
5.93E-2	4.61E+2	1.61E-2	1.22E+2
6.08E-2	4.87E+2	1.49E-2	1.11E+2
7.76E-2	5.07E+2	1.44E-2	9.06E+1
6.67E-2	4.40E+2	1.32E-2	6.24E+1
6.42E-2	4.57E+2	1.64E-2	1.15E+2
6.42E-2	4.47E+2	1.81E-2	6.80E+1
6.52E-2	4.63E+2	1.59E-2	9.49E+1
5.88E-2	4.36E+2	1.22E-2	6.71E+1
6.74E-2	4.71E+2	1.27E-2	6.75E+1
6.76E-2	5.20E+2	1.07E-2	2.99E+1
6.23E-2	4.55E+2	1.51E-2	8.54E+1
6.35E-2	4.74E+2	1.39E-2	8.43E+1
6.13E-2	4.52E+2	1.27E-2	8.72E+1
5.66E-2	4.17E+2	1.54E-2	8.98E+1
6.84E-2	5.08E+2	1.42E-2	9.50E+1
5.86E-2	4.27E+2	1.27E-2	8.07E+1
6.52E-2	4.78E+2	1.39E-2	1.11E+2
6.86E-2	5.12E+2	1.44E-2	1.30E+2
6.45E-2	4.72E+2	1.42E-2	9.66E+1
6.27E-2	4.48E+2	1.56E-2	8.03E+1
6.35E-2	4.31E+2	1.68E-2	5.18E+1
6.52E-2	4.85E+2	1.51E-2	8.89E+1
6.45E-2	4.97E+2	1.56E-2	6.44E+1
6.69E-2	4.66E+2	1.46E-2	2.44E+1
5.88E-2	4.19E+2	1.51E-2	2.72E+1
6.23E-2	4.69E+2	1.49E-2	5.57E+1
6.32E-2	4.85E+2	1.44E-2	1.26E+2
6.76E-2	4.73E+2	1.42E-2	8.98E+1
6.01E-2	4.25E+2	1.17E-2	8.75E+1
5.91E-2	4.62E+2	1.51E-2	1.20E+2
5.74E-2	4.14E+2	1.73E-2	8.24E+1
6.47E-2	4.46E+2	1.25E-2	8.29E+1
6.08E-2	4.28E+2	1.32E-2	9.92E+1
6.96E-2	4.74E+2	1.76E-2	9.76E+1
6.03E-2	4.80E+2	1.46E-2	4.56E+1
5.91E-2	4.73E+2	1.39E-2	1.24E+2
6.79E-2	5.04E+2	1.78E-2	1.22E+2
6.71E-2	5.40E+2	1.27E-2	1.32E+2
6.69E-2	4.94E+2	1.37E-2	1.22E+2
5.98E-2	4.72E+2	1.37E-2	8.33E+1
6.67E-2	4.49E+2	1.66E-2	9.90E+1
5.88E-2	3.96E+2	1.68E-2	9.08E+1
6.40E-2	4.85E+2	1.64E-2	6.31E+1
6.49E-2	4.30E+2	1.42E-2	5.86E+1
6.18E-2	4.77E+2	1.32E-2	4.53E+1
6.91E-2	4.64E+2	1.66E-2	1.02E+2
6.13E-2	4.75E+2	1.54E-2	5.16E+1
6.64E-2	4.55E+2	1.42E-2	5.49E+1
6.05E-2	4.60E+2	1.42E-2	5.83E+1
6.27E-2	4.63E+2	1.29E-2	1.02E+2
7.01E-2	5.02E+2	1.78E-2	1.01E+2
6.57E-2	4.94E+2	1.73E-2	1.19E+2
6.59E-2	4.49E+2	1.51E-2	1.00E+2
6.18E-2	4.58E+2	1.83E-2	1.11E+2
6.47E-2	4.37E+2	1.49E-2	9.55E+1
6.15E-2	4.52E+2	1.25E-2	1.05E+2
6.35E-3	4.64E+0	3.83E-2	2.04E+2
6.47E-2	4.57E+2	1.56E-2	6.44E+1
6.74E-2	5.30E+2	1.39E-2	8.06E+1
7.08E-2	5.58E+2	1.39E-2	1.09E+2
6.47E-2	4.71E+2	1.61E-2	5.21E+1
6.81E-2	4.68E+2	1.51E-2	1.70E+1
6.18E-2	4.68E+2	1.49E-2	1.04E+2
6.01E-2	4.38E+2	1.42E-2	9.26E+1
6.47E-2	4.66E+2	1.27E-2	8.40E+1
6.10E-2	4.21E+2	1.34E-2	5.32E+1
6.32E-2	4.75E+2	1.46E-2	6.68E+1
6.05E-2	4.13E+2	1.66E-2	8.31E+1
6.25E-2	4.76E+2	1.49E-2	1.02E+2
6.88E-2	4.73E+2	1.56E-2	5.49E+1
6.25E-2	4.84E+2	1.32E-2	5.04E+1
6.18E-2	4.58E+2	1.51E-2	9.64E+1
6.93E-2	5.15E+2	1.32E-2	1.27E+2
6.37E-2	4.97E+2	1.54E-2	7.60E+1
6.69E-2	4.69E+2	1.39E-2	9.01E+1
5.83E-2	4.41E+2	1.61E-2	1.30E+2
6.20E-2	4.78E+2	1.51E-2	6.02E+1
6.13E-2	4.49E+2	1.25E-2	4.54E+1
6.52E-2	4.74E+2	1.44E-2	8.87E+1
6.25E-2	4.57E+2	1.68E-2	5.85E+1
5.98E-2	4.46E+2	1.44E-2	6.88E+1
6.88E-2	5.36E+2	1.25E-2	6.81E+1
6.13E-2	4.53E+2	1.49E-2	4.54E+1
5.91E-2	4.52E+2	1.34E-2	4.08E+1
6.45E-2	4.92E+2	1.56E-2	5.21E+1
6.32E-2	4.77E+2	1.66E-2	8.38E+1
6.25E-2	4.90E+2	1.56E-2	1.34E+2
6.45E-2	4.66E+2	1.46E-2	7.80E+1
7.10E-2	5.12E+2	1.46E-2	1.27E+2
6.13E-2	4.38E+2	1.39E-2	8.33E+1
6.30E-2	4.48E+2	1.37E-2	4.42E+1
6.93E-2	4.88E+2	1.39E-2	1.06E+2
6.84E-2	4.92E+2	1.49E-2	8.97E+1
6.08E-2	4.38E+2	1.32E-2	4.45E+1
6.25E-2	4.80E+2	1.51E-2	6.88E+1
6.57E-2	4.90E+2	1.20E-2	6.74E+1
5.88E-2	4.89E+2	1.34E-2	1.30E+2
6.49E-2	4.84E+2	1.46E-2	1.79E+1
7.15E-2	4.66E+2	1.51E-2	3.89E+1
6.37E-2	5.09E+2	1.34E-2	9.47E+1
7.69E-2	5.25E+2	1.44E-2	1.11E+2
6.20E-2	4.85E+2	1.66E-2	1.28E+2
5.98E-2	4.33E+2	1.34E-2	4.55E+1
5.86E-2	4.22E+2	1.29E-2	4.42E+1
6.49E-2	4.40E+2	1.37E-2	3.08E+1
6.45E-2	4.60E+2	1.59E-2	1.12E+2
6.64E-2	4.95E+2	1.39E-2	7.92E+1
6.23E-2	4.46E+2	1.86E-2	5.99E+1
6.35E-2	5.37E+2	1.51E-2	1.72E+2
6.52E-2	4.87E+2	1.29E-2	1.03E+2
6.69E-2	4.84E+2	1.39E-2	1.04E+2
5.81E-2	4.42E+2	1.25E-2	9.71E+1
6.45E-2	4.85E+2	1.49E-2	1.18E+2
6.49E-2	4.71E+2	1.64E-2	1.32E+2
6.10E-2	4.11E+2	1.29E-2	8.78E+1
6.20E-2	4.56E+2	1.49E-2	1.01E+2
7.01E-2	4.95E+2	1.20E-2	7.28E+1
6.32E-2	5.02E+2	1.34E-2	5.98E+1
6.10E-2	4.21E+2	1.27E-2	4.38E+1
6.54E-2	5.21E+2	1.37E-2	8.23E+1
6.57E-2	4.87E+2	1.37E-2	7.51E+1
6.79E-2	5.16E+2	1.32E-2	3.81E+1
6.37E-2	4.87E+2	1.54E-2	8.23E+1
6.79E-2	4.99E+2	1.32E-2	1.01E+2
6.15E-2	4.34E+2	1.20E-2	7.02E+1
6.35E-2	4.94E+2	1.51E-2	1.25E+2
5.96E-2	4.66E+2	1.20E-2	9.05E+1
6.52E-2	4.76E+2	1.12E-2	4.95E+1
6.59E-2	4.62E+2	1.07E-2	7.22E+1
6.45E-2	4.72E+2	1.32E-2	9.08E+0
7.62E-2	5.63E+2	1.46E-2	8.95E+1
6.35E-3	-4.64E+0	3.66E-2	2.35E+2
6.47E-2	4.76E+2	1.39E-2	8.42E+1
6.23E-2	4.82E+2	1.34E-2	9.92E+1
5.71E-2	4.52E+2	1.49E-2	1.01E+2
6.57E-2	4.92E+2	1.39E-2	7.44E+1
6.35E-2	4.66E+2	1.51E-2	1.01E+2
6.52E-2	4.54E+2	1.34E-2	1.08E+2
6.42E-2	4.34E+2	1.39E-2	6.33E+1
6.18E-2	5.07E+2	1.46E-2	9.07E+1
7.08E-2	4.99E+2	1.34E-2	6.38E+1
6.62E-2	4.68E+2	1.05E-2	4.88E-1
6.45E-2	4.76E+2	1.25E-2	6.23E+1
6.10E-2	4.87E+2	1.49E-2	6.49E+1
6.81E-2	5.11E+2	1.54E-2	8.42E+1
6.32E-2	5.21E+2	1.17E-2	1.02E+2
7.08E-2	5.00E+2	1.59E-2	9.38E+1
5.93E-2	4.74E+2	1.51E-2	1.12E+2
6.03E-2	4.49E+2	1.68E-2	1.35E+2
6.57E-2	5.04E+2	1.15E-2	1.15E+2
6.86E-2	5.07E+2	1.10E-2	7.89E+1
6.64E-2	5.14E+2	1.71E-2	1.26E+2
6.69E-2	4.90E+2	1.66E-2	7.08E+1
6.25E-2	4.54E+2	1.64E-2	5.41E+1
6.08E-2	4.72E+2	1.51E-2	8.07E+1
5.91E-2	4.68E+2	1.66E-2	9.41E+1
5.52E-2	3.96E+2	1.61E-2	9.86E+1
6.05E-2	4.76E+2	1.66E-2	8.27E+1
6.71E-2	4.54E+2	1.78E-2	9.04E+1
5.93E-2	4.80E+2	1.54E-2	1.35E+2
6.79E-2	4.90E+2	1.22E-2	9.88E+1
6.45E-2	4.58E+2	1.44E-2	1.12E+2
6.15E-2	4.61E+2	1.56E-2	8.79E+1
5.96E-2	4.08E+2	1.42E-2	1.01E+2
6.57E-2	4.74E+2	1.44E-2	9.03E+1
5.76E-2	4.52E+2	1.61E-2	7.73E+1
6.74E-2	4.87E+2	1.44E-2	7.42E+1
6.13E-2	4.29E+2	1.27E-2	4.10E+1
5.96E-2	4.61E+2	1.46E-2	1.08E+2
6.30E-2	5.09E+2	1.22E-2	9.07E+1
6.45E-2	4.99E+2	1.39E-2	7.32E+1
6.25E-2	4.64E+2	1.68E-2	8.43E+1
6.15E-2	4.63E+2	1.64E-2	1.13E+2
6.62E-2	4.78E+2	1.46E-2	8.15E+1
6.37E-2	4.62E+2	1.39E-2	7.72E+1
6.67E-2	4.94E+2	1.51E-2	9.27E+1
6.01E-2	4.37E+2	1.46E-2	8.85E+1
6.88E-2	4.75E+2	1.59E-2	4.68E+1
6.54E-2	4.70E+2	1.39E-2	7.39E+1
6.08E-2	4.53E+2	1.34E-2	7.60E+1
5.76E-2	4.50E+2	1.59E-2	1.07E+2
6.71E-2	4.97E+2	1.42E-2	6.38E+1
7.57E-2	4.72E+2	1.34E-2	9.43E+1
6.30E-2	4.87E+2	1.46E-2	1.11E+2
6.13E-2	4.23E+2	1.22E-2	1.01E+2
6.37E-2	4.78E+2	1.29E-2	1.02E+2
5.79E-2	4.42E+2	1.27E-2	6.57E+1
6.54E-2	4.73E+2	1.46E-2	1.20E+2
6.67E-2	4.66E+2	1.64E-2	7.70E+1
5.98E-2	3.95E+2	1.49E-2	5.69E+1
6.40E-2	4.61E+2	1.51E-2	8.85E+1
6.54E-2	4.90E+2	1.44E-2	7.32E+1
5.93E-2	4.42E+2	1.22E-2	4.74E+1
6.86E-2	4.60E+2	1.39E-2	6.29E+1
5.96E-2	4.58E+2	1.37E-2	7.88E+1
6.42E-2	4.73E+2	1.56E-2	6.59E+1
6.71E-2	4.05E+2	1.61E-2	8.37E+1
6.52E-2	5.12E+2	1.46E-2	9.69E+1
5.86E-2	4.49E+2	1.34E-2	9.06E+1
6.67E-2	4.46E+2	1.42E-2	6.31E+1
6.15E-2	5.13E+2	1.76E-2	1.13E+2
6.91E-2	5.01E+2	1.29E-2	1.13E+2
6.93E-2	4.53E+2	1.42E-2	6.37E+1
6.25E-2	4.81E+2	1.46E-2	4.79E+1
8.06E-3	3.61E+0	4.17E-2	2.47E+2
6.10E-2	4.60E+2	1.42E-2	9.08E+1
