1.02E-1	7.56E+2	1.86E-2	1.40E+2
9.62E-2	6.94E+2	2.03E-2	1.39E+2
9.74E-2	7.12E+2	1.95E-2	1.64E+2
1.08E-1	7.31E+2	2.10E-2	1.59E+2
9.86E-2	6.78E+2	1.93E-2	1.27E+2
9.77E-2	6.90E+2	2.00E-2	1.02E+2
9.99E-2	7.20E+2	2.08E-2	8.43E+1
8.89E-2	6.85E+2	1.86E-2	1.29E+2
1.07E-1	7.08E+2	2.10E-2	1.10E+2
1.02E-1	7.06E+2	2.17E-2	1.17E+2
1.12E-1	7.64E+2	2.34E-2	1.19E+2
9.55E-2	7.10E+2	1.88E-2	1.34E+2
1.01E-1	7.23E+2	1.73E-2	1.08E+2
9.79E-2	6.58E+2	1.66E-2	1.00E+2
1.02E-1	6.73E+2	1.90E-2	8.33E+1
9.94E-2	7.08E+2	1.71E-2	1.48E+2
1.03E-1	7.30E+2	1.95E-2	1.37E+2
1.05E-1	7.39E+2	1.83E-2	1.05E+2
1.04E-1	6.60E+2	1.66E-2	7.08E+1
9.79E-2	6.97E+2	1.93E-2	1.07E+2
9.62E-2	6.91E+2	1.81E-2	1.18E+2
1.01E-1	6.64E+2	1.90E-2	1.28E+2
1.06E-1	7.17E+2	2.29E-2	1.26E+2
1.01E-1	7.31E+2	1.66E-2	1.05E+2
9.55E-2	6.78E+2	1.90E-2	1.09E+2
1.03E-1	7.53E+2	2.10E-2	1.62E+2
1.04E-1	6.77E+2	1.98E-2	9.98E+1
1.02E-1	7.06E+2	1.90E-2	9.32E+1
9.79E-2	6.81E+2	1.88E-2	1.10E+2
1.05E-1	7.02E+2	1.61E-2	5.98E+1
9.25E-2	7.00E+2	1.95E-2	1.40E+2
1.06E-1	7.09E+2	1.83E-2	9.71E+1
9.74E-2	7.06E+2	2.03E-2	1.20E+2
9.55E-2	7.38E+2	1.95E-2	1.54E+2
9.50E-2	6.97E+2	1.81E-2	1.55E+2
9.25E-2	6.52E+2	2.15E-2	1.29E+2
9.28E-2	6.83E+2	2.39E-2	1.59E+2
1.06E-1	7.09E+2	2.17E-2	9.37E+1
1.01E-1	6.90E+2	1.98E-2	1.24E+2
9.55E-2	6.50E+2	2.22E-2	1.04E+2
9.91E-2	7.04E+2	1.98E-2	1.47E+2
9.52E-2	7.14E+2	1.81E-2	1.07E+2
9.99E-2	7.78E+2	2.25E-2	1.39E+2
9.81E-2	6.89E+2	2.08E-2	1.11E+2
1.03E-1	7.19E+2	1.88E-2	1.28E+2
1.04E-1	7.36E+2	1.83E-2	9.98E+1
1.02E-1	7.06E+2	2.15E-2	1.23E+2
1.03E-1	7.52E+2	1.95E-2	1.53E+2
9.81E-2	7.02E+2	2.00E-2	1.67E+2
1.04E-1	6.92E+2	2.42E-2	1.62E+2
1.06E-1	7.73E+2	1.71E-2	1.17E+2
9.50E-2	6.65E+2	2.10E-2	1.41E+2
1.03E-1	7.24E+2	2.05E-2	1.31E+2
1.01E-1	7.08E+2	1.66E-2	1.27E+2
9.96E-2	6.92E+2	2.25E-2	1.24E+2
1.01E-1	6.81E+2	2.08E-2	1.00E+2
9.74E-2	7.03E+2	1.95E-2	1.03E+2
1.00E-1	6.92E+2	1.81E-2	8.85E+1
9.18E-2	7.07E+2	2.10E-2	1.98E+2
1.05E-1	7.24E+2	2.22E-2	1.27E+2
9.81E-2	7.30E+2	1.86E-2	1.56E+2
1.01E-1	7.31E+2	1.76E-2	1.35E+2
1.11E-1	7.45E+2	2.42E-2	1.59E+2
1.07E-1	6.83E+2	2.05E-2	1.14E+2
1.05E-1	6.75E+2	1.83E-2	1.14E+2
9.86E-2	6.82E+2	1.95E-2	8.90E+1
1.03E-1	6.69E+2	1.98E-2	1.03E+2
9.91E-2	7.10E+2	2.03E-2	1.32E+2
1.01E-1	7.24E+2	2.39E-2	1.46E+2
9.89E-2	6.64E+2	1.78E-2	9.12E+1
1.07E-1	7.17E+2	1.98E-2	1.58E+2
9.99E-2	7.37E+2	1.90E-2	1.42E+2
1.03E-1	7.09E+2	1.66E-2	9.81E+1
1.03E-1	7.17E+2	1.90E-2	1.21E+2
9.86E-2	6.94E+2	2.05E-2	1.37E+2
9.86E-2	6.59E+2	1.59E-2	1.01E+2
1.03E-1	7.28E+2	1.88E-2	1.08E+2
9.96E-2	6.96E+2	2.00E-2	1.20E+2
1.01E-1	6.64E+2	1.90E-2	1.02E+2
1.04E-1	7.27E+2	1.98E-2	1.27E+2
1.04E-1	7.42E+2	2.15E-2	1.16E+2
1.01E-1	6.75E+2	1.93E-2	1.22E+2
6.84E-3	8.59E+0	7.45E-2	4.21E+2
1.01E-1	7.27E+2	2.20E-2	1.66E+2
1.06E-1	7.40E+2	1.81E-2	1.42E+2
1.08E-1	7.23E+2	2.03E-2	1.34E+2
9.99E-2	7.27E+2	2.15E-2	1.21E+2
1.02E-1	6.55E+2	1.76E-2	1.05E+2
1.10E-1	7.10E+2	1.81E-2	1.01E+2
9.59E-2	6.43E+2	1.93E-2	1.12E+2
9.94E-2	6.54E+2	2.15E-2	9.77E+1
1.04E-1	7.15E+2	2.00E-2	9.00E+1
1.05E-1	7.48E+2	2.05E-2	1.15E+2
1.03E-1	7.20E+2	2.25E-2	1.36E+2
9.91E-2	6.56E+2	1.83E-2	9.90E+1
1.05E-1	7.77E+2	1.78E-2	9.71E+1
1.06E-1	7.10E+2	1.64E-2	9.67E+1
1.11E-1	7.40E+2	1.93E-2	1.36E+2
9.52E-2	6.83E+2	2.34E-2	1.79E+2
1.23E-1	6.85E+2	2.05E-2	1.30E+2
1.04E-1	6.88E+2	2.00E-2	1.30E+2
1.01E-1	7.26E+2	1.78E-2	1.46E+2
9.08E-2	6.12E+2	1.81E-2	1.23E+2
1.15E-1	8.01E+2	2.12E-2	1.29E+2
9.81E-2	7.22E+2	2.00E-2	1.36E+2
1.07E-1	7.53E+2	2.47E-2	1.58E+2
9.33E-2	6.75E+2	2.08E-2	1.48E+2
9.72E-2	7.25E+2	2.10E-2	1.08E+2
1.05E-1	7.17E+2	1.88E-2	8.95E+1
9.94E-2	7.05E+2	2.05E-2	1.49E+2
9.81E-2	7.42E+2	2.00E-2	1.66E+2
1.05E-1	7.27E+2	1.73E-2	1.11E+2
1.05E-1	6.80E+2	2.15E-2	9.24E+1
1.09E-1	7.38E+2	1.78E-2	1.46E+2
9.91E-2	7.03E+2	1.73E-2	1.15E+2
9.89E-2	6.96E+2	1.98E-2	1.17E+2
1.00E-1	6.56E+2	1.90E-2	1.40E+2
9.47E-2	6.50E+2	2.25E-2	1.51E+2
1.06E-1	7.56E+2	2.00E-2	1.15E+2
9.59E-2	6.67E+2	1.90E-2	8.12E+1
1.04E-1	7.08E+2	2.12E-2	1.40E+2
9.62E-2	6.94E+2	1.78E-2	9.00E+1
1.04E-1	7.60E+2	1.88E-2	1.75E+2
1.03E-1	7.30E+2	2.10E-2	1.82E+2
1.02E-1	6.82E+2	2.20E-2	1.47E+2
9.42E-2	6.88E+2	2.05E-2	1.49E+2
9.91E-2	6.81E+2	2.03E-2	1.28E+2
9.59E-2	6.82E+2	2.32E-2	1.54E+2
1.05E-1	7.33E+2	2.17E-2	1.18E+2
1.07E-1	6.98E+2	1.86E-2	1.18E+2
1.01E-1	7.12E+2	2.03E-2	1.38E+2
1.02E-1	7.25E+2	1.90E-2	1.47E+2
1.00E-1	6.99E+2	1.73E-2	1.15E+2
9.57E-2	6.68E+2	2.34E-2	1.26E+2
9.25E-2	6.70E+2	2.00E-2	1.20E+2
1.03E-1	7.45E+2	1.78E-2	1.27E+2
9.33E-2	6.63E+2	1.86E-2	1.45E+2
9.08E-2	6.67E+2	1.71E-2	1.20E+2
9.84E-2	7.30E+2	2.03E-2	1.44E+2
1.04E-1	6.76E+2	2.15E-2	1.11E+2
9.91E-2	7.21E+2	2.15E-2	9.80E+1
9.84E-2	6.90E+2	1.95E-2	9.13E+1
7.32E-3	1.48E+1	6.42E-2	4.23E+2
9.69E-2	6.96E+2	2.12E-2	1.09E+2
9.18E-2	6.72E+2	1.93E-2	1.20E+2
1.01E-1	6.89E+2	2.15E-2	1.19E+2
9.74E-2	7.59E+2	1.95E-2	1.79E+2
1.00E-1	7.37E+2	1.76E-2	1.34E+2
1.08E-1	7.45E+2	1.78E-2	1.26E+2
9.74E-2	7.16E+2	1.66E-2	1.41E+2
1.06E-1	7.74E+2	1.64E-2	1.65E+2
1.03E-1	7.11E+2	2.05E-2	1.22E+2
9.57E-2	6.45E+2	2.22E-2	8.77E+1
1.00E-1	6.85E+2	2.22E-2	1.19E+2
1.05E-1	7.16E+2	2.15E-2	1.42E+2
9.35E-2	6.71E+2	1.59E-2	7.73E+1
9.57E-2	6.51E+2	1.88E-2	9.53E+1
9.18E-2	7.22E+2	2.15E-2	1.37E+2
8.72E-2	6.48E+2	1.95E-2	1.01E+2
9.59E-2	7.26E+2	1.93E-2	1.26E+2
9.37E-2	7.13E+2	2.20E-2	1.49E+2
9.59E-2	6.48E+2	2.03E-2	1.28E+2
9.96E-2	6.73E+2	2.25E-2	1.32E+2
9.77E-2	6.74E+2	2.10E-2	1.29E+2
1.01E-1	7.51E+2	1.93E-2	1.42E+2
1.06E-1	6.84E+2	1.90E-2	7.79E+1
1.02E-1	6.81E+2	1.88E-2	9.40E+1
9.91E-2	6.88E+2	1.90E-2	9.95E+1
1.03E-1	7.51E+2	2.32E-2	1.67E+2
1.03E-1	7.19E+2	2.29E-2	1.58E+2
9.69E-2	7.23E+2	2.17E-2	1.24E+2
9.55E-2	6.77E+2	1.90E-2	1.10E+2
1.06E-1	7.15E+2	1.59E-2	1.13E+2
1.02E-1	6.99E+2	2.05E-2	1.39E+2
8.89E-2	6.69E+2	2.17E-2	1.60E+2
1.04E-1	6.67E+2	1.81E-2	8.22E+1
9.62E-2	6.36E+2	1.83E-2	9.66E+1
9.28E-2	6.75E+2	1.93E-2	6.62E+1
9.23E-2	6.62E+2	1.66E-2	1.02E+2
9.79E-2	6.79E+2	1.71E-2	8.80E+1
9.28E-2	6.70E+2	2.00E-2	1.10E+2
9.67E-2	6.82E+2	2.39E-2	1.17E+2
9.91E-2	7.36E+2	1.66E-2	1.25E+2
8.89E-2	6.26E+2	1.95E-2	1.47E+2
1.05E-1	7.14E+2	1.61E-2	6.95E+1
1.03E-1	7.26E+2	1.90E-2	1.34E+2
9.45E-2	6.90E+2	1.83E-2	1.35E+2
1.04E-1	6.96E+2	2.03E-2	1.67E+2
1.03E-1	7.17E+2	1.83E-2	1.38E+2
1.02E-1	6.98E+2	2.08E-2	1.57E+2
9.59E-2	6.55E+2	2.37E-2	1.06E+2
1.02E-1	6.65E+2	2.00E-2	9.39E+1
9.94E-2	7.00E+2	2.32E-2	1.10E+2
9.72E-2	6.69E+2	2.03E-2	8.33E+1
1.05E-1	7.04E+2	2.08E-2	7.68E+1
1.01E-1	7.12E+2	1.95E-2	7.98E+1
9.84E-2	6.94E+2	2.22E-2	1.43E+2
9.77E-2	6.71E+2	2.29E-2	1.02E+2
9.84E-2	6.88E+2	2.25E-2	1.32E+2
9.96E-2	7.42E+2	1.86E-2	1.48E+2
1.03E-1	6.73E+2	1.98E-2	1.23E+2
9.77E-2	6.60E+2	2.05E-2	1.04E+2
9.57E-2	6.61E+2	1.93E-2	1.24E+2
1.01E-1	7.26E+2	1.93E-2	1.07E+2
9.55E-2	6.96E+2	1.81E-2	1.10E+2
1.02E-1	7.18E+2	2.10E-2	1.58E+2
1.04E-1	7.13E+2	1.98E-2	9.82E+1
9.69E-2	6.59E+2	1.86E-2	1.08E+2
1.02E-1	7.32E+2	2.22E-2	1.67E+2
9.23E-2	6.86E+2	1.95E-2	1.30E+2
1.06E-1	6.80E+2	1.78E-2	1.05E+2
9.94E-2	7.06E+2	1.59E-2	1.04E+2
1.09E-1	7.39E+2	2.17E-2	1.53E+2
9.28E-2	6.75E+2	1.56E-2	1.38E+2
9.52E-2	6.76E+2	1.88E-2	1.31E+2
1.01E-1	6.78E+2	1.93E-2	1.59E+2
1.06E-1	7.36E+2	2.05E-2	1.22E+2
1.10E-1	7.45E+2	2.03E-2	1.36E+2
1.01E-1	6.70E+2	2.03E-2	1.10E+2
1.03E-1	6.88E+2	1.78E-2	8.90E+1
1.02E-1	7.06E+2	1.90E-2	8.51E+1
1.07E-1	7.52E+2	1.93E-2	1.25E+2
1.01E-1	7.06E+2	1.83E-2	1.59E+2
1.04E-1	6.91E+2	2.00E-2	1.36E+2
1.10E-1	7.72E+2	2.27E-2	1.33E+2
1.03E-1	6.83E+2	1.64E-2	1.11E+2
9.52E-2	6.86E+2	2.08E-2	1.52E+2
9.86E-2	6.87E+2	1.88E-2	1.51E+2
9.77E-2	6.87E+2	2.34E-2	1.28E+2
1.04E-1	7.33E+2	1.71E-2	1.18E+2
1.03E-1	6.90E+2	2.00E-2	9.36E+1
9.59E-2	6.99E+2	2.08E-2	1.18E+2
1.01E-1	7.53E+2	2.12E-2	1.46E+2
9.08E-2	6.36E+2	2.54E-2	1.34E+2
1.05E-1	7.14E+2	1.76E-2	7.43E+1
1.02E-1	7.03E+2	1.90E-2	1.42E+2
9.28E-2	6.13E+2	1.95E-2	7.89E+1
1.01E-1	6.53E+2	2.12E-2	1.58E+2
9.50E-2	6.56E+2	1.90E-2	1.21E+2
9.77E-2	6.44E+2	2.17E-2	9.72E+1
9.72E-2	7.25E+2	1.86E-2	1.44E+2
9.99E-2	7.03E+2	2.03E-2	1.30E+2
9.23E-2	6.83E+2	1.78E-2	1.09E+2
1.01E-1	7.50E+2	2.17E-2	1.71E+2
1.00E-1	6.90E+2	1.93E-2	1.20E+2
9.30E-2	6.43E+2	2.20E-2	1.09E+2
8.94E-2	6.43E+2	2.47E-2	1.70E+2
9.42E-2	6.97E+2	2.10E-2	1.47E+2
1.02E-1	6.94E+2	2.20E-2	1.63E+2
9.11E-2	6.06E+2	1.78E-2	1.05E+2
9.40E-2	6.47E+2	1.61E-2	6.21E+1
1.00E-1	7.24E+2	2.15E-2	1.51E+2
1.02E-1	6.84E+2	2.03E-2	1.04E+2
1.06E-1	7.55E+2	2.08E-2	1.13E+2
1.07E-1	7.55E+2	1.95E-2	1.36E+2
9.74E-2	7.02E+2	1.88E-2	1.30E+2
1.00E-1	7.01E+2	2.05E-2	1.35E+2
9.52E-2	6.61E+2	1.98E-2	1.01E+2
9.64E-2	6.92E+2	2.05E-2	1.29E+2
9.86E-2	6.84E+2	2.03E-2	1.27E+2
9.16E-2	6.49E+2	2.05E-2	1.38E+2
1.01E-1	7.31E+2	1.93E-2	1.25E+2
1.01E-1	7.13E+2	2.15E-2	1.30E+2
9.77E-2	6.89E+2	1.98E-2	1.18E+2
1.02E-1	6.63E+2	1.90E-2	9.48E+1
5.37E-3	1.81E+0	6.91E-2	3.86E+2
1.02E-1	6.83E+2	1.86E-2	7.91E+1
9.84E-2	6.91E+2	2.00E-2	9.68E+1
1.06E-1	7.53E+2	1.86E-2	1.08E+2
9.62E-2	6.93E+2	1.59E-2	9.03E+1
9.79E-2	6.88E+2	2.25E-2	1.46E+2
9.45E-2	6.86E+2	1.93E-2	1.62E+2
1.02E-1	7.35E+2	2.05E-2	1.53E+2
1.06E-1	7.22E+2	2.17E-2	1.65E+2
9.91E-2	6.97E+2	2.05E-2	1.52E+2
1.09E-1	7.62E+2	1.88E-2	1.02E+2
1.02E-1	6.74E+2	1.90E-2	6.68E+1
9.89E-2	7.09E+2	1.86E-2	1.30E+2
1.05E-1	7.26E+2	1.83E-2	1.17E+2
1.05E-1	7.80E+2	2.05E-2	1.18E+2
9.55E-2	6.68E+2	1.76E-2	9.86E+1
1.04E-1	7.62E+2	2.39E-2	1.34E+2
1.02E-1	6.81E+2	2.10E-2	9.02E+1
1.03E-1	6.99E+2	2.08E-2	1.02E+2
1.10E-1	7.35E+2	1.88E-2	1.18E+2
9.99E-2	7.00E+2	2.54E-2	1.62E+2
9.79E-2	6.75E+2	2.15E-2	1.23E+2
1.04E-1	6.63E+2	1.64E-2	9.97E+1
9.86E-2	7.03E+2	2.12E-2	1.04E+2
1.06E-1	6.99E+2	1.90E-2	1.08E+2
1.06E-1	7.22E+2	1.93E-2	1.24E+2
9.57E-2	6.84E+2	1.98E-2	1.13E+2
1.01E-1	7.17E+2	1.95E-2	1.14E+2
9.96E-2	7.38E+2	1.95E-2	1.65E+2
9.91E-2	7.07E+2	1.88E-2	1.06E+2
1.01E-1	6.97E+2	1.95E-2	1.06E+2
1.03E-1	7.62E+2	2.20E-2	1.70E+2
9.89E-2	7.04E+2	2.17E-2	1.53E+2
1.03E-1	7.26E+2	1.93E-2	1.58E+2
1.05E-1	7.04E+2	2.05E-2	1.19E+2
1.00E-1	6.63E+2	1.83E-2	9.35E+1
1.03E-1	6.70E+2	2.12E-2	1.02E+2
9.47E-2	6.66E+2	1.95E-2	7.15E+1
1.11E-1	7.39E+2	1.90E-2	1.12E+2
1.01E-1	7.09E+2	1.90E-2	1.04E+2
9.40E-2	6.50E+2	2.08E-2	1.13E+2
9.81E-2	6.38E+2	2.08E-2	1.49E+2
9.74E-2	6.69E+2	2.05E-2	1.37E+2
9.64E-2	6.72E+2	2.05E-2	9.89E+1
1.19E-1	7.37E+2	1.81E-2	1.41E+2
1.09E-1	7.19E+2	1.98E-2	1.43E+2
9.79E-2	6.57E+2	2.37E-2	1.53E+2
1.02E-1	7.16E+2	2.15E-2	1.20E+2
1.02E-1	6.89E+2	2.37E-2	1.15E+2
1.00E-1	7.18E+2	2.22E-2	1.28E+2
9.59E-2	6.81E+2	2.05E-2	9.85E+1
9.86E-2	6.91E+2	1.73E-2	1.01E+2
9.45E-2	6.36E+2	2.05E-2	1.07E+2
1.02E-1	7.28E+2	2.08E-2	1.27E+2
9.96E-2	7.14E+2	2.03E-2	1.13E+2
1.00E-1	7.22E+2	2.08E-2	1.39E+2
9.08E-2	6.69E+2	2.03E-2	1.52E+2
1.05E-1	7.34E+2	1.71E-2	1.40E+2
9.91E-2	7.08E+2	2.12E-2	1.37E+2
1.04E-1	7.34E+2	1.98E-2	1.48E+2
9.13E-2	6.52E+2	1.86E-2	1.26E+2
1.00E-1	6.44E+2	2.05E-2	9.53E+1
1.04E-1	7.08E+2	2.08E-2	1.38E+2
1.01E-1	6.58E+2	2.00E-2	1.26E+2
1.04E-1	7.42E+2	1.90E-2	9.26E+1
1.01E-1	6.84E+2	1.90E-2	8.39E+1
9.59E-2	6.95E+2	2.10E-2	1.36E+2
9.64E-2	7.05E+2	2.03E-2	1.37E+2
9.69E-2	7.41E+2	1.78E-2	1.29E+2
1.01E-1	7.01E+2	2.34E-2	1.45E+2
9.91E-2	7.00E+2	1.54E-2	8.45E+1
1.06E-1	6.91E+2	1.81E-2	8.39E+1
9.45E-2	7.06E+2	2.51E-2	1.77E+2
9.25E-2	6.66E+2	2.32E-2	1.51E+2
1.01E-1	6.67E+2	1.83E-2	8.67E+1
1.06E-1	6.86E+2	1.76E-2	3.14E+1
9.55E-2	6.52E+2	2.47E-2	1.39E+2
1.03E-1	7.58E+2	1.81E-2	9.20E+1
9.69E-2	7.14E+2	1.90E-2	1.16E+2
9.57E-2	7.00E+2	2.15E-2	1.13E+2
9.62E-2	7.05E+2	2.10E-2	1.01E+2
9.55E-2	6.87E+2	1.86E-2	9.33E+1
9.47E-2	7.29E+2	1.64E-2	1.37E+2
1.09E-1	7.04E+2	2.10E-2	1.29E+2
9.74E-2	6.79E+2	2.00E-2	8.98E+1
1.00E-1	7.31E+2	1.88E-2	1.21E+2
1.01E-1	6.35E+2	2.12E-2	1.19E+2
8.98E-2	6.46E+2	1.93E-2	1.27E+2
1.01E-1	6.88E+2	2.71E-2	1.39E+2
1.03E-1	7.09E+2	2.27E-2	1.39E+2
9.47E-2	6.64E+2	1.95E-2	1.22E+2
9.84E-2	7.07E+2	1.73E-2	1.17E+2
9.74E-2	7.43E+2	1.86E-2	1.23E+2
9.96E-2	7.47E+2	1.95E-2	1.30E+2
1.02E-1	6.82E+2	1.73E-2	1.09E+2
9.40E-2	6.88E+2	2.12E-2	1.35E+2
9.81E-2	6.74E+2	2.05E-2	1.30E+2
9.59E-2	6.75E+2	2.34E-2	1.08E+2
1.06E-1	7.33E+2	2.34E-2	1.41E+2
9.99E-2	6.68E+2	2.08E-2	1.06E+2
8.91E-2	6.23E+2	1.93E-2	1.19E+2
1.08E-1	7.28E+2	2.05E-2	1.21E+2
1.06E-1	7.01E+2	1.88E-2	6.82E+1
9.59E-2	6.74E+2	2.44E-2	1.21E+2
9.52E-2	6.96E+2	2.20E-2	2.06E+2
8.59E-2	6.84E+2	2.12E-2	1.73E+2
9.81E-2	7.03E+2	1.61E-2	1.05E+2
1.03E-1	7.11E+2	1.86E-2	1.50E+2
1.04E-1	7.29E+2	1.98E-2	1.53E+2
9.33E-2	6.35E+2	2.10E-2	1.46E+2
1.06E-1	6.85E+2	2.00E-2	1.21E+2
9.62E-2	6.64E+2	1.90E-2	1.20E+2
1.05E-1	7.29E+2	1.88E-2	9.97E+1
1.03E-1	7.11E+2	2.25E-2	1.21E+2
1.18E-1	6.98E+2	1.98E-2	9.58E+1
1.03E-1	7.16E+2	1.86E-2	1.24E+2
9.55E-2	7.06E+2	2.05E-2	1.55E+2
9.94E-2	7.37E+2	1.59E-2	1.44E+2
9.67E-2	6.83E+2	2.25E-2	1.45E+2
9.64E-2	6.81E+2	1.88E-2	1.33E+2
1.04E-1	6.73E+2	1.93E-2	1.12E+2
9.96E-2	7.40E+2	1.95E-2	1.52E+2
1.11E-1	7.74E+2	1.88E-2	1.33E+2
1.05E-1	6.81E+2	1.90E-2	1.15E+2
9.52E-2	6.76E+2	1.71E-2	8.80E+1
1.04E-1	7.33E+2	1.88E-2	8.36E+1
9.79E-2	6.90E+2	1.90E-2	9.12E+1
9.47E-2	6.64E+2	2.27E-2	1.04E+2
1.05E-1	7.39E+2	2.05E-2	1.49E+2
9.28E-2	6.53E+2	2.00E-2	1.26E+2
1.05E-1	7.03E+2	2.03E-2	1.14E+2
9.77E-2	6.60E+2	2.05E-2	1.11E+2
1.05E-1	7.40E+2	2.32E-2	1.21E+2
1.03E-1	6.64E+2	1.68E-2	1.06E+2
1.05E-1	7.45E+2	2.15E-2	1.62E+2
1.04E-1	6.98E+2	2.42E-2	1.40E+2
9.81E-2	6.83E+2	1.76E-2	1.44E+2
9.86E-2	6.89E+2	2.27E-2	1.13E+2
9.52E-2	7.56E+2	2.12E-2	1.70E+2
1.01E-1	6.72E+2	1.93E-2	1.28E+2
1.07E-1	6.79E+2	2.03E-2	1.11E+2
1.02E-1	7.28E+2	2.17E-2	1.48E+2
1.06E-1	7.21E+2	1.86E-2	1.61E+2
9.52E-2	7.39E+2	1.86E-2	1.55E+2
9.37E-2	6.59E+2	1.83E-2	1.21E+2
9.89E-2	6.60E+2	2.08E-2	1.25E+2
9.79E-2	6.73E+2	1.95E-2	8.99E+1
1.05E-1	7.36E+2	1.64E-2	8.52E+1
1.01E-1	7.56E+2	1.68E-2	1.30E+2
1.03E-1	6.89E+2	2.20E-2	8.59E+1
1.03E-1	7.27E+2	2.08E-2	1.20E+2
1.00E-1	7.51E+2	2.10E-2	1.37E+2
9.62E-2	7.36E+2	1.83E-2	1.12E+2
9.52E-2	6.75E+2	1.88E-2	1.12E+2
1.07E-1	7.65E+2	2.29E-2	1.92E+2
9.47E-2	6.91E+2	1.83E-2	1.20E+2
1.05E-1	7.16E+2	1.73E-2	1.40E+2
1.04E-1	6.89E+2	2.15E-2	1.40E+2
9.59E-2	6.51E+2	2.20E-2	1.36E+2
1.08E-1	7.40E+2	2.17E-2	1.26E+2
9.91E-2	7.19E+2	2.03E-2	9.28E+1
1.01E-1	7.09E+2	1.98E-2	1.11E+2
1.06E-1	7.34E+2	2.22E-2	9.30E+1
9.35E-2	6.91E+2	1.98E-2	1.38E+2
1.03E-1	7.27E+2	1.90E-2	1.11E+2
9.57E-2	7.09E+2	2.25E-2	1.80E+2
1.05E-1	7.14E+2	1.73E-2	1.31E+2
9.81E-2	7.18E+2	1.88E-2	1.33E+2
9.96E-2	6.84E+2	2.03E-2	9.29E+1
1.06E-1	6.89E+2	2.27E-2	1.12E+2
9.62E-2	7.13E+2	1.88E-2	1.29E+2
9.37E-2	6.80E+2	2.32E-2	1.48E+2
1.03E-1	6.84E+2	2.15E-2	1.27E+2
9.91E-2	7.19E+2	1.88E-2	9.18E+1
1.02E-1	7.13E+2	2.15E-2	1.39E+2
1.00E-1	7.29E+2	2.27E-2	1.28E+2
6.10E-3	9.08E+0	5.98E-2	3.91E+2
1.04E-1	7.58E+2	2.08E-2	1.23E+2
9.77E-2	6.98E+2	2.05E-2	1.28E+2
9.59E-2	6.93E+2	2.17E-2	1.30E+2
1.10E-1	7.05E+2	2.05E-2	1.21E+2
1.04E-1	7.05E+2	1.98E-2	1.43E+2
9.91E-2	6.88E+2	2.20E-2	9.66E+1
9.72E-2	6.65E+2	2.39E-2	1.13E+2
1.10E-1	7.56E+2	1.98E-2	1.26E+2
9.20E-2	6.80E+2	2.05E-2	8.67E+1
1.02E-1	6.68E+2	2.15E-2	1.13E+2
9.67E-2	6.92E+2	1.78E-2	1.20E+2
1.01E-1	6.98E+2	2.03E-2	1.12E+2
1.03E-1	6.87E+2	1.90E-2	1.43E+2
1.03E-1	6.55E+2	2.15E-2	9.52E+1
9.91E-2	6.80E+2	1.83E-2	1.60E+2
1.02E-1	7.53E+2	2.00E-2	1.22E+2
1.01E-1	7.02E+2	2.22E-2	1.63E+2
1.03E-1	7.37E+2	2.20E-2	1.18E+2
7.32E-3	3.32E+0	6.84E-2	3.81E+2
9.35E-2	6.58E+2	1.88E-2	1.10E+2
1.05E-1	7.72E+2	1.90E-2	1.14E+2
1.07E-1	7.62E+2	2.00E-2	1.19E+2
1.02E-1	6.80E+2	1.88E-2	9.79E+1
9.45E-2	6.52E+2	2.12E-2	1.49E+2
9.79E-2	7.01E+2	1.86E-2	1.33E+2
9.81E-2	6.65E+2	2.17E-2	1.37E+2
9.74E-2	6.25E+2	1.98E-2	1.07E+2
1.04E-1	7.23E+2	2.20E-2	1.29E+2
9.59E-2	6.92E+2	1.93E-2	1.23E+2
9.62E-2	6.22E+2	2.10E-2	1.36E+2
1.04E-1	7.12E+2	1.83E-2	1.26E+2
1.04E-1	7.25E+2	1.90E-2	8.44E+1
1.00E-1	7.40E+2	1.83E-2	1.22E+2
9.33E-2	6.45E+2	1.98E-2	1.36E+2
1.03E-1	7.42E+2	2.05E-2	1.68E+2
1.04E-1	7.24E+2	2.10E-2	1.27E+2
1.01E-1	7.12E+2	2.37E-2	1.79E+2
9.86E-2	6.88E+2	1.83E-2	1.48E+2
1.03E-1	7.33E+2	2.22E-2	1.71E+2
1.03E-1	6.68E+2	1.86E-2	1.10E+2
1.02E-1	6.98E+2	2.03E-2	1.17E+2
9.74E-2	7.21E+2	1.88E-2	1.34E+2
9.86E-2	7.02E+2	2.20E-2	1.34E+2
1.06E-1	6.83E+2	2.12E-2	1.04E+2
9.59E-2	6.46E+2	1.98E-2	1.20E+2
1.03E-1	7.29E+2	2.10E-2	1.22E+2
1.07E-1	7.45E+2	2.22E-2	1.26E+2
9.62E-2	6.81E+2	2.00E-2	1.17E+2
1.00E-1	7.19E+2	1.93E-2	1.27E+2
9.47E-2	7.00E+2	2.00E-2	1.48E+2
9.69E-2	6.83E+2	2.37E-2	1.52E+2
9.96E-2	7.21E+2	2.03E-2	1.24E+2
1.00E-1	6.35E+2	1.59E-2	4.17E+1
1.01E-1	7.27E+2	1.93E-2	1.04E+2
1.04E-1	7.53E+2	2.08E-2	1.15E+2
9.89E-2	7.56E+2	2.17E-2	1.30E+2
9.72E-2	6.76E+2	2.20E-2	1.27E+2
1.05E-1	7.43E+2	1.66E-2	1.32E+2
1.01E-1	6.66E+2	2.15E-2	1.21E+2
9.69E-2	7.28E+2	1.86E-2	1.10E+2
1.06E-1	6.92E+2	1.88E-2	1.28E+2
9.79E-2	6.80E+2	2.17E-2	1.25E+2
9.86E-2	6.95E+2	2.05E-2	1.20E+2
1.02E-1	6.89E+2	2.12E-2	1.37E+2
9.23E-2	7.24E+2	2.37E-2	1.79E+2
1.11E-1	6.83E+2	2.12E-2	9.50E+1
9.77E-2	6.43E+2	1.81E-2	9.73E+1
9.81E-2	6.80E+2	2.12E-2	1.32E+2
1.09E-1	7.58E+2	1.88E-2	9.48E+1
9.74E-2	7.71E+2	2.10E-2	1.27E+2
1.07E-1	6.90E+2	2.20E-2	9.68E+1
1.01E-1	7.18E+2	1.81E-2	9.98E+1
9.55E-2	6.76E+2	1.98E-2	1.15E+2
9.42E-2	7.04E+2	1.76E-2	9.52E+1
9.45E-2	6.87E+2	2.20E-2	1.49E+2
1.01E-1	7.02E+2	2.27E-2	1.61E+2
1.01E-1	7.25E+2	1.83E-2	1.09E+2
1.02E-1	6.51E+2	2.08E-2	1.23E+2
1.05E-1	6.70E+2	1.76E-2	6.67E+1
9.25E-2	6.70E+2	2.44E-2	1.35E+2
9.86E-2	6.49E+2	2.08E-2	1.09E+2
9.45E-2	6.88E+2	2.00E-2	1.34E+2
9.40E-2	7.00E+2	1.98E-2	1.51E+2
9.64E-2	6.65E+2	2.10E-2	1.48E+2
1.08E-1	7.02E+2	2.03E-2	1.18E+2
1.06E-1	6.76E+2	2.12E-2	1.29E+2
9.89E-2	6.88E+2	2.27E-2	1.52E+2
1.00E-1	6.46E+2	1.93E-2	9.43E+1
1.00E-1	6.96E+2	1.88E-2	1.03E+2
9.79E-2	6.84E+2	1.90E-2	1.09E+2
9.30E-2	6.79E+2	2.34E-2	1.24E+2
1.06E-1	7.40E+2	2.15E-2	1.16E+2
1.01E-1	7.31E+2	1.95E-2	1.30E+2
1.01E-1	7.02E+2	1.78E-2	1.03E+2
8.98E-2	6.41E+2	1.95E-2	1.20E+2
1.36E-1	7.38E+2	2.20E-2	1.39E+2
9.79E-2	6.73E+2	1.95E-2	1.38E+2
1.06E-1	7.42E+2	1.90E-2	1.25E+2
9.30E-2	6.67E+2	1.98E-2	1.29E+2
1.04E-1	7.01E+2	1.78E-2	1.08E+2
1.00E-1	6.63E+2	1.95E-2	1.10E+2
9.62E-2	6.95E+2	1.95E-2	1.30E+2
9.28E-2	6.06E+2	2.05E-2	7.53E+1
9.30E-2	6.65E+2	1.93E-2	1.08E+2
1.06E-1	7.27E+2	1.73E-2	1.10E+2
9.50E-2	7.36E+2	2.03E-2	1.92E+2
9.52E-2	6.79E+2	2.03E-2	1.18E+2
9.91E-2	6.99E+2	2.00E-2	9.82E+1
1.03E-1	6.85E+2	1.88E-2	1.44E+2
9.94E-2	6.68E+2	2.44E-2	1.33E+2
1.07E-1	6.93E+2	1.71E-2	1.27E+2
9.91E-2	6.42E+2	1.98E-2	1.00E+2
1.05E-1	7.57E+2	1.93E-2	1.16E+2
9.77E-2	6.65E+2	2.10E-2	1.09E+2
1.04E-1	7.34E+2	1.76E-2	1.17E+2
9.94E-2	6.62E+2	2.22E-2	1.13E+2
1.08E-1	7.47E+2	1.90E-2	1.20E+2
9.20E-2	6.60E+2	2.15E-2	8.43E+1
9.23E-2	6.48E+2	1.90E-2	1.43E+2
9.45E-2	6.86E+2	1.95E-2	1.44E+2
1.02E-1	7.34E+2	1.95E-2	1.43E+2
9.47E-2	6.46E+2	1.54E-2	9.08E+1
1.04E-1	7.19E+2	2.15E-2	1.36E+2
1.04E-1	7.03E+2	1.83E-2	1.05E+2
1.03E-1	7.21E+2	1.71E-2	7.95E+1
9.84E-2	6.91E+2	2.44E-2	1.25E+2
9.40E-2	6.47E+2	1.98E-2	1.22E+2
9.23E-2	6.98E+2	2.17E-2	1.43E+2
1.02E-1	7.12E+2	2.25E-2	1.31E+2
1.04E-1	6.98E+2	2.25E-2	1.08E+2
1.06E-1	7.32E+2	2.25E-2	1.44E+2
9.94E-2	6.87E+2	1.76E-2	1.21E+2
9.23E-2	6.80E+2	1.93E-2	1.36E+2
1.05E-1	7.58E+2	2.05E-2	1.70E+2
9.06E-2	6.77E+2	2.00E-2	1.47E+2
9.52E-2	6.14E+2	2.12E-2	1.29E+2
1.10E-1	7.29E+2	1.86E-2	1.15E+2
9.81E-2	6.82E+2	1.98E-2	1.38E+2
1.07E-1	7.26E+2	1.98E-2	1.24E+2
9.74E-2	6.88E+2	2.27E-2	1.14E+2
9.79E-2	7.00E+2	1.71E-2	1.37E+2
9.13E-2	6.53E+2	1.78E-2	1.06E+2
1.01E-1	6.88E+2	2.12E-2	8.83E+1
1.03E-1	7.15E+2	2.12E-2	1.48E+2
1.09E-1	6.85E+2	2.05E-2	1.48E+2
9.57E-2	6.78E+2	2.29E-2	1.36E+2
1.02E-1	6.87E+2	2.10E-2	9.54E+1
9.84E-2	6.83E+2	1.71E-2	9.93E+1
1.02E-1	7.15E+2	1.98E-2	1.59E+2
9.45E-2	6.38E+2	1.88E-2	1.26E+2
1.03E-1	7.00E+2	1.81E-2	9.81E+1
9.91E-2	7.05E+2	2.03E-2	1.06E+2
9.50E-2	6.94E+2	1.73E-2	1.18E+2
9.86E-2	7.23E+2	1.78E-2	1.03E+2
9.55E-2	6.62E+2	2.15E-2	1.13E+2
9.47E-2	6.68E+2	2.10E-2	1.06E+2
9.47E-2	7.04E+2	1.86E-2	1.30E+2
9.74E-2	7.12E+2	1.90E-2	1.52E+2
1.05E-1	7.02E+2	2.05E-2	1.26E+2
9.59E-2	6.99E+2	2.20E-2	1.48E+2
1.06E-1	6.70E+2	2.12E-2	7.41E+1
1.06E-1	7.40E+2	2.27E-2	1.17E+2
9.23E-2	6.75E+2	1.76E-2	8.93E+1
9.81E-2	7.01E+2	1.49E-2	9.08E+1
9.35E-2	6.74E+2	2.10E-2	9.90E+1
1.08E-1	7.63E+2	2.03E-2	1.26E+2
1.05E-1	7.59E+2	1.93E-2	1.41E+2
1.01E-1	7.34E+2	1.98E-2	1.71E+2
9.79E-2	6.93E+2	1.90E-2	1.10E+2
9.72E-2	6.92E+2	1.98E-2	1.04E+2
9.89E-2	6.89E+2	2.25E-2	1.18E+2
1.04E-1	6.95E+2	1.90E-2	1.13E+2
1.01E-1	6.96E+2	1.81E-2	1.10E+2
9.64E-2	6.54E+2	1.71E-2	1.26E+2
9.18E-2	6.78E+2	1.98E-2	1.33E+2
1.06E-1	7.38E+2	2.05E-2	1.42E+2
1.01E-1	7.30E+2	1.98E-2	1.35E+2
9.74E-2	7.01E+2	1.78E-2	1.07E+2
9.99E-2	7.11E+2	1.86E-2	1.14E+2
1.01E-1	7.28E+2	2.05E-2	1.43E+2
1.01E-1	7.60E+2	1.83E-2	1.16E+2
1.08E-1	7.08E+2	2.08E-2	1.40E+2
1.01E-1	6.74E+2	2.08E-2	8.91E+1
9.84E-2	7.09E+2	2.10E-2	9.84E+1
1.03E-1	7.13E+2	2.27E-2	1.12E+2
1.09E-1	7.23E+2	1.86E-2	1.01E+2
9.62E-2	6.77E+2	2.08E-2	1.32E+2
1.10E-1	7.38E+2	1.73E-2	8.49E+1
9.99E-2	7.11E+2	2.03E-2	1.57E+2
1.03E-1	7.29E+2	1.98E-2	9.58E+1
9.74E-2	6.73E+2	1.93E-2	1.44E+2
1.04E-1	7.29E+2	2.00E-2	1.52E+2
1.01E-1	7.25E+2	1.86E-2	1.39E+2
9.77E-2	6.73E+2	2.22E-2	1.16E+2
1.04E-1	6.69E+2	1.83E-2	1.29E+2
1.03E-1	7.48E+2	1.90E-2	1.60E+2
1.02E-1	6.70E+2	2.03E-2	1.13E+2
9.57E-2	7.20E+2	1.68E-2	9.51E+1
8.50E-2	6.22E+2	2.25E-2	1.22E+2
9.40E-2	6.76E+2	2.03E-2	1.17E+2
1.03E-1	7.26E+2	2.22E-2	1.30E+2
6.35E-3	1.06E+1	6.40E-2	3.87E+2
1.03E-1	6.98E+2	2.00E-2	1.16E+2
8.76E-2	6.65E+2	1.98E-2	1.23E+2
9.42E-2	6.69E+2	2.22E-2	1.76E+2
1.05E-1	7.26E+2	2.10E-2	1.27E+2
9.99E-2	7.20E+2	2.12E-2	1.27E+2
9.99E-2	7.44E+2	1.71E-2	1.84E+2
1.04E-1	7.00E+2	1.93E-2	1.29E+2
9.79E-2	6.66E+2	1.88E-2	9.87E+1
1.01E-1	6.72E+2	2.10E-2	1.12E+2
1.08E-1	7.28E+2	1.78E-2	7.84E+1
1.01E-1	7.45E+2	2.03E-2	1.38E+2
1.00E-1	6.76E+2	1.95E-2	8.92E+1
9.52E-2	6.51E+2	1.86E-2	1.03E+2
9.86E-2	7.02E+2	2.03E-2	1.38E+2
9.06E-2	6.86E+2	1.88E-2	1.76E+2
9.79E-2	6.62E+2	1.93E-2	1.23E+2
1.06E-1	7.00E+2	1.93E-2	1.53E+2
1.02E-1	7.03E+2	2.27E-2	1.68E+2
1.06E-1	7.51E+2	2.10E-2	1.38E+2
1.00E-1	6.84E+2	1.95E-2	1.06E+2
1.01E-1	6.55E+2	1.90E-2	7.61E+1
1.11E-1	7.51E+2	1.90E-2	1.15E+2
1.08E-1	7.18E+2	1.98E-2	9.66E+1
9.79E-2	7.11E+2	2.05E-2	1.49E+2
1.06E-1	7.11E+2	2.00E-2	1.35E+2
9.52E-2	6.67E+2	2.25E-2	1.29E+2
9.13E-2	6.86E+2	2.17E-2	1.70E+2
9.67E-2	6.49E+2	1.93E-2	8.39E+1
9.77E-2	6.85E+2	1.88E-2	1.37E+2
9.59E-2	6.90E+2	2.17E-2	1.25E+2
1.05E-1	7.51E+2	1.66E-2	9.33E+1
1.07E-1	7.27E+2	2.05E-2	1.16E+2
9.67E-2	7.38E+2	2.39E-2	1.55E+2
8.79E-2	6.36E+2	1.95E-2	1.16E+2
1.03E-1	6.78E+2	1.76E-2	1.09E+2
1.03E-1	7.06E+2	1.88E-2	8.43E+1
1.01E-1	7.25E+2	2.22E-2	1.25E+2
1.07E-1	7.21E+2	1.73E-2	1.57E+2
9.86E-2	6.72E+2	1.95E-2	1.52E+2
9.99E-2	7.35E+2	2.05E-2	1.56E+2
9.03E-2	6.41E+2	2.25E-2	1.60E+2
1.05E-1	7.06E+2	1.95E-2	1.22E+2
9.45E-2	6.85E+2	1.98E-2	1.47E+2
1.07E-1	7.39E+2	2.03E-2	1.03E+2
1.13E-1	7.69E+2	2.03E-2	1.15E+2
1.00E-1	7.52E+2	2.25E-2	1.73E+2
8.98E-2	6.67E+2	2.00E-2	1.25E+2
9.74E-2	6.90E+2	1.86E-2	9.28E+1
1.06E-1	7.16E+2	2.00E-2	1.08E+2
9.96E-2	6.93E+2	2.08E-2	1.17E+2
8.79E-2	6.78E+2	2.12E-2	1.29E+2
1.01E-1	6.89E+2	1.90E-2	1.23E+2
1.02E-1	6.27E+2	2.10E-2	1.15E+2
1.03E-1	6.61E+2	1.86E-2	1.01E+2
9.45E-2	6.30E+2	2.00E-2	1.19E+2
1.03E-1	6.96E+2	1.78E-2	1.19E+2
1.00E-1	6.82E+2	2.15E-2	1.27E+2
8.50E-2	6.35E+2	1.90E-2	8.67E+1
9.52E-2	6.39E+2	2.03E-2	8.80E+1
9.59E-2	6.76E+2	2.34E-2	1.81E+2
1.05E-1	7.44E+2	2.51E-2	1.37E+2
9.74E-2	7.04E+2	1.78E-2	1.05E+2
1.00E-1	7.58E+2	2.00E-2	1.23E+2
1.01E-1	7.08E+2	1.93E-2	1.41E+2
1.02E-1	7.25E+2	1.71E-2	1.31E+2
9.91E-2	7.12E+2	2.08E-2	1.84E+2
1.01E-1	6.73E+2	2.15E-2	1.23E+2
1.07E-1	7.37E+2	2.05E-2	1.00E+2
9.64E-2	6.68E+2	1.78E-2	1.09E+2
1.00E-1	6.94E+2	2.00E-2	1.40E+2
1.05E-1	7.18E+2	2.00E-2	7.81E+1
1.00E-1	7.06E+2	2.03E-2	1.15E+2
9.59E-2	6.84E+2	2.03E-2	1.04E+2
9.23E-2	6.47E+2	2.32E-2	1.34E+2
9.86E-2	6.87E+2	2.03E-2	1.15E+2
9.45E-2	6.74E+2	1.90E-2	1.45E+2
1.01E-1	7.17E+2	2.05E-2	1.50E+2
1.02E-1	7.41E+2	1.61E-2	1.40E+2
9.91E-2	7.37E+2	1.98E-2	1.50E+2
1.09E-1	7.38E+2	1.83E-2	1.02E+2
9.52E-2	7.13E+2	1.93E-2	1.25E+2
9.59E-2	6.75E+2	2.00E-2	1.24E+2
1.01E-1	6.83E+2	1.93E-2	9.07E+1
1.07E-1	7.52E+2	2.20E-2	1.20E+2
1.00E-1	7.52E+2	2.42E-2	1.45E+2
9.50E-2	6.94E+2	1.95E-2	1.22E+2
1.04E-1	7.22E+2	2.15E-2	1.77E+2
1.03E-1	6.92E+2	2.25E-2	1.40E+2
9.86E-2	7.06E+2	2.17E-2	1.57E+2
9.45E-2	6.73E+2	2.15E-2	1.24E+2
9.94E-2	6.70E+2	1.86E-2	1.13E+2
9.33E-2	6.56E+2	2.03E-2	1.36E+2
1.08E-1	6.98E+2	2.03E-2	1.00E+2
9.99E-2	7.08E+2	2.10E-2	1.08E+2
9.74E-2	7.34E+2	2.00E-2	1.05E+2
1.03E-1	7.66E+2	2.51E-2	1.61E+2
1.07E-1	7.79E+2	1.98E-2	1.55E+2
9.77E-2	6.50E+2	2.05E-2	8.94E+1
1.01E-1	7.27E+2	1.93E-2	1.24E+2
1.07E-1	7.53E+2	2.00E-2	1.40E+2
1.02E-1	6.86E+2	1.88E-2	1.33E+2
1.00E-1	7.04E+2	1.95E-2	1.23E+2
1.01E-1	7.02E+2	2.22E-2	1.44E+2
9.30E-2	7.11E+2	2.25E-2	1.25E+2
1.02E-1	6.71E+2	2.10E-2	1.49E+2
1.03E-1	7.01E+2	1.83E-2	1.05E+2
1.02E-1	6.89E+2	1.95E-2	8.38E+1
1.00E-1	7.26E+2	1.93E-2	1.15E+2
9.96E-2	7.42E+2	2.29E-2	1.37E+2
1.08E-1	7.81E+2	2.15E-2	1.56E+2
9.94E-2	7.12E+2	1.95E-2	1.57E+2
9.91E-2	7.16E+2	1.98E-2	1.30E+2
1.06E-1	7.30E+2	2.12E-2	1.46E+2
1.00E-1	7.06E+2	2.08E-2	1.67E+2
1.07E-1	7.12E+2	2.00E-2	1.30E+2
9.11E-2	6.38E+2	2.05E-2	1.10E+2
1.05E-1	7.21E+2	2.10E-2	1.25E+2
1.07E-1	7.73E+2	2.22E-2	9.83E+1
9.35E-2	6.99E+2	2.20E-2	1.29E+2
1.03E-1	7.38E+2	1.95E-2	1.25E+2
9.79E-2	7.26E+2	2.08E-2	1.42E+2
1.03E-1	7.52E+2	1.88E-2	1.46E+2
1.10E-1	7.53E+2	2.12E-2	1.35E+2
9.52E-2	7.29E+2	2.08E-2	1.50E+2
1.01E-1	7.04E+2	2.15E-2	1.69E+2
1.05E-1	6.83E+2	2.34E-2	1.29E+2
1.05E-1	7.16E+2	2.34E-2	1.78E+2
9.57E-2	6.46E+2	2.20E-2	1.21E+2
1.08E-1	7.28E+2	2.17E-2	1.12E+2
9.84E-2	6.62E+2	2.00E-2	9.62E+1
1.05E-1	7.46E+2	2.34E-2	1.14E+2
9.62E-2	7.17E+2	1.93E-2	1.32E+2
9.91E-2	7.31E+2	2.08E-2	1.20E+2
1.01E-1	7.34E+2	2.12E-2	1.62E+2
1.04E-1	7.30E+2	2.29E-2	1.32E+2
9.23E-2	6.82E+2	1.95E-2	1.69E+2
1.12E-1	7.99E+2	2.15E-2	1.63E+2
1.05E-1	6.86E+2	2.05E-2	1.10E+2
1.07E-1	7.15E+2	2.05E-2	8.37E+1
9.59E-2	6.81E+2	2.03E-2	1.35E+2
9.81E-2	7.05E+2	2.20E-2	1.60E+2
1.00E-1	6.70E+2	2.29E-2	1.12E+2
1.03E-1	7.62E+2	1.59E-2	1.06E+2
9.62E-2	7.15E+2	2.00E-2	1.70E+2
9.37E-2	6.58E+2	1.98E-2	1.40E+2
9.72E-2	6.43E+2	2.05E-2	1.12E+2
1.02E-1	7.06E+2	2.10E-2	1.32E+2
9.94E-2	7.01E+2	2.08E-2	9.97E+1
1.02E-1	7.18E+2	1.86E-2	1.32E+2
1.06E-1	7.04E+2	1.98E-2	9.01E+1
1.10E-1	7.09E+2	2.00E-2	8.11E+1
9.89E-2	7.12E+2	2.03E-2	1.06E+2
9.69E-2	6.64E+2	2.15E-2	9.01E+1
1.03E-1	6.87E+2	1.95E-2	1.26E+2
1.03E-1	6.70E+2	1.73E-2	8.12E+1
1.05E-1	7.17E+2	2.27E-2	1.62E+2
9.55E-2	6.68E+2	1.88E-2	1.04E+2
9.28E-2	6.65E+2	2.12E-2	1.45E+2
9.64E-2	6.81E+2	2.00E-2	1.24E+2
1.02E-1	6.58E+2	1.95E-2	1.12E+2
1.07E-1	7.72E+2	1.90E-2	1.35E+2
9.72E-2	7.05E+2	1.66E-2	1.04E+2
9.81E-2	6.58E+2	1.76E-2	9.71E+1
1.00E-1	7.17E+2	2.25E-2	1.62E+2
1.01E-1	6.72E+2	2.22E-2	1.21E+2
9.50E-2	6.71E+2	1.81E-2	9.20E+1
9.59E-2	7.03E+2	1.93E-2	1.26E+2
1.15E-1	7.19E+2	2.05E-2	1.44E+2
9.94E-2	7.27E+2	2.03E-2	1.22E+2
9.55E-2	6.90E+2	1.73E-2	9.94E+1
1.01E-1	7.26E+2	1.95E-2	1.28E+2
1.05E-1	7.29E+2	1.73E-2	1.24E+2
9.94E-2	6.63E+2	2.17E-2	1.36E+2
1.06E-1	7.22E+2	1.86E-2	1.11E+2
1.15E-1	7.48E+2	2.42E-2	1.73E+2
9.99E-2	6.97E+2	2.12E-2	1.23E+2
9.96E-2	6.76E+2	1.83E-2	9.37E+1
1.04E-1	6.80E+2	2.00E-2	8.84E+1
1.03E-1	6.80E+2	1.95E-2	8.63E+1
1.01E-1	6.84E+2	2.10E-2	1.18E+2
9.50E-2	6.76E+2	1.73E-2	1.38E+2
1.03E-1	7.08E+2	2.10E-2	1.25E+2
1.00E-1	7.17E+2	2.37E-2	1.22E+2
1.01E-1	7.21E+2	1.93E-2	9.57E+1
1.01E-1	7.65E+2	2.10E-2	1.46E+2
1.01E-1	6.91E+2	2.03E-2	9.67E+1
9.86E-2	6.85E+2	2.34E-2	1.56E+2
1.09E-1	7.93E+2	1.90E-2	1.12E+2
9.42E-2	6.46E+2	1.93E-2	9.38E+1
1.01E-1	7.09E+2	1.66E-2	9.65E+1
1.08E-1	7.61E+2	2.12E-2	1.46E+2
1.00E-1	6.95E+2	2.05E-2	9.21E+1
9.94E-2	6.91E+2	2.37E-2	1.28E+2
9.42E-2	6.54E+2	2.08E-2	9.99E+1
9.77E-2	6.90E+2	2.08E-2	1.27E+2
1.01E-1	7.66E+2	2.05E-2	1.48E+2
1.01E-1	7.45E+2	1.98E-2	1.69E+2
9.84E-2	7.32E+2	2.20E-2	1.63E+2
1.03E-1	7.23E+2	2.08E-2	1.36E+2
9.77E-2	6.44E+2	2.22E-2	1.38E+2
1.06E-1	7.74E+2	2.10E-2	1.35E+2
1.01E-1	7.19E+2	1.81E-2	1.35E+2
1.08E-1	7.43E+2	2.27E-2	1.57E+2
1.01E-1	6.96E+2	2.27E-2	1.15E+2
1.04E-1	7.26E+2	1.86E-2	1.07E+2
1.01E-1	7.18E+2	1.90E-2	1.64E+2
9.79E-2	6.84E+2	2.17E-2	1.10E+2
1.01E-1	7.26E+2	1.88E-2	1.51E+2
9.74E-2	6.82E+2	2.17E-2	1.29E+2
9.57E-2	6.73E+2	2.32E-2	1.36E+2
9.69E-2	7.05E+2	2.27E-2	1.66E+2
1.02E-1	6.61E+2	2.05E-2	1.28E+2
1.05E-1	7.10E+2	2.27E-2	1.50E+2
1.01E-1	7.15E+2	1.83E-2	7.99E+1
1.05E-1	7.40E+2	2.15E-2	1.31E+2
9.99E-2	7.46E+2	2.15E-2	1.71E+2
1.04E-1	7.31E+2	2.12E-2	1.09E+2
1.00E-1	7.41E+2	1.93E-2	1.16E+2
1.04E-1	7.17E+2	1.64E-2	9.53E+1
1.03E-1	6.50E+2	1.83E-2	8.76E+1
9.33E-2	6.48E+2	1.98E-2	1.34E+2
1.07E-1	6.68E+2	2.05E-2	8.50E+1
9.89E-2	7.40E+2	1.86E-2	1.14E+2
1.08E-1	7.08E+2	1.78E-2	7.87E+1
1.02E-1	6.43E+2	2.17E-2	1.16E+2
9.99E-2	6.97E+2	1.59E-2	7.46E+1
9.23E-2	6.83E+2	1.73E-2	8.04E+1
9.69E-2	7.15E+2	1.93E-2	1.07E+2
9.72E-2	6.92E+2	1.78E-2	8.34E+1
9.59E-2	6.68E+2	2.00E-2	1.11E+2
1.03E-1	7.20E+2	1.88E-2	1.56E+2
9.52E-2	6.95E+2	1.71E-2	1.21E+2
1.07E-1	7.28E+2	2.39E-2	1.55E+2
1.02E-1	6.77E+2	2.00E-2	1.45E+2
1.03E-1	6.97E+2	2.03E-2	1.13E+2
1.01E-1	6.58E+2	2.25E-2	9.00E+1
1.03E-1	7.44E+2	1.95E-2	1.11E+2
1.07E-1	6.97E+2	2.00E-2	1.11E+2
1.04E-1	7.28E+2	1.95E-2	1.01E+2
9.89E-2	6.96E+2	1.93E-2	1.39E+2
5.86E-3	1.56E+0	7.23E-2	4.25E+2
9.16E-2	6.74E+2	2.05E-2	1.12E+2
1.00E-1	7.67E+2	1.98E-2	1.56E+2
1.05E-1	7.49E+2	1.88E-2	1.63E+2
1.11E-1	6.44E+2	1.98E-2	9.34E+1
1.06E-1	7.60E+2	2.08E-2	1.70E+2
1.01E-1	6.99E+2	2.00E-2	1.37E+2
9.52E-2	6.84E+2	2.03E-2	1.78E+2
9.89E-2	6.78E+2	2.03E-2	1.12E+2
1.07E-1	7.13E+2	1.93E-2	9.91E+1
9.89E-2	7.17E+2	2.15E-2	1.24E+2
9.45E-2	6.81E+2	1.83E-2	1.34E+2
9.06E-2	6.52E+2	2.03E-2	1.55E+2
1.04E-1	7.41E+2	1.86E-2	1.29E+2
9.79E-2	7.06E+2	2.03E-2	9.98E+1
9.81E-2	6.94E+2	2.20E-2	1.24E+2
9.69E-2	6.80E+2	2.29E-2	1.54E+2
1.05E-1	6.77E+2	2.00E-2	9.89E+1
1.03E-1	6.91E+2	2.17E-2	9.99E+1
9.86E-2	6.23E+2	2.12E-2	1.07E+2
1.09E-1	7.46E+2	1.73E-2	1.21E+2
9.40E-2	6.63E+2	2.00E-2	1.28E+2
1.04E-1	6.93E+2	2.34E-2	1.16E+2
1.03E-1	7.18E+2	2.29E-2	1.26E+2
9.59E-2	7.34E+2	1.88E-2	1.18E+2
9.81E-2	6.89E+2	1.88E-2	1.01E+2
1.02E-1	7.46E+2	1.46E-2	1.09E+2
1.01E-1	7.48E+2	2.15E-2	1.22E+2
9.74E-2	7.08E+2	2.25E-2	1.48E+2
1.02E-1	6.84E+2	2.32E-2	1.61E+2
9.50E-2	6.49E+2	2.15E-2	1.49E+2
1.05E-1	7.65E+2	2.00E-2	1.16E+2
9.52E-2	6.65E+2	2.10E-2	1.21E+2
1.03E-1	6.85E+2	2.20E-2	1.27E+2
1.01E-1	6.48E+2	1.98E-2	9.51E+1
9.86E-2	6.84E+2	1.83E-2	1.32E+2
8.11E-2	6.29E+2	1.90E-2	1.03E+2
9.77E-2	7.01E+2	1.93E-2	1.12E+2
1.01E-1	6.98E+2	2.10E-2	1.47E+2
9.67E-2	7.03E+2	1.86E-2	1.48E+2
1.01E-1	6.55E+2	1.88E-2	9.70E+1
9.18E-2	6.64E+2	2.17E-2	1.44E+2
1.03E-1	6.81E+2	1.90E-2	9.99E+1
9.67E-2	6.46E+2	2.20E-2	1.35E+2
9.94E-2	6.90E+2	2.08E-2	1.53E+2
9.84E-2	7.05E+2	1.93E-2	1.11E+2
1.03E-1	7.41E+2	1.93E-2	9.79E+1
9.84E-2	6.79E+2	1.76E-2	8.40E+1
9.96E-2	7.25E+2	2.12E-2	1.45E+2
1.01E-1	6.58E+2	2.15E-2	1.34E+2
9.91E-2	6.62E+2	1.95E-2	8.22E+1
1.03E-1	7.16E+2	1.93E-2	7.08E+1
9.59E-2	7.21E+2	2.03E-2	1.58E+2
1.03E-1	7.32E+2	1.98E-2	1.27E+2
1.09E-1	7.04E+2	2.08E-2	7.72E+1
1.05E-1	7.25E+2	1.98E-2	1.58E+2
1.02E-1	6.98E+2	1.83E-2	1.27E+2
9.99E-2	6.54E+2	1.86E-2	1.01E+2
9.57E-2	6.52E+2	2.05E-2	1.06E+2
1.01E-1	6.80E+2	1.90E-2	8.39E+1
9.89E-2	7.28E+2	2.37E-2	1.48E+2
9.55E-2	7.23E+2	1.78E-2	1.11E+2
9.72E-2	6.82E+2	1.95E-2	9.22E+1
9.62E-2	7.25E+2	1.88E-2	1.29E+2
1.02E-1	7.25E+2	1.76E-2	9.03E+1
9.72E-2	6.87E+2	1.83E-2	1.33E+2
9.96E-2	7.02E+2	1.88E-2	1.15E+2
1.03E-1	7.24E+2	1.83E-2	1.23E+2
1.02E-1	6.70E+2	2.20E-2	1.11E+2
1.05E-1	6.93E+2	1.95E-2	9.28E+1
9.33E-2	6.37E+2	2.25E-2	1.40E+2
1.04E-1	6.96E+2	2.22E-2	1.11E+2
9.96E-2	6.70E+2	2.22E-2	1.26E+2
9.55E-2	6.84E+2	2.25E-2	1.39E+2
9.69E-2	6.90E+2	2.08E-2	1.54E+2
9.57E-2	7.27E+2	1.81E-2	1.38E+2
9.64E-2	6.50E+2	1.93E-2	9.86E+1
9.08E-2	6.50E+2	1.66E-2	1.24E+2
1.05E-1	7.70E+2	2.25E-2	1.50E+2
8.98E-2	6.45E+2	2.10E-2	1.58E+2
9.42E-2	6.52E+2	1.95E-2	1.27E+2
1.03E-1	7.26E+2	2.10E-2	1.24E+2
1.15E-1	7.97E+2	2.15E-2	1.50E+2
1.05E-1	7.31E+2	1.81E-2	9.40E+1
1.06E-1	6.90E+2	2.08E-2	9.45E+1
1.00E-1	6.83E+2	1.78E-2	8.26E+1
1.09E-1	7.46E+2	2.08E-2	1.24E+2
1.00E-1	6.73E+2	2.10E-2	9.42E+1
9.67E-2	6.74E+2	1.83E-2	1.25E+2
1.04E-1	6.98E+2	1.95E-2	1.41E+2
1.05E-1	6.56E+2	1.90E-2	1.08E+2
9.79E-2	6.88E+2	2.00E-2	1.54E+2
9.91E-2	6.84E+2	1.81E-2	1.45E+2
9.42E-2	6.51E+2	2.15E-2	8.93E+1
9.74E-2	6.89E+2	2.37E-2	1.29E+2
1.07E-1	7.41E+2	2.05E-2	1.27E+2
9.55E-2	6.74E+2	1.98E-2	9.06E+1
9.74E-2	7.20E+2	2.20E-2	1.39E+2
1.01E-1	7.46E+2	1.93E-2	9.48E+1
9.59E-2	6.57E+2	1.81E-2	1.56E+2
1.04E-1	7.46E+2	2.17E-2	1.51E+2
1.01E-1	7.38E+2	2.10E-2	1.39E+2
9.94E-2	6.89E+2	2.12E-2	1.19E+2
1.03E-1	7.23E+2	1.93E-2	9.55E+1
1.06E-1	7.16E+2	2.20E-2	1.42E+2
1.01E-1	6.99E+2	2.20E-2	1.45E+2
9.47E-2	6.33E+2	2.05E-2	8.87E+1
1.05E-1	7.24E+2	1.78E-2	1.01E+2
9.79E-2	7.22E+2	2.08E-2	1.06E+2
1.02E-1	7.27E+2	2.29E-2	1.50E+2
9.18E-2	7.04E+2	2.08E-2	1.58E+2
1.04E-1	7.18E+2	2.08E-2	1.49E+2
9.81E-2	6.80E+2	1.95E-2	1.47E+2
9.77E-2	7.14E+2	2.20E-2	1.59E+2
1.07E-1	7.06E+2	1.93E-2	1.48E+2
1.03E-1	6.96E+2	2.22E-2	1.22E+2
