8.30E-3	3.91E+1	5.62E-3	1.48E+1
6.10E-3	3.92E+1	4.88E-3	-1.51E+1
8.79E-3	3.63E+1	5.37E-3	-9.77E-2
6.35E-3	5.96E+1	4.88E-3	5.26E+1
7.57E-3	2.72E+1	5.86E-3	2.96E+1
6.59E-3	5.81E+0	5.86E-3	7.96E+0
7.08E-3	5.76E+0	5.62E-3	1.66E+1
6.84E-3	2.95E+1	5.86E-3	-1.20E+1
7.81E-3	5.37E+1	5.86E-3	4.46E+1
7.32E-3	1.95E+0	6.10E-3	9.47E+0
9.03E-3	4.67E+1	5.37E-3	2.08E+1
9.28E-3	2.22E+1	5.13E-3	-1.97E+1
8.79E-3	3.30E+1	6.10E-3	1.78E+1
7.32E-3	3.71E+0	5.13E-3	-2.98E+0
8.06E-3	6.45E+1	6.59E-3	1.51E+1
8.06E-3	7.69E+1	5.37E-3	1.68E+1
6.84E-3	4.38E+1	5.86E-3	6.05E+0
6.59E-3	3.20E+1	4.88E-3	2.93E+1
8.54E-3	2.30E+1	4.88E-3	4.93E+0
7.57E-3	3.04E+1	5.62E-3	6.84E-1
8.79E-3	2.50E+1	5.13E-3	-4.10E+0
8.79E-3	4.79E+1	5.37E-3	-1.88E+1
8.06E-3	2.36E+1	5.86E-3	2.29E+1
8.06E-3	1.57E+1	7.57E-3	-1.37E+1
7.57E-3	2.16E+1	5.13E-3	-4.44E+0
7.32E-3	1.51E+1	5.37E-3	-2.40E+1
6.10E-3	8.74E+1	4.64E-3	2.79E+1
7.32E-3	1.82E+1	5.62E-3	-1.98E+1
6.84E-3	5.48E+1	4.88E-3	3.66E+1
6.10E-3	3.16E+1	6.10E-3	2.23E+1
8.06E-3	3.33E+1	4.64E-3	-1.24E+1
7.57E-3	4.29E+1	5.13E-3	1.62E+1
6.84E-3	2.43E+1	5.37E-3	2.66E+1
8.54E-3	1.96E+1	4.64E-3	1.12E+0
8.54E-3	5.89E+1	5.37E-3	-1.60E+1
8.30E-3	1.71E+1	4.88E-3	-2.33E+1
8.30E-3	2.66E+1	6.10E-3	3.61E+0
8.54E-3	2.37E+1	7.08E-3	-8.20E+0
7.57E-3	3.33E+1	5.13E-3	-4.69E+0
7.08E-3	1.94E+1	4.39E-3	-2.08E+1
7.57E-3	3.90E+1	5.13E-3	4.88E+0
7.57E-3	4.52E+1	6.84E-3	1.07E+1
8.54E-3	3.90E+1	6.10E-3	-9.13E+0
7.81E-3	1.65E+1	5.13E-3	1.20E+1
6.10E-3	-6.84E+0	7.81E-3	-9.77E-2
7.32E-3	3.25E+1	4.64E-3	2.33E+1
6.10E-3	2.50E+1	5.62E-3	-1.76E+0
6.35E-3	-1.39E+1	5.62E-3	-1.02E+1
8.06E-3	-8.50E+0	5.62E-3	5.81E+0
7.57E-3	3.51E+1	5.13E-3	1.30E+1
8.79E-3	1.62E+1	7.32E-3	-1.90E+1
6.84E-3	2.23E+1	5.62E-3	1.42E+1
6.35E-3	5.83E+1	4.64E-3	1.73E+1
8.06E-3	3.54E+1	5.86E-3	3.75E+1
8.06E-3	3.30E+1	5.62E-3	4.05E+0
7.57E-3	5.36E+1	5.62E-3	-1.28E+1
6.10E-3	5.41E+1	5.86E-3	1.48E+1
7.32E-3	2.54E+1	5.13E-3	1.35E+1
8.79E-3	4.93E+0	5.13E-3	-1.56E+0
1.07E-2	4.23E+1	5.62E-3	-4.79E+0
8.30E-3	9.08E+0	6.35E-3	-3.22E+1
6.35E-3	-1.20E+1	4.88E-3	-1.10E+1
8.06E-3	2.11E+1	7.81E-3	-1.10E+1
9.77E-3	2.38E+1	5.37E-3	7.18E+0
7.08E-3	-1.22E+0	4.88E-3	-6.71E+1
9.52E-3	4.13E+1	5.13E-3	-1.17E+1
7.32E-3	5.00E+1	5.62E-3	1.12E+1
6.84E-3	4.74E+1	5.13E-3	2.39E+1
7.32E-3	2.34E+1	6.35E-3	9.33E+0
7.08E-3	6.93E+0	5.13E-3	-1.41E+1
7.32E-3	5.68E+1	5.37E-3	3.23E+1
8.06E-3	5.11E+1	5.37E-3	3.73E+1
5.62E-3	-1.59E+1	6.35E-3	5.47E+0
8.06E-3	4.39E-1	8.30E-3	-2.69E+1
8.79E-3	3.32E+1	6.10E-3	-1.63E+1
6.35E-3	1.22E+1	5.37E-3	-2.04E+1
8.06E-3	4.58E+1	5.13E-3	3.06E+1
7.32E-3	1.48E+1	5.62E-3	6.10E+0
6.84E-3	2.98E+1	4.39E-3	6.10E+0
8.30E-3	1.21E+1	5.37E-3	-3.04E+1
7.08E-3	1.50E+1	5.86E-3	4.20E+0
6.84E-3	4.75E+1	5.37E-3	3.00E+1
8.30E-3	1.53E+1	6.10E-3	3.49E+1
9.03E-3	3.05E+1	5.86E-3	1.15E+1
9.52E-3	1.81E+1	5.13E-3	-1.90E+1
8.30E-3	-2.67E+1	5.13E-3	-2.18E+1
8.54E-3	2.31E+1	6.10E-3	-2.25E+0
7.81E-3	1.90E+0	5.62E-3	-1.59E+1
7.57E-3	3.20E+1	6.84E-3	-9.13E+0
9.03E-3	6.27E+1	5.37E-3	-7.23E+0
6.35E-3	2.13E+1	5.37E-3	-7.32E+0
8.54E-3	5.64E+1	5.86E-3	1.90E+0
7.08E-3	2.07E+1	4.88E-3	1.01E+1
6.59E-3	5.79E+1	5.37E-3	3.81E+0
6.84E-3	4.37E+1	5.13E-3	-1.19E+1
7.81E-3	3.97E+1	6.10E-3	-1.15E+1
5.86E-3	-2.44E-1	5.37E-3	-4.88E+0
7.81E-3	-4.05E+0	6.10E-3	-1.15E+1
7.57E-3	2.57E+1	5.13E-3	-1.32E+1
8.54E-3	6.21E+1	5.62E-3	-1.90E+1
6.84E-3	2.25E+1	4.88E-3	-6.25E+0
9.03E-3	8.74E+0	4.15E-3	-2.88E+1
1.00E-2	1.36E+1	6.35E-3	-3.61E+0
7.08E-3	2.51E+1	5.86E-3	-6.25E+0
6.35E-3	4.40E+1	5.86E-3	9.33E+0
7.81E-3	4.60E+1	4.15E-3	-9.47E+0
6.84E-3	1.35E+1	4.64E-3	1.24E+1
9.03E-3	3.47E+1	4.64E-3	-1.42E+1
8.30E-3	5.29E+1	5.62E-3	1.36E+1
6.59E-3	1.97E+1	4.88E-3	1.51E+0
6.10E-3	4.83E+0	5.62E-3	5.37E-1
7.81E-3	2.86E+1	5.37E-3	7.32E+0
6.59E-3	2.72E+1	4.64E-3	-1.12E+0
9.03E-3	1.04E+1	5.62E-3	2.49E+0
6.59E-3	5.54E+1	5.37E-3	-2.24E+1
6.84E-3	-1.95E-1	6.59E-3	1.99E+1
8.30E-3	6.12E+1	4.64E-3	2.34E+0
7.08E-3	2.25E+1	6.84E-3	-3.52E+1
8.30E-3	2.58E+1	5.37E-3	-2.13E+1
7.57E-3	4.58E+1	4.88E-3	-1.26E+1
7.32E-3	4.00E+1	4.88E-3	-1.03E+1
5.86E-3	4.96E+1	5.37E-3	1.96E+1
7.32E-3	-1.16E+1	5.37E-3	1.29E+1
6.35E-3	2.40E+1	5.13E-3	-2.29E+1
7.08E-3	-1.46E+1	4.39E-3	-2.04E+1
7.57E-3	2.20E+1	4.39E-3	8.84E+0
7.08E-3	-3.56E+0	6.84E-3	-5.67E+1
9.77E-3	2.93E+1	4.88E-3	-2.89E+1
8.30E-3	5.56E+1	6.59E-3	2.25E+0
7.81E-3	2.02E+1	5.37E-3	-6.84E-1
7.81E-3	6.89E+1	5.37E-3	1.26E+1
7.32E-3	-1.03E+1	5.13E-3	1.16E+1
7.57E-3	6.74E+0	6.59E-3	2.35E+1
8.30E-3	5.04E+1	6.59E-3	3.30E+1
6.59E-3	2.57E+1	4.88E-3	2.57E+1
8.30E-3	1.42E+1	5.62E-3	5.37E+0
6.84E-3	2.04E+1	4.64E-3	9.42E+0
7.81E-3	-9.62E+0	5.37E-3	-3.46E+1
7.57E-3	2.91E+1	5.37E-3	-3.20E+1
6.59E-3	2.87E+1	5.13E-3	-5.42E+0
7.81E-3	3.00E+1	6.10E-3	2.98E+0
7.32E-3	5.58E+1	6.35E-3	5.47E+0
8.79E-3	-3.27E+0	6.10E-3	-2.43E+1
8.06E-3	4.13E+1	5.62E-3	-2.52E+1
7.81E-3	2.45E+1	5.62E-3	-3.53E+1
7.08E-3	8.18E+1	5.13E-3	4.76E+1
7.57E-3	1.85E+1	6.35E-3	2.87E+1
7.81E-3	4.05E+0	4.64E-3	5.81E+0
6.59E-3	-2.29E+1	4.88E-3	-1.46E+1
7.57E-3	3.52E+1	5.37E-3	5.55E+1
6.35E-3	1.17E+1	6.10E-3	3.02E+1
8.79E-3	-6.05E+0	4.64E-3	1.33E+1
8.06E-3	2.53E+1	5.86E-3	-1.60E+1
8.06E-3	2.70E+1	6.59E-3	4.20E+0
8.54E-3	2.77E+1	5.37E-3	-6.45E+0
7.08E-3	4.79E+1	5.37E-3	1.81E+1
8.06E-3	3.93E+1	4.88E-3	2.30E+1
6.84E-3	2.96E+1	5.13E-3	-8.79E+0
7.81E-3	2.55E+1	5.62E-3	-1.86E+1
9.03E-3	3.33E+1	5.62E-3	1.66E+0
8.30E-3	2.41E+1	4.64E-3	2.13E+1
8.54E-3	3.42E-1	5.37E-3	-1.47E+1
6.84E-3	2.90E+1	5.37E-3	-3.17E+0
8.30E-3	-1.95E+1	5.62E-3	-1.61E+1
9.03E-3	1.56E+1	4.88E-3	3.71E+0
8.06E-3	2.77E+1	5.86E-3	-8.15E+0
8.06E-3	6.74E+0	5.13E-3	-5.00E+1
8.79E-3	1.42E+0	5.86E-3	5.37E+0
6.35E-3	6.35E+0	5.13E-3	-3.69E+1
6.59E-3	2.66E+1	4.88E-3	2.96E+1
8.54E-3	4.30E+1	6.35E-3	3.07E+1
7.81E-3	-1.56E+0	4.88E-3	-2.29E+1
7.32E-3	1.61E+1	5.13E-3	9.62E+0
7.57E-3	4.43E+1	5.37E-3	7.21E+1
8.79E-3	4.89E+1	5.62E-3	4.25E+1
6.84E-3	4.54E+0	6.35E-3	2.04E+1
5.86E-3	6.30E+1	4.88E-3	4.91E+1
9.52E-3	-1.04E+1	5.13E-3	-2.69E+0
8.06E-3	5.49E+1	5.13E-3	2.06E+1
8.30E-3	2.67E+1	6.10E-3	-2.70E+1
8.30E-3	9.18E+0	8.54E-3	2.28E+1
8.79E-3	5.21E+1	5.86E-3	-9.28E-1
6.35E-3	2.08E+1	5.13E-3	-4.54E+0
7.81E-3	3.04E+1	5.37E-3	1.59E+1
7.08E-3	5.68E+1	4.88E-3	-9.33E+0
9.52E-3	1.86E+0	5.62E-3	-8.11E+0
8.30E-3	-8.79E+0	5.37E-3	-1.01E+1
8.30E-3	1.11E+1	6.35E-3	1.88E+1
7.57E-3	2.39E+1	4.88E-3	1.12E+0
9.03E-3	3.85E+1	4.39E-3	4.44E+0
7.32E-3	1.39E+1	5.37E-3	-3.15E+1
9.77E-3	1.80E+1	5.62E-3	-2.52E+1
9.03E-3	4.22E+1	5.37E-3	-1.14E+1
7.32E-3	2.11E+1	5.13E-3	-2.09E+1
6.84E-3	3.23E+1	5.37E-3	1.35E+1
5.86E-3	3.60E+1	4.64E-3	4.62E+1
8.30E-3	2.31E+1	4.88E-3	8.20E+0
8.30E-3	1.51E+1	6.59E-3	1.38E+1
9.28E-3	2.58E+1	5.37E-3	1.56E+0
9.77E-3	5.80E+1	5.86E-3	5.13E+1
7.08E-3	4.07E+1	4.64E-3	1.91E+1
5.62E-3	4.38E+1	5.37E-3	2.45E+1
9.28E-3	4.57E+1	4.88E-3	1.49E+1
7.08E-3	1.56E+1	5.13E-3	-2.92E+1
6.59E-3	5.57E+0	5.37E-3	-3.11E+1
6.59E-3	1.63E+1	5.86E-3	-1.78E+1
7.08E-3	2.88E+1	4.64E-3	-1.85E+1
8.30E-3	5.53E+1	5.13E-3	9.96E+0
8.54E-3	6.19E+1	4.64E-3	-4.88E-1
5.86E-3	4.54E+0	5.62E-3	1.16E+1
7.57E-3	1.79E+1	5.13E-3	2.93E+1
7.81E-3	1.07E+1	5.37E-3	1.82E+1
7.81E-3	8.94E+0	5.37E-3	1.46E+0
6.59E-3	3.63E+1	5.13E-3	-2.73E+0
5.86E-3	1.51E+1	5.13E-3	1.71E+1
5.13E-3	1.89E+1	5.13E-3	1.59E+1
9.28E-3	-2.20E+0	5.13E-3	-2.37E+1
7.81E-3	7.91E+0	4.15E-3	-3.25E+1
7.08E-3	3.91E+1	5.86E-3	6.45E+0
8.54E-3	5.84E+1	5.37E-3	7.76E+0
7.32E-3	4.47E+1	4.39E-3	-5.27E+0
6.10E-3	5.83E+1	5.13E-3	3.94E+1
7.32E-3	3.75E+1	4.64E-3	6.01E+0
7.57E-3	3.33E+1	5.37E-3	-2.98E+0
7.57E-3	3.04E+1	6.10E-3	1.94E+1
7.57E-3	4.30E+1	4.15E-3	1.71E+1
8.30E-3	2.64E+1	5.86E-3	-3.01E+1
8.30E-3	4.60E+1	5.37E-3	-2.15E+0
9.52E-3	2.29E+1	4.88E-3	-1.78E+1
7.57E-3	2.04E+1	5.13E-3	-3.13E+1
1.00E-2	1.74E+1	6.10E-3	-1.80E+1
9.52E-3	2.27E+1	5.62E-3	-3.09E+1
7.08E-3	1.00E+1	5.37E-3	-2.22E+1
8.06E-3	6.28E+1	5.37E-3	9.28E+0
8.54E-3	4.23E+1	5.86E-3	-1.31E+1
9.28E-3	4.92E+1	5.37E-3	2.98E+1
6.84E-3	5.65E+1	6.10E-3	5.63E+1
9.52E-3	2.77E+1	4.39E-3	1.31E+1
8.79E-3	3.29E+1	4.64E-3	4.26E+1
7.08E-3	1.39E+1	4.64E-3	5.66E+0
7.32E-3	2.36E+1	4.88E-3	1.41E+1
8.30E-3	1.73E+1	5.62E-3	2.38E+1
7.81E-3	2.76E+1	4.64E-3	-1.23E+1
7.81E-3	1.49E+1	5.37E-3	-2.06E+1
7.81E-3	4.01E+1	5.37E-3	-2.75E+1
8.06E-3	4.08E+1	6.10E-3	-3.32E+0
9.03E-3	2.15E+1	5.13E-3	-2.64E+0
7.08E-3	3.83E+1	6.35E-3	-3.66E+1
7.81E-3	4.87E+1	6.84E-3	1.89E+1
9.03E-3	6.84E+0	6.59E-3	-6.88E+0
7.08E-3	6.88E+0	5.37E-3	1.74E+1
9.77E-3	4.33E+1	5.62E-3	4.74E+0
7.08E-3	2.83E+1	5.62E-3	1.02E+1
8.30E-3	-1.68E+1	4.39E-3	-1.24E+1
7.32E-3	-4.98E+0	4.88E-3	-3.84E+1
7.32E-3	3.61E+1	5.37E-3	1.30E+1
7.08E-3	1.26E+1	5.37E-3	-1.33E+1
8.79E-3	2.66E+1	6.35E-3	-2.14E+1
7.08E-3	3.70E+1	5.62E-3	1.36E+1
6.10E-3	4.98E+0	6.10E-3	1.89E+1
7.81E-3	1.84E+1	5.62E-3	1.99E+1
8.79E-3	6.37E+1	5.86E-3	6.64E+0
9.77E-3	1.57E+1	5.62E-3	-1.40E+1
8.30E-3	7.08E+1	4.64E-3	3.19E+1
7.57E-3	-6.10E+0	5.13E-3	-1.86E+1
7.57E-3	2.90E+1	6.59E-3	2.36E+1
9.77E-3	4.19E+1	5.13E-3	-1.72E+1
9.77E-3	2.69E+1	4.88E-3	-2.05E+1
5.86E-3	4.40E+1	5.37E-3	2.05E+0
8.06E-3	4.26E+1	5.62E-3	4.83E+0
7.81E-3	1.94E+1	5.37E-3	-3.18E+1
1.00E-2	4.62E+1	4.88E-3	4.59E+0
8.79E-3	2.56E+1	5.37E-3	-2.43E+1
8.30E-3	9.42E+0	6.35E-3	1.54E+1
6.84E-3	2.27E+1	6.10E-3	2.42E+1
5.37E-3	-1.07E+1	8.06E-3	-9.57E+0
7.81E-3	2.26E+1	4.64E-3	2.83E+0
1.05E-2	-3.54E+1	4.88E-3	-4.06E+1
7.32E-3	1.54E+1	5.37E-3	-1.02E+1
7.08E-3	3.32E+0	5.13E-3	-1.57E+1
6.59E-3	4.88E-1	6.10E-3	-3.29E+1
9.03E-3	8.98E+0	5.62E-3	-1.77E+1
7.08E-3	4.53E+1	5.13E-3	-3.37E+0
6.59E-3	4.06E+1	5.13E-3	3.42E+0
1.10E-2	5.96E+1	5.37E-3	4.21E+1
8.30E-3	5.66E+1	5.86E-3	2.78E+1
7.81E-3	8.84E+0	4.88E-3	-7.23E+0
5.62E-3	1.29E+1	5.86E-3	6.84E-1
7.57E-3	3.44E+1	5.37E-3	2.59E+1
5.37E-3	1.55E+1	5.62E-3	3.03E+1
8.06E-3	7.76E+0	4.88E-3	-2.31E+1
5.86E-3	3.36E+1	5.37E-3	6.29E+1
7.81E-3	2.57E+1	4.64E-3	-3.39E+1
1.00E-2	4.94E+1	4.88E-3	1.49E+1
8.30E-3	-1.63E+1	5.37E-3	-2.70E+1
7.81E-3	5.71E+0	4.88E-3	-1.88E+1
6.84E-3	5.31E+1	6.10E-3	3.56E+0
6.59E-3	5.43E+1	6.84E-3	3.84E+1
5.86E-3	2.97E+1	6.10E-3	-8.30E+0
6.84E-3	1.44E+1	5.86E-3	9.81E+0
6.84E-3	-1.44E+1	5.62E-3	-2.11E+1
7.81E-3	3.94E+1	5.86E-3	1.99E+1
5.86E-3	1.68E+1	4.64E-3	2.31E+1
8.54E-3	2.14E+1	5.13E-3	-2.15E+0
7.08E-3	1.82E+1	5.13E-3	-3.12E+1
6.35E-3	-5.52E+0	5.62E-3	2.64E+0
8.30E-3	3.19E+1	5.62E-3	-1.81E+0
6.59E-3	4.00E+1	5.62E-3	3.80E+1
6.84E-3	5.61E+1	5.13E-3	-1.14E+1
9.03E-3	4.95E+1	4.39E-3	-1.88E+1
9.28E-3	3.91E+1	5.13E-3	1.81E+0
7.32E-3	2.58E+1	4.39E-3	5.37E-1
6.84E-3	5.84E+1	5.62E-3	2.36E+1
8.79E-3	1.37E+1	4.39E-3	8.11E+0
6.59E-3	-4.39E+0	4.39E-3	-2.83E+1
8.30E-3	2.71E+1	6.10E-3	-1.88E+1
8.54E-3	4.43E+1	5.86E-3	2.14E+1
7.08E-3	1.39E+1	5.86E-3	2.73E+1
7.57E-3	-9.28E-1	6.10E-3	6.69E+0
8.30E-3	2.80E+1	5.86E-3	2.44E+0
8.54E-3	5.32E+0	4.88E-3	-3.35E+1
8.30E-3	2.45E+1	4.64E-3	-2.29E+1
7.81E-3	3.84E+1	5.13E-3	3.55E+1
6.35E-3	1.26E+1	5.37E-3	3.79E+1
8.79E-3	5.20E+1	5.62E-3	4.09E+1
8.79E-3	6.05E+0	5.37E-3	-5.22E+1
6.59E-3	2.43E+1	5.37E-3	1.60E+1
7.32E-3	2.42E+1	5.37E-3	2.82E+1
7.32E-3	3.41E+1	5.13E-3	5.86E+1
7.08E-3	2.61E+1	5.37E-3	-2.23E+1
7.57E-3	9.28E+0	4.64E-3	-2.21E+1
7.32E-3	2.85E+1	5.62E-3	-3.92E+1
7.32E-3	4.35E+1	6.35E-3	1.05E+1
8.06E-3	2.60E+1	5.13E-3	-5.47E+0
7.81E-3	2.59E+1	5.13E-3	-3.27E+0
7.57E-3	1.71E+1	5.13E-3	-2.39E+0
6.35E-3	3.67E+1	5.13E-3	1.34E+1
8.79E-3	1.75E+1	5.13E-3	2.19E+1
7.81E-3	-1.52E+1	5.37E-3	-5.27E+0
8.06E-3	-1.73E+1	5.13E-3	8.30E-1
6.59E-3	-6.30E+0	4.88E-3	-2.80E+1
9.28E-3	2.28E+1	4.88E-3	2.50E+1
6.84E-3	1.94E+1	4.39E-3	-8.20E+0
7.57E-3	1.11E+1	4.64E-3	-2.00E+1
7.81E-3	1.71E+1	4.39E-3	-2.76E+1
6.35E-3	3.54E+1	6.10E-3	1.40E+1
6.59E-3	6.07E+1	4.88E-3	3.90E+1
9.28E-3	3.90E+1	5.37E-3	3.59E+1
6.35E-3	2.39E+1	5.13E-3	-4.00E+0
9.28E-3	1.71E+0	6.59E-3	2.15E+1
6.84E-3	2.69E+1	5.86E-3	6.54E+0
8.06E-3	7.36E+1	6.10E-3	-3.27E+0
7.08E-3	1.38E+1	4.88E-3	1.95E+0
7.08E-3	5.12E+1	6.35E-3	5.76E+0
9.03E-3	-7.23E+0	4.88E-3	-1.36E+1
9.28E-3	3.22E+1	5.86E-3	-1.69E+1
9.28E-3	5.56E+1	5.13E-3	-2.88E+0
8.06E-3	2.27E+1	6.59E-3	-7.52E+0
8.79E-3	6.59E+1	5.37E-3	2.31E+1
8.54E-3	4.42E+1	5.86E-3	5.76E+0
8.30E-3	1.20E+1	5.37E-3	-4.00E+0
5.62E-3	6.11E+1	6.10E-3	4.05E+1
7.08E-3	4.49E+1	5.13E-3	1.53E+1
6.35E-3	3.19E+1	5.62E-3	-4.10E+0
7.08E-3	3.91E-1	6.35E-3	-3.22E+0
7.32E-3	4.01E+1	4.88E-3	1.82E+1
6.59E-3	-5.91E+0	4.64E-3	-1.94E+1
1.03E-2	5.98E+1	4.64E-3	7.62E+0
8.06E-3	4.52E+1	6.59E-3	-2.44E+1
9.03E-3	2.36E+1	6.35E-3	-2.89E+1
7.81E-3	3.58E+1	5.86E-3	-2.02E+1
6.84E-3	4.96E+1	6.10E-3	-4.64E+0
8.30E-3	3.79E+1	6.35E-3	1.86E+1
7.57E-3	1.00E+1	4.88E-3	-6.93E+0
9.52E-3	2.08E+1	5.37E-3	-1.47E+1
7.57E-3	7.19E+1	5.37E-3	2.69E+1
6.35E-3	2.95E+1	4.39E-3	-7.08E+0
8.06E-3	6.88E+0	4.88E-3	2.54E+0
9.28E-3	6.64E+0	4.88E-3	-2.47E+1
8.30E-3	1.92E+1	5.62E-3	-2.20E+1
6.35E-3	5.08E+1	6.10E-3	3.32E+1
8.54E-3	2.86E+1	5.13E-3	2.69E+1
6.84E-3	2.20E+1	4.39E-3	-3.32E+1
6.84E-3	1.51E+0	6.10E-3	-5.03E+1
8.54E-3	3.39E+1	4.15E-3	1.12E+0
7.57E-3	7.19E+1	5.86E-3	2.91E+1
8.79E-3	2.13E+1	5.37E-3	5.81E+0
8.06E-3	1.47E+1	5.62E-3	1.97E+1
7.81E-3	5.59E+1	5.13E-3	5.81E+1
7.32E-3	-7.81E-1	5.37E-3	2.60E+1
8.54E-3	2.72E+1	5.62E-3	1.46E+0
9.77E-3	7.28E+1	5.37E-3	5.53E+1
7.08E-3	4.69E+0	4.88E-3	-1.68E+1
6.59E-3	1.25E+1	5.62E-3	-5.27E+0
6.35E-3	4.18E+1	4.88E-3	2.40E+1
6.84E-3	3.75E+1	5.37E-3	-3.34E+1
7.32E-3	3.96E+1	4.15E-3	4.54E+0
7.81E-3	2.16E+1	4.64E-3	-1.67E+1
6.59E-3	5.06E+1	6.10E-3	-1.88E+1
6.35E-3	4.65E+1	5.13E-3	1.95E-1
7.57E-3	1.25E+1	6.35E-3	-7.62E+0
8.30E-3	4.40E+1	4.15E-3	2.34E+1
6.59E-3	3.42E+1	5.86E-3	7.62E+0
6.84E-3	8.35E+0	5.37E-3	3.29E+1
8.30E-3	3.20E+1	5.86E-3	-1.46E+0
7.81E-3	1.38E+1	4.39E-3	-2.59E+1
6.35E-3	1.14E+1	5.37E-3	2.04E+1
8.30E-3	3.66E+0	4.88E-3	-9.23E+0
8.79E-3	8.79E-1	5.37E-3	-3.08E+1
7.08E-3	3.21E+1	4.88E-3	2.00E+1
1.00E-2	1.67E+1	5.62E-3	-2.13E+1
9.52E-3	5.00E+1	5.86E-3	4.03E+1
9.52E-3	1.73E+1	4.88E-3	-7.67E+0
1.22E-2	4.53E+1	5.37E-3	3.67E+1
8.54E-3	3.50E+1	6.59E-3	2.99E+1
6.84E-3	2.75E+1	6.84E-3	2.77E+1
7.32E-3	4.75E+1	5.86E-3	2.87E+1
8.06E-3	4.28E+1	5.86E-3	-1.35E+1
7.32E-3	7.13E+0	5.86E-3	3.42E-1
7.08E-3	1.73E+1	4.39E-3	-4.15E+0
7.32E-3	5.15E+1	6.35E-3	5.86E-1
6.84E-3	3.76E+1	4.64E-3	9.91E+0
6.84E-3	4.19E+1	4.88E-3	5.03E+0
6.84E-3	1.92E+1	6.35E-3	-5.96E+0
7.08E-3	1.43E+1	5.37E-3	-2.57E+1
7.32E-3	2.31E+1	5.62E-3	7.23E+0
9.52E-3	5.32E+0	5.62E-3	1.06E+1
7.57E-3	-4.35E+0	5.62E-3	-3.42E-1
8.54E-3	3.01E+1	4.88E-3	-2.78E+0
8.79E-3	4.45E+1	5.13E-3	4.23E+1
8.54E-3	1.24E+1	5.13E-3	1.79E+1
6.84E-3	5.27E+0	5.62E-3	-5.37E-1
9.03E-3	9.77E+0	5.86E-3	-2.83E+0
1.12E-2	2.73E+0	5.86E-3	-1.97E+1
7.57E-3	4.52E+1	5.62E-3	-2.73E+0
7.57E-3	4.94E+1	5.86E-3	0.00E+0
8.30E-3	3.41E+1	5.62E-3	7.91E+0
6.84E-3	-6.01E+0	5.86E-3	-4.05E+0
8.79E-3	1.49E+1	6.10E-3	8.30E-1
9.28E-3	3.92E+1	6.59E-3	-1.42E+0
8.06E-3	2.53E+1	5.62E-3	4.19E+1
8.06E-3	-4.30E+0	4.64E-3	-1.21E+1
7.57E-3	3.61E+1	5.86E-3	-2.68E+1
6.84E-3	3.61E+1	5.37E-3	-2.44E-1
8.30E-3	5.23E+1	5.37E-3	7.96E+0
7.81E-3	5.33E+1	5.13E-3	-3.13E+1
8.54E-3	1.62E+1	5.13E-3	5.27E+0
6.59E-3	8.45E+0	5.86E-3	-7.96E+0
7.32E-3	1.54E+1	5.13E-3	-5.32E+0
7.57E-3	7.32E+0	6.35E-3	2.96E+1
7.08E-3	2.28E+1	5.62E-3	4.36E+1
7.08E-3	8.40E+0	4.88E-3	1.25E+1
6.84E-3	2.78E+0	5.13E-3	-3.16E+1
7.08E-3	4.52E+1	5.62E-3	1.69E+1
6.84E-3	7.40E+1	5.37E-3	6.63E+1
7.57E-3	1.05E+1	5.13E-3	2.44E-1
7.08E-3	5.43E+1	5.37E-3	3.16E+1
1.00E-2	2.50E+1	6.10E-3	-2.47E+1
5.13E-3	-5.66E+0	8.06E-3	2.59E+0
9.77E-3	4.51E+1	6.59E-3	-2.33E+1
7.08E-3	2.87E+1	4.88E-3	6.74E+0
9.52E-3	2.92E+1	5.62E-3	7.57E+0
6.59E-3	1.54E+1	5.13E-3	-2.41E+1
7.81E-3	3.64E+1	4.88E-3	3.14E+1
8.54E-3	3.41E+1	5.37E-3	9.47E+0
6.59E-3	3.35E+1	4.64E-3	3.39E+1
1.07E-2	-6.88E+0	5.37E-3	-1.35E+1
5.86E-3	2.11E+1	6.59E-3	-2.81E+1
6.84E-3	2.10E+1	5.37E-3	2.31E+1
6.84E-3	1.13E+1	5.86E-3	-1.03E+1
7.32E-3	3.10E+1	4.64E-3	2.13E+1
6.59E-3	-2.03E+1	5.13E-3	-1.02E+1
7.32E-3	2.73E+1	5.37E-3	-1.95E+1
6.59E-3	1.50E+1	6.10E-3	7.32E-1
5.13E-3	1.05E+1	5.37E-3	3.62E+1
5.86E-3	2.79E+1	6.10E-3	7.67E+0
9.52E-3	-3.71E+0	4.88E-3	-1.48E+1
7.57E-3	1.88E+1	4.39E-3	-2.30E+1
7.32E-3	3.21E+1	4.39E-3	4.10E+0
8.06E-3	3.65E+1	4.64E-3	1.90E+1
7.32E-3	4.87E+1	5.13E-3	4.95E+1
7.08E-3	8.89E+0	5.62E-3	-8.79E-1
8.30E-3	2.64E+1	4.64E-3	-1.27E+0
6.84E-3	4.25E+1	5.86E-3	-2.29E+1
9.03E-3	1.17E+1	5.86E-3	-1.75E+1
8.54E-3	5.59E+1	5.37E-3	1.84E+1
7.08E-3	3.73E+1	5.37E-3	-3.66E+0
7.57E-3	2.96E+1	4.39E-3	3.27E+0
8.06E-3	7.70E+1	5.13E-3	2.34E+1
7.57E-3	5.24E+1	5.13E-3	2.00E+0
7.81E-3	3.10E+1	5.37E-3	3.40E+1
7.81E-3	-1.04E+1	5.37E-3	-4.52E+1
8.30E-3	1.39E+1	5.13E-3	-4.64E+0
7.57E-3	2.75E+1	5.13E-3	2.78E+1
7.08E-3	1.29E+1	7.81E-3	2.25E+1
6.84E-3	3.90E+1	5.86E-3	3.44E+1
9.03E-3	5.61E+1	6.59E-3	4.15E+0
7.32E-3	3.49E+1	5.86E-3	-5.18E+0
7.57E-3	4.95E+1	6.35E-3	4.57E+1
9.28E-3	4.30E+1	5.37E-3	-1.77E+1
8.06E-3	4.47E+1	5.37E-3	-2.16E+1
7.08E-3	4.23E+1	5.13E-3	1.84E+1
9.77E-3	2.82E+1	4.64E-3	5.18E+0
6.84E-3	4.83E+1	5.37E-3	2.29E+1
6.10E-3	-2.05E+1	6.10E-3	-9.77E-1
7.08E-3	1.91E+1	4.64E-3	1.45E+1
7.81E-3	4.35E+1	5.86E-3	-3.17E+0
8.06E-3	1.03E+1	5.62E-3	-6.10E+0
7.57E-3	1.37E+1	5.13E-3	-1.32E+0
7.81E-3	1.14E+1	5.37E-3	-1.65E+1
7.81E-3	2.04E+1	5.37E-3	5.52E+0
7.81E-3	3.72E+1	6.84E-3	-1.25E+1
7.08E-3	7.81E+1	5.13E-3	7.81E+0
7.81E-3	3.94E+1	6.59E-3	-9.03E+0
6.35E-3	2.05E+1	5.37E-3	1.85E+1
7.08E-3	3.98E+1	5.86E-3	7.47E+0
6.35E-3	-1.37E+1	4.64E-3	1.13E+1
7.81E-3	-1.46E-1	4.88E-3	-7.76E+0
6.59E-3	4.31E+1	5.37E-3	2.72E+1
9.03E-3	9.37E+0	4.39E-3	-2.02E+1
9.03E-3	-3.86E+0	5.37E-3	1.23E+1
8.54E-3	6.01E+0	5.86E-3	-2.71E+1
8.06E-3	2.93E+1	5.37E-3	-3.52E+1
1.00E-2	5.39E+1	4.15E-3	1.21E+1
5.86E-3	5.18E+1	6.10E-3	2.23E+1
7.08E-3	1.42E+1	6.10E-3	-3.94E+1
9.03E-3	1.47E+1	5.37E-3	-1.13E+1
7.08E-3	1.03E+0	5.37E-3	-4.60E+1
8.79E-3	3.96E+1	6.10E-3	9.86E+0
9.03E-3	3.11E+1	5.62E-3	1.24E+1
8.54E-3	2.50E+1	5.13E-3	7.37E+0
6.59E-3	2.36E+1	5.37E-3	-1.12E+0
8.30E-3	9.37E+0	5.37E-3	-5.47E+0
7.32E-3	9.18E+0	4.15E-3	-1.88E+1
9.52E-3	-1.28E+1	5.86E-3	-3.27E+0
7.81E-3	-1.52E+1	5.37E-3	-9.77E-1
6.59E-3	3.87E+1	4.15E-3	2.88E+0
8.30E-3	2.48E+1	4.39E-3	4.00E+0
6.35E-3	4.18E+1	5.13E-3	5.31E+1
8.30E-3	-3.91E-1	6.35E-3	-4.39E-1
7.32E-3	1.34E+1	4.64E-3	-1.83E+1
7.32E-3	2.32E+1	4.88E-3	-2.86E+1
7.81E-3	4.23E+1	5.37E-3	9.77E-2
8.54E-3	7.04E+1	4.64E-3	1.17E+1
6.35E-3	1.42E+1	5.86E-3	-3.56E+0
7.32E-3	3.65E+1	5.86E-3	2.64E+0
8.06E-3	6.98E+0	5.86E-3	-8.50E+0
7.81E-3	3.09E+1	4.64E-3	2.93E-1
8.54E-3	2.74E+1	5.62E-3	1.01E+1
7.32E-3	2.20E+1	4.15E-3	-1.79E+1
8.06E-3	8.64E+0	6.10E-3	-1.01E+1
7.57E-3	3.76E+1	5.37E-3	-1.46E-1
7.81E-3	3.13E+1	5.62E-3	1.44E+1
7.08E-3	4.36E+1	5.62E-3	1.40E+1
9.03E-3	5.23E+1	4.88E-3	3.06E+1
1.05E-2	4.98E+0	4.64E-3	8.50E+0
8.54E-3	1.34E+1	5.62E-3	-2.26E+1
5.86E-3	2.63E+1	5.13E-3	1.95E+1
8.79E-3	2.29E+0	6.84E-3	-4.39E-1
7.57E-3	1.81E+0	5.62E-3	9.23E+0
6.84E-3	3.79E+1	6.10E-3	-4.20E+0
8.54E-3	-1.19E+1	5.13E-3	-1.58E+1
6.84E-3	7.71E+0	3.66E-3	-1.70E+1
7.81E-3	4.92E+1	5.37E-3	2.20E+1
7.57E-3	4.16E+1	6.35E-3	6.30E+0
8.54E-3	2.28E+1	4.88E-3	-5.21E+1
8.54E-3	3.57E+1	4.64E-3	1.76E+0
7.81E-3	6.57E+1	5.13E-3	1.20E+1
9.28E-3	-1.42E+0	5.62E-3	-3.37E+1
9.03E-3	1.28E+1	6.59E-3	4.33E+1
8.30E-3	3.05E+1	5.37E-3	7.47E+0
7.08E-3	3.03E+1	4.88E-3	5.86E+0
7.32E-3	1.19E+1	5.37E-3	-2.86E+1
8.06E-3	-2.01E+1	6.10E-3	-2.75E+1
9.28E-3	7.13E+0	4.39E-3	-3.17E+0
6.59E-3	1.40E+1	5.37E-3	-2.70E+1
7.32E-3	4.99E+1	4.15E-3	1.90E+1
7.81E-3	3.33E+1	4.88E-3	-2.59E+1
6.10E-3	5.60E+1	5.62E-3	3.51E+1
8.06E-3	5.08E+1	4.88E-3	2.81E+1
7.32E-3	3.46E+1	4.64E-3	4.50E+1
9.28E-3	1.90E+1	5.86E-3	-4.06E+1
7.57E-3	1.91E+1	5.37E-3	1.72E+1
7.32E-3	3.82E+1	4.88E-3	1.88E+1
8.54E-3	1.79E+1	6.35E-3	-1.12E+0
8.30E-3	1.32E+1	5.13E-3	-9.62E+0
6.84E-3	2.22E+1	6.84E-3	1.19E+1
7.81E-3	3.59E+1	5.62E-3	6.49E+0
7.08E-3	2.47E+1	4.15E-3	-5.03E+0
7.32E-3	2.97E+1	4.88E-3	-1.61E+1
7.81E-3	8.15E+0	5.13E-3	7.96E+0
8.54E-3	2.27E+1	5.37E-3	-1.02E+1
7.57E-3	5.62E+0	5.37E-3	-3.71E+1
6.59E-3	1.67E+1	5.62E-3	1.60E+1
8.54E-3	1.37E+0	5.37E-3	2.21E+1
7.08E-3	1.15E+1	5.86E-3	1.85E+1
8.06E-3	1.20E+1	5.62E-3	-2.57E+1
7.08E-3	2.13E+1	4.88E-3	1.69E+1
7.57E-3	1.65E+1	4.64E-3	1.04E+1
7.57E-3	5.36E+1	4.64E-3	1.58E+1
5.86E-3	1.25E+1	4.88E-3	2.50E+1
8.30E-3	3.39E+1	6.35E-3	3.91E+0
6.84E-3	2.13E+1	4.64E-3	-1.25E+1
7.81E-3	3.69E+1	4.88E-3	-2.92E+1
9.52E-3	6.86E+1	4.64E-3	3.27E+1
8.30E-3	2.44E+1	7.08E-3	-9.03E+0
6.84E-3	1.97E+1	5.62E-3	-1.09E+1
6.35E-3	1.56E+1	4.88E-3	-1.33E+1
6.59E-3	3.49E+1	5.62E-3	9.42E+0
6.35E-3	3.27E+0	4.64E-3	4.53E+1
8.30E-3	1.04E+1	5.13E-3	-6.88E+0
6.84E-3	3.72E+1	4.88E-3	-2.14E+1
6.35E-3	-6.15E+0	4.88E-3	3.47E+0
7.08E-3	2.68E+1	5.13E-3	-1.54E+1
7.08E-3	-5.76E+0	6.10E-3	-3.00E+1
7.08E-3	3.14E+1	7.32E-3	-9.91E+0
8.30E-3	-2.44E+0	4.39E-3	9.23E+0
8.30E-3	4.00E+1	5.13E-3	1.31E+1
7.57E-3	4.77E+1	4.88E-3	1.48E+1
7.08E-3	1.28E+1	5.37E-3	2.00E+1
6.35E-3	1.82E+1	4.88E-3	2.20E+0
6.59E-3	2.74E+1	4.88E-3	1.16E+1
7.57E-3	2.23E+1	5.62E-3	1.65E+1
6.59E-3	2.14E+1	5.37E-3	2.46E+1
8.30E-3	3.34E+1	5.86E-3	1.04E+1
8.06E-3	1.46E+1	4.64E-3	-4.88E-1
4.64E-3	-7.32E+0	7.08E-3	-5.75E+1
8.79E-3	3.46E+1	4.15E-3	-2.53E+1
7.32E-3	4.50E+1	5.37E-3	5.66E+0
5.86E-3	4.25E+1	6.35E-3	-1.49E+1
6.35E-3	3.52E+1	4.39E-3	1.70E+1
6.84E-3	3.68E+1	5.62E-3	-7.37E+0
7.08E-3	1.25E+1	6.10E-3	-4.02E+1
7.08E-3	2.13E+1	5.62E-3	1.20E+1
9.03E-3	1.61E+1	5.86E-3	7.32E-1
6.10E-3	4.01E+1	5.62E-3	2.95E+1
7.81E-3	3.46E+1	5.62E-3	2.14E+1
6.59E-3	2.18E+1	5.62E-3	6.74E+0
7.08E-3	3.32E+0	6.59E-3	5.52E+0
8.30E-3	2.37E+1	5.62E-3	1.00E+1
7.57E-3	2.87E+1	5.13E-3	7.42E+0
7.81E-3	2.26E+1	4.88E-3	-1.54E+1
6.35E-3	4.65E+1	5.37E-3	2.50E+1
9.03E-3	4.88E+1	5.13E-3	1.87E+1
7.57E-3	2.65E+1	5.37E-3	7.13E+0
9.03E-3	4.08E+1	5.13E-3	1.07E+1
7.81E-3	2.20E+1	5.86E-3	-1.01E+1
8.30E-3	5.97E+1	5.37E-3	3.84E+1
6.84E-3	2.35E+1	6.35E-3	1.36E+1
7.32E-3	2.50E+1	6.10E-3	2.19E+1
7.08E-3	-1.29E+1	5.13E-3	-4.39E+0
8.54E-3	3.63E+1	5.37E-3	-1.86E+1
7.32E-3	4.69E+1	5.37E-3	2.59E+0
7.57E-3	2.60E+1	6.10E-3	-3.08E+0
9.52E-3	1.22E+1	6.84E-3	-2.17E+1
8.06E-3	4.98E+0	4.88E-3	1.07E+0
5.86E-3	3.64E+1	6.59E-3	-4.17E+1
9.28E-3	3.21E+1	4.88E-3	-1.95E+1
9.28E-3	3.60E+1	6.10E-3	4.48E+1
9.28E-3	4.98E+0	6.59E-3	1.19E+1
6.84E-3	1.95E+0	3.91E-3	-1.52E+1
9.52E-3	4.44E+0	5.86E-3	1.29E+1
9.28E-3	3.45E+1	5.37E-3	1.13E+1
7.32E-3	4.51E+1	5.13E-3	1.71E+1
1.00E-2	-5.13E+0	5.37E-3	3.76E+0
1.07E-2	2.32E+1	4.64E-3	-5.13E+0
6.59E-3	2.14E+1	4.88E-3	-7.42E+0
6.84E-3	1.60E+1	4.88E-3	7.67E+0
9.28E-3	1.85E+1	5.86E-3	1.73E+1
9.77E-3	4.73E+1	5.13E-3	-1.40E+1
6.84E-3	4.98E+1	5.86E-3	1.36E+1
1.05E-2	5.19E+1	5.62E-3	4.15E+1
7.08E-3	4.65E+1	5.37E-3	-1.76E+0
6.84E-3	-1.24E+1	5.37E-3	9.96E+0
1.12E-2	1.07E+0	4.88E-3	-8.69E+0
1.00E-2	2.10E+0	5.86E-3	-3.25E+1
8.30E-3	4.32E+1	5.86E-3	2.21E+1
1.03E-2	-1.61E+0	7.08E-3	-3.19E+1
7.32E-3	-1.39E+1	4.39E-3	-2.61E+1
8.54E-3	7.34E+1	4.39E-3	8.40E+0
5.62E-3	2.31E+1	5.13E-3	-2.39E+1
8.06E-3	3.83E+1	5.13E-3	1.68E+1
7.57E-3	3.11E+1	5.62E-3	2.70E+1
7.32E-3	3.79E+1	5.37E-3	9.72E+0
6.59E-3	3.86E+1	4.39E-3	3.18E+1
7.81E-3	3.57E+1	4.88E-3	2.33E+1
7.08E-3	2.45E+1	5.37E-3	1.01E+1
8.06E-3	6.01E+0	5.37E-3	1.06E+1
1.05E-2	-1.19E+1	4.88E-3	-2.23E+1
9.28E-3	3.66E+1	6.10E-3	-1.50E+1
8.30E-3	1.89E+1	4.64E-3	6.59E+0
8.30E-3	7.29E+1	5.37E-3	1.94E+1
9.03E-3	2.57E+1	5.13E-3	-5.18E+0
4.64E-3	7.76E+0	7.32E-3	3.85E+1
9.77E-3	2.43E+1	4.39E-3	-2.47E+1
6.59E-3	8.89E+0	5.37E-3	-2.62E+1
7.08E-3	4.20E+1	5.86E-3	9.23E+0
7.57E-3	1.40E+1	4.39E-3	2.92E+1
9.28E-3	-1.54E+1	4.39E-3	-3.96E+0
9.52E-3	-2.44E-1	5.62E-3	-1.46E+1
7.57E-3	2.27E+1	6.10E-3	3.67E+1
6.10E-3	2.38E+1	5.37E-3	2.08E+1
8.30E-3	2.44E+1	5.13E-3	-5.91E+0
7.32E-3	2.42E+1	6.84E-3	2.56E+1
8.06E-3	1.57E+1	5.62E-3	-2.77E+1
7.81E-3	4.17E+1	7.32E-3	-1.88E+1
7.32E-3	7.03E+0	6.10E-3	-2.16E+1
7.57E-3	5.51E+1	5.13E-3	2.56E+1
7.57E-3	1.70E+1	5.13E-3	1.46E+1
6.84E-3	5.17E+1	5.62E-3	3.47E+1
6.84E-3	5.07E+1	6.35E-3	2.29E+0
8.30E-3	3.86E+1	5.13E-3	1.48E+1
8.30E-3	3.76E+1	5.37E-3	2.54E+1
8.30E-3	7.71E+0	4.64E-3	-7.18E+0
7.08E-3	-5.47E+0	5.62E-3	-1.44E+1
7.57E-3	3.45E+1	5.13E-3	2.20E+0
6.59E-3	-5.27E+0	5.62E-3	-2.74E+1
7.81E-3	1.06E+1	6.10E-3	1.79E+1
7.57E-3	3.88E+1	5.62E-3	-2.83E+0
8.79E-3	2.17E+1	5.86E-3	-3.96E+1
6.10E-3	3.78E+1	6.10E-3	1.07E+1
7.08E-3	2.99E+1	7.81E-3	-6.93E+0
7.57E-3	4.70E+1	6.84E-3	1.81E+1
5.62E-3	-3.09E+1	4.64E-3	-2.25E+1
6.84E-3	1.44E+1	5.86E-3	2.09E+1
7.08E-3	1.51E+1	4.64E-3	-2.83E+1
7.32E-3	3.17E+1	7.08E-3	2.83E+1
8.79E-3	2.54E+1	5.62E-3	5.27E+0
6.84E-3	3.59E+1	7.08E-3	1.70E+1
9.77E-3	1.33E+1	4.64E-3	-2.24E+1
7.57E-3	5.42E+1	5.62E-3	-1.81E+1
8.54E-3	3.13E+1	5.13E-3	-6.74E+0
7.08E-3	1.54E+1	4.39E-3	-4.67E+1
8.30E-3	7.23E+0	6.10E-3	-2.90E+1
7.32E-3	3.54E+1	5.13E-3	1.82E+1
7.57E-3	2.70E+1	5.37E-3	-2.98E+0
6.59E-3	1.61E+1	5.86E-3	-1.75E+1
6.84E-3	7.94E+1	4.88E-3	4.84E+1
6.84E-3	2.82E+1	5.13E-3	-8.98E+0
7.32E-3	3.71E+1	5.13E-3	-1.43E+1
6.84E-3	3.27E+0	5.37E-3	-2.84E+1
6.10E-3	2.00E+1	4.15E-3	-3.13E+1
8.30E-3	3.98E+1	4.64E-3	5.96E+0
5.62E-3	1.44E+1	5.62E-3	2.85E+1
7.57E-3	3.08E+1	4.88E-3	-2.00E+0
6.84E-3	3.20E+1	4.88E-3	-2.12E+1
8.79E-3	3.53E+1	4.64E-3	5.86E+0
8.30E-3	1.53E+1	6.59E-3	7.18E+0
6.84E-3	2.99E+1	6.84E-3	5.86E-1
7.81E-3	1.80E+1	6.10E-3	-8.79E-1
6.59E-3	2.04E+1	5.13E-3	2.81E+1
8.06E-3	2.35E+1	5.37E-3	6.79E+0
7.57E-3	5.71E+1	5.37E-3	3.03E+0
8.30E-3	-7.96E+0	5.86E-3	-4.45E+1
7.57E-3	1.90E+1	6.10E-3	-1.89E+1
8.30E-3	2.17E+1	5.13E-3	9.18E+0
7.81E-3	3.68E+1	4.39E-3	4.88E-2
7.08E-3	5.28E+1	4.88E-3	-1.17E+0
9.03E-3	5.48E+1	4.88E-3	1.02E+1
7.32E-3	-5.22E+0	4.88E-3	-3.52E+0
8.30E-3	3.11E+1	4.15E-3	1.22E+1
6.84E-3	-3.37E+0	6.35E-3	-1.90E+0
6.59E-3	2.17E+1	5.13E-3	6.45E+0
7.57E-3	3.91E-1	5.37E-3	-6.20E+0
8.06E-3	8.94E+0	4.64E-3	-1.22E+1
6.59E-3	4.17E+1	7.08E-3	4.07E+1
8.30E-3	9.08E+0	5.62E-3	8.50E+0
8.06E-3	2.44E+1	4.88E-3	1.97E+1
8.30E-3	6.49E+0	4.64E-3	-1.13E+1
9.52E-3	-2.64E+0	4.39E-3	-2.44E+0
8.54E-3	3.30E+1	5.86E-3	-3.33E+1
8.79E-3	3.49E+1	5.37E-3	1.66E+0
8.30E-3	5.48E+1	5.13E-3	5.17E+1
8.30E-3	3.88E+1	4.39E-3	3.19E+1
7.57E-3	3.77E+1	6.10E-3	1.90E+0
5.86E-3	4.17E+1	5.13E-3	-8.69E+0
7.81E-3	5.43E+1	5.37E-3	2.87E+1
7.08E-3	3.07E+1	4.64E-3	2.04E+1
9.03E-3	1.27E+1	5.62E-3	1.53E+1
7.57E-3	1.54E+1	6.35E-3	-1.25E+1
8.30E-3	1.75E+1	5.13E-3	2.20E+1
5.86E-3	2.90E+1	4.88E-3	-2.81E+1
7.57E-3	3.91E+1	5.37E-3	5.27E+0
7.08E-3	5.14E+1	5.62E-3	-3.32E+0
6.84E-3	1.11E+1	6.35E-3	-3.14E+1
7.08E-3	5.92E+1	5.86E-3	5.22E+1
7.81E-3	4.71E+1	5.13E-3	2.15E+1
7.32E-3	-6.84E-1	7.08E-3	-2.42E+1
7.57E-3	-1.07E+1	6.59E-3	-2.33E+1
7.08E-3	-3.86E+0	5.86E-3	-1.09E+1
7.08E-3	-2.00E+0	3.91E-3	5.37E+0
6.59E-3	2.05E+0	4.88E-3	3.63E+1
7.57E-3	3.76E+1	5.86E-3	1.56E+0
8.06E-3	1.62E+1	4.88E-3	-3.81E+0
6.35E-3	3.08E+1	5.86E-3	-1.49E+1
9.28E-3	8.98E+0	5.13E-3	-3.81E+0
7.81E-3	3.93E+1	5.37E-3	-2.01E+1
7.81E-3	5.57E+1	5.62E-3	8.15E+0
9.28E-3	9.37E+0	5.62E-3	-1.57E+1
7.32E-3	1.54E+1	6.59E-3	-1.62E+1
7.57E-3	4.85E+1	6.35E-3	-3.22E+0
8.54E-3	4.17E+1	5.37E-3	-6.49E+0
8.06E-3	2.69E+1	5.13E-3	1.79E+1
7.81E-3	6.64E+0	5.37E-3	4.74E+0
8.54E-3	2.87E+1	5.62E-3	1.40E+1
7.57E-3	-7.03E+0	4.64E-3	-2.30E+1
8.79E-3	1.11E+1	5.86E-3	1.86E+1
7.81E-3	-4.49E+0	4.64E-3	-4.02E+1
8.79E-3	2.66E+1	7.32E-3	-2.74E+1
7.08E-3	4.13E+1	5.62E-3	-6.40E+0
6.84E-3	5.65E+1	4.64E-3	7.81E-1
7.08E-3	-9.18E+0	4.39E-3	-1.27E+1
6.84E-3	1.83E+1	5.13E-3	1.20E+1
7.81E-3	1.79E+1	6.59E-3	1.04E+1
6.59E-3	2.94E+1	4.39E-3	1.91E+1
6.84E-3	4.63E+1	4.88E-3	3.75E+1
6.84E-3	1.67E+1	4.39E-3	4.58E+1
7.08E-3	-8.15E+0	5.86E-3	-6.35E-1
9.03E-3	1.99E+1	6.84E-3	-5.39E+1
7.08E-3	5.80E+1	5.62E-3	8.54E+0
7.81E-3	6.07E+1	6.10E-3	9.57E+0
9.03E-3	-1.46E+0	5.37E-3	-3.06E+1
8.79E-3	2.67E+1	5.13E-3	-1.01E+1
7.32E-3	4.82E+1	5.86E-3	-3.71E+0
6.35E-3	1.35E+1	5.86E-3	-2.26E+1
7.57E-3	5.78E+1	5.37E-3	3.09E+1
7.08E-3	3.42E+1	4.88E-3	-2.83E+0
8.06E-3	2.35E+1	5.13E-3	4.25E+0
1.00E-2	2.18E+1	5.37E-3	5.13E+0
9.03E-3	3.90E+1	5.37E-3	1.23E+1
7.08E-3	-3.36E+1	5.86E-3	-2.75E+1
6.59E-3	-1.00E+1	4.39E-3	-2.40E+1
7.81E-3	-1.08E+1	6.10E-3	-2.85E+1
8.06E-3	6.25E+0	5.62E-3	-1.72E+1
7.57E-3	4.88E+1	4.88E-3	1.04E+1
9.03E-3	3.80E+1	4.64E-3	2.49E+1
7.32E-3	5.03E+0	5.62E-3	1.95E-1
7.08E-3	2.20E+0	5.37E-3	6.84E+0
6.10E-3	4.49E+1	4.88E-3	2.56E+1
7.81E-3	8.84E+1	5.37E-3	5.92E+1
7.81E-3	5.06E+1	4.88E-3	3.80E+1
6.10E-3	2.29E+1	4.64E-3	4.19E+1
5.62E-3	2.03E+1	4.88E-3	4.01E+1
6.35E-3	-5.22E+0	5.37E-3	-3.96E+1
6.84E-3	4.13E+1	5.62E-3	-1.56E+0
6.10E-3	3.38E+1	5.62E-3	-3.21E+1
9.52E-3	-1.54E+1	8.79E-3	-2.04E+1
8.06E-3	9.03E+0	5.62E-3	-6.69E+0
8.06E-3	5.61E+1	6.35E-3	-5.13E+0
7.81E-3	5.66E+1	5.13E-3	-8.84E+0
8.30E-3	1.97E+1	4.88E-3	1.15E+1
6.35E-3	-5.86E-1	6.35E-3	1.90E+0
9.52E-3	9.72E+0	4.39E-3	-5.37E-1
6.59E-3	1.10E+1	5.13E-3	2.67E+1
9.52E-3	1.88E+1	5.86E-3	-3.17E+0
6.84E-3	2.82E+1	4.39E-3	-5.57E+0
8.06E-3	-6.49E+0	6.10E-3	-2.19E+1
7.81E-3	9.81E+0	5.86E-3	-4.55E+1
6.35E-3	-1.62E+1	6.84E-3	-1.64E+1
6.59E-3	4.20E+1	5.86E-3	-1.04E+1
8.79E-3	2.38E+1	5.13E-3	3.92E+1
6.84E-3	3.13E+1	5.62E-3	9.62E+0
9.03E-3	3.00E+1	4.88E-3	1.98E+1
9.03E-3	6.35E+1	6.35E-3	1.84E+1
6.35E-3	5.70E+1	4.88E-3	4.63E+1
8.30E-3	4.54E+1	5.13E-3	3.25E+1
7.32E-3	3.67E+1	5.13E-3	2.60E+1
5.86E-3	2.20E+1	5.62E-3	4.30E+0
7.08E-3	5.56E+1	5.62E-3	3.03E+0
7.57E-3	4.52E+1	6.10E-3	-1.23E+1
8.54E-3	4.59E+1	4.88E-3	2.57E+1
6.84E-3	6.45E+0	5.62E-3	9.08E+0
7.57E-3	1.32E+1	4.88E-3	-4.05E+0
7.81E-3	3.68E+1	4.15E-3	-2.06E+1
8.54E-3	5.52E+1	4.88E-3	2.39E+0
9.03E-3	1.44E+1	4.64E-3	3.57E+1
7.57E-3	2.25E+0	6.35E-3	2.54E+0
8.06E-3	1.10E+1	4.64E-3	-2.16E+1
8.06E-3	3.72E+1	4.88E-3	2.66E+1
6.59E-3	1.53E+1	4.88E-3	1.89E+1
7.57E-3	4.11E+1	5.13E-3	-1.49E+1
8.54E-3	2.93E+1	5.13E-3	4.59E+1
1.00E-2	2.02E+1	4.39E-3	-1.25E+1
8.79E-3	-1.42E+0	6.84E-3	-1.90E+1
8.79E-3	1.29E+1	5.62E-3	-3.27E+0
8.30E-3	1.88E+1	5.62E-3	-1.28E+1
7.08E-3	2.86E+1	4.15E-3	4.69E+1
8.79E-3	6.02E+1	6.10E-3	9.42E+0
8.30E-3	-1.17E+1	5.86E-3	-2.92E+1
5.86E-3	1.99E+1	5.37E-3	-1.16E+1
6.59E-3	4.05E+1	5.62E-3	2.39E+1
7.57E-3	1.43E+1	5.13E-3	4.49E+0
6.35E-3	4.00E+0	4.88E-3	2.00E+1
8.79E-3	2.15E+1	4.88E-3	-2.72E+1
8.06E-3	-3.32E+0	6.10E-3	9.77E+0
6.84E-3	1.12E+1	6.10E-3	2.26E+1
8.06E-3	1.92E+1	5.62E-3	2.01E+1
7.32E-3	-1.62E+1	6.59E-3	9.62E+0
8.30E-3	1.68E+1	5.86E-3	-1.84E+1
6.35E-3	5.10E+1	6.10E-3	1.84E+1
7.08E-3	5.81E+1	5.13E-3	2.16E+1
8.30E-3	4.75E+1	4.88E-3	-2.20E+1
7.32E-3	2.43E+1	6.84E-3	5.22E+0
7.57E-3	2.40E+1	4.39E-3	2.80E+1
6.84E-3	2.48E+1	4.88E-3	3.03E+1
7.57E-3	2.37E+1	4.88E-3	-2.99E+1
9.52E-3	-4.49E+0	6.84E-3	-5.86E-1
8.54E-3	3.88E+1	5.13E-3	3.19E+1
7.57E-3	1.68E+1	5.62E-3	1.04E+1
7.08E-3	6.17E+1	4.15E-3	9.96E+0
7.32E-3	2.72E+1	6.10E-3	-1.25E+1
8.06E-3	1.76E+1	4.39E-3	-1.20E+1
6.84E-3	3.98E+1	5.86E-3	-1.25E+1
7.81E-3	7.03E+0	4.64E-3	-2.06E+1
6.59E-3	4.51E+1	4.88E-3	-1.18E+1
7.81E-3	2.27E+1	5.62E-3	-4.79E+0
9.03E-3	4.71E+1	4.39E-3	3.73E+1
6.59E-3	3.82E+1	4.88E-3	2.11E+1
7.81E-3	8.74E+0	4.88E-3	3.32E+0
7.32E-3	-2.88E+0	6.35E-3	1.20E+1
7.81E-3	1.25E+1	5.62E-3	-1.03E+1
9.77E-3	6.88E+0	6.35E-3	-1.94E+1
6.84E-3	5.34E+1	5.86E-3	2.51E+1
6.35E-3	1.28E+1	5.86E-3	-3.93E+1
7.57E-3	4.88E-1	6.35E-3	-3.26E+1
8.54E-3	4.91E+1	5.13E-3	1.50E+1
8.54E-3	2.18E+1	4.64E-3	8.50E+0
1.03E-2	4.34E+1	5.13E-3	3.76E+1
6.59E-3	2.93E+1	5.62E-3	1.18E+1
6.84E-3	5.23E+1	5.86E-3	3.69E+1
8.06E-3	2.84E+1	4.88E-3	-4.54E+0
6.35E-3	3.08E+0	5.86E-3	6.64E+0
6.35E-3	8.69E+0	4.39E-3	1.61E+0
6.84E-3	1.77E+1	6.10E-3	-4.25E+1
9.28E-3	3.33E+1	4.88E-3	-1.36E+1
8.30E-3	5.01E+1	5.13E-3	1.55E+1
8.06E-3	2.03E+1	5.13E-3	-1.16E+1
6.35E-3	1.06E+1	6.10E-3	2.90E+1
8.30E-3	3.21E+1	4.88E-3	-2.81E+1
8.54E-3	4.48E+1	7.08E-3	1.35E+1
7.57E-3	3.28E+1	5.86E-3	-1.62E+1
8.54E-3	5.80E+1	5.13E-3	4.52E+1
6.35E-3	1.89E+1	5.37E-3	2.38E+1
8.79E-3	8.79E+0	5.37E-3	-1.78E+1
7.57E-3	4.39E+1	5.37E-3	8.50E+0
6.35E-3	1.13E+1	4.39E-3	4.34E+1
6.84E-3	-2.13E+1	5.37E-3	-1.42E+1
9.28E-3	6.98E+0	5.37E-3	-1.25E+1
8.06E-3	1.12E+1	4.64E-3	-1.85E+1
9.52E-3	9.52E+0	5.86E-3	-3.29E+1
9.77E-3	4.44E+0	6.10E-3	-3.14E+1
7.32E-3	3.68E+1	5.37E-3	-1.40E+1
8.79E-3	2.00E+1	4.15E-3	-7.86E+0
5.86E-3	1.78E+1	7.57E-3	-2.43E+1
7.81E-3	2.66E+1	4.64E-3	-4.94E+1
8.30E-3	6.04E+1	6.35E-3	4.64E+1
8.79E-3	1.07E+1	4.64E-3	-6.20E+0
4.64E-3	1.42E+0	6.35E-3	-7.18E+0
8.54E-3	-2.44E+1	5.13E-3	-9.08E+0
9.77E-3	1.99E+1	6.84E-3	3.42E+0
7.81E-3	1.54E+1	6.35E-3	1.76E+0
6.84E-3	2.78E+0	7.08E-3	-3.16E+1
8.79E-3	3.62E+1	6.35E-3	-1.02E+1
6.84E-3	8.06E+0	4.15E-3	-2.25E+1
8.06E-3	6.07E+1	4.39E-3	2.38E+1
7.08E-3	4.56E+1	5.13E-3	7.37E+0
8.06E-3	5.01E+1	5.13E-3	2.21E+1
7.81E-3	2.61E+1	5.37E-3	2.12E+1
5.37E-3	4.61E+1	5.86E-3	2.58E+1
6.59E-3	2.65E+1	4.88E-3	3.76E+0
5.62E-3	3.82E+1	4.64E-3	3.92E+1
6.84E-3	-1.20E+1	6.10E-3	-1.39E+1
7.81E-3	9.91E+0	5.37E-3	-2.09E+1
7.08E-3	1.35E+1	5.13E-3	-5.71E+0
6.35E-3	4.79E+1	6.35E-3	1.27E+0
6.59E-3	1.26E+1	4.88E-3	-4.00E+0
8.06E-3	4.95E+1	5.37E-3	1.71E+0
8.54E-3	2.12E+1	4.64E-3	-1.82E+1
8.30E-3	1.03E+0	6.10E-3	-1.44E+1
7.57E-3	3.34E+1	5.13E-3	-1.29E+1
1.00E-2	3.96E+1	6.35E-3	2.82E+1
6.59E-3	3.14E+1	4.39E-3	2.51E+1
7.57E-3	1.47E+1	5.13E-3	-2.54E+0
7.81E-3	8.54E+0	5.37E-3	-3.27E+0
8.30E-3	8.98E+0	5.13E-3	-1.37E+0
7.08E-3	3.37E+0	5.13E-3	1.06E+1
6.35E-3	1.63E+1	4.39E-3	1.61E+0
6.59E-3	4.09E+1	6.84E-3	9.03E+0
7.57E-3	3.92E+1	5.37E-3	2.82E+1
7.57E-3	4.65E+1	5.86E-3	4.57E+1
6.35E-3	3.28E+1	5.13E-3	1.99E+1
7.32E-3	4.63E+1	7.08E-3	3.75E+1
8.06E-3	3.98E+1	4.64E-3	1.22E+0
8.54E-3	1.35E+1	5.13E-3	-4.49E+0
9.03E-3	5.07E+1	5.37E-3	4.07E+1
6.35E-3	2.04E+1	5.62E-3	2.59E+1
8.79E-3	7.08E+0	6.10E-3	6.20E+0
7.08E-3	-8.06E+0	4.88E-3	-4.07E+1
7.08E-3	5.88E+1	5.37E-3	1.70E+1
8.30E-3	1.18E+1	6.10E-3	-1.83E+1
